  0
SECTION
  2
HEADER
  9
$ACADVER
  1
AC1009
  9
$DWGCODEPAGE
  3
mac-roman
  9
$INSBASE
 10
0.0
 20
0.0
 30
0.0
  9
$EXTMIN
 10
101.8227398194364
 20
-108.9955433453898
 30
0.0
  9
$EXTMAX
 10
110.1387520905782
 20
-102.9100231416037
 30
0.0
  9
$LIMMIN
 10
0.0
 20
0.0
  9
$LIMMAX
 10
12.0
 20
9.0
  9
$ORTHOMODE
 70
     0
  9
$REGENMODE
 70
     1
  9
$FILLMODE
 70
     1
  9
$QTEXTMODE
 70
     0
  9
$MIRRTEXT
 70
     1
  9
$DRAGMODE
 70
     2
  9
$LTSCALE
 40
1.0
  9
$OSMODE
 70
    37
  9
$ATTMODE
 70
     1
  9
$TEXTSIZE
 40
0.2
  9
$TRACEWID
 40
0.05
  9
$TEXTSTYLE
  7
STANDARD
  9
$CLAYER
  8
0
  9
$CELTYPE
  6
BYLAYER
  9
$CECOLOR
 62
   256
  9
$DIMSCALE
 40
1.0
  9
$DIMASZ
 40
0.18
  9
$DIMEXO
 40
0.0625
  9
$DIMDLI
 40
0.38
  9
$DIMRND
 40
0.0
  9
$DIMDLE
 40
0.0
  9
$DIMEXE
 40
0.18
  9
$DIMTP
 40
0.0
  9
$DIMTM
 40
0.0
  9
$DIMTXT
 40
0.18
  9
$DIMCEN
 40
0.09
  9
$DIMTSZ
 40
0.0
  9
$DIMTOL
 70
     0
  9
$DIMLIM
 70
     0
  9
$DIMTIH
 70
     1
  9
$DIMTOH
 70
     1
  9
$DIMSE1
 70
     0
  9
$DIMSE2
 70
     0
  9
$DIMTAD
 70
     0
  9
$DIMZIN
 70
     0
  9
$DIMBLK
  1

  9
$DIMASO
 70
     1
  9
$DIMSHO
 70
     1
  9
$DIMPOST
  1

  9
$DIMAPOST
  1

  9
$DIMALT
 70
     0
  9
$DIMALTD
 70
     2
  9
$DIMALTF
 40
25.4
  9
$DIMLFAC
 40
1.0
  9
$DIMTOFL
 70
     0
  9
$DIMTVP
 40
0.0
  9
$DIMTIX
 70
     0
  9
$DIMSOXD
 70
     0
  9
$DIMSAH
 70
     0
  9
$DIMBLK1
  1

  9
$DIMBLK2
  1

  9
$DIMSTYLE
  2
STANDARD
  9
$DIMCLRD
 70
     0
  9
$DIMCLRE
 70
     0
  9
$DIMCLRT
 70
     0
  9
$DIMTFAC
 40
1.0
  9
$DIMGAP
 40
0.09
  9
$LUNITS
 70
     2
  9
$LUPREC
 70
     3
  9
$SKETCHINC
 40
0.1
  9
$FILLETRAD
 40
0.5
  9
$AUNITS
 70
     0
  9
$AUPREC
 70
     0
  9
$MENU
  1
.
  9
$ELEVATION
 40
0.0
  9
$PELEVATION
 40
0.0
  9
$THICKNESS
 40
0.0
  9
$LIMCHECK
 70
     0
  9
$CHAMFERA
 40
0.0
  9
$CHAMFERB
 40
0.0
  9
$SKPOLY
 70
     0
  9
$TDCREATE
 40
2457774.729340278
  9
$TDUPDATE
 40
2457774.729363426
  9
$TDINDWG
 40
0.0000000116
  9
$TDUSRTIMER
 40
0.0000000116
  9
$USRTIMER
 70
     1
  9
$ANGBASE
 50
0.0
  9
$ANGDIR
 70
     0
  9
$PDMODE
 70
     0
  9
$PDSIZE
 40
0.0
  9
$PLINEWID
 40
0.0
  9
$COORDS
 70
     1
  9
$SPLFRAME
 70
     0
  9
$SPLINETYPE
 70
     6
  9
$SPLINESEGS
 70
     8
  9
$ATTDIA
 70
     0
  9
$ATTREQ
 70
     1
  9
$HANDLING
 70
     1
  9
$HANDSEED
  5
2B6
  9
$SURFTAB1
 70
     6
  9
$SURFTAB2
 70
     6
  9
$SURFTYPE
 70
     6
  9
$SURFU
 70
     6
  9
$SURFV
 70
     6
  9
$UCSNAME
  2

  9
$UCSORG
 10
0.0
 20
0.0
 30
0.0
  9
$UCSXDIR
 10
1.0
 20
0.0
 30
0.0
  9
$UCSYDIR
 10
0.0
 20
1.0
 30
0.0
  9
$PUCSNAME
  2

  9
$PUCSORG
 10
0.0
 20
0.0
 30
0.0
  9
$PUCSXDIR
 10
1.0
 20
0.0
 30
0.0
  9
$PUCSYDIR
 10
0.0
 20
1.0
 30
0.0
  9
$USERI1
 70
     0
  9
$USERI2
 70
     0
  9
$USERI3
 70
     0
  9
$USERI4
 70
     0
  9
$USERI5
 70
     0
  9
$USERR1
 40
0.0
  9
$USERR2
 40
0.0
  9
$USERR3
 40
0.0
  9
$USERR4
 40
0.0
  9
$USERR5
 40
0.0
  9
$WORLDVIEW
 70
     1
  9
$SHADEDGE
 70
     3
  9
$SHADEDIF
 70
    70
  9
$TILEMODE
 70
     1
  9
$MAXACTVP
 70
    64
  9
$PLIMCHECK
 70
     0
  9
$PEXTMIN
 10
1.000000000000000E+20
 20
1.000000000000000E+20
 30
1.000000000000000E+20
  9
$PEXTMAX
 10
-1.000000000000000E+20
 20
-1.000000000000000E+20
 30
-1.000000000000000E+20
  9
$PLIMMIN
 10
0.0
 20
0.0
  9
$PLIMMAX
 10
12.0
 20
9.0
  9
$UNITMODE
 70
     0
  9
$VISRETAIN
 70
     1
  9
$PLINEGEN
 70
     0
  9
$PSLTSCALE
 70
     1
  0
ENDSEC
  0
SECTION
  2
TABLES
  0
TABLE
  2
VPORT
 70
     1
  0
VPORT
  2
*ACTIVE
 70
     0
 10
0.0
 20
0.0
 11
1.0
 21
1.0
 12
105.9807459550073
 22
-105.9527832434967
 13
0.0
 23
0.0
 14
0.5
 24
0.5
 15
0.5
 25
0.5
 16
0.0
 26
0.0
 36
1.0
 17
0.0
 27
0.0
 37
0.0
 40
6.207230607861854
 41
1.366524469998142
 42
50.0
 43
0.0
 44
0.0
 50
0.0
 51
0.0
 71
     0
 72
   100
 73
     1
 74
     3
 75
     0
 76
     0
 77
     0
 78
     0
  0
ENDTAB
  0
TABLE
  2
LTYPE
 70
     1
  0
LTYPE
  2
CONTINUOUS
 70
     0
  3
Solid line
 72
    65
 73
     0
 40
0.0
  0
ENDTAB
  0
TABLE
  2
LAYER
 70
     2
  0
LAYER
  2
0
 70
     0
 62
     7
  6
CONTINUOUS
  0
LAYER
  2
BLACK
 70
     0
 62
     7
  6
CONTINUOUS
  0
ENDTAB
  0
TABLE
  2
STYLE
 70
     1
  0
STYLE
  2
STANDARD
 70
     0
 40
0.0
 41
1.0
 50
0.0
 71
     0
 42
0.2
  3
txt
  4

  0
ENDTAB
  0
TABLE
  2
VIEW
 70
     0
  0
ENDTAB
  0
TABLE
  2
UCS
 70
     0
  0
ENDTAB
  0
TABLE
  2
APPID
 70
     1
  0
APPID
  2
ACAD
 70
     0
  0
ENDTAB
  0
TABLE
  2
DIMSTYLE
 70
     1
  0
DIMSTYLE
  2
STANDARD
 70
     0
  3

  4

  5

  6

  7

 40
1.0
 41
0.18
 42
0.0625
 43
0.38
 44
0.18
 45
0.0
 46
0.0
 47
0.0
 48
0.0
140
0.18
141
0.09
142
0.0
143
25.4
144
1.0
145
0.0
146
1.0
147
0.09
 71
     0
 72
     0
 73
     1
 74
     1
 75
     0
 76
     0
 77
     0
 78
     0
170
     0
171
     2
172
     0
173
     0
174
     0
175
     0
176
     0
177
     0
178
     0
  0
ENDTAB
  0
ENDSEC
  0
SECTION
  2
BLOCKS
  0
BLOCK
  8
0
  2
$MODEL_SPACE
 70
     0
 10
0.0
 20
0.0
 30
0.0
  3
$MODEL_SPACE
  1

  0
ENDBLK
  5
21
  8
0
  0
BLOCK
 67
     1
  8
0
  2
$PAPER_SPACE
 70
     0
 10
0.0
 20
0.0
 30
0.0
  3
$PAPER_SPACE
  1

  0
ENDBLK
  5
1D
 67
     1
  8
0
  0
ENDSEC
  0
SECTION
  2
ENTITIES
  0
LINE
  5
6F
  8
BLACK
 10
109.0479453676544
 20
-108.9606318026579
 30
0.0
 11
109.0037780720614
 21
-108.9861318026579
 31
0.0
  0
LINE
  5
70
  8
BLACK
 10
109.0813806124398
 20
-108.9205433453898
 30
0.0
 11
109.0479453676544
 21
-108.9606318026579
 31
0.0
  0
LINE
  5
71
  8
BLACK
 10
109.0995216285912
 20
-108.8719645070649
 30
0.0
 11
109.0813806124398
 21
-108.9205433453898
 31
0.0
  0
LINE
  5
72
  8
BLACK
 10
109.0990382890896
 20
-108.8191273384908
 30
0.0
 11
109.0995216285912
 21
-108.8719645070649
 31
0.0
  0
LINE
  5
73
  8
BLACK
 10
109.0821985431275
 20
-108.7699600428978
 30
0.0
 11
109.0990382890896
 21
-108.8191273384908
 31
0.0
  0
LINE
  5
74
  8
BLACK
 10
109.0480382890896
 20
-108.7307927473048
 30
0.0
 11
109.0821985431275
 21
-108.7699600428978
 31
0.0
  0
LINE
  5
75
  8
BLACK
 10
109.0025216285912
 20
-108.7039555787307
 30
0.0
 11
109.0480382890896
 21
-108.7307927473048
 31
0.0
  0
LINE
  5
76
  8
BLACK
 10
108.9513806124398
 20
-108.6953767404058
 30
0.0
 11
109.0025216285912
 21
-108.7039555787307
 31
0.0
  0
LINE
  5
77
  8
BLACK
 10
108.8999453676544
 20
-108.7042882831377
 30
0.0
 11
108.9513806124398
 21
-108.6953767404058
 31
0.0
  0
LINE
  5
78
  8
BLACK
 10
108.8549120466576
 20
-108.7302882831377
 30
0.0
 11
108.8999453676544
 21
-108.7042882831377
 31
0.0
  0
LINE
  5
79
  8
BLACK
 10
108.8214768018722
 20
-108.7703767404058
 30
0.0
 11
108.8549120466576
 21
-108.7302882831377
 31
0.0
  0
LINE
  5
7A
  8
BLACK
 10
108.8033357857208
 20
-108.8189555787308
 30
0.0
 11
108.8214768018722
 21
-108.7703767404058
 31
0.0
  0
LINE
  5
7B
  8
BLACK
 10
108.8038191252224
 20
-108.8717927473048
 30
0.0
 11
108.8033357857208
 21
-108.8189555787308
 31
0.0
  0
LINE
  5
7C
  8
BLACK
 10
108.8206588711846
 20
-108.9209600428978
 30
0.0
 11
108.8038191252224
 21
-108.8717927473048
 31
0.0
  0
LINE
  5
7D
  8
BLACK
 10
108.8548191252224
 20
-108.9601273384908
 30
0.0
 11
108.8206588711846
 21
-108.9209600428978
 31
0.0
  0
LINE
  5
7E
  8
BLACK
 10
108.9003357857208
 20
-108.9869645070649
 30
0.0
 11
108.8548191252224
 21
-108.9601273384908
 31
0.0
  0
LINE
  5
7F
  8
BLACK
 10
108.9514768018722
 20
-108.9955433453898
 30
0.0
 11
108.9003357857208
 21
-108.9869645070649
 31
0.0
  0
LINE
  5
80
  8
BLACK
 10
109.0029120466576
 20
-108.9866318026579
 30
0.0
 11
108.9514768018722
 21
-108.9955433453898
 31
0.0
  0
LINE
  5
81
  8
BLACK
 10
109.0479453676544
 20
-108.9606318026579
 30
0.0
 11
109.0029120466576
 21
-108.9866318026579
 31
0.0
  0
LINE
  5
82
  8
BLACK
 10
109.0813806124398
 20
-108.9205433453898
 30
0.0
 11
109.0479453676544
 21
-108.9606318026579
 31
0.0
  0
LINE
  5
83
  8
BLACK
 10
109.0995216285912
 20
-108.8719645070649
 30
0.0
 11
109.0813806124398
 21
-108.9205433453898
 31
0.0
  0
LINE
  5
84
  8
BLACK
 10
109.0990382890896
 20
-108.8191273384908
 30
0.0
 11
109.0995216285912
 21
-108.8719645070649
 31
0.0
  0
LINE
  5
85
  8
BLACK
 10
109.0821985431275
 20
-108.7699600428978
 30
0.0
 11
109.0990382890896
 21
-108.8191273384908
 31
0.0
  0
LINE
  5
86
  8
BLACK
 10
109.0480382890896
 20
-108.7307927473048
 30
0.0
 11
109.0821985431275
 21
-108.7699600428978
 31
0.0
  0
LINE
  5
87
  8
BLACK
 10
109.0025216285912
 20
-108.7039555787307
 30
0.0
 11
109.0480382890896
 21
-108.7307927473048
 31
0.0
  0
LINE
  5
88
  8
BLACK
 10
108.9513806124398
 20
-108.6953767404058
 30
0.0
 11
109.0025216285912
 21
-108.7039555787307
 31
0.0
  0
LINE
  5
89
  8
BLACK
 10
108.8999453676544
 20
-108.7042882831377
 30
0.0
 11
108.9513806124398
 21
-108.6953767404058
 31
0.0
  0
LINE
  5
8A
  8
BLACK
 10
108.8557780720614
 20
-108.7297882831377
 30
0.0
 11
108.8999453676544
 21
-108.7042882831377
 31
0.0
  0
LINE
  5
8B
  8
BLACK
 10
108.7537780720614
 20
-108.5531191007657
 30
0.0
 11
108.8557780720614
 21
-108.7297882831377
 31
0.0
  0
LINE
  5
8C
  8
BLACK
 10
108.7979453676544
 20
-108.5276191007657
 30
0.0
 11
108.7537780720614
 21
-108.5531191007657
 31
0.0
  0
LINE
  5
8D
  8
BLACK
 10
108.8313806124398
 20
-108.4875306434976
 30
0.0
 11
108.7979453676544
 21
-108.5276191007657
 31
0.0
  0
LINE
  5
8E
  8
BLACK
 10
108.8495216285912
 20
-108.4389518051727
 30
0.0
 11
108.8313806124398
 21
-108.4875306434976
 31
0.0
  0
LINE
  5
8F
  8
BLACK
 10
108.8490382890896
 20
-108.3861146365986
 30
0.0
 11
108.8495216285912
 21
-108.4389518051727
 31
0.0
  0
LINE
  5
90
  8
BLACK
 10
108.8321985431275
 20
-108.3369473410056
 30
0.0
 11
108.8490382890896
 21
-108.3861146365986
 31
0.0
  0
LINE
  5
91
  8
BLACK
 10
108.7980382890896
 20
-108.2977800454126
 30
0.0
 11
108.8321985431275
 21
-108.3369473410056
 31
0.0
  0
LINE
  5
92
  8
BLACK
 10
108.7525216285912
 20
-108.2709428768385
 30
0.0
 11
108.7980382890896
 21
-108.2977800454126
 31
0.0
  0
LINE
  5
93
  8
BLACK
 10
108.7013806124398
 20
-108.2623640385136
 30
0.0
 11
108.7525216285912
 21
-108.2709428768385
 31
0.0
  0
LINE
  5
94
  8
BLACK
 10
108.6499453676544
 20
-108.2712755812455
 30
0.0
 11
108.7013806124398
 21
-108.2623640385136
 31
0.0
  0
LINE
  5
95
  8
BLACK
 10
108.6049120466576
 20
-108.2972755812455
 30
0.0
 11
108.6499453676544
 21
-108.2712755812455
 31
0.0
  0
LINE
  5
96
  8
BLACK
 10
108.5714768018722
 20
-108.3373640385136
 30
0.0
 11
108.6049120466576
 21
-108.2972755812455
 31
0.0
  0
LINE
  5
97
  8
BLACK
 10
108.5533357857208
 20
-108.3859428768385
 30
0.0
 11
108.5714768018722
 21
-108.3373640385136
 31
0.0
  0
LINE
  5
98
  8
BLACK
 10
108.5538191252224
 20
-108.4387800454126
 30
0.0
 11
108.5533357857208
 21
-108.3859428768385
 31
0.0
  0
LINE
  5
99
  8
BLACK
 10
108.5706588711846
 20
-108.4879473410056
 30
0.0
 11
108.5538191252224
 21
-108.4387800454126
 31
0.0
  0
LINE
  5
9A
  8
BLACK
 10
108.6048191252224
 20
-108.5271146365986
 30
0.0
 11
108.5706588711846
 21
-108.4879473410056
 31
0.0
  0
LINE
  5
9B
  8
BLACK
 10
108.6503357857208
 20
-108.5539518051727
 30
0.0
 11
108.6048191252224
 21
-108.5271146365986
 31
0.0
  0
LINE
  5
9C
  8
BLACK
 10
108.7014768018722
 20
-108.5625306434976
 30
0.0
 11
108.6503357857208
 21
-108.5539518051727
 31
0.0
  0
LINE
  5
9D
  8
BLACK
 10
108.7529120466576
 20
-108.5536191007657
 30
0.0
 11
108.7014768018722
 21
-108.5625306434976
 31
0.0
  0
LINE
  5
9E
  8
BLACK
 10
108.7979453676544
 20
-108.5276191007657
 30
0.0
 11
108.7529120466576
 21
-108.5536191007657
 31
0.0
  0
LINE
  5
9F
  8
BLACK
 10
108.8313806124398
 20
-108.4875306434976
 30
0.0
 11
108.7979453676544
 21
-108.5276191007657
 31
0.0
  0
LINE
  5
A0
  8
BLACK
 10
108.8495216285912
 20
-108.4389518051727
 30
0.0
 11
108.8313806124398
 21
-108.4875306434976
 31
0.0
  0
LINE
  5
A1
  8
BLACK
 10
108.8490382890896
 20
-108.3861146365986
 30
0.0
 11
108.8495216285912
 21
-108.4389518051727
 31
0.0
  0
LINE
  5
A2
  8
BLACK
 10
108.8321985431275
 20
-108.3369473410056
 30
0.0
 11
108.8490382890896
 21
-108.3861146365986
 31
0.0
  0
LINE
  5
A3
  8
BLACK
 10
108.7980382890896
 20
-108.2977800454126
 30
0.0
 11
108.8321985431275
 21
-108.3369473410056
 31
0.0
  0
LINE
  5
A4
  8
BLACK
 10
108.7525216285912
 20
-108.2709428768385
 30
0.0
 11
108.7980382890896
 21
-108.2977800454126
 31
0.0
  0
LINE
  5
A5
  8
BLACK
 10
108.7013806124398
 20
-108.2623640385136
 30
0.0
 11
108.7525216285912
 21
-108.2709428768385
 31
0.0
  0
LINE
  5
A6
  8
BLACK
 10
108.6499453676544
 20
-108.2712755812455
 30
0.0
 11
108.7013806124398
 21
-108.2623640385136
 31
0.0
  0
LINE
  5
A7
  8
BLACK
 10
108.6057780720614
 20
-108.2967755812455
 30
0.0
 11
108.6499453676544
 21
-108.2712755812455
 31
0.0
  0
LINE
  5
A8
  8
BLACK
 10
108.5037780720614
 20
-108.1201063988735
 30
0.0
 11
108.6057780720614
 21
-108.2967755812455
 31
0.0
  0
LINE
  5
A9
  8
BLACK
 10
108.5479453676544
 20
-108.0946063988735
 30
0.0
 11
108.5037780720614
 21
-108.1201063988735
 31
0.0
  0
LINE
  5
AA
  8
BLACK
 10
108.5813806124398
 20
-108.0545179416053
 30
0.0
 11
108.5479453676544
 21
-108.0946063988735
 31
0.0
  0
LINE
  5
AB
  8
BLACK
 10
108.5995216285912
 20
-108.0059391032805
 30
0.0
 11
108.5813806124398
 21
-108.0545179416053
 31
0.0
  0
LINE
  5
AC
  8
BLACK
 10
108.5990382890896
 20
-107.9531019347064
 30
0.0
 11
108.5995216285912
 21
-108.0059391032805
 31
0.0
  0
LINE
  5
AD
  8
BLACK
 10
108.5821985431275
 20
-107.9039346391134
 30
0.0
 11
108.5990382890896
 21
-107.9531019347064
 31
0.0
  0
LINE
  5
AE
  8
BLACK
 10
108.5477882890896
 20
-107.8643343308185
 30
0.0
 11
108.5821985431275
 21
-107.9039346391134
 31
0.0
  0
LINE
  5
AF
  8
BLACK
 10
108.5026216285912
 20
-107.8381033800271
 30
0.0
 11
108.5477882890896
 21
-107.8643343308185
 31
0.0
  0
LINE
  5
B0
  8
BLACK
 10
108.4511806124399
 20
-107.8290049264599
 30
0.0
 11
108.5026216285912
 21
-107.8381033800271
 31
0.0
  0
LINE
  5
B1
  8
BLACK
 10
108.3997953676544
 20
-107.8380030717321
 30
0.0
 11
108.4511806124399
 21
-107.8290049264599
 31
0.0
  0
LINE
  5
B2
  8
BLACK
 10
108.3547620466576
 20
-107.8640030717321
 30
0.0
 11
108.3997953676544
 21
-107.8380030717321
 31
0.0
  0
LINE
  5
B3
  8
BLACK
 10
108.3212768018722
 20
-107.9040049264599
 30
0.0
 11
108.3547620466576
 21
-107.8640030717321
 31
0.0
  0
LINE
  5
B4
  8
BLACK
 10
108.3034357857208
 20
-107.9531033800271
 30
0.0
 11
108.3212768018722
 21
-107.9040049264599
 31
0.0
  0
LINE
  5
B5
  8
BLACK
 10
108.3035691252224
 20
-108.0053343308185
 30
0.0
 11
108.3034357857208
 21
-107.9531033800271
 31
0.0
  0
LINE
  5
B6
  8
BLACK
 10
108.3206588711846
 20
-108.0549346391134
 30
0.0
 11
108.3035691252224
 21
-108.0053343308185
 31
0.0
  0
LINE
  5
B7
  8
BLACK
 10
108.3548191252224
 20
-108.0941019347064
 30
0.0
 11
108.3206588711846
 21
-108.0549346391134
 31
0.0
  0
LINE
  5
B8
  8
BLACK
 10
108.4003357857208
 20
-108.1209391032805
 30
0.0
 11
108.3548191252224
 21
-108.0941019347064
 31
0.0
  0
LINE
  5
B9
  8
BLACK
 10
108.4514768018722
 20
-108.1295179416054
 30
0.0
 11
108.4003357857208
 21
-108.1209391032805
 31
0.0
  0
LINE
  5
BA
  8
BLACK
 10
108.5029120466576
 20
-108.1206063988735
 30
0.0
 11
108.4514768018722
 21
-108.1295179416054
 31
0.0
  0
LINE
  5
BB
  8
BLACK
 10
108.5479453676544
 20
-108.0946063988735
 30
0.0
 11
108.5029120466576
 21
-108.1206063988735
 31
0.0
  0
LINE
  5
BC
  8
BLACK
 10
108.5813806124398
 20
-108.0545179416053
 30
0.0
 11
108.5479453676544
 21
-108.0946063988735
 31
0.0
  0
LINE
  5
BD
  8
BLACK
 10
108.5995216285912
 20
-108.0059391032805
 30
0.0
 11
108.5813806124398
 21
-108.0545179416053
 31
0.0
  0
LINE
  5
BE
  8
BLACK
 10
108.5990382890896
 20
-107.9531019347064
 30
0.0
 11
108.5995216285912
 21
-108.0059391032805
 31
0.0
  0
LINE
  5
BF
  8
BLACK
 10
108.5821985431275
 20
-107.9039346391134
 30
0.0
 11
108.5990382890896
 21
-107.9531019347064
 31
0.0
  0
LINE
  5
C0
  8
BLACK
 10
108.5477882890896
 20
-107.8643343308185
 30
0.0
 11
108.5821985431275
 21
-107.9039346391134
 31
0.0
  0
LINE
  5
C1
  8
BLACK
 10
108.5026216285912
 20
-107.8381033800271
 30
0.0
 11
108.5477882890896
 21
-107.8643343308185
 31
0.0
  0
LINE
  5
C2
  8
BLACK
 10
108.4511806124399
 20
-107.8290049264599
 30
0.0
 11
108.5026216285912
 21
-107.8381033800271
 31
0.0
  0
LINE
  5
C3
  8
BLACK
 10
108.3997953676544
 20
-107.8380030717321
 30
0.0
 11
108.4511806124399
 21
-107.8290049264599
 31
0.0
  0
LINE
  5
C4
  8
BLACK
 10
108.3556280720614
 20
-107.8635030717322
 30
0.0
 11
108.3997953676544
 21
-107.8380030717321
 31
0.0
  0
LINE
  5
C5
  8
BLACK
 10
108.2539280720614
 20
-107.6873535046024
 30
0.0
 11
108.3556280720614
 21
-107.8635030717322
 31
0.0
  0
LINE
  5
C6
  8
BLACK
 10
108.2980953676544
 20
-107.6618535046024
 30
0.0
 11
108.2539280720614
 21
-107.6873535046024
 31
0.0
  0
LINE
  5
C7
  8
BLACK
 10
108.3315806124398
 20
-107.6218516498746
 30
0.0
 11
108.2980953676544
 21
-107.6618535046024
 31
0.0
  0
LINE
  5
C8
  8
BLACK
 10
108.3494216285912
 20
-107.5727531963075
 30
0.0
 11
108.3315806124398
 21
-107.6218516498746
 31
0.0
  0
LINE
  5
C9
  8
BLACK
 10
108.3492882890896
 20
-107.5205222455161
 30
0.0
 11
108.3494216285912
 21
-107.5727531963075
 31
0.0
  0
LINE
  5
CA
  8
BLACK
 10
108.3321985431275
 20
-107.4709219372211
 30
0.0
 11
108.3492882890896
 21
-107.5205222455161
 31
0.0
  0
LINE
  5
CB
  8
BLACK
 10
108.2977882890896
 20
-107.4313216289263
 30
0.0
 11
108.3321985431275
 21
-107.4709219372211
 31
0.0
  0
LINE
  5
CC
  8
BLACK
 10
108.2526216285912
 20
-107.4050906781348
 30
0.0
 11
108.2977882890896
 21
-107.4313216289263
 31
0.0
  0
LINE
  5
CD
  8
BLACK
 10
108.2011806124399
 20
-107.3959922245677
 30
0.0
 11
108.2526216285912
 21
-107.4050906781348
 31
0.0
  0
LINE
  5
CE
  8
BLACK
 10
108.1497953676544
 20
-107.4049903698399
 30
0.0
 11
108.2011806124399
 21
-107.3959922245677
 31
0.0
  0
LINE
  5
CF
  8
BLACK
 10
108.1047620466576
 20
-107.4309903698399
 30
0.0
 11
108.1497953676544
 21
-107.4049903698399
 31
0.0
  0
LINE
  5
D0
  8
BLACK
 10
108.0712768018722
 20
-107.4709922245677
 30
0.0
 11
108.1047620466576
 21
-107.4309903698399
 31
0.0
  0
LINE
  5
D1
  8
BLACK
 10
108.0534357857208
 20
-107.5200906781348
 30
0.0
 11
108.0712768018722
 21
-107.4709922245677
 31
0.0
  0
LINE
  5
D2
  8
BLACK
 10
108.0535691252224
 20
-107.5723216289262
 30
0.0
 11
108.0534357857208
 21
-107.5200906781348
 31
0.0
  0
LINE
  5
D3
  8
BLACK
 10
108.0706588711846
 20
-107.6219219372212
 30
0.0
 11
108.0535691252224
 21
-107.5723216289262
 31
0.0
  0
LINE
  5
D4
  8
BLACK
 10
108.1050691252224
 20
-107.6615222455161
 30
0.0
 11
108.0706588711846
 21
-107.6219219372212
 31
0.0
  0
LINE
  5
D5
  8
BLACK
 10
108.1502357857208
 20
-107.6877531963075
 30
0.0
 11
108.1050691252224
 21
-107.6615222455161
 31
0.0
  0
LINE
  5
D6
  8
BLACK
 10
108.2016768018722
 20
-107.6968516498746
 30
0.0
 11
108.1502357857208
 21
-107.6877531963075
 31
0.0
  0
LINE
  5
D7
  8
BLACK
 10
108.2530620466576
 20
-107.6878535046024
 30
0.0
 11
108.2016768018722
 21
-107.6968516498746
 31
0.0
  0
LINE
  5
D8
  8
BLACK
 10
108.2980953676544
 20
-107.6618535046024
 30
0.0
 11
108.2530620466576
 21
-107.6878535046024
 31
0.0
  0
LINE
  5
D9
  8
BLACK
 10
108.3315806124398
 20
-107.6218516498746
 30
0.0
 11
108.2980953676544
 21
-107.6618535046024
 31
0.0
  0
LINE
  5
DA
  8
BLACK
 10
108.3494216285912
 20
-107.5727531963075
 30
0.0
 11
108.3315806124398
 21
-107.6218516498746
 31
0.0
  0
LINE
  5
DB
  8
BLACK
 10
108.3492882890896
 20
-107.5205222455161
 30
0.0
 11
108.3494216285912
 21
-107.5727531963075
 31
0.0
  0
LINE
  5
DC
  8
BLACK
 10
108.3321985431275
 20
-107.4709219372211
 30
0.0
 11
108.3492882890896
 21
-107.5205222455161
 31
0.0
  0
LINE
  5
DD
  8
BLACK
 10
108.2977882890896
 20
-107.4313216289263
 30
0.0
 11
108.3321985431275
 21
-107.4709219372211
 31
0.0
  0
LINE
  5
DE
  8
BLACK
 10
108.2526216285912
 20
-107.4050906781348
 30
0.0
 11
108.2977882890896
 21
-107.4313216289263
 31
0.0
  0
LINE
  5
DF
  8
BLACK
 10
108.2011806124399
 20
-107.3959922245677
 30
0.0
 11
108.2526216285912
 21
-107.4050906781348
 31
0.0
  0
LINE
  5
E0
  8
BLACK
 10
108.1497953676544
 20
-107.4049903698399
 30
0.0
 11
108.2011806124399
 21
-107.3959922245677
 31
0.0
  0
LINE
  5
E1
  8
BLACK
 10
108.1056280720614
 20
-107.4304903698399
 30
0.0
 11
108.1497953676544
 21
-107.4049903698399
 31
0.0
  0
LINE
  5
E2
  8
BLACK
 10
108.0039280720614
 20
-107.2543408027102
 30
0.0
 11
108.1056280720614
 21
-107.4304903698399
 31
0.0
  0
LINE
  5
E3
  8
BLACK
 10
108.0480953676544
 20
-107.2288408027102
 30
0.0
 11
108.0039280720614
 21
-107.2543408027102
 31
0.0
  0
LINE
  5
E4
  8
BLACK
 10
108.0815806124398
 20
-107.1888389479824
 30
0.0
 11
108.0480953676544
 21
-107.2288408027102
 31
0.0
  0
LINE
  5
E5
  8
BLACK
 10
108.0994216285912
 20
-107.1397404944153
 30
0.0
 11
108.0815806124398
 21
-107.1888389479824
 31
0.0
  0
LINE
  5
E6
  8
BLACK
 10
108.0992882890896
 20
-107.0875095436239
 30
0.0
 11
108.0994216285912
 21
-107.1397404944153
 31
0.0
  0
LINE
  5
E7
  8
BLACK
 10
108.0821985431275
 20
-107.0379092353289
 30
0.0
 11
108.0992882890896
 21
-107.0875095436239
 31
0.0
  0
LINE
  5
E8
  8
BLACK
 10
108.0477882890896
 20
-106.998308927034
 30
0.0
 11
108.0821985431275
 21
-107.0379092353289
 31
0.0
  0
LINE
  5
E9
  8
BLACK
 10
108.0026216285912
 20
-106.9720779762426
 30
0.0
 11
108.0477882890896
 21
-106.998308927034
 31
0.0
  0
LINE
  5
EA
  8
BLACK
 10
107.9511806124399
 20
-106.9629795226755
 30
0.0
 11
108.0026216285912
 21
-106.9720779762426
 31
0.0
  0
LINE
  5
EB
  8
BLACK
 10
107.8997953676544
 20
-106.9719776679477
 30
0.0
 11
107.9511806124399
 21
-106.9629795226755
 31
0.0
  0
LINE
  5
EC
  8
BLACK
 10
107.8547620466576
 20
-106.9979776679477
 30
0.0
 11
107.8997953676544
 21
-106.9719776679477
 31
0.0
  0
LINE
  5
ED
  8
BLACK
 10
107.8212768018722
 20
-107.0379795226755
 30
0.0
 11
107.8547620466576
 21
-106.9979776679477
 31
0.0
  0
LINE
  5
EE
  8
BLACK
 10
107.8034357857208
 20
-107.0870779762426
 30
0.0
 11
107.8212768018722
 21
-107.0379795226755
 31
0.0
  0
LINE
  5
EF
  8
BLACK
 10
107.8035691252224
 20
-107.139308927034
 30
0.0
 11
107.8034357857208
 21
-107.0870779762426
 31
0.0
  0
LINE
  5
F0
  8
BLACK
 10
107.8206588711846
 20
-107.1889092353289
 30
0.0
 11
107.8035691252224
 21
-107.139308927034
 31
0.0
  0
LINE
  5
F1
  8
BLACK
 10
107.8550691252224
 20
-107.2285095436238
 30
0.0
 11
107.8206588711846
 21
-107.1889092353289
 31
0.0
  0
LINE
  5
F2
  8
BLACK
 10
107.9002357857208
 20
-107.2547404944153
 30
0.0
 11
107.8550691252224
 21
-107.2285095436238
 31
0.0
  0
LINE
  5
F3
  8
BLACK
 10
107.9516768018722
 20
-107.2638389479824
 30
0.0
 11
107.9002357857208
 21
-107.2547404944153
 31
0.0
  0
LINE
  5
F4
  8
BLACK
 10
108.0030620466576
 20
-107.2548408027102
 30
0.0
 11
107.9516768018722
 21
-107.2638389479824
 31
0.0
  0
LINE
  5
F5
  8
BLACK
 10
108.0480953676544
 20
-107.2288408027102
 30
0.0
 11
108.0030620466576
 21
-107.2548408027102
 31
0.0
  0
LINE
  5
F6
  8
BLACK
 10
108.0815806124398
 20
-107.1888389479824
 30
0.0
 11
108.0480953676544
 21
-107.2288408027102
 31
0.0
  0
LINE
  5
F7
  8
BLACK
 10
108.0994216285912
 20
-107.1397404944153
 30
0.0
 11
108.0815806124398
 21
-107.1888389479824
 31
0.0
  0
LINE
  5
F8
  8
BLACK
 10
108.0992882890896
 20
-107.0875095436239
 30
0.0
 11
108.0994216285912
 21
-107.1397404944153
 31
0.0
  0
LINE
  5
F9
  8
BLACK
 10
108.0821985431275
 20
-107.0379092353289
 30
0.0
 11
108.0992882890896
 21
-107.0875095436239
 31
0.0
  0
LINE
  5
FA
  8
BLACK
 10
108.0477882890896
 20
-106.998308927034
 30
0.0
 11
108.0821985431275
 21
-107.0379092353289
 31
0.0
  0
LINE
  5
FB
  8
BLACK
 10
108.0026216285912
 20
-106.9720779762426
 30
0.0
 11
108.0477882890896
 21
-106.998308927034
 31
0.0
  0
LINE
  5
FC
  8
BLACK
 10
107.9511806124399
 20
-106.9629795226755
 30
0.0
 11
108.0026216285912
 21
-106.9720779762426
 31
0.0
  0
LINE
  5
FD
  8
BLACK
 10
107.8997953676544
 20
-106.9719776679477
 30
0.0
 11
107.9511806124399
 21
-106.9629795226755
 31
0.0
  0
LINE
  5
FE
  8
BLACK
 10
107.8556280720614
 20
-106.9974776679477
 30
0.0
 11
107.8997953676544
 21
-106.9719776679477
 31
0.0
  0
LINE
  5
FF
  8
BLACK
 10
108.9381596160017
 20
-106.3724777181295
 30
0.0
 11
108.8939923229357
 21
-106.3979777225064
 31
0.0
  0
LINE
  5
100
  8
BLACK
 10
108.8939923229357
 20
-106.3979777225064
 30
0.0
 11
108.8605070821144
 21
-106.4379795805525
 31
0.0
  0
LINE
  5
101
  8
BLACK
 10
108.8605070821144
 20
-106.4379795805525
 30
0.0
 11
108.8426660708286
 21
-106.4870780358877
 31
0.0
  0
LINE
  5
102
  8
BLACK
 10
108.8426660708286
 20
-106.4870780358877
 30
0.0
 11
108.8427994155062
 21
-106.5393089866659
 31
0.0
  0
LINE
  5
103
  8
BLACK
 10
108.8427994155062
 20
-106.5393089866659
 30
0.0
 11
108.8598891663837
 21
-106.5889092932672
 31
0.0
  0
LINE
  5
104
  8
BLACK
 10
108.8598891663837
 20
-106.5889092932672
 30
0.0
 11
108.8942994243458
 21
-106.6285095981521
 31
0.0
  0
LINE
  5
105
  8
BLACK
 10
108.8942994243458
 20
-106.6285095981521
 30
0.0
 11
108.9394660874437
 21
-106.6547405444676
 31
0.0
  0
LINE
  5
106
  8
BLACK
 10
108.9394660874437
 20
-106.6547405444676
 30
0.0
 11
108.9909071044967
 21
-106.663838992937
 31
0.0
  0
LINE
  5
107
  8
BLACK
 10
108.9909071044967
 20
-106.663838992937
 30
0.0
 11
109.0422923483904
 21
-106.6548408425726
 31
0.0
  0
LINE
  5
108
  8
BLACK
 10
109.0422923483904
 20
-106.6548408425726
 30
0.0
 11
109.0873256668107
 21
-106.6288408381099
 31
0.0
  0
LINE
  5
109
  8
BLACK
 10
109.0873256668107
 20
-106.6288408381099
 30
0.0
 11
109.120810907632
 21
-106.5888389800638
 31
0.0
  0
LINE
  5
10A
  8
BLACK
 10
109.120810907632
 20
-106.5888389800638
 30
0.0
 11
109.1386519189178
 21
-106.5397405247286
 31
0.0
  0
LINE
  5
10B
  8
BLACK
 10
109.1386519189178
 20
-106.5397405247286
 30
0.0
 11
109.1385185742402
 21
-106.4875095739504
 31
0.0
  0
LINE
  5
10C
  8
BLACK
 10
109.1385185742402
 20
-106.4875095739504
 30
0.0
 11
109.1214288233627
 21
-106.4379092673491
 31
0.0
  0
LINE
  5
10D
  8
BLACK
 10
109.1214288233627
 20
-106.4379092673491
 30
0.0
 11
109.0870185654006
 21
-106.3983089624642
 31
0.0
  0
LINE
  5
10E
  8
BLACK
 10
109.0870185654006
 20
-106.3983089624642
 30
0.0
 11
109.0418519023027
 21
-106.3720780161487
 31
0.0
  0
LINE
  5
10F
  8
BLACK
 10
109.0418519023027
 20
-106.3720780161487
 30
0.0
 11
108.9904108852497
 21
-106.3629795676792
 31
0.0
  0
LINE
  5
110
  8
BLACK
 10
108.9904108852497
 20
-106.3629795676792
 30
0.0
 11
108.939025641356
 21
-106.3719777180437
 31
0.0
  0
LINE
  5
111
  8
BLACK
 10
108.939025641356
 20
-106.3719777180437
 30
0.0
 11
108.8939923229357
 21
-106.3979777225064
 31
0.0
  0
LINE
  5
112
  8
BLACK
 10
108.8939923229357
 20
-106.3979777225064
 30
0.0
 11
108.8605070821144
 21
-106.4379795805525
 31
0.0
  0
LINE
  5
113
  8
BLACK
 10
108.8605070821144
 20
-106.4379795805525
 30
0.0
 11
108.8426660708286
 21
-106.4870780358877
 31
0.0
  0
LINE
  5
114
  8
BLACK
 10
108.8426660708286
 20
-106.4870780358877
 30
0.0
 11
108.8427994155062
 21
-106.5393089866659
 31
0.0
  0
LINE
  5
115
  8
BLACK
 10
108.8427994155062
 20
-106.5393089866659
 30
0.0
 11
108.8598891663837
 21
-106.5889092932672
 31
0.0
  0
LINE
  5
116
  8
BLACK
 10
108.8598891663837
 20
-106.5889092932672
 30
0.0
 11
108.8942994243458
 21
-106.6285095981521
 31
0.0
  0
LINE
  5
117
  8
BLACK
 10
108.8942994243458
 20
-106.6285095981521
 30
0.0
 11
108.9394660874437
 21
-106.6547405444676
 31
0.0
  0
LINE
  5
118
  8
BLACK
 10
108.9394660874437
 20
-106.6547405444676
 30
0.0
 11
108.9909071044967
 21
-106.663838992937
 31
0.0
  0
LINE
  5
119
  8
BLACK
 10
108.9909071044967
 20
-106.663838992937
 30
0.0
 11
109.0422923483904
 21
-106.6548408425726
 31
0.0
  0
LINE
  5
11A
  8
BLACK
 10
109.0422923483904
 20
-106.6548408425726
 30
0.0
 11
109.0864596414564
 21
-106.6293408381957
 31
0.0
  0
LINE
  5
11B
  8
BLACK
 10
109.0864596414564
 20
-106.6293408381957
 30
0.0
 11
109.1881596589125
 21
-106.8054903952471
 31
0.0
  0
LINE
  5
11C
  8
BLACK
 10
109.1881596589125
 20
-106.8054903952471
 30
0.0
 11
109.1439923658465
 21
-106.8309903996241
 31
0.0
  0
LINE
  5
11D
  8
BLACK
 10
109.1439923658465
 20
-106.8309903996241
 30
0.0
 11
109.1105071250252
 21
-106.8709922576701
 31
0.0
  0
LINE
  5
11E
  8
BLACK
 10
109.1105071250252
 20
-106.8709922576701
 30
0.0
 11
109.0926661137394
 21
-106.9200907130053
 31
0.0
  0
LINE
  5
11F
  8
BLACK
 10
109.0926661137394
 20
-106.9200907130053
 30
0.0
 11
109.092799458417
 21
-106.9723216637835
 31
0.0
  0
LINE
  5
120
  8
BLACK
 10
109.092799458417
 20
-106.9723216637835
 30
0.0
 11
109.1098892092945
 21
-107.0219219703849
 31
0.0
  0
LINE
  5
121
  8
BLACK
 10
109.1098892092945
 20
-107.0219219703849
 30
0.0
 11
109.1442994672566
 21
-107.0615222752698
 31
0.0
  0
LINE
  5
122
  8
BLACK
 10
109.1442994672566
 20
-107.0615222752698
 30
0.0
 11
109.1894661303545
 21
-107.0877532215852
 31
0.0
  0
LINE
  5
123
  8
BLACK
 10
109.1894661303545
 20
-107.0877532215852
 30
0.0
 11
109.2409071474075
 21
-107.0968516700547
 31
0.0
  0
LINE
  5
124
  8
BLACK
 10
109.2409071474075
 20
-107.0968516700547
 30
0.0
 11
109.2922923913012
 21
-107.0878535196903
 31
0.0
  0
LINE
  5
125
  8
BLACK
 10
109.2922923913012
 20
-107.0878535196903
 30
0.0
 11
109.3373257097215
 21
-107.0618535152275
 31
0.0
  0
LINE
  5
126
  8
BLACK
 10
109.3373257097215
 20
-107.0618535152275
 30
0.0
 11
109.3708109505428
 21
-107.0218516571815
 31
0.0
  0
LINE
  5
127
  8
BLACK
 10
109.3708109505428
 20
-107.0218516571815
 30
0.0
 11
109.3886519618286
 21
-106.9727532018463
 31
0.0
  0
LINE
  5
128
  8
BLACK
 10
109.3886519618286
 20
-106.9727532018463
 30
0.0
 11
109.388518617151
 21
-106.9205222510681
 31
0.0
  0
LINE
  5
129
  8
BLACK
 10
109.388518617151
 20
-106.9205222510681
 30
0.0
 11
109.3714288662735
 21
-106.8709219444667
 31
0.0
  0
LINE
  5
12A
  8
BLACK
 10
109.3714288662735
 20
-106.8709219444667
 30
0.0
 11
109.3370186083114
 21
-106.8313216395818
 31
0.0
  0
LINE
  5
12B
  8
BLACK
 10
109.3370186083114
 20
-106.8313216395818
 30
0.0
 11
109.2918519452135
 21
-106.8050906932663
 31
0.0
  0
LINE
  5
12C
  8
BLACK
 10
109.2918519452135
 20
-106.8050906932663
 30
0.0
 11
109.2404109281605
 21
-106.7959922447969
 31
0.0
  0
LINE
  5
12D
  8
BLACK
 10
109.2404109281605
 20
-106.7959922447969
 30
0.0
 11
109.1890256842668
 21
-106.8049903951613
 31
0.0
  0
LINE
  5
12E
  8
BLACK
 10
109.1890256842668
 20
-106.8049903951613
 30
0.0
 11
109.1439923658465
 21
-106.8309903996241
 31
0.0
  0
LINE
  5
12F
  8
BLACK
 10
109.1439923658465
 20
-106.8309903996241
 30
0.0
 11
109.1105071250252
 21
-106.8709922576701
 31
0.0
  0
LINE
  5
130
  8
BLACK
 10
109.1105071250252
 20
-106.8709922576701
 30
0.0
 11
109.0926661137394
 21
-106.9200907130053
 31
0.0
  0
LINE
  5
131
  8
BLACK
 10
109.0926661137394
 20
-106.9200907130053
 30
0.0
 11
109.092799458417
 21
-106.9723216637835
 31
0.0
  0
LINE
  5
132
  8
BLACK
 10
109.092799458417
 20
-106.9723216637835
 30
0.0
 11
109.1098892092945
 21
-107.0219219703849
 31
0.0
  0
LINE
  5
133
  8
BLACK
 10
109.1098892092945
 20
-107.0219219703849
 30
0.0
 11
109.1442994672566
 21
-107.0615222752698
 31
0.0
  0
LINE
  5
134
  8
BLACK
 10
109.1442994672566
 20
-107.0615222752698
 30
0.0
 11
109.1894661303545
 21
-107.0877532215852
 31
0.0
  0
LINE
  5
135
  8
BLACK
 10
109.1894661303545
 20
-107.0877532215852
 30
0.0
 11
109.2409071474075
 21
-107.0968516700547
 31
0.0
  0
LINE
  5
136
  8
BLACK
 10
109.2409071474075
 20
-107.0968516700547
 30
0.0
 11
109.2922923913012
 21
-107.0878535196903
 31
0.0
  0
LINE
  5
137
  8
BLACK
 10
109.2922923913012
 20
-107.0878535196903
 30
0.0
 11
109.3364596843672
 21
-107.0623535153134
 31
0.0
  0
LINE
  5
138
  8
BLACK
 10
109.3364596843672
 20
-107.0623535153134
 30
0.0
 11
109.4381597018234
 21
-107.2385030723648
 31
0.0
  0
LINE
  5
139
  8
BLACK
 10
109.4381597018234
 20
-107.2385030723648
 30
0.0
 11
109.3939924087573
 21
-107.2640030767417
 31
0.0
  0
LINE
  5
13A
  8
BLACK
 10
109.3939924087573
 20
-107.2640030767417
 30
0.0
 11
109.360507167936
 21
-107.3040049347878
 31
0.0
  0
LINE
  5
13B
  8
BLACK
 10
109.360507167936
 20
-107.3040049347878
 30
0.0
 11
109.3426661566502
 21
-107.353103390123
 31
0.0
  0
LINE
  5
13C
  8
BLACK
 10
109.3426661566502
 20
-107.353103390123
 30
0.0
 11
109.3427995013278
 21
-107.4053343409012
 31
0.0
  0
LINE
  5
13D
  8
BLACK
 10
109.3427995013278
 20
-107.4053343409012
 30
0.0
 11
109.3598892522053
 21
-107.4549346475025
 31
0.0
  0
LINE
  5
13E
  8
BLACK
 10
109.3598892522053
 20
-107.4549346475025
 30
0.0
 11
109.3940495101245
 21
-107.4941019397103
 31
0.0
  0
LINE
  5
13F
  8
BLACK
 10
109.3940495101245
 20
-107.4941019397103
 30
0.0
 11
109.4395661732824
 21
-107.5209391037737
 31
0.0
  0
LINE
  5
140
  8
BLACK
 10
109.4395661732824
 20
-107.5209391037737
 30
0.0
 11
109.490707190284
 21
-107.5295179370306
 31
0.0
  0
LINE
  5
141
  8
BLACK
 10
109.490707190284
 20
-107.5295179370306
 30
0.0
 11
109.5421424341863
 21
-107.5206063892016
 31
0.0
  0
LINE
  5
142
  8
BLACK
 10
109.5421424341863
 20
-107.5206063892016
 30
0.0
 11
109.5871757526065
 21
-107.4946063847389
 31
0.0
  0
LINE
  5
143
  8
BLACK
 10
109.5871757526065
 20
-107.4946063847389
 30
0.0
 11
109.6206109934193
 21
-107.4545179241574
 31
0.0
  0
LINE
  5
144
  8
BLACK
 10
109.6206109934193
 20
-107.4545179241574
 30
0.0
 11
109.6387520047566
 21
-107.4059390840348
 31
0.0
  0
LINE
  5
145
  8
BLACK
 10
109.6387520047566
 20
-107.4059390840348
 30
0.0
 11
109.6382686600189
 21
-107.3531019155086
 31
0.0
  0
LINE
  5
146
  8
BLACK
 10
109.6382686600189
 20
-107.3531019155086
 30
0.0
 11
109.6214289091843
 21
-107.3039346215844
 31
0.0
  0
LINE
  5
147
  8
BLACK
 10
109.6214289091843
 20
-107.3039346215844
 30
0.0
 11
109.5870186512222
 21
-107.2643343166995
 31
0.0
  0
LINE
  5
148
  8
BLACK
 10
109.5870186512222
 20
-107.2643343166995
 30
0.0
 11
109.5418519881243
 21
-107.238103370384
 31
0.0
  0
LINE
  5
149
  8
BLACK
 10
109.5418519881243
 20
-107.238103370384
 30
0.0
 11
109.4904109710713
 21
-107.2290049219145
 31
0.0
  0
LINE
  5
14A
  8
BLACK
 10
109.4904109710713
 20
-107.2290049219145
 30
0.0
 11
109.4390257271776
 21
-107.238003072279
 31
0.0
  0
LINE
  5
14B
  8
BLACK
 10
109.4390257271776
 20
-107.238003072279
 30
0.0
 11
109.3939924087573
 21
-107.2640030767417
 31
0.0
  0
LINE
  5
14C
  8
BLACK
 10
109.3939924087573
 20
-107.2640030767417
 30
0.0
 11
109.360507167936
 21
-107.3040049347878
 31
0.0
  0
LINE
  5
14D
  8
BLACK
 10
109.360507167936
 20
-107.3040049347878
 30
0.0
 11
109.3426661566502
 21
-107.353103390123
 31
0.0
  0
LINE
  5
14E
  8
BLACK
 10
109.3426661566502
 20
-107.353103390123
 30
0.0
 11
109.3427995013278
 21
-107.4053343409012
 31
0.0
  0
LINE
  5
14F
  8
BLACK
 10
109.3427995013278
 20
-107.4053343409012
 30
0.0
 11
109.3598892522053
 21
-107.4549346475025
 31
0.0
  0
LINE
  5
150
  8
BLACK
 10
109.3598892522053
 20
-107.4549346475025
 30
0.0
 11
109.3940495101245
 21
-107.4941019397103
 31
0.0
  0
LINE
  5
151
  8
BLACK
 10
109.3940495101245
 20
-107.4941019397103
 30
0.0
 11
109.4395661732824
 21
-107.5209391037737
 31
0.0
  0
LINE
  5
152
  8
BLACK
 10
109.4395661732824
 20
-107.5209391037737
 30
0.0
 11
109.490707190284
 21
-107.5295179370306
 31
0.0
  0
LINE
  5
153
  8
BLACK
 10
109.490707190284
 20
-107.5295179370306
 30
0.0
 11
109.5421424341863
 21
-107.5206063892016
 31
0.0
  0
LINE
  5
154
  8
BLACK
 10
109.5421424341863
 20
-107.5206063892016
 30
0.0
 11
109.5863097272523
 21
-107.4951063848247
 31
0.0
  0
LINE
  5
155
  8
BLACK
 10
109.5863097272523
 20
-107.4951063848247
 30
0.0
 11
109.6883097447599
 21
-107.6717755570888
 31
0.0
  0
LINE
  5
156
  8
BLACK
 10
109.6883097447599
 20
-107.6717755570888
 30
0.0
 11
109.6441424516939
 21
-107.6972755614656
 31
0.0
  0
LINE
  5
157
  8
BLACK
 10
109.6441424516939
 20
-107.6972755614656
 30
0.0
 11
109.6107072108811
 21
-107.7373640220471
 31
0.0
  0
LINE
  5
158
  8
BLACK
 10
109.6107072108811
 20
-107.7373640220471
 30
0.0
 11
109.5925661995439
 21
-107.7859428621698
 31
0.0
  0
LINE
  5
159
  8
BLACK
 10
109.5925661995439
 20
-107.7859428621698
 30
0.0
 11
109.5930495442815
 21
-107.8387800306959
 31
0.0
  0
LINE
  5
15A
  8
BLACK
 10
109.5930495442815
 20
-107.8387800306959
 30
0.0
 11
109.6098892951161
 21
-107.8879473246202
 31
0.0
  0
LINE
  5
15B
  8
BLACK
 10
109.6098892951161
 20
-107.8879473246202
 30
0.0
 11
109.6440495530353
 21
-107.927114616828
 31
0.0
  0
LINE
  5
15C
  8
BLACK
 10
109.6440495530353
 20
-107.927114616828
 30
0.0
 11
109.6895662161933
 21
-107.9539517808914
 31
0.0
  0
LINE
  5
15D
  8
BLACK
 10
109.6895662161933
 20
-107.9539517808914
 30
0.0
 11
109.7407072331948
 21
-107.9625306141483
 31
0.0
  0
LINE
  5
15E
  8
BLACK
 10
109.7407072331948
 20
-107.9625306141483
 30
0.0
 11
109.7921424770971
 21
-107.9536190663193
 31
0.0
  0
LINE
  5
15F
  8
BLACK
 10
109.7921424770971
 20
-107.9536190663193
 30
0.0
 11
109.8371757955174
 21
-107.9276190618566
 31
0.0
  0
LINE
  5
160
  8
BLACK
 10
109.8371757955174
 20
-107.9276190618566
 30
0.0
 11
109.8706110363301
 21
-107.8875306012751
 31
0.0
  0
LINE
  5
161
  8
BLACK
 10
109.8706110363301
 20
-107.8875306012751
 30
0.0
 11
109.8887520476674
 21
-107.8389517611524
 31
0.0
  0
LINE
  5
162
  8
BLACK
 10
109.8887520476674
 20
-107.8389517611524
 30
0.0
 11
109.8882687029297
 21
-107.7861145926263
 31
0.0
  0
LINE
  5
163
  8
BLACK
 10
109.8882687029297
 20
-107.7861145926263
 30
0.0
 11
109.8714289520952
 21
-107.736947298702
 31
0.0
  0
LINE
  5
164
  8
BLACK
 10
109.8714289520952
 20
-107.736947298702
 30
0.0
 11
109.8372686941759
 21
-107.6977800064943
 31
0.0
  0
LINE
  5
165
  8
BLACK
 10
109.8372686941759
 20
-107.6977800064943
 30
0.0
 11
109.791752031018
 21
-107.6709428424308
 31
0.0
  0
LINE
  5
166
  8
BLACK
 10
109.791752031018
 20
-107.6709428424308
 30
0.0
 11
109.7406110140165
 21
-107.6623640091739
 31
0.0
  0
LINE
  5
167
  8
BLACK
 10
109.7406110140165
 20
-107.6623640091739
 30
0.0
 11
109.6891757701141
 21
-107.6712755570029
 31
0.0
  0
LINE
  5
168
  8
BLACK
 10
109.6891757701141
 20
-107.6712755570029
 30
0.0
 11
109.6441424516939
 21
-107.6972755614656
 31
0.0
  0
LINE
  5
169
  8
BLACK
 10
109.6441424516939
 20
-107.6972755614656
 30
0.0
 11
109.6107072108811
 21
-107.7373640220471
 31
0.0
  0
LINE
  5
16A
  8
BLACK
 10
109.6107072108811
 20
-107.7373640220471
 30
0.0
 11
109.5925661995439
 21
-107.7859428621698
 31
0.0
  0
LINE
  5
16B
  8
BLACK
 10
109.5925661995439
 20
-107.7859428621698
 30
0.0
 11
109.5930495442815
 21
-107.8387800306959
 31
0.0
  0
LINE
  5
16C
  8
BLACK
 10
109.5930495442815
 20
-107.8387800306959
 30
0.0
 11
109.6098892951161
 21
-107.8879473246202
 31
0.0
  0
LINE
  5
16D
  8
BLACK
 10
109.6098892951161
 20
-107.8879473246202
 30
0.0
 11
109.6440495530353
 21
-107.927114616828
 31
0.0
  0
LINE
  5
16E
  8
BLACK
 10
109.6440495530353
 20
-107.927114616828
 30
0.0
 11
109.6895662161933
 21
-107.9539517808914
 31
0.0
  0
LINE
  5
16F
  8
BLACK
 10
109.6895662161933
 20
-107.9539517808914
 30
0.0
 11
109.7407072331948
 21
-107.9625306141483
 31
0.0
  0
LINE
  5
170
  8
BLACK
 10
109.7407072331948
 20
-107.9625306141483
 30
0.0
 11
109.7921424770971
 21
-107.9536190663193
 31
0.0
  0
LINE
  5
171
  8
BLACK
 10
109.7921424770971
 20
-107.9536190663193
 30
0.0
 11
109.8363097701631
 21
-107.9281190619424
 31
0.0
  0
LINE
  5
172
  8
BLACK
 10
109.8363097701631
 20
-107.9281190619424
 30
0.0
 11
109.9383097876707
 21
-108.1047882342064
 31
0.0
  0
LINE
  5
173
  8
BLACK
 10
109.9383097876707
 20
-108.1047882342064
 30
0.0
 11
109.8941424946047
 21
-108.1302882385833
 31
0.0
  0
LINE
  5
174
  8
BLACK
 10
109.8941424946047
 20
-108.1302882385833
 30
0.0
 11
109.860707253792
 21
-108.1703766991648
 31
0.0
  0
LINE
  5
175
  8
BLACK
 10
109.860707253792
 20
-108.1703766991648
 30
0.0
 11
109.8425662424547
 21
-108.2189555392874
 31
0.0
  0
LINE
  5
176
  8
BLACK
 10
109.8425662424547
 20
-108.2189555392874
 30
0.0
 11
109.8430495871923
 21
-108.2717927078136
 31
0.0
  0
LINE
  5
177
  8
BLACK
 10
109.8430495871923
 20
-108.2717927078136
 30
0.0
 11
109.8598893380269
 21
-108.3209600017378
 31
0.0
  0
LINE
  5
178
  8
BLACK
 10
109.8598893380269
 20
-108.3209600017378
 30
0.0
 11
109.8940495959461
 21
-108.3601272939456
 31
0.0
  0
LINE
  5
179
  8
BLACK
 10
109.8940495959461
 20
-108.3601272939456
 30
0.0
 11
109.9395662591041
 21
-108.386964458009
 31
0.0
  0
LINE
  5
17A
  8
BLACK
 10
109.9395662591041
 20
-108.386964458009
 30
0.0
 11
109.9907072761056
 21
-108.395543291266
 31
0.0
  0
LINE
  5
17B
  8
BLACK
 10
109.9907072761056
 20
-108.395543291266
 30
0.0
 11
110.0421425200079
 21
-108.3866317434369
 31
0.0
  0
LINE
  5
17C
  8
BLACK
 10
110.0421425200079
 20
-108.3866317434369
 30
0.0
 11
110.0871758384282
 21
-108.3606317389742
 31
0.0
  0
LINE
  5
17D
  8
BLACK
 10
110.0871758384282
 20
-108.3606317389742
 30
0.0
 11
110.1206110792409
 21
-108.3205432783927
 31
0.0
  0
LINE
  5
17E
  8
BLACK
 10
110.1206110792409
 20
-108.3205432783927
 30
0.0
 11
110.1387520905782
 21
-108.2719644382701
 31
0.0
  0
LINE
  5
17F
  8
BLACK
 10
110.1387520905782
 20
-108.2719644382701
 30
0.0
 11
110.1382687458405
 21
-108.2191272697439
 31
0.0
  0
LINE
  5
180
  8
BLACK
 10
110.1382687458405
 20
-108.2191272697439
 30
0.0
 11
110.121428995006
 21
-108.1699599758197
 31
0.0
  0
LINE
  5
181
  8
BLACK
 10
110.121428995006
 20
-108.1699599758197
 30
0.0
 11
110.0872687370867
 21
-108.1307926836119
 31
0.0
  0
LINE
  5
182
  8
BLACK
 10
110.0872687370867
 20
-108.1307926836119
 30
0.0
 11
110.0417520739288
 21
-108.1039555195485
 31
0.0
  0
LINE
  5
183
  8
BLACK
 10
110.0417520739288
 20
-108.1039555195485
 30
0.0
 11
109.9906110569273
 21
-108.0953766862915
 31
0.0
  0
LINE
  5
184
  8
BLACK
 10
109.9906110569273
 20
-108.0953766862915
 30
0.0
 11
109.9391758130249
 21
-108.1042882341206
 31
0.0
  0
LINE
  5
185
  8
BLACK
 10
109.9391758130249
 20
-108.1042882341206
 30
0.0
 11
109.8941424946047
 21
-108.1302882385833
 31
0.0
  0
LINE
  5
186
  8
BLACK
 10
109.8941424946047
 20
-108.1302882385833
 30
0.0
 11
109.860707253792
 21
-108.1703766991648
 31
0.0
  0
LINE
  5
187
  8
BLACK
 10
109.860707253792
 20
-108.1703766991648
 30
0.0
 11
109.8425662424547
 21
-108.2189555392874
 31
0.0
  0
LINE
  5
188
  8
BLACK
 10
109.8425662424547
 20
-108.2189555392874
 30
0.0
 11
109.8430495871923
 21
-108.2717927078136
 31
0.0
  0
LINE
  5
189
  8
BLACK
 10
109.8430495871923
 20
-108.2717927078136
 30
0.0
 11
109.8598893380269
 21
-108.3209600017378
 31
0.0
  0
LINE
  5
18A
  8
BLACK
 10
109.8598893380269
 20
-108.3209600017378
 30
0.0
 11
109.8940495959461
 21
-108.3601272939456
 31
0.0
  0
LINE
  5
18B
  8
BLACK
 10
109.8940495959461
 20
-108.3601272939456
 30
0.0
 11
109.9395662591041
 21
-108.386964458009
 31
0.0
  0
LINE
  5
18C
  8
BLACK
 10
109.9395662591041
 20
-108.386964458009
 30
0.0
 11
109.9907072761056
 21
-108.395543291266
 31
0.0
  0
LINE
  5
18D
  8
BLACK
 10
109.9907072761056
 20
-108.395543291266
 30
0.0
 11
110.0421425200079
 21
-108.3866317434369
 31
0.0
  0
LINE
  5
18E
  8
BLACK
 10
110.0421425200079
 20
-108.3866317434369
 30
0.0
 11
110.0863098130739
 21
-108.36113173906
 31
0.0
  0
LINE
  5
18F
  8
BLACK
 10
104.0614465537234
 20
-104.9336753173613
 30
0.0
 11
104.1056138467894
 21
-104.9081753129844
 31
0.0
  0
LINE
  5
190
  8
BLACK
 10
104.0100113098211
 20
-104.9425868651904
 30
0.0
 11
104.0614465537234
 21
-104.9336753173613
 31
0.0
  0
LINE
  5
191
  8
BLACK
 10
103.9588702928196
 20
-104.9340080319334
 30
0.0
 11
104.0100113098211
 21
-104.9425868651904
 31
0.0
  0
LINE
  5
192
  8
BLACK
 10
103.9133536296617
 20
-104.90717086787
 30
0.0
 11
103.9588702928196
 21
-104.9340080319334
 31
0.0
  0
LINE
  5
193
  8
BLACK
 10
103.8791933717424
 20
-104.8680035756622
 30
0.0
 11
103.9133536296617
 21
-104.90717086787
 31
0.0
  0
LINE
  5
194
  8
BLACK
 10
103.8623536209079
 20
-104.818836281738
 30
0.0
 11
103.8791933717424
 21
-104.8680035756622
 31
0.0
  0
LINE
  5
195
  8
BLACK
 10
103.8618702761702
 20
-104.7659991132118
 30
0.0
 11
103.8623536209079
 21
-104.818836281738
 31
0.0
  0
LINE
  5
196
  8
BLACK
 10
103.8800112875075
 20
-104.7174202730892
 30
0.0
 11
103.8618702761702
 21
-104.7659991132118
 31
0.0
  0
LINE
  5
197
  8
BLACK
 10
103.9134465283202
 20
-104.6773318125077
 30
0.0
 11
103.8800112875075
 21
-104.7174202730892
 31
0.0
  0
LINE
  5
198
  8
BLACK
 10
103.9584798467405
 20
-104.651331808045
 30
0.0
 11
103.9134465283202
 21
-104.6773318125077
 31
0.0
  0
LINE
  5
199
  8
BLACK
 10
104.0099150906428
 20
-104.6424202602159
 30
0.0
 11
103.9584798467405
 21
-104.651331808045
 31
0.0
  0
LINE
  5
19A
  8
BLACK
 10
104.0610561076443
 20
-104.6509990934729
 30
0.0
 11
104.0099150906428
 21
-104.6424202602159
 31
0.0
  0
LINE
  5
19B
  8
BLACK
 10
104.1065727708022
 20
-104.6778362575363
 30
0.0
 11
104.0610561076443
 21
-104.6509990934729
 31
0.0
  0
LINE
  5
19C
  8
BLACK
 10
104.1407330287215
 20
-104.7170035497441
 30
0.0
 11
104.1065727708022
 21
-104.6778362575363
 31
0.0
  0
LINE
  5
19D
  8
BLACK
 10
104.1575727795561
 20
-104.7661708436683
 30
0.0
 11
104.1407330287215
 21
-104.7170035497441
 31
0.0
  0
LINE
  5
19E
  8
BLACK
 10
104.1580561242937
 20
-104.8190080121945
 30
0.0
 11
104.1575727795561
 21
-104.7661708436683
 31
0.0
  0
LINE
  5
19F
  8
BLACK
 10
104.1399151129564
 20
-104.8675868523171
 30
0.0
 11
104.1580561242937
 21
-104.8190080121945
 31
0.0
  0
LINE
  5
1A0
  8
BLACK
 10
104.1064798721437
 20
-104.9076753128986
 30
0.0
 11
104.1399151129564
 21
-104.8675868523171
 31
0.0
  0
LINE
  5
1A1
  8
BLACK
 10
104.0614465537234
 20
-104.9336753173613
 30
0.0
 11
104.1064798721437
 21
-104.9076753128986
 31
0.0
  0
LINE
  5
1A2
  8
BLACK
 10
104.0100113098211
 20
-104.9425868651904
 30
0.0
 11
104.0614465537234
 21
-104.9336753173613
 31
0.0
  0
LINE
  5
1A3
  8
BLACK
 10
103.9588702928196
 20
-104.9340080319334
 30
0.0
 11
104.0100113098211
 21
-104.9425868651904
 31
0.0
  0
LINE
  5
1A4
  8
BLACK
 10
103.9133536296617
 20
-104.90717086787
 30
0.0
 11
103.9588702928196
 21
-104.9340080319334
 31
0.0
  0
LINE
  5
1A5
  8
BLACK
 10
103.8791933717424
 20
-104.8680035756622
 30
0.0
 11
103.9133536296617
 21
-104.90717086787
 31
0.0
  0
LINE
  5
1A6
  8
BLACK
 10
103.8623536209079
 20
-104.818836281738
 30
0.0
 11
103.8791933717424
 21
-104.8680035756622
 31
0.0
  0
LINE
  5
1A7
  8
BLACK
 10
103.8618702761702
 20
-104.7659991132118
 30
0.0
 11
103.8623536209079
 21
-104.818836281738
 31
0.0
  0
LINE
  5
1A8
  8
BLACK
 10
103.8800112875075
 20
-104.7174202730892
 30
0.0
 11
103.8618702761702
 21
-104.7659991132118
 31
0.0
  0
LINE
  5
1A9
  8
BLACK
 10
103.9134465283202
 20
-104.6773318125077
 30
0.0
 11
103.8800112875075
 21
-104.7174202730892
 31
0.0
  0
LINE
  5
1AA
  8
BLACK
 10
103.9576138213862
 20
-104.6518318081308
 30
0.0
 11
103.9134465283202
 21
-104.6773318125077
 31
0.0
  0
LINE
  5
1AB
  8
BLACK
 10
103.8556138038786
 20
-104.4751626358668
 30
0.0
 11
103.9576138213862
 21
-104.6518318081308
 31
0.0
  0
LINE
  5
1AC
  8
BLACK
 10
103.8114465108127
 20
-104.5006626402437
 30
0.0
 11
103.8556138038786
 21
-104.4751626358668
 31
0.0
  0
LINE
  5
1AD
  8
BLACK
 10
103.7600112669103
 20
-104.5095741880727
 30
0.0
 11
103.8114465108127
 21
-104.5006626402437
 31
0.0
  0
LINE
  5
1AE
  8
BLACK
 10
103.7088702499088
 20
-104.5009953548158
 30
0.0
 11
103.7600112669103
 21
-104.5095741880727
 31
0.0
  0
LINE
  5
1AF
  8
BLACK
 10
103.6633535867509
 20
-104.4741581907524
 30
0.0
 11
103.7088702499088
 21
-104.5009953548158
 31
0.0
  0
LINE
  5
1B0
  8
BLACK
 10
103.6291933288316
 20
-104.4349908985446
 30
0.0
 11
103.6633535867509
 21
-104.4741581907524
 31
0.0
  0
LINE
  5
1B1
  8
BLACK
 10
103.6123535779971
 20
-104.3858236046203
 30
0.0
 11
103.6291933288316
 21
-104.4349908985446
 31
0.0
  0
LINE
  5
1B2
  8
BLACK
 10
103.6118702332594
 20
-104.3329864360942
 30
0.0
 11
103.6123535779971
 21
-104.3858236046203
 31
0.0
  0
LINE
  5
1B3
  8
BLACK
 10
103.6300112445967
 20
-104.2844075959715
 30
0.0
 11
103.6118702332594
 21
-104.3329864360942
 31
0.0
  0
LINE
  5
1B4
  8
BLACK
 10
103.6634464854094
 20
-104.24431913539
 30
0.0
 11
103.6300112445967
 21
-104.2844075959715
 31
0.0
  0
LINE
  5
1B5
  8
BLACK
 10
103.7084798038297
 20
-104.2183191309273
 30
0.0
 11
103.6634464854094
 21
-104.24431913539
 31
0.0
  0
LINE
  5
1B6
  8
BLACK
 10
103.759915047732
 20
-104.2094075830983
 30
0.0
 11
103.7084798038297
 21
-104.2183191309273
 31
0.0
  0
LINE
  5
1B7
  8
BLACK
 10
103.8110560647335
 20
-104.2179864163552
 30
0.0
 11
103.759915047732
 21
-104.2094075830983
 31
0.0
  0
LINE
  5
1B8
  8
BLACK
 10
103.8565727278914
 20
-104.2448235804187
 30
0.0
 11
103.8110560647335
 21
-104.2179864163552
 31
0.0
  0
LINE
  5
1B9
  8
BLACK
 10
103.8907329858107
 20
-104.2839908726264
 30
0.0
 11
103.8565727278914
 21
-104.2448235804187
 31
0.0
  0
LINE
  5
1BA
  8
BLACK
 10
103.9075727366452
 20
-104.3331581665507
 30
0.0
 11
103.8907329858107
 21
-104.2839908726264
 31
0.0
  0
LINE
  5
1BB
  8
BLACK
 10
103.9080560813829
 20
-104.3859953350768
 30
0.0
 11
103.9075727366452
 21
-104.3331581665507
 31
0.0
  0
LINE
  5
1BC
  8
BLACK
 10
103.8899150700456
 20
-104.4345741751995
 30
0.0
 11
103.9080560813829
 21
-104.3859953350768
 31
0.0
  0
LINE
  5
1BD
  8
BLACK
 10
103.8564798292329
 20
-104.474662635781
 30
0.0
 11
103.8899150700456
 21
-104.4345741751995
 31
0.0
  0
LINE
  5
1BE
  8
BLACK
 10
103.8114465108127
 20
-104.5006626402437
 30
0.0
 11
103.8564798292329
 21
-104.474662635781
 31
0.0
  0
LINE
  5
1BF
  8
BLACK
 10
103.7600112669103
 20
-104.5095741880727
 30
0.0
 11
103.8114465108127
 21
-104.5006626402437
 31
0.0
  0
LINE
  5
1C0
  8
BLACK
 10
103.7088702499088
 20
-104.5009953548158
 30
0.0
 11
103.7600112669103
 21
-104.5095741880727
 31
0.0
  0
LINE
  5
1C1
  8
BLACK
 10
103.6633535867509
 20
-104.4741581907524
 30
0.0
 11
103.7088702499088
 21
-104.5009953548158
 31
0.0
  0
LINE
  5
1C2
  8
BLACK
 10
103.6291933288316
 20
-104.4349908985446
 30
0.0
 11
103.6633535867509
 21
-104.4741581907524
 31
0.0
  0
LINE
  5
1C3
  8
BLACK
 10
103.6123535779971
 20
-104.3858236046203
 30
0.0
 11
103.6291933288316
 21
-104.4349908985446
 31
0.0
  0
LINE
  5
1C4
  8
BLACK
 10
103.6118702332594
 20
-104.3329864360942
 30
0.0
 11
103.6123535779971
 21
-104.3858236046203
 31
0.0
  0
LINE
  5
1C5
  8
BLACK
 10
103.6300112445967
 20
-104.2844075959715
 30
0.0
 11
103.6118702332594
 21
-104.3329864360942
 31
0.0
  0
LINE
  5
1C6
  8
BLACK
 10
103.6634464854094
 20
-104.24431913539
 30
0.0
 11
103.6300112445967
 21
-104.2844075959715
 31
0.0
  0
LINE
  5
1C7
  8
BLACK
 10
103.7076137784755
 20
-104.2188191310132
 30
0.0
 11
103.6634464854094
 21
-104.24431913539
 31
0.0
  0
LINE
  5
1C8
  8
BLACK
 10
103.6056137609678
 20
-104.0421499587491
 30
0.0
 11
103.7076137784755
 21
-104.2188191310132
 31
0.0
  0
LINE
  5
1C9
  8
BLACK
 10
103.5614464679018
 20
-104.067649963126
 30
0.0
 11
103.6056137609678
 21
-104.0421499587491
 31
0.0
  0
LINE
  5
1CA
  8
BLACK
 10
103.5100112239995
 20
-104.0765615109551
 30
0.0
 11
103.5614464679018
 21
-104.067649963126
 31
0.0
  0
LINE
  5
1CB
  8
BLACK
 10
103.458870206998
 20
-104.0679826776982
 30
0.0
 11
103.5100112239995
 21
-104.0765615109551
 31
0.0
  0
LINE
  5
1CC
  8
BLACK
 10
103.4133535438401
 20
-104.0411455136347
 30
0.0
 11
103.458870206998
 21
-104.0679826776982
 31
0.0
  0
LINE
  5
1CD
  8
BLACK
 10
103.3791932859208
 20
-104.0019782214269
 30
0.0
 11
103.4133535438401
 21
-104.0411455136347
 31
0.0
  0
LINE
  5
1CE
  8
BLACK
 10
103.3621035350434
 20
-103.9523779148256
 30
0.0
 11
103.3791932859208
 21
-104.0019782214269
 31
0.0
  0
LINE
  5
1CF
  8
BLACK
 10
103.3619701903658
 20
-103.9001469640474
 30
0.0
 11
103.3621035350434
 21
-103.9523779148256
 31
0.0
  0
LINE
  5
1D0
  8
BLACK
 10
103.3798112016516
 20
-103.8510485087122
 30
0.0
 11
103.3619701903658
 21
-103.9001469640474
 31
0.0
  0
LINE
  5
1D1
  8
BLACK
 10
103.4132964424729
 20
-103.8110466506661
 30
0.0
 11
103.3798112016516
 21
-103.8510485087122
 31
0.0
  0
LINE
  5
1D2
  8
BLACK
 10
103.4583297608931
 20
-103.7850466462034
 30
0.0
 11
103.4132964424729
 21
-103.8110466506661
 31
0.0
  0
LINE
  5
1D3
  8
BLACK
 10
103.5097150047869
 20
-103.7760484958389
 30
0.0
 11
103.4583297608931
 21
-103.7850466462034
 31
0.0
  0
LINE
  5
1D4
  8
BLACK
 10
103.5611560218399
 20
-103.7851469443084
 30
0.0
 11
103.5097150047869
 21
-103.7760484958389
 31
0.0
  0
LINE
  5
1D5
  8
BLACK
 10
103.6063226849377
 20
-103.8113778906239
 30
0.0
 11
103.5611560218399
 21
-103.7851469443084
 31
0.0
  0
LINE
  5
1D6
  8
BLACK
 10
103.6407329428999
 20
-103.8509781955088
 30
0.0
 11
103.6063226849377
 21
-103.8113778906239
 31
0.0
  0
LINE
  5
1D7
  8
BLACK
 10
103.6575726937344
 20
-103.900145489433
 30
0.0
 11
103.6407329428999
 21
-103.8509781955088
 31
0.0
  0
LINE
  5
1D8
  8
BLACK
 10
103.6580560384721
 20
-103.9529826579592
 30
0.0
 11
103.6575726937344
 21
-103.900145489433
 31
0.0
  0
LINE
  5
1D9
  8
BLACK
 10
103.6399150271348
 20
-104.0015614980818
 30
0.0
 11
103.6580560384721
 21
-103.9529826579592
 31
0.0
  0
LINE
  5
1DA
  8
BLACK
 10
103.6064797863221
 20
-104.0416499586633
 30
0.0
 11
103.6399150271348
 21
-104.0015614980818
 31
0.0
  0
LINE
  5
1DB
  8
BLACK
 10
103.5614464679018
 20
-104.067649963126
 30
0.0
 11
103.6064797863221
 21
-104.0416499586633
 31
0.0
  0
LINE
  5
1DC
  8
BLACK
 10
103.5100112239995
 20
-104.0765615109551
 30
0.0
 11
103.5614464679018
 21
-104.067649963126
 31
0.0
  0
LINE
  5
1DD
  8
BLACK
 10
103.458870206998
 20
-104.0679826776982
 30
0.0
 11
103.5100112239995
 21
-104.0765615109551
 31
0.0
  0
LINE
  5
1DE
  8
BLACK
 10
103.4133535438401
 20
-104.0411455136347
 30
0.0
 11
103.458870206998
 21
-104.0679826776982
 31
0.0
  0
LINE
  5
1DF
  8
BLACK
 10
103.3791932859208
 20
-104.0019782214269
 30
0.0
 11
103.4133535438401
 21
-104.0411455136347
 31
0.0
  0
LINE
  5
1E0
  8
BLACK
 10
103.3621035350434
 20
-103.9523779148256
 30
0.0
 11
103.3791932859208
 21
-104.0019782214269
 31
0.0
  0
LINE
  5
1E1
  8
BLACK
 10
103.3619701903658
 20
-103.9001469640474
 30
0.0
 11
103.3621035350434
 21
-103.9523779148256
 31
0.0
  0
LINE
  5
1E2
  8
BLACK
 10
103.3798112016516
 20
-103.8510485087122
 30
0.0
 11
103.3619701903658
 21
-103.9001469640474
 31
0.0
  0
LINE
  5
1E3
  8
BLACK
 10
103.4132964424729
 20
-103.8110466506661
 30
0.0
 11
103.3798112016516
 21
-103.8510485087122
 31
0.0
  0
LINE
  5
1E4
  8
BLACK
 10
103.4574637355389
 20
-103.7855466462892
 30
0.0
 11
103.4132964424729
 21
-103.8110466506661
 31
0.0
  0
LINE
  5
1E5
  8
BLACK
 10
103.3557637180828
 20
-103.6093970892378
 30
0.0
 11
103.4574637355389
 21
-103.7855466462892
 31
0.0
  0
LINE
  5
1E6
  8
BLACK
 10
103.3115964250168
 20
-103.6348970936147
 30
0.0
 11
103.3557637180828
 21
-103.6093970892378
 31
0.0
  0
LINE
  5
1E7
  8
BLACK
 10
103.260211181123
 20
-103.6438952439791
 30
0.0
 11
103.3115964250168
 21
-103.6348970936147
 31
0.0
  0
LINE
  5
1E8
  8
BLACK
 10
103.20877016407
 20
-103.6347967955097
 30
0.0
 11
103.260211181123
 21
-103.6438952439791
 31
0.0
  0
LINE
  5
1E9
  8
BLACK
 10
103.1636035009722
 20
-103.6085658491942
 30
0.0
 11
103.20877016407
 21
-103.6347967955097
 31
0.0
  0
LINE
  5
1EA
  8
BLACK
 10
103.12919324301
 20
-103.5689655443093
 30
0.0
 11
103.1636035009722
 21
-103.6085658491942
 31
0.0
  0
LINE
  5
1EB
  8
BLACK
 10
103.1121034921325
 20
-103.5193652377079
 30
0.0
 11
103.12919324301
 21
-103.5689655443093
 31
0.0
  0
LINE
  5
1EC
  8
BLACK
 10
103.1119701474549
 20
-103.4671342869297
 30
0.0
 11
103.1121034921325
 21
-103.5193652377079
 31
0.0
  0
LINE
  5
1ED
  8
BLACK
 10
103.1298111587408
 20
-103.4180358315946
 30
0.0
 11
103.1119701474549
 21
-103.4671342869297
 31
0.0
  0
LINE
  5
1EE
  8
BLACK
 10
103.1632963995621
 20
-103.3780339735485
 30
0.0
 11
103.1298111587408
 21
-103.4180358315946
 31
0.0
  0
LINE
  5
1EF
  8
BLACK
 10
103.2083297179823
 20
-103.3520339690857
 30
0.0
 11
103.1632963995621
 21
-103.3780339735485
 31
0.0
  0
LINE
  5
1F0
  8
BLACK
 10
103.2597149618761
 20
-103.3430358187213
 30
0.0
 11
103.2083297179823
 21
-103.3520339690857
 31
0.0
  0
LINE
  5
1F1
  8
BLACK
 10
103.3111559789291
 20
-103.3521342671907
 30
0.0
 11
103.2597149618761
 21
-103.3430358187213
 31
0.0
  0
LINE
  5
1F2
  8
BLACK
 10
103.3563226420269
 20
-103.3783652135062
 30
0.0
 11
103.3111559789291
 21
-103.3521342671907
 31
0.0
  0
LINE
  5
1F3
  8
BLACK
 10
103.3907328999891
 20
-103.4179655183912
 30
0.0
 11
103.3563226420269
 21
-103.3783652135062
 31
0.0
  0
LINE
  5
1F4
  8
BLACK
 10
103.4078226508665
 20
-103.4675658249925
 30
0.0
 11
103.3907328999891
 21
-103.4179655183912
 31
0.0
  0
LINE
  5
1F5
  8
BLACK
 10
103.4079559955441
 20
-103.5197967757707
 30
0.0
 11
103.4078226508665
 21
-103.4675658249925
 31
0.0
  0
LINE
  5
1F6
  8
BLACK
 10
103.3901149842583
 20
-103.5688952311059
 30
0.0
 11
103.4079559955441
 21
-103.5197967757707
 31
0.0
  0
LINE
  5
1F7
  8
BLACK
 10
103.356629743437
 20
-103.6088970891519
 30
0.0
 11
103.3901149842583
 21
-103.5688952311059
 31
0.0
  0
LINE
  5
1F8
  8
BLACK
 10
103.3115964250168
 20
-103.6348970936147
 30
0.0
 11
103.356629743437
 21
-103.6088970891519
 31
0.0
  0
LINE
  5
1F9
  8
BLACK
 10
103.260211181123
 20
-103.6438952439791
 30
0.0
 11
103.3115964250168
 21
-103.6348970936147
 31
0.0
  0
LINE
  5
1FA
  8
BLACK
 10
103.20877016407
 20
-103.6347967955097
 30
0.0
 11
103.260211181123
 21
-103.6438952439791
 31
0.0
  0
LINE
  5
1FB
  8
BLACK
 10
103.1636035009722
 20
-103.6085658491942
 30
0.0
 11
103.20877016407
 21
-103.6347967955097
 31
0.0
  0
LINE
  5
1FC
  8
BLACK
 10
103.12919324301
 20
-103.5689655443093
 30
0.0
 11
103.1636035009722
 21
-103.6085658491942
 31
0.0
  0
LINE
  5
1FD
  8
BLACK
 10
103.1121034921325
 20
-103.5193652377079
 30
0.0
 11
103.12919324301
 21
-103.5689655443093
 31
0.0
  0
LINE
  5
1FE
  8
BLACK
 10
103.1119701474549
 20
-103.4671342869297
 30
0.0
 11
103.1121034921325
 21
-103.5193652377079
 31
0.0
  0
LINE
  5
1FF
  8
BLACK
 10
103.1298111587408
 20
-103.4180358315946
 30
0.0
 11
103.1119701474549
 21
-103.4671342869297
 31
0.0
  0
LINE
  5
200
  8
BLACK
 10
103.1632963995621
 20
-103.3780339735485
 30
0.0
 11
103.1298111587408
 21
-103.4180358315946
 31
0.0
  0
LINE
  5
201
  8
BLACK
 10
103.2074636926281
 20
-103.3525339691716
 30
0.0
 11
103.1632963995621
 21
-103.3780339735485
 31
0.0
  0
LINE
  5
202
  8
BLACK
 10
103.105763675172
 20
-103.1763844121201
 30
0.0
 11
103.2074636926281
 21
-103.3525339691716
 31
0.0
  0
LINE
  5
203
  8
BLACK
 10
103.0615963821059
 20
-103.201884416497
 30
0.0
 11
103.105763675172
 21
-103.1763844121201
 31
0.0
  0
LINE
  5
204
  8
BLACK
 10
103.0102111382122
 20
-103.2108825668614
 30
0.0
 11
103.0615963821059
 21
-103.201884416497
 31
0.0
  0
LINE
  5
205
  8
BLACK
 10
102.9587701211592
 20
-103.201784118392
 30
0.0
 11
103.0102111382122
 21
-103.2108825668614
 31
0.0
  0
LINE
  5
206
  8
BLACK
 10
102.9136034580614
 20
-103.1755531720765
 30
0.0
 11
102.9587701211592
 21
-103.201784118392
 31
0.0
  0
LINE
  5
207
  8
BLACK
 10
102.8791932000992
 20
-103.1359528671916
 30
0.0
 11
102.9136034580614
 21
-103.1755531720765
 31
0.0
  0
LINE
  5
208
  8
BLACK
 10
102.8621034492217
 20
-103.0863525605903
 30
0.0
 11
102.8791932000992
 21
-103.1359528671916
 31
0.0
  0
LINE
  5
209
  8
BLACK
 10
102.8619701045441
 20
-103.0341216098121
 30
0.0
 11
102.8621034492217
 21
-103.0863525605903
 31
0.0
  0
LINE
  5
20A
  8
BLACK
 10
102.87981111583
 20
-102.9850231544769
 30
0.0
 11
102.8619701045441
 21
-103.0341216098121
 31
0.0
  0
LINE
  5
20B
  8
BLACK
 10
102.9132963566513
 20
-102.9450212964308
 30
0.0
 11
102.87981111583
 21
-102.9850231544769
 31
0.0
  0
LINE
  5
20C
  8
BLACK
 10
102.9583296750715
 20
-102.9190212919681
 30
0.0
 11
102.9132963566513
 21
-102.9450212964308
 31
0.0
  0
LINE
  5
20D
  8
BLACK
 10
103.0097149189653
 20
-102.9100231416037
 30
0.0
 11
102.9583296750715
 21
-102.9190212919681
 31
0.0
  0
LINE
  5
20E
  8
BLACK
 10
103.0611559360183
 20
-102.9191215900731
 30
0.0
 11
103.0097149189653
 21
-102.9100231416037
 31
0.0
  0
LINE
  5
20F
  8
BLACK
 10
103.1063225991161
 20
-102.9453525363886
 30
0.0
 11
103.0611559360183
 21
-102.9191215900731
 31
0.0
  0
LINE
  5
210
  8
BLACK
 10
103.1407328570783
 20
-102.9849528412735
 30
0.0
 11
103.1063225991161
 21
-102.9453525363886
 31
0.0
  0
LINE
  5
211
  8
BLACK
 10
103.1578226079557
 20
-103.0345531478748
 30
0.0
 11
103.1407328570783
 21
-102.9849528412735
 31
0.0
  0
LINE
  5
212
  8
BLACK
 10
103.1579559526333
 20
-103.086784098653
 30
0.0
 11
103.1578226079557
 21
-103.0345531478748
 31
0.0
  0
LINE
  5
213
  8
BLACK
 10
103.1401149413475
 20
-103.1358825539882
 30
0.0
 11
103.1579559526333
 21
-103.086784098653
 31
0.0
  0
LINE
  5
214
  8
BLACK
 10
103.1066297005262
 20
-103.1758844120343
 30
0.0
 11
103.1401149413475
 21
-103.1358825539882
 31
0.0
  0
LINE
  5
215
  8
BLACK
 10
103.0615963821059
 20
-103.201884416497
 30
0.0
 11
103.1066297005262
 21
-103.1758844120343
 31
0.0
  0
LINE
  5
216
  8
BLACK
 10
103.0102111382122
 20
-103.2108825668614
 30
0.0
 11
103.0615963821059
 21
-103.201884416497
 31
0.0
  0
LINE
  5
217
  8
BLACK
 10
102.9587701211592
 20
-103.201784118392
 30
0.0
 11
103.0102111382122
 21
-103.2108825668614
 31
0.0
  0
LINE
  5
218
  8
BLACK
 10
102.9136034580614
 20
-103.1755531720765
 30
0.0
 11
102.9587701211592
 21
-103.201784118392
 31
0.0
  0
LINE
  5
219
  8
BLACK
 10
102.8791932000992
 20
-103.1359528671916
 30
0.0
 11
102.9136034580614
 21
-103.1755531720765
 31
0.0
  0
LINE
  5
21A
  8
BLACK
 10
102.8621034492217
 20
-103.0863525605903
 30
0.0
 11
102.8791932000992
 21
-103.1359528671916
 31
0.0
  0
LINE
  5
21B
  8
BLACK
 10
102.8619701045441
 20
-103.0341216098121
 30
0.0
 11
102.8621034492217
 21
-103.0863525605903
 31
0.0
  0
LINE
  5
21C
  8
BLACK
 10
102.87981111583
 20
-102.9850231544769
 30
0.0
 11
102.8619701045441
 21
-103.0341216098121
 31
0.0
  0
LINE
  5
21D
  8
BLACK
 10
102.9132963566513
 20
-102.9450212964308
 30
0.0
 11
102.87981111583
 21
-102.9850231544769
 31
0.0
  0
LINE
  5
21E
  8
BLACK
 10
102.9574636497173
 20
-102.9195212920539
 30
0.0
 11
102.9132963566513
 21
-102.9450212964308
 31
0.0
  0
LINE
  5
21F
  8
BLACK
 10
101.8749321057769
 20
-103.5445212418721
 30
0.0
 11
101.91909940137
 21
-103.5190212418721
 31
0.0
  0
LINE
  5
220
  8
BLACK
 10
101.91909940137
 20
-103.5190212418721
 30
0.0
 11
101.9704846461554
 21
-103.5100230965999
 31
0.0
  0
LINE
  5
221
  8
BLACK
 10
101.9704846461554
 20
-103.5100230965999
 30
0.0
 11
102.0219256623068
 21
-103.519121550167
 31
0.0
  0
LINE
  5
222
  8
BLACK
 10
102.0219256623068
 20
-103.519121550167
 30
0.0
 11
102.0670923228052
 21
-103.5453525009585
 31
0.0
  0
LINE
  5
223
  8
BLACK
 10
102.0670923228052
 20
-103.5453525009585
 30
0.0
 11
102.101502576843
 21
-103.5849528092534
 31
0.0
  0
LINE
  5
224
  8
BLACK
 10
102.101502576843
 20
-103.5849528092534
 30
0.0
 11
102.1185923228052
 21
-103.6345531175483
 31
0.0
  0
LINE
  5
225
  8
BLACK
 10
102.1185923228052
 20
-103.6345531175483
 30
0.0
 11
102.1187256623068
 21
-103.6867840683397
 31
0.0
  0
LINE
  5
226
  8
BLACK
 10
102.1187256623068
 20
-103.6867840683397
 30
0.0
 11
102.1008846461554
 21
-103.7358825219068
 31
0.0
  0
LINE
  5
227
  8
BLACK
 10
102.1008846461554
 20
-103.7358825219068
 30
0.0
 11
102.06739940137
 21
-103.7758843766346
 31
0.0
  0
LINE
  5
228
  8
BLACK
 10
102.06739940137
 20
-103.7758843766346
 30
0.0
 11
102.0223660803732
 21
-103.8018843766346
 31
0.0
  0
LINE
  5
229
  8
BLACK
 10
102.0223660803732
 20
-103.8018843766346
 30
0.0
 11
101.9709808355877
 21
-103.8108825219068
 31
0.0
  0
LINE
  5
22A
  8
BLACK
 10
101.9709808355877
 20
-103.8108825219068
 30
0.0
 11
101.9195398194364
 21
-103.8017840683397
 31
0.0
  0
LINE
  5
22B
  8
BLACK
 10
101.9195398194364
 20
-103.8017840683397
 30
0.0
 11
101.874373158938
 21
-103.7755531175483
 31
0.0
  0
LINE
  5
22C
  8
BLACK
 10
101.874373158938
 20
-103.7755531175483
 30
0.0
 11
101.8399629049001
 21
-103.7359528092533
 31
0.0
  0
LINE
  5
22D
  8
BLACK
 10
101.8399629049001
 20
-103.7359528092533
 30
0.0
 11
101.822873158938
 21
-103.6863525009584
 31
0.0
  0
LINE
  5
22E
  8
BLACK
 10
101.822873158938
 20
-103.6863525009584
 30
0.0
 11
101.8227398194364
 21
-103.634121550167
 31
0.0
  0
LINE
  5
22F
  8
BLACK
 10
101.8227398194364
 20
-103.634121550167
 30
0.0
 11
101.8405808355877
 21
-103.5850230965999
 31
0.0
  0
LINE
  5
230
  8
BLACK
 10
101.8405808355877
 20
-103.5850230965999
 30
0.0
 11
101.8740660803732
 21
-103.5450212418721
 31
0.0
  0
LINE
  5
231
  8
BLACK
 10
101.8740660803732
 20
-103.5450212418721
 30
0.0
 11
101.91909940137
 21
-103.5190212418721
 31
0.0
  0
LINE
  5
232
  8
BLACK
 10
101.91909940137
 20
-103.5190212418721
 30
0.0
 11
101.9704846461554
 21
-103.5100230965999
 31
0.0
  0
LINE
  5
233
  8
BLACK
 10
101.9704846461554
 20
-103.5100230965999
 30
0.0
 11
102.0219256623068
 21
-103.519121550167
 31
0.0
  0
LINE
  5
234
  8
BLACK
 10
102.0219256623068
 20
-103.519121550167
 30
0.0
 11
102.0670923228052
 21
-103.5453525009585
 31
0.0
  0
LINE
  5
235
  8
BLACK
 10
102.0670923228052
 20
-103.5453525009585
 30
0.0
 11
102.101502576843
 21
-103.5849528092534
 31
0.0
  0
LINE
  5
236
  8
BLACK
 10
102.101502576843
 20
-103.5849528092534
 30
0.0
 11
102.1185923228052
 21
-103.6345531175483
 31
0.0
  0
LINE
  5
237
  8
BLACK
 10
102.1185923228052
 20
-103.6345531175483
 30
0.0
 11
102.1187256623068
 21
-103.6867840683397
 31
0.0
  0
LINE
  5
238
  8
BLACK
 10
102.1187256623068
 20
-103.6867840683397
 30
0.0
 11
102.1008846461554
 21
-103.7358825219068
 31
0.0
  0
LINE
  5
239
  8
BLACK
 10
102.1008846461554
 20
-103.7358825219068
 30
0.0
 11
102.06739940137
 21
-103.7758843766346
 31
0.0
  0
LINE
  5
23A
  8
BLACK
 10
102.06739940137
 20
-103.7758843766346
 30
0.0
 11
102.023232105777
 21
-103.8013843766346
 31
0.0
  0
LINE
  5
23B
  8
BLACK
 10
102.023232105777
 20
-103.8013843766346
 30
0.0
 11
102.1249321057769
 21
-103.9775339437643
 31
0.0
  0
LINE
  5
23C
  8
BLACK
 10
102.1249321057769
 20
-103.9775339437643
 30
0.0
 11
102.16909940137
 21
-103.9520339437643
 31
0.0
  0
LINE
  5
23D
  8
BLACK
 10
102.16909940137
 20
-103.9520339437643
 30
0.0
 11
102.2204846461554
 21
-103.9430357984921
 31
0.0
  0
LINE
  5
23E
  8
BLACK
 10
102.2204846461554
 20
-103.9430357984921
 30
0.0
 11
102.2719256623068
 21
-103.9521342520592
 31
0.0
  0
LINE
  5
23F
  8
BLACK
 10
102.2719256623068
 20
-103.9521342520592
 30
0.0
 11
102.3170923228052
 21
-103.9783652028507
 31
0.0
  0
LINE
  5
240
  8
BLACK
 10
102.3170923228052
 20
-103.9783652028507
 30
0.0
 11
102.351502576843
 21
-104.0179655111456
 31
0.0
  0
LINE
  5
241
  8
BLACK
 10
102.351502576843
 20
-104.0179655111456
 30
0.0
 11
102.3685923228052
 21
-104.0675658194405
 31
0.0
  0
LINE
  5
242
  8
BLACK
 10
102.3685923228052
 20
-104.0675658194405
 30
0.0
 11
102.3687256623068
 21
-104.1197967702319
 31
0.0
  0
LINE
  5
243
  8
BLACK
 10
102.3687256623068
 20
-104.1197967702319
 30
0.0
 11
102.3508846461554
 21
-104.1688952237991
 31
0.0
  0
LINE
  5
244
  8
BLACK
 10
102.3508846461554
 20
-104.1688952237991
 30
0.0
 11
102.31739940137
 21
-104.2088970785268
 31
0.0
  0
LINE
  5
245
  8
BLACK
 10
102.31739940137
 20
-104.2088970785268
 30
0.0
 11
102.2723660803732
 21
-104.2348970785268
 31
0.0
  0
LINE
  5
246
  8
BLACK
 10
102.2723660803732
 20
-104.2348970785268
 30
0.0
 11
102.2209808355877
 21
-104.243895223799
 31
0.0
  0
LINE
  5
247
  8
BLACK
 10
102.2209808355877
 20
-104.243895223799
 30
0.0
 11
102.1695398194364
 21
-104.2347967702319
 31
0.0
  0
LINE
  5
248
  8
BLACK
 10
102.1695398194364
 20
-104.2347967702319
 30
0.0
 11
102.124373158938
 21
-104.2085658194405
 31
0.0
  0
LINE
  5
249
  8
BLACK
 10
102.124373158938
 20
-104.2085658194405
 30
0.0
 11
102.0899629049001
 21
-104.1689655111456
 31
0.0
  0
LINE
  5
24A
  8
BLACK
 10
102.0899629049001
 20
-104.1689655111456
 30
0.0
 11
102.072873158938
 21
-104.1193652028507
 31
0.0
  0
LINE
  5
24B
  8
BLACK
 10
102.072873158938
 20
-104.1193652028507
 30
0.0
 11
102.0727398194364
 21
-104.0671342520592
 31
0.0
  0
LINE
  5
24C
  8
BLACK
 10
102.0727398194364
 20
-104.0671342520592
 30
0.0
 11
102.0905808355877
 21
-104.0180357984921
 31
0.0
  0
LINE
  5
24D
  8
BLACK
 10
102.0905808355877
 20
-104.0180357984921
 30
0.0
 11
102.1240660803732
 21
-103.9780339437643
 31
0.0
  0
LINE
  5
24E
  8
BLACK
 10
102.1240660803732
 20
-103.9780339437643
 30
0.0
 11
102.16909940137
 21
-103.9520339437643
 31
0.0
  0
LINE
  5
24F
  8
BLACK
 10
102.16909940137
 20
-103.9520339437643
 30
0.0
 11
102.2204846461554
 21
-103.9430357984921
 31
0.0
  0
LINE
  5
250
  8
BLACK
 10
102.2204846461554
 20
-103.9430357984921
 30
0.0
 11
102.2719256623068
 21
-103.9521342520592
 31
0.0
  0
LINE
  5
251
  8
BLACK
 10
102.2719256623068
 20
-103.9521342520592
 30
0.0
 11
102.3170923228052
 21
-103.9783652028507
 31
0.0
  0
LINE
  5
252
  8
BLACK
 10
102.3170923228052
 20
-103.9783652028507
 30
0.0
 11
102.351502576843
 21
-104.0179655111456
 31
0.0
  0
LINE
  5
253
  8
BLACK
 10
102.351502576843
 20
-104.0179655111456
 30
0.0
 11
102.3685923228052
 21
-104.0675658194405
 31
0.0
  0
LINE
  5
254
  8
BLACK
 10
102.3685923228052
 20
-104.0675658194405
 30
0.0
 11
102.3687256623068
 21
-104.1197967702319
 31
0.0
  0
LINE
  5
255
  8
BLACK
 10
102.3687256623068
 20
-104.1197967702319
 30
0.0
 11
102.3508846461554
 21
-104.1688952237991
 31
0.0
  0
LINE
  5
256
  8
BLACK
 10
102.3508846461554
 20
-104.1688952237991
 30
0.0
 11
102.31739940137
 21
-104.2088970785268
 31
0.0
  0
LINE
  5
257
  8
BLACK
 10
102.31739940137
 20
-104.2088970785268
 30
0.0
 11
102.273232105777
 21
-104.2343970785268
 31
0.0
  0
LINE
  5
258
  8
BLACK
 10
102.273232105777
 20
-104.2343970785268
 30
0.0
 11
102.3749321057769
 21
-104.4105466456566
 31
0.0
  0
LINE
  5
259
  8
BLACK
 10
102.3749321057769
 20
-104.4105466456566
 30
0.0
 11
102.41909940137
 21
-104.3850466456565
 31
0.0
  0
LINE
  5
25A
  8
BLACK
 10
102.41909940137
 20
-104.3850466456565
 30
0.0
 11
102.4704846461554
 21
-104.3760485003843
 31
0.0
  0
LINE
  5
25B
  8
BLACK
 10
102.4704846461554
 20
-104.3760485003843
 30
0.0
 11
102.5219256623068
 21
-104.3851469539515
 31
0.0
  0
LINE
  5
25C
  8
BLACK
 10
102.5219256623068
 20
-104.3851469539515
 30
0.0
 11
102.5670923228052
 21
-104.4113779047429
 31
0.0
  0
LINE
  5
25D
  8
BLACK
 10
102.5670923228052
 20
-104.4113779047429
 30
0.0
 11
102.601502576843
 21
-104.4509782130378
 31
0.0
  0
LINE
  5
25E
  8
BLACK
 10
102.601502576843
 20
-104.4509782130378
 30
0.0
 11
102.6183423228052
 21
-104.5001455086308
 31
0.0
  0
LINE
  5
25F
  8
BLACK
 10
102.6183423228052
 20
-104.5001455086308
 30
0.0
 11
102.6188256623068
 21
-104.5529826772049
 31
0.0
  0
LINE
  5
260
  8
BLACK
 10
102.6188256623068
 20
-104.5529826772049
 30
0.0
 11
102.6006846461554
 21
-104.6015615155298
 31
0.0
  0
LINE
  5
261
  8
BLACK
 10
102.6006846461554
 20
-104.6015615155298
 30
0.0
 11
102.56724940137
 21
-104.6416499727979
 31
0.0
  0
LINE
  5
262
  8
BLACK
 10
102.56724940137
 20
-104.6416499727979
 30
0.0
 11
102.5222160803732
 21
-104.6676499727979
 31
0.0
  0
LINE
  5
263
  8
BLACK
 10
102.5222160803732
 20
-104.6676499727979
 30
0.0
 11
102.4707808355877
 21
-104.6765615155298
 31
0.0
  0
LINE
  5
264
  8
BLACK
 10
102.4707808355877
 20
-104.6765615155298
 30
0.0
 11
102.4196398194364
 21
-104.6679826772049
 31
0.0
  0
LINE
  5
265
  8
BLACK
 10
102.4196398194364
 20
-104.6679826772049
 30
0.0
 11
102.3741231589379
 21
-104.6411455086308
 31
0.0
  0
LINE
  5
266
  8
BLACK
 10
102.3741231589379
 20
-104.6411455086308
 30
0.0
 11
102.3399629049001
 21
-104.6019782130378
 31
0.0
  0
LINE
  5
267
  8
BLACK
 10
102.3399629049001
 20
-104.6019782130378
 30
0.0
 11
102.322873158938
 21
-104.5523779047429
 31
0.0
  0
LINE
  5
268
  8
BLACK
 10
102.322873158938
 20
-104.5523779047429
 30
0.0
 11
102.3227398194364
 21
-104.5001469539515
 31
0.0
  0
LINE
  5
269
  8
BLACK
 10
102.3227398194364
 20
-104.5001469539515
 30
0.0
 11
102.3405808355877
 21
-104.4510485003843
 31
0.0
  0
LINE
  5
26A
  8
BLACK
 10
102.3405808355877
 20
-104.4510485003843
 30
0.0
 11
102.3740660803732
 21
-104.4110466456566
 31
0.0
  0
LINE
  5
26B
  8
BLACK
 10
102.3740660803732
 20
-104.4110466456566
 30
0.0
 11
102.41909940137
 21
-104.3850466456565
 31
0.0
  0
LINE
  5
26C
  8
BLACK
 10
102.41909940137
 20
-104.3850466456565
 30
0.0
 11
102.4704846461554
 21
-104.3760485003843
 31
0.0
  0
LINE
  5
26D
  8
BLACK
 10
102.4704846461554
 20
-104.3760485003843
 30
0.0
 11
102.5219256623068
 21
-104.3851469539515
 31
0.0
  0
LINE
  5
26E
  8
BLACK
 10
102.5219256623068
 20
-104.3851469539515
 30
0.0
 11
102.5670923228052
 21
-104.4113779047429
 31
0.0
  0
LINE
  5
26F
  8
BLACK
 10
102.5670923228052
 20
-104.4113779047429
 30
0.0
 11
102.601502576843
 21
-104.4509782130378
 31
0.0
  0
LINE
  5
270
  8
BLACK
 10
102.601502576843
 20
-104.4509782130378
 30
0.0
 11
102.6183423228052
 21
-104.5001455086308
 31
0.0
  0
LINE
  5
271
  8
BLACK
 10
102.6183423228052
 20
-104.5001455086308
 30
0.0
 11
102.6188256623068
 21
-104.5529826772049
 31
0.0
  0
LINE
  5
272
  8
BLACK
 10
102.6188256623068
 20
-104.5529826772049
 30
0.0
 11
102.6006846461554
 21
-104.6015615155298
 31
0.0
  0
LINE
  5
273
  8
BLACK
 10
102.6006846461554
 20
-104.6015615155298
 30
0.0
 11
102.56724940137
 21
-104.6416499727979
 31
0.0
  0
LINE
  5
274
  8
BLACK
 10
102.56724940137
 20
-104.6416499727979
 30
0.0
 11
102.523082105777
 21
-104.6671499727979
 31
0.0
  0
LINE
  5
275
  8
BLACK
 10
102.523082105777
 20
-104.6671499727979
 30
0.0
 11
102.625082105777
 21
-104.8438191551699
 31
0.0
  0
LINE
  5
276
  8
BLACK
 10
102.625082105777
 20
-104.8438191551699
 30
0.0
 11
102.66924940137
 21
-104.8183191551699
 31
0.0
  0
LINE
  5
277
  8
BLACK
 10
102.66924940137
 20
-104.8183191551699
 30
0.0
 11
102.7206846461554
 21
-104.809407612438
 31
0.0
  0
LINE
  5
278
  8
BLACK
 10
102.7206846461554
 20
-104.809407612438
 30
0.0
 11
102.7718256623068
 21
-104.8179864507629
 31
0.0
  0
LINE
  5
279
  8
BLACK
 10
102.7718256623068
 20
-104.8179864507629
 30
0.0
 11
102.8173423228052
 21
-104.844823619337
 31
0.0
  0
LINE
  5
27A
  8
BLACK
 10
102.8173423228052
 20
-104.844823619337
 30
0.0
 11
102.851502576843
 21
-104.88399091493
 31
0.0
  0
LINE
  5
27B
  8
BLACK
 10
102.851502576843
 20
-104.88399091493
 30
0.0
 11
102.8683423228052
 21
-104.933158210523
 31
0.0
  0
LINE
  5
27C
  8
BLACK
 10
102.8683423228052
 20
-104.933158210523
 30
0.0
 11
102.8688256623068
 21
-104.9859953790971
 31
0.0
  0
LINE
  5
27D
  8
BLACK
 10
102.8688256623068
 20
-104.9859953790971
 30
0.0
 11
102.8506846461554
 21
-105.034574217422
 31
0.0
  0
LINE
  5
27E
  8
BLACK
 10
102.8506846461554
 20
-105.034574217422
 30
0.0
 11
102.81724940137
 21
-105.0746626746901
 31
0.0
  0
LINE
  5
27F
  8
BLACK
 10
102.81724940137
 20
-105.0746626746901
 30
0.0
 11
102.7722160803732
 21
-105.1006626746901
 31
0.0
  0
LINE
  5
280
  8
BLACK
 10
102.7722160803732
 20
-105.1006626746901
 30
0.0
 11
102.7207808355877
 21
-105.109574217422
 31
0.0
  0
LINE
  5
281
  8
BLACK
 10
102.7207808355877
 20
-105.109574217422
 30
0.0
 11
102.6696398194364
 21
-105.1009953790971
 31
0.0
  0
LINE
  5
282
  8
BLACK
 10
102.6696398194364
 20
-105.1009953790971
 30
0.0
 11
102.6241231589379
 21
-105.074158210523
 31
0.0
  0
LINE
  5
283
  8
BLACK
 10
102.6241231589379
 20
-105.074158210523
 30
0.0
 11
102.5899629049001
 21
-105.03499091493
 31
0.0
  0
LINE
  5
284
  8
BLACK
 10
102.5899629049001
 20
-105.03499091493
 30
0.0
 11
102.573123158938
 21
-104.985823619337
 31
0.0
  0
LINE
  5
285
  8
BLACK
 10
102.573123158938
 20
-104.985823619337
 30
0.0
 11
102.5726398194363
 21
-104.9329864507629
 31
0.0
  0
LINE
  5
286
  8
BLACK
 10
102.5726398194363
 20
-104.9329864507629
 30
0.0
 11
102.5907808355877
 21
-104.884407612438
 31
0.0
  0
LINE
  5
287
  8
BLACK
 10
102.5907808355877
 20
-104.884407612438
 30
0.0
 11
102.6242160803732
 21
-104.8443191551699
 31
0.0
  0
LINE
  5
288
  8
BLACK
 10
102.6242160803732
 20
-104.8443191551699
 30
0.0
 11
102.66924940137
 21
-104.8183191551699
 31
0.0
  0
LINE
  5
289
  8
BLACK
 10
102.66924940137
 20
-104.8183191551699
 30
0.0
 11
102.7206846461554
 21
-104.809407612438
 31
0.0
  0
LINE
  5
28A
  8
BLACK
 10
102.7206846461554
 20
-104.809407612438
 30
0.0
 11
102.7718256623068
 21
-104.8179864507629
 31
0.0
  0
LINE
  5
28B
  8
BLACK
 10
102.7718256623068
 20
-104.8179864507629
 30
0.0
 11
102.8173423228052
 21
-104.844823619337
 31
0.0
  0
LINE
  5
28C
  8
BLACK
 10
102.8173423228052
 20
-104.844823619337
 30
0.0
 11
102.851502576843
 21
-104.88399091493
 31
0.0
  0
LINE
  5
28D
  8
BLACK
 10
102.851502576843
 20
-104.88399091493
 30
0.0
 11
102.8683423228052
 21
-104.933158210523
 31
0.0
  0
LINE
  5
28E
  8
BLACK
 10
102.8683423228052
 20
-104.933158210523
 30
0.0
 11
102.8688256623068
 21
-104.9859953790971
 31
0.0
  0
LINE
  5
28F
  8
BLACK
 10
102.8688256623068
 20
-104.9859953790971
 30
0.0
 11
102.8506846461554
 21
-105.034574217422
 31
0.0
  0
LINE
  5
290
  8
BLACK
 10
102.8506846461554
 20
-105.034574217422
 30
0.0
 11
102.81724940137
 21
-105.0746626746901
 31
0.0
  0
LINE
  5
291
  8
BLACK
 10
102.81724940137
 20
-105.0746626746901
 30
0.0
 11
102.773082105777
 21
-105.1001626746901
 31
0.0
  0
LINE
  5
292
  8
BLACK
 10
102.773082105777
 20
-105.1001626746901
 30
0.0
 11
102.875082105777
 21
-105.2768318570621
 31
0.0
  0
LINE
  5
293
  8
BLACK
 10
102.875082105777
 20
-105.2768318570621
 30
0.0
 11
102.91924940137
 21
-105.2513318570621
 31
0.0
  0
LINE
  5
294
  8
BLACK
 10
102.91924940137
 20
-105.2513318570621
 30
0.0
 11
102.9706846461554
 21
-105.2424203143303
 31
0.0
  0
LINE
  5
295
  8
BLACK
 10
102.9706846461554
 20
-105.2424203143303
 30
0.0
 11
103.0218256623068
 21
-105.2509991526552
 31
0.0
  0
LINE
  5
296
  8
BLACK
 10
103.0218256623068
 20
-105.2509991526552
 30
0.0
 11
103.0673423228052
 21
-105.2778363212292
 31
0.0
  0
LINE
  5
297
  8
BLACK
 10
103.0673423228052
 20
-105.2778363212292
 30
0.0
 11
103.101502576843
 21
-105.3170036168222
 31
0.0
  0
LINE
  5
298
  8
BLACK
 10
103.101502576843
 20
-105.3170036168222
 30
0.0
 11
103.1183423228052
 21
-105.3661709124152
 31
0.0
  0
LINE
  5
299
  8
BLACK
 10
103.1183423228052
 20
-105.3661709124152
 30
0.0
 11
103.1188256623068
 21
-105.4190080809893
 31
0.0
  0
LINE
  5
29A
  8
BLACK
 10
103.1188256623068
 20
-105.4190080809893
 30
0.0
 11
103.1006846461554
 21
-105.4675869193142
 31
0.0
  0
LINE
  5
29B
  8
BLACK
 10
103.1006846461554
 20
-105.4675869193142
 30
0.0
 11
103.06724940137
 21
-105.5076753765823
 31
0.0
  0
LINE
  5
29C
  8
BLACK
 10
103.06724940137
 20
-105.5076753765823
 30
0.0
 11
103.0222160803732
 21
-105.5336753765823
 31
0.0
  0
LINE
  5
29D
  8
BLACK
 10
103.0222160803732
 20
-105.5336753765823
 30
0.0
 11
102.9707808355877
 21
-105.5425869193142
 31
0.0
  0
LINE
  5
29E
  8
BLACK
 10
102.9707808355877
 20
-105.5425869193142
 30
0.0
 11
102.9196398194364
 21
-105.5340080809893
 31
0.0
  0
LINE
  5
29F
  8
BLACK
 10
102.9196398194364
 20
-105.5340080809893
 30
0.0
 11
102.8741231589379
 21
-105.5071709124152
 31
0.0
  0
LINE
  5
2A0
  8
BLACK
 10
102.8741231589379
 20
-105.5071709124152
 30
0.0
 11
102.8399629049001
 21
-105.4680036168222
 31
0.0
  0
LINE
  5
2A1
  8
BLACK
 10
102.8399629049001
 20
-105.4680036168222
 30
0.0
 11
102.823123158938
 21
-105.4188363212292
 31
0.0
  0
LINE
  5
2A2
  8
BLACK
 10
102.823123158938
 20
-105.4188363212292
 30
0.0
 11
102.8226398194363
 21
-105.3659991526552
 31
0.0
  0
LINE
  5
2A3
  8
BLACK
 10
102.8226398194363
 20
-105.3659991526552
 30
0.0
 11
102.8407808355877
 21
-105.3174203143302
 31
0.0
  0
LINE
  5
2A4
  8
BLACK
 10
102.8407808355877
 20
-105.3174203143302
 30
0.0
 11
102.8742160803732
 21
-105.2773318570621
 31
0.0
  0
LINE
  5
2A5
  8
BLACK
 10
102.8742160803732
 20
-105.2773318570621
 30
0.0
 11
102.91924940137
 21
-105.2513318570621
 31
0.0
  0
LINE
  5
2A6
  8
BLACK
 10
102.91924940137
 20
-105.2513318570621
 30
0.0
 11
102.9706846461554
 21
-105.2424203143303
 31
0.0
  0
LINE
  5
2A7
  8
BLACK
 10
102.9706846461554
 20
-105.2424203143303
 30
0.0
 11
103.0218256623068
 21
-105.2509991526552
 31
0.0
  0
LINE
  5
2A8
  8
BLACK
 10
103.0218256623068
 20
-105.2509991526552
 30
0.0
 11
103.0673423228052
 21
-105.2778363212292
 31
0.0
  0
LINE
  5
2A9
  8
BLACK
 10
103.0673423228052
 20
-105.2778363212292
 30
0.0
 11
103.101502576843
 21
-105.3170036168222
 31
0.0
  0
LINE
  5
2AA
  8
BLACK
 10
103.101502576843
 20
-105.3170036168222
 30
0.0
 11
103.1183423228052
 21
-105.3661709124152
 31
0.0
  0
LINE
  5
2AB
  8
BLACK
 10
103.1183423228052
 20
-105.3661709124152
 30
0.0
 11
103.1188256623068
 21
-105.4190080809893
 31
0.0
  0
LINE
  5
2AC
  8
BLACK
 10
103.1188256623068
 20
-105.4190080809893
 30
0.0
 11
103.1006846461554
 21
-105.4675869193142
 31
0.0
  0
LINE
  5
2AD
  8
BLACK
 10
103.1006846461554
 20
-105.4675869193142
 30
0.0
 11
103.06724940137
 21
-105.5076753765823
 31
0.0
  0
LINE
  5
2AE
  8
BLACK
 10
103.06724940137
 20
-105.5076753765823
 30
0.0
 11
103.023082105777
 21
-105.5331753765823
 31
0.0
  0
ENDSEC
  0
EOF
