G04 #@! TF.FileFunction,Paste,Top*
%FSLAX46Y46*%
G04 Gerber Fmt 4.6, Leading zero omitted, Abs format (unit mm)*
G04 Created by KiCad (PCBNEW 4.0.4-stable) date Tuesday, June 20, 2017 'PMt' 01:16:25 PM*
%MOMM*%
%LPD*%
G01*
G04 APERTURE LIST*
%ADD10C,0.150000*%
%ADD11C,0.200000*%
G04 APERTURE END LIST*
D10*
D11*
X112500000Y-100000000D02*
G75*
G03X112500000Y-100000000I-12500000J0D01*
G01*
D10*
G36*
X97577818Y-103824264D02*
X97224264Y-104177818D01*
X96800000Y-103753554D01*
X97153554Y-103400000D01*
X97577818Y-103824264D01*
X97577818Y-103824264D01*
G37*
G36*
X96800000Y-103046446D02*
X96446446Y-103400000D01*
X96022182Y-102975736D01*
X96375736Y-102622182D01*
X96800000Y-103046446D01*
X96800000Y-103046446D01*
G37*
G36*
X98975736Y-94977818D02*
X98622182Y-94624264D01*
X99046446Y-94200000D01*
X99400000Y-94553554D01*
X98975736Y-94977818D01*
X98975736Y-94977818D01*
G37*
G36*
X99753554Y-94200000D02*
X99400000Y-93846446D01*
X99824264Y-93422182D01*
X100177818Y-93775736D01*
X99753554Y-94200000D01*
X99753554Y-94200000D01*
G37*
G36*
X102477818Y-107324264D02*
X102124264Y-107677818D01*
X101700000Y-107253554D01*
X102053554Y-106900000D01*
X102477818Y-107324264D01*
X102477818Y-107324264D01*
G37*
G36*
X101700000Y-106546446D02*
X101346446Y-106900000D01*
X100922182Y-106475736D01*
X101275736Y-106122182D01*
X101700000Y-106546446D01*
X101700000Y-106546446D01*
G37*
G36*
X96375736Y-97577818D02*
X96022182Y-97224264D01*
X96446446Y-96800000D01*
X96800000Y-97153554D01*
X96375736Y-97577818D01*
X96375736Y-97577818D01*
G37*
G36*
X97153554Y-96800000D02*
X96800000Y-96446446D01*
X97224264Y-96022182D01*
X97577818Y-96375736D01*
X97153554Y-96800000D01*
X97153554Y-96800000D01*
G37*
G36*
X105478249Y-95652513D02*
X105902513Y-95228249D01*
X106185355Y-95511091D01*
X105761091Y-95935355D01*
X105478249Y-95652513D01*
X105478249Y-95652513D01*
G37*
G36*
X106114645Y-96288909D02*
X106538909Y-95864645D01*
X106821751Y-96147487D01*
X106397487Y-96571751D01*
X106114645Y-96288909D01*
X106114645Y-96288909D01*
G37*
G36*
X105621751Y-94947487D02*
X105197487Y-95371751D01*
X104914645Y-95088909D01*
X105338909Y-94664645D01*
X105621751Y-94947487D01*
X105621751Y-94947487D01*
G37*
G36*
X104985355Y-94311091D02*
X104561091Y-94735355D01*
X104278249Y-94452513D01*
X104702513Y-94028249D01*
X104985355Y-94311091D01*
X104985355Y-94311091D01*
G37*
G36*
X101060661Y-100636396D02*
X100424265Y-100000000D01*
X101060661Y-99363604D01*
X101697057Y-100000000D01*
X101060661Y-100636396D01*
X101060661Y-100636396D01*
G37*
G36*
X100000001Y-101697056D02*
X99363605Y-101060660D01*
X100000001Y-100424264D01*
X100636397Y-101060660D01*
X100000001Y-101697056D01*
X100000001Y-101697056D01*
G37*
G36*
X98939341Y-100636396D02*
X98302945Y-100000000D01*
X98939341Y-99363604D01*
X99575737Y-100000000D01*
X98939341Y-100636396D01*
X98939341Y-100636396D01*
G37*
G36*
X95492195Y-100795495D02*
X95315418Y-100618718D01*
X95810393Y-100123743D01*
X95987170Y-100300520D01*
X95492195Y-100795495D01*
X95492195Y-100795495D01*
G37*
G36*
X95845749Y-101149049D02*
X95668972Y-100972272D01*
X96163947Y-100477297D01*
X96340724Y-100654074D01*
X95845749Y-101149049D01*
X95845749Y-101149049D01*
G37*
G36*
X96199302Y-101502602D02*
X96022525Y-101325825D01*
X96517500Y-100830850D01*
X96694277Y-101007627D01*
X96199302Y-101502602D01*
X96199302Y-101502602D01*
G37*
G36*
X96552855Y-101856156D02*
X96376078Y-101679379D01*
X96871053Y-101184404D01*
X97047830Y-101361181D01*
X96552855Y-101856156D01*
X96552855Y-101856156D01*
G37*
G36*
X96906409Y-102209709D02*
X96729632Y-102032932D01*
X97224607Y-101537957D01*
X97401384Y-101714734D01*
X96906409Y-102209709D01*
X96906409Y-102209709D01*
G37*
G36*
X97259962Y-102563262D02*
X97083185Y-102386485D01*
X97578160Y-101891510D01*
X97754937Y-102068287D01*
X97259962Y-102563262D01*
X97259962Y-102563262D01*
G37*
G36*
X97613516Y-102916816D02*
X97436739Y-102740039D01*
X97931714Y-102245064D01*
X98108491Y-102421841D01*
X97613516Y-102916816D01*
X97613516Y-102916816D01*
G37*
G36*
X97967069Y-103270369D02*
X97790292Y-103093592D01*
X98285267Y-102598617D01*
X98462044Y-102775394D01*
X97967069Y-103270369D01*
X97967069Y-103270369D01*
G37*
G36*
X98320622Y-103623923D02*
X98143845Y-103447146D01*
X98638820Y-102952171D01*
X98815597Y-103128948D01*
X98320622Y-103623923D01*
X98320622Y-103623923D01*
G37*
G36*
X98674176Y-103977476D02*
X98497399Y-103800699D01*
X98992374Y-103305724D01*
X99169151Y-103482501D01*
X98674176Y-103977476D01*
X98674176Y-103977476D01*
G37*
G36*
X99027729Y-104331029D02*
X98850952Y-104154252D01*
X99345927Y-103659277D01*
X99522704Y-103836054D01*
X99027729Y-104331029D01*
X99027729Y-104331029D01*
G37*
G36*
X99381283Y-104684583D02*
X99204506Y-104507806D01*
X99699481Y-104012831D01*
X99876258Y-104189608D01*
X99381283Y-104684583D01*
X99381283Y-104684583D01*
G37*
G36*
X100795496Y-104507806D02*
X100618719Y-104684583D01*
X100123744Y-104189608D01*
X100300521Y-104012831D01*
X100795496Y-104507806D01*
X100795496Y-104507806D01*
G37*
G36*
X101149050Y-104154252D02*
X100972273Y-104331029D01*
X100477298Y-103836054D01*
X100654075Y-103659277D01*
X101149050Y-104154252D01*
X101149050Y-104154252D01*
G37*
G36*
X101502603Y-103800699D02*
X101325826Y-103977476D01*
X100830851Y-103482501D01*
X101007628Y-103305724D01*
X101502603Y-103800699D01*
X101502603Y-103800699D01*
G37*
G36*
X101856157Y-103447146D02*
X101679380Y-103623923D01*
X101184405Y-103128948D01*
X101361182Y-102952171D01*
X101856157Y-103447146D01*
X101856157Y-103447146D01*
G37*
G36*
X102209710Y-103093592D02*
X102032933Y-103270369D01*
X101537958Y-102775394D01*
X101714735Y-102598617D01*
X102209710Y-103093592D01*
X102209710Y-103093592D01*
G37*
G36*
X102563263Y-102740039D02*
X102386486Y-102916816D01*
X101891511Y-102421841D01*
X102068288Y-102245064D01*
X102563263Y-102740039D01*
X102563263Y-102740039D01*
G37*
G36*
X102916817Y-102386485D02*
X102740040Y-102563262D01*
X102245065Y-102068287D01*
X102421842Y-101891510D01*
X102916817Y-102386485D01*
X102916817Y-102386485D01*
G37*
G36*
X103270370Y-102032932D02*
X103093593Y-102209709D01*
X102598618Y-101714734D01*
X102775395Y-101537957D01*
X103270370Y-102032932D01*
X103270370Y-102032932D01*
G37*
G36*
X103623924Y-101679379D02*
X103447147Y-101856156D01*
X102952172Y-101361181D01*
X103128949Y-101184404D01*
X103623924Y-101679379D01*
X103623924Y-101679379D01*
G37*
G36*
X103977477Y-101325825D02*
X103800700Y-101502602D01*
X103305725Y-101007627D01*
X103482502Y-100830850D01*
X103977477Y-101325825D01*
X103977477Y-101325825D01*
G37*
G36*
X104331030Y-100972272D02*
X104154253Y-101149049D01*
X103659278Y-100654074D01*
X103836055Y-100477297D01*
X104331030Y-100972272D01*
X104331030Y-100972272D01*
G37*
G36*
X104684584Y-100618718D02*
X104507807Y-100795495D01*
X104012832Y-100300520D01*
X104189609Y-100123743D01*
X104684584Y-100618718D01*
X104684584Y-100618718D01*
G37*
G36*
X104189609Y-99876257D02*
X104012832Y-99699480D01*
X104507807Y-99204505D01*
X104684584Y-99381282D01*
X104189609Y-99876257D01*
X104189609Y-99876257D01*
G37*
G36*
X103836055Y-99522703D02*
X103659278Y-99345926D01*
X104154253Y-98850951D01*
X104331030Y-99027728D01*
X103836055Y-99522703D01*
X103836055Y-99522703D01*
G37*
G36*
X103482502Y-99169150D02*
X103305725Y-98992373D01*
X103800700Y-98497398D01*
X103977477Y-98674175D01*
X103482502Y-99169150D01*
X103482502Y-99169150D01*
G37*
G36*
X103128949Y-98815596D02*
X102952172Y-98638819D01*
X103447147Y-98143844D01*
X103623924Y-98320621D01*
X103128949Y-98815596D01*
X103128949Y-98815596D01*
G37*
G36*
X102775395Y-98462043D02*
X102598618Y-98285266D01*
X103093593Y-97790291D01*
X103270370Y-97967068D01*
X102775395Y-98462043D01*
X102775395Y-98462043D01*
G37*
G36*
X102421842Y-98108490D02*
X102245065Y-97931713D01*
X102740040Y-97436738D01*
X102916817Y-97613515D01*
X102421842Y-98108490D01*
X102421842Y-98108490D01*
G37*
G36*
X102068288Y-97754936D02*
X101891511Y-97578159D01*
X102386486Y-97083184D01*
X102563263Y-97259961D01*
X102068288Y-97754936D01*
X102068288Y-97754936D01*
G37*
G36*
X101714735Y-97401383D02*
X101537958Y-97224606D01*
X102032933Y-96729631D01*
X102209710Y-96906408D01*
X101714735Y-97401383D01*
X101714735Y-97401383D01*
G37*
G36*
X101361182Y-97047829D02*
X101184405Y-96871052D01*
X101679380Y-96376077D01*
X101856157Y-96552854D01*
X101361182Y-97047829D01*
X101361182Y-97047829D01*
G37*
G36*
X101007628Y-96694276D02*
X100830851Y-96517499D01*
X101325826Y-96022524D01*
X101502603Y-96199301D01*
X101007628Y-96694276D01*
X101007628Y-96694276D01*
G37*
G36*
X100654075Y-96340723D02*
X100477298Y-96163946D01*
X100972273Y-95668971D01*
X101149050Y-95845748D01*
X100654075Y-96340723D01*
X100654075Y-96340723D01*
G37*
G36*
X100300521Y-95987169D02*
X100123744Y-95810392D01*
X100618719Y-95315417D01*
X100795496Y-95492194D01*
X100300521Y-95987169D01*
X100300521Y-95987169D01*
G37*
G36*
X99876258Y-95810392D02*
X99699481Y-95987169D01*
X99204506Y-95492194D01*
X99381283Y-95315417D01*
X99876258Y-95810392D01*
X99876258Y-95810392D01*
G37*
G36*
X99522704Y-96163946D02*
X99345927Y-96340723D01*
X98850952Y-95845748D01*
X99027729Y-95668971D01*
X99522704Y-96163946D01*
X99522704Y-96163946D01*
G37*
G36*
X99169151Y-96517499D02*
X98992374Y-96694276D01*
X98497399Y-96199301D01*
X98674176Y-96022524D01*
X99169151Y-96517499D01*
X99169151Y-96517499D01*
G37*
G36*
X98815597Y-96871052D02*
X98638820Y-97047829D01*
X98143845Y-96552854D01*
X98320622Y-96376077D01*
X98815597Y-96871052D01*
X98815597Y-96871052D01*
G37*
G36*
X98462044Y-97224606D02*
X98285267Y-97401383D01*
X97790292Y-96906408D01*
X97967069Y-96729631D01*
X98462044Y-97224606D01*
X98462044Y-97224606D01*
G37*
G36*
X98108491Y-97578159D02*
X97931714Y-97754936D01*
X97436739Y-97259961D01*
X97613516Y-97083184D01*
X98108491Y-97578159D01*
X98108491Y-97578159D01*
G37*
G36*
X97754937Y-97931713D02*
X97578160Y-98108490D01*
X97083185Y-97613515D01*
X97259962Y-97436738D01*
X97754937Y-97931713D01*
X97754937Y-97931713D01*
G37*
G36*
X97401384Y-98285266D02*
X97224607Y-98462043D01*
X96729632Y-97967068D01*
X96906409Y-97790291D01*
X97401384Y-98285266D01*
X97401384Y-98285266D01*
G37*
G36*
X97047830Y-98638819D02*
X96871053Y-98815596D01*
X96376078Y-98320621D01*
X96552855Y-98143844D01*
X97047830Y-98638819D01*
X97047830Y-98638819D01*
G37*
G36*
X96694277Y-98992373D02*
X96517500Y-99169150D01*
X96022525Y-98674175D01*
X96199302Y-98497398D01*
X96694277Y-98992373D01*
X96694277Y-98992373D01*
G37*
G36*
X96340724Y-99345926D02*
X96163947Y-99522703D01*
X95668972Y-99027728D01*
X95845749Y-98850951D01*
X96340724Y-99345926D01*
X96340724Y-99345926D01*
G37*
G36*
X95987170Y-99699480D02*
X95810393Y-99876257D01*
X95315418Y-99381282D01*
X95492195Y-99204505D01*
X95987170Y-99699480D01*
X95987170Y-99699480D01*
G37*
G36*
X100000001Y-99575736D02*
X99363605Y-98939340D01*
X100000001Y-98302944D01*
X100636397Y-98939340D01*
X100000001Y-99575736D01*
X100000001Y-99575736D01*
G37*
G36*
X104122182Y-103275736D02*
X104475736Y-102922182D01*
X104900000Y-103346446D01*
X104546446Y-103700000D01*
X104122182Y-103275736D01*
X104122182Y-103275736D01*
G37*
G36*
X104900000Y-104053554D02*
X105253554Y-103700000D01*
X105677818Y-104124264D01*
X105324264Y-104477818D01*
X104900000Y-104053554D01*
X104900000Y-104053554D01*
G37*
G36*
X101506443Y-105968216D02*
X101329666Y-105791439D01*
X101824641Y-105296464D01*
X102001418Y-105473241D01*
X101506443Y-105968216D01*
X101506443Y-105968216D01*
G37*
G36*
X101859997Y-106321770D02*
X101683220Y-106144993D01*
X102178195Y-105650018D01*
X102354972Y-105826795D01*
X101859997Y-106321770D01*
X101859997Y-106321770D01*
G37*
G36*
X102213550Y-106675323D02*
X102036773Y-106498546D01*
X102531748Y-106003571D01*
X102708525Y-106180348D01*
X102213550Y-106675323D01*
X102213550Y-106675323D01*
G37*
G36*
X102567104Y-107028877D02*
X102390327Y-106852100D01*
X102885302Y-106357125D01*
X103062079Y-106533902D01*
X102567104Y-107028877D01*
X102567104Y-107028877D01*
G37*
G36*
X104547003Y-105048978D02*
X104370226Y-104872201D01*
X104865201Y-104377226D01*
X105041978Y-104554003D01*
X104547003Y-105048978D01*
X104547003Y-105048978D01*
G37*
G36*
X104193449Y-104695424D02*
X104016672Y-104518647D01*
X104511647Y-104023672D01*
X104688424Y-104200449D01*
X104193449Y-104695424D01*
X104193449Y-104695424D01*
G37*
G36*
X103839896Y-104341871D02*
X103663119Y-104165094D01*
X104158094Y-103670119D01*
X104334871Y-103846896D01*
X103839896Y-104341871D01*
X103839896Y-104341871D01*
G37*
G36*
X103486342Y-103988317D02*
X103309565Y-103811540D01*
X103804540Y-103316565D01*
X103981317Y-103493342D01*
X103486342Y-103988317D01*
X103486342Y-103988317D01*
G37*
G36*
X103976368Y-105728507D02*
X103471493Y-105223632D01*
X103823632Y-104871493D01*
X104328507Y-105376368D01*
X103976368Y-105728507D01*
X103976368Y-105728507D01*
G37*
G36*
X103134911Y-104887050D02*
X102630036Y-104382175D01*
X102982175Y-104030036D01*
X103487050Y-104534911D01*
X103134911Y-104887050D01*
X103134911Y-104887050D01*
G37*
G36*
X103389469Y-106315406D02*
X102884594Y-105810531D01*
X103236733Y-105458392D01*
X103741608Y-105963267D01*
X103389469Y-106315406D01*
X103389469Y-106315406D01*
G37*
G36*
X102548012Y-105473949D02*
X102043137Y-104969074D01*
X102395276Y-104616935D01*
X102900151Y-105121810D01*
X102548012Y-105473949D01*
X102548012Y-105473949D01*
G37*
G36*
X93275736Y-101677818D02*
X92922182Y-101324264D01*
X93346446Y-100900000D01*
X93700000Y-101253554D01*
X93275736Y-101677818D01*
X93275736Y-101677818D01*
G37*
G36*
X94053554Y-100900000D02*
X93700000Y-100546446D01*
X94124264Y-100122182D01*
X94477818Y-100475736D01*
X94053554Y-100900000D01*
X94053554Y-100900000D01*
G37*
G36*
X95222182Y-103775736D02*
X95575736Y-103422182D01*
X96000000Y-103846446D01*
X95646446Y-104200000D01*
X95222182Y-103775736D01*
X95222182Y-103775736D01*
G37*
G36*
X96000000Y-104553554D02*
X96353554Y-104200000D01*
X96777818Y-104624264D01*
X96424264Y-104977818D01*
X96000000Y-104553554D01*
X96000000Y-104553554D01*
G37*
G36*
X98347487Y-94828249D02*
X98771751Y-95252513D01*
X98488909Y-95535355D01*
X98064645Y-95111091D01*
X98347487Y-94828249D01*
X98347487Y-94828249D01*
G37*
G36*
X97711091Y-95464645D02*
X98135355Y-95888909D01*
X97852513Y-96171751D01*
X97428249Y-95747487D01*
X97711091Y-95464645D01*
X97711091Y-95464645D01*
G37*
G36*
X104537348Y-96805546D02*
X105244454Y-97512652D01*
X104714124Y-98042982D01*
X104007018Y-97335876D01*
X104537348Y-96805546D01*
X104537348Y-96805546D01*
G37*
G36*
X105385876Y-95957018D02*
X106092982Y-96664124D01*
X105562652Y-97194454D01*
X104855546Y-96487348D01*
X105385876Y-95957018D01*
X105385876Y-95957018D01*
G37*
G36*
X104312652Y-95944454D02*
X103605546Y-95237348D01*
X104135876Y-94707018D01*
X104842982Y-95414124D01*
X104312652Y-95944454D01*
X104312652Y-95944454D01*
G37*
G36*
X103464124Y-96792982D02*
X102757018Y-96085876D01*
X103287348Y-95555546D01*
X103994454Y-96262652D01*
X103464124Y-96792982D01*
X103464124Y-96792982D01*
G37*
G36*
X95481802Y-95057538D02*
X96082843Y-94456497D01*
X96542462Y-94916116D01*
X95941421Y-95517157D01*
X95481802Y-95057538D01*
X95481802Y-95057538D01*
G37*
G36*
X96082843Y-95658579D02*
X96683884Y-95057538D01*
X97143503Y-95517157D01*
X96542462Y-96118198D01*
X96082843Y-95658579D01*
X96082843Y-95658579D01*
G37*
G36*
X95057538Y-96683884D02*
X95658579Y-96082843D01*
X96118198Y-96542462D01*
X95517157Y-97143503D01*
X95057538Y-96683884D01*
X95057538Y-96683884D01*
G37*
G36*
X94456497Y-96082843D02*
X95057538Y-95481802D01*
X95517157Y-95941421D01*
X94916116Y-96542462D01*
X94456497Y-96082843D01*
X94456497Y-96082843D01*
G37*
G36*
X97959099Y-93300521D02*
X97729289Y-93530331D01*
X97269669Y-93070711D01*
X97499479Y-92840901D01*
X97959099Y-93300521D01*
X97959099Y-93300521D01*
G37*
G36*
X98330330Y-92929290D02*
X98100521Y-93159099D01*
X97941422Y-93000000D01*
X98171231Y-92770191D01*
X98330330Y-92929290D01*
X98330330Y-92929290D01*
G37*
G36*
X98029809Y-92628769D02*
X97800000Y-92858578D01*
X97640901Y-92699479D01*
X97870710Y-92469670D01*
X98029809Y-92628769D01*
X98029809Y-92628769D01*
G37*
G36*
X98759099Y-94100521D02*
X98529289Y-94330331D01*
X98069669Y-93870711D01*
X98299479Y-93640901D01*
X98759099Y-94100521D01*
X98759099Y-94100521D01*
G37*
G36*
X99130330Y-93729290D02*
X98900521Y-93959099D01*
X98741422Y-93800000D01*
X98971231Y-93570191D01*
X99130330Y-93729290D01*
X99130330Y-93729290D01*
G37*
G36*
X98829809Y-93428769D02*
X98600000Y-93658578D01*
X98440901Y-93499479D01*
X98670710Y-93269670D01*
X98829809Y-93428769D01*
X98829809Y-93428769D01*
G37*
G36*
X93959099Y-98900521D02*
X93729289Y-99130331D01*
X93269669Y-98670711D01*
X93499479Y-98440901D01*
X93959099Y-98900521D01*
X93959099Y-98900521D01*
G37*
G36*
X94330330Y-98529290D02*
X94100521Y-98759099D01*
X93941422Y-98600000D01*
X94171231Y-98370191D01*
X94330330Y-98529290D01*
X94330330Y-98529290D01*
G37*
G36*
X94029809Y-98228769D02*
X93800000Y-98458578D01*
X93640901Y-98299479D01*
X93870710Y-98069670D01*
X94029809Y-98228769D01*
X94029809Y-98228769D01*
G37*
G36*
X96652513Y-94671751D02*
X96228249Y-94247487D01*
X96511091Y-93964645D01*
X96935355Y-94388909D01*
X96652513Y-94671751D01*
X96652513Y-94671751D01*
G37*
G36*
X97288909Y-94035355D02*
X96864645Y-93611091D01*
X97147487Y-93328249D01*
X97571751Y-93752513D01*
X97288909Y-94035355D01*
X97288909Y-94035355D01*
G37*
G36*
X97352513Y-95371751D02*
X96928249Y-94947487D01*
X97211091Y-94664645D01*
X97635355Y-95088909D01*
X97352513Y-95371751D01*
X97352513Y-95371751D01*
G37*
G36*
X97988909Y-94735355D02*
X97564645Y-94311091D01*
X97847487Y-94028249D01*
X98271751Y-94452513D01*
X97988909Y-94735355D01*
X97988909Y-94735355D01*
G37*
G36*
X94947487Y-96928249D02*
X95371751Y-97352513D01*
X95088909Y-97635355D01*
X94664645Y-97211091D01*
X94947487Y-96928249D01*
X94947487Y-96928249D01*
G37*
G36*
X94311091Y-97564645D02*
X94735355Y-97988909D01*
X94452513Y-98271751D01*
X94028249Y-97847487D01*
X94311091Y-97564645D01*
X94311091Y-97564645D01*
G37*
M02*
