G04 #@! TF.FileFunction,Soldermask,Bot*
%FSLAX46Y46*%
G04 Gerber Fmt 4.6, Leading zero omitted, Abs format (unit mm)*
G04 Created by KiCad (PCBNEW 4.0.4-stable) date Tuesday, June 20, 2017 'PMt' 01:16:25 PM*
%MOMM*%
%LPD*%
G01*
G04 APERTURE LIST*
%ADD10C,0.150000*%
%ADD11C,0.200000*%
%ADD12C,1.920000*%
%ADD13C,1.820000*%
G04 APERTURE END LIST*
D10*
D11*
X112500000Y-100000000D02*
G75*
G03X112500000Y-100000000I-12500000J0D01*
G01*
D12*
X98000000Y-106000000D03*
X106000000Y-102000000D03*
X102000000Y-94000000D03*
D13*
X108400000Y-96200000D03*
X103800000Y-91600000D03*
X103800000Y-108400000D03*
X96200000Y-91600000D03*
X91600000Y-96200000D03*
X91600000Y-103800000D03*
X108400000Y-103800000D03*
X96200000Y-108400000D03*
M02*
