%TF.GenerationSoftware,KiCad,Pcbnew,4.0.4-stable*%
%TF.CreationDate,2017-06-26T12:37:33-07:00*%
%TF.ProjectId,Skin-Sensor-V3,536B696E2D53656E736F722D56332E6B,rev?*%
%TF.FileFunction,Copper,L2,Bot,Signal*%
%FSLAX46Y46*%
G04 Gerber Fmt 4.6, Leading zero omitted, Abs format (unit mm)*
G04 Created by KiCad (PCBNEW 4.0.4-stable) date Monday, June 26, 2017 'PMt' 12:37:33 PM*
%MOMM*%
%LPD*%
G01*
G04 APERTURE LIST*
%ADD10C,0.150000*%
%ADD11C,0.200000*%
%ADD12C,1.600000*%
%ADD13C,1.500000*%
%ADD14C,0.510000*%
%ADD15C,0.160000*%
G04 APERTURE END LIST*
D10*
D11*
X112500000Y-100000000D02*
G75*
G03X112500000Y-100000000I-12500000J0D01*
G01*
D12*
X98000000Y-106000000D03*
X106000000Y-102000000D03*
X102000000Y-94000000D03*
D13*
X108400000Y-96200000D03*
X103800000Y-91600000D03*
X103800000Y-108400000D03*
X96200000Y-91600000D03*
X91600000Y-96200000D03*
X91600000Y-103800000D03*
X108400000Y-103800000D03*
X96200000Y-108400000D03*
D14*
X93100000Y-96700000D03*
X93418819Y-97890012D03*
X107200000Y-98200000D03*
X109500000Y-101700000D03*
X102471644Y-105045442D03*
X100267955Y-99247254D03*
X93700000Y-104200000D03*
X94300000Y-96700000D03*
X102372420Y-103677580D03*
X107800000Y-93100000D03*
X93550000Y-91750000D03*
X97200000Y-103200000D03*
X94350000Y-104750000D03*
X107254990Y-94575021D03*
X105788094Y-107016878D03*
X99126954Y-98073363D03*
X95500000Y-94200000D03*
X105628509Y-97743309D03*
X93407129Y-106296236D03*
X106259006Y-106540282D03*
X100817421Y-97545419D03*
X95000000Y-94700000D03*
X106981374Y-93918662D03*
X104300000Y-96400000D03*
X105400000Y-105100000D03*
X94990913Y-105369712D03*
X94523177Y-95181459D03*
X105994610Y-93020781D03*
X102024612Y-98867778D03*
X101400000Y-98600000D03*
X106530182Y-93423355D03*
X105863497Y-104616176D03*
X103500000Y-102400000D03*
X93999988Y-95600000D03*
X96800000Y-100269985D03*
X102162582Y-96069651D03*
X97247432Y-99063142D03*
X96800000Y-99599982D03*
X93125150Y-102218171D03*
X88600000Y-101150000D03*
X98900000Y-88600004D03*
X111350000Y-98850000D03*
X101150000Y-111400008D03*
X110000000Y-105400000D03*
X99600000Y-102800000D03*
X92930018Y-99669982D03*
X99100000Y-102300000D03*
X92930018Y-100669982D03*
X98600000Y-101800000D03*
X93403781Y-100196219D03*
X100000000Y-103500000D03*
X92637999Y-101758185D03*
X100400000Y-102800000D03*
X100000000Y-104900000D03*
X100611873Y-102164380D03*
X100695000Y-106092600D03*
X102427081Y-101175250D03*
X106212664Y-100582664D03*
X101100000Y-90600000D03*
X104200000Y-98250000D03*
X99630067Y-90589713D03*
X103200000Y-99500000D03*
X100300000Y-90600000D03*
X104950000Y-98950000D03*
X98940131Y-90583858D03*
X102640699Y-99131102D03*
X98980415Y-97419584D03*
X99938839Y-96492808D03*
X98921380Y-92578584D03*
X99900000Y-95200000D03*
X99899995Y-92999995D03*
D15*
X97284888Y-97890012D02*
X93779443Y-97890012D01*
X93779443Y-97890012D02*
X93418819Y-97890012D01*
X98642130Y-99247254D02*
X97284888Y-97890012D01*
X100267955Y-99247254D02*
X98642130Y-99247254D01*
D11*
X103800000Y-108400000D02*
X103800000Y-105105160D01*
X103800000Y-105105160D02*
X102372420Y-103677580D01*
D15*
X93350000Y-104900000D02*
X95050000Y-103200000D01*
X93350000Y-104900000D02*
X93350000Y-104550000D01*
X91750000Y-106500000D02*
X93350000Y-104900000D01*
X93350000Y-104550000D02*
X93700000Y-104200000D01*
X106905770Y-92205770D02*
X107545001Y-92845001D01*
X107545001Y-92845001D02*
X107800000Y-93100000D01*
X94300000Y-96700000D02*
X91400000Y-93800000D01*
X95050000Y-103200000D02*
X97200000Y-103200000D01*
X103800000Y-109460660D02*
X103800000Y-109900000D01*
X103800000Y-108400000D02*
X103800000Y-109460660D01*
X97650000Y-107700000D02*
X95814713Y-105864713D01*
X94753312Y-105864713D02*
X94350000Y-105461401D01*
X95814713Y-105864713D02*
X94753312Y-105864713D01*
X94350000Y-105461401D02*
X94350000Y-104750000D01*
X98600000Y-107650000D02*
X98550000Y-107700000D01*
X98550000Y-107700000D02*
X97650000Y-107700000D01*
X99342390Y-106907610D02*
X98600000Y-107650000D01*
X100324846Y-106907610D02*
X99342390Y-106907610D01*
X101236382Y-106736382D02*
X101065153Y-106907611D01*
X101065153Y-106907611D02*
X100324846Y-106907610D01*
X101535020Y-106437744D02*
X101236382Y-106736382D01*
X101535021Y-103117541D02*
X101535020Y-106437744D01*
X102052562Y-102600000D02*
X101535021Y-103117541D01*
X102447438Y-102600000D02*
X102052562Y-102600000D01*
X104900000Y-105052562D02*
X102447438Y-102600000D01*
X104958699Y-105391301D02*
X104900000Y-105332602D01*
X104900000Y-105332602D02*
X104900000Y-105052562D01*
X105533095Y-106761879D02*
X105533095Y-105965697D01*
X105533095Y-105965697D02*
X104958699Y-105391301D01*
X107600000Y-101237398D02*
X106085020Y-99722418D01*
X105883508Y-97998308D02*
X105628509Y-97743309D01*
X106085020Y-99722418D02*
X106085020Y-98199820D01*
X106085020Y-98199820D02*
X105883508Y-97998308D01*
X106358498Y-103741502D02*
X107600000Y-102500000D01*
X105533095Y-106761879D02*
X105533095Y-105679180D01*
X107600000Y-102500000D02*
X107600000Y-101237398D01*
X105788094Y-107016878D02*
X105533095Y-106761879D01*
X105533095Y-105679180D02*
X106358498Y-104853777D01*
X106358498Y-104853777D02*
X106358498Y-103741502D01*
X105628509Y-96201502D02*
X106999991Y-94830020D01*
X106999991Y-94830020D02*
X107254990Y-94575021D01*
X105628509Y-97743309D02*
X105628509Y-96201502D01*
X98742814Y-97914585D02*
X98968176Y-97914585D01*
X98968176Y-97914585D02*
X99126954Y-98073363D01*
X98767147Y-97914585D02*
X98742814Y-97914585D01*
X95500000Y-94200000D02*
X95500000Y-94671771D01*
X95500000Y-94671771D02*
X98742814Y-97914585D01*
X97517447Y-108020009D02*
X95682161Y-106184723D01*
X95682161Y-106184723D02*
X93518642Y-106184723D01*
X93518642Y-106184723D02*
X93407129Y-106296236D01*
X99474942Y-107227620D02*
X98682552Y-108020010D01*
X98682552Y-108020010D02*
X97517447Y-108020009D01*
X100457398Y-107227620D02*
X99474942Y-107227620D01*
X101855030Y-104500000D02*
X101855029Y-106570297D01*
X101855029Y-106570297D02*
X101197704Y-107227620D01*
X101197704Y-107227620D02*
X100457398Y-107227620D01*
X101855030Y-103250094D02*
X101855030Y-104500000D01*
X102155124Y-102950000D02*
X101855030Y-103250094D01*
X102344876Y-102950000D02*
X102155124Y-102950000D01*
X106259006Y-106540282D02*
X106283095Y-106564371D01*
X106283095Y-107254479D02*
X106025695Y-107511879D01*
X106025695Y-107511879D02*
X105550493Y-107511879D01*
X106283095Y-106564371D02*
X106283095Y-107254479D01*
X105550493Y-107511879D02*
X105213085Y-107174471D01*
X105213085Y-107174471D02*
X105213085Y-106098249D01*
X104579990Y-105465154D02*
X104579990Y-105185114D01*
X105213085Y-106098249D02*
X104579990Y-105465154D01*
X104579990Y-105185114D02*
X102344876Y-102950000D01*
X106259006Y-106540282D02*
X105853105Y-106134381D01*
X105853105Y-106134381D02*
X105853105Y-105811732D01*
X106678508Y-104986329D02*
X106678509Y-103874054D01*
X106678509Y-103874054D02*
X107920011Y-102632552D01*
X105853105Y-105811732D02*
X106678508Y-104986329D01*
X107750000Y-95150000D02*
X107750000Y-94350000D01*
X107750000Y-94350000D02*
X107450000Y-94050000D01*
X107920011Y-102632552D02*
X107920011Y-101104846D01*
X106405031Y-99589866D02*
X106405030Y-96494970D01*
X107920011Y-101104846D02*
X106405031Y-99589866D01*
X106405030Y-96494970D02*
X107750000Y-95150000D01*
X107450000Y-94050000D02*
X107300000Y-94050000D01*
X107300000Y-94050000D02*
X107168662Y-93918662D01*
X107168662Y-93918662D02*
X106981374Y-93918662D01*
X100817421Y-97545419D02*
X99794476Y-98568364D01*
X99794476Y-98568364D02*
X98868364Y-98568364D01*
X98868364Y-98568364D02*
X98534595Y-98234595D01*
X95000000Y-94700000D02*
X98534595Y-98234595D01*
X106981374Y-93918662D02*
X106726375Y-94173661D01*
X106726375Y-94173661D02*
X106246299Y-94173661D01*
X106246299Y-94173661D02*
X104300000Y-96119960D01*
X104300000Y-96119960D02*
X104300000Y-96400000D01*
X100300000Y-98515402D02*
X99927028Y-98888374D01*
X94778176Y-95436458D02*
X94523177Y-95181459D01*
X99927028Y-98888374D02*
X98735811Y-98888373D01*
X98735811Y-98888373D02*
X95283896Y-95436458D01*
X95283896Y-95436458D02*
X94778176Y-95436458D01*
X105145001Y-104845001D02*
X105400000Y-105100000D01*
X101932080Y-101632080D02*
X105145001Y-104845001D01*
X105367398Y-105067398D02*
X105400000Y-105100000D01*
X105367398Y-105000000D02*
X105367398Y-105067398D01*
X101932080Y-101412851D02*
X101932080Y-101632080D01*
X98800000Y-104500000D02*
X95860625Y-104500000D01*
X95860625Y-104500000D02*
X94990913Y-105369712D01*
X100100000Y-106230202D02*
X100100000Y-105800000D01*
X100100000Y-105800000D02*
X98800000Y-104500000D01*
X101215011Y-102984989D02*
X101215011Y-106305191D01*
X101215011Y-106305191D02*
X100932601Y-106587601D01*
X100932601Y-106587601D02*
X100457399Y-106587601D01*
X100457399Y-106587601D02*
X100100000Y-106230202D01*
X101932080Y-101412851D02*
X101932080Y-102267920D01*
X101932080Y-102267920D02*
X101215011Y-102984989D01*
X100710403Y-98104999D02*
X100300000Y-98515402D01*
X100300000Y-98515402D02*
X100387273Y-98515402D01*
X101932080Y-100060209D02*
X101932080Y-101412851D01*
X100387273Y-98515402D02*
X101932080Y-100060209D01*
X102024612Y-98867778D02*
X102024612Y-98492010D01*
X102024612Y-98492010D02*
X101637601Y-98104999D01*
X101637601Y-98104999D02*
X100710403Y-98104999D01*
X105994610Y-93020781D02*
X105994610Y-93520226D01*
X105994610Y-93520226D02*
X103484990Y-96029846D01*
X103484989Y-96752387D02*
X105445001Y-98712399D01*
X103484990Y-96029846D02*
X103484989Y-96200000D01*
X104379797Y-99445001D02*
X104367398Y-99432602D01*
X103484989Y-96200000D02*
X103484989Y-96752387D01*
X105445001Y-98712399D02*
X105445001Y-99187601D01*
X105445001Y-99187601D02*
X105187601Y-99445001D01*
X104367398Y-99432602D02*
X104000000Y-99432602D01*
X102024612Y-99247617D02*
X102024612Y-98867778D01*
X105187601Y-99445001D02*
X104379797Y-99445001D01*
X103437601Y-99995001D02*
X102771996Y-99995001D01*
X104000000Y-99432602D02*
X103437601Y-99995001D01*
X102771996Y-99995001D02*
X102024612Y-99247617D01*
X101400000Y-98800000D02*
X101400000Y-99000000D01*
X101400000Y-99000000D02*
X101400000Y-99075567D01*
X101400000Y-98600000D02*
X101400000Y-99000000D01*
X101400000Y-99075567D02*
X102639444Y-100315011D01*
X105765011Y-99320153D02*
X105765010Y-98579846D01*
X102639444Y-100315011D02*
X103570153Y-100315011D01*
X104120153Y-99765011D02*
X105320154Y-99765010D01*
X103570153Y-100315011D02*
X104120153Y-99765011D01*
X105320154Y-99765010D02*
X105765011Y-99320153D01*
X105765010Y-98579846D02*
X103804999Y-96619835D01*
X103804999Y-96619835D02*
X103804999Y-96162399D01*
X106530182Y-93437216D02*
X106530182Y-93423355D01*
X103804999Y-96162399D02*
X106530182Y-93437216D01*
X105781447Y-104681447D02*
X105798226Y-104681447D01*
X105744433Y-104644433D02*
X105781447Y-104681447D01*
X103500000Y-102400000D02*
X105781447Y-104681447D01*
X105798226Y-104681447D02*
X105863497Y-104616176D01*
X93831411Y-98210022D02*
X93656420Y-98385013D01*
X93656420Y-98385013D02*
X93181218Y-98385013D01*
X93181218Y-98385013D02*
X92600000Y-97803795D01*
X92600000Y-97803795D02*
X92600000Y-96467398D01*
X92600000Y-96467398D02*
X92862399Y-96204999D01*
X92862399Y-96204999D02*
X93337601Y-96204999D01*
X93337601Y-96204999D02*
X93804999Y-96672397D01*
X93804999Y-96672397D02*
X93804999Y-96937601D01*
X93804999Y-96937601D02*
X94062399Y-97195001D01*
X94062399Y-97195001D02*
X94537601Y-97195001D01*
X94537601Y-97195001D02*
X94795001Y-96937601D01*
X94795001Y-96937601D02*
X94795001Y-96395013D01*
X94795001Y-96395013D02*
X94254987Y-95854999D01*
X94254987Y-95854999D02*
X93999988Y-95600000D01*
X97152336Y-98210022D02*
X93831411Y-98210022D01*
X97742433Y-98800119D02*
X97152336Y-98210022D01*
X96800000Y-100269985D02*
X97160624Y-100269985D01*
X97160624Y-100269985D02*
X97742433Y-99688176D01*
X97742433Y-99688176D02*
X97742433Y-98800119D01*
X96800000Y-100269985D02*
X96862599Y-100269985D01*
X102162582Y-96069651D02*
X102992623Y-96069651D01*
X108070010Y-94217448D02*
X108070010Y-95870010D01*
X108070010Y-95870010D02*
X108400000Y-96200000D01*
X102992623Y-96069651D02*
X105499609Y-93562665D01*
X105757009Y-92525780D02*
X106378342Y-92525780D01*
X106378342Y-92525780D02*
X108070010Y-94217448D01*
X105499609Y-93562665D02*
X105499609Y-92783180D01*
X105499609Y-92783180D02*
X105757009Y-92525780D01*
X94263744Y-99411182D02*
X93832552Y-98979990D01*
X93832552Y-98979990D02*
X93425190Y-98979990D01*
X93425190Y-98979990D02*
X93270195Y-98824995D01*
X93270195Y-98824995D02*
X92924995Y-98824995D01*
X96256198Y-99411182D02*
X94263744Y-99411182D01*
X97247432Y-99063142D02*
X96604238Y-99063142D01*
X96604238Y-99063142D02*
X96256198Y-99411182D01*
X92924995Y-98824995D02*
X91600000Y-97500000D01*
X91600000Y-97500000D02*
X91600000Y-96200000D01*
X96800000Y-99599982D02*
X96737401Y-99599982D01*
X96606191Y-99731192D02*
X94131192Y-99731192D01*
X92142998Y-101995786D02*
X92620382Y-102473170D01*
X96737401Y-99599982D02*
X96606191Y-99731192D01*
X94131192Y-99731192D02*
X93700000Y-99300000D01*
X93700000Y-99300000D02*
X93292638Y-99300000D01*
X93292638Y-99300000D02*
X93137643Y-99145005D01*
X93137643Y-99145005D02*
X92722393Y-99145005D01*
X92722393Y-99145005D02*
X92142998Y-99724400D01*
X92142998Y-99724400D02*
X92142998Y-101995786D01*
X92620382Y-102473170D02*
X92870151Y-102473170D01*
X92870151Y-102473170D02*
X93125150Y-102218171D01*
X95656325Y-100051201D02*
X97085114Y-101479990D01*
X93998638Y-100051200D02*
X95656325Y-100051201D01*
X92930018Y-99669982D02*
X93617420Y-99669982D01*
X93617420Y-99669982D02*
X93998638Y-100051200D01*
X98187408Y-101479990D02*
X97085114Y-101479990D01*
X99600000Y-102800000D02*
X99600000Y-102067398D01*
X99600000Y-102067398D02*
X98837601Y-101304999D01*
X98362399Y-101304999D02*
X98187408Y-101479990D01*
X98837601Y-101304999D02*
X98362399Y-101304999D01*
X99100000Y-102300000D02*
X97000000Y-102300000D01*
X97000000Y-102300000D02*
X95391220Y-100691220D01*
X95391220Y-100691220D02*
X93166180Y-100691220D01*
X93166180Y-100691220D02*
X93144942Y-100669982D01*
X93144942Y-100669982D02*
X92930018Y-100669982D01*
X92951256Y-100691220D02*
X92930018Y-100669982D01*
X98600000Y-101800000D02*
X96952562Y-101800000D01*
X96952562Y-101800000D02*
X95523772Y-100371210D01*
X95523772Y-100371210D02*
X93578772Y-100371210D01*
X93578772Y-100371210D02*
X93403781Y-100196219D01*
X93496219Y-100196219D02*
X93403781Y-100196219D01*
X95258668Y-101011230D02*
X93384954Y-101011230D01*
X93384954Y-101011230D02*
X92637999Y-101758185D01*
X96867447Y-102620009D02*
X95258668Y-101011230D01*
X98687408Y-102620010D02*
X96867447Y-102620009D01*
X100000000Y-103500000D02*
X99567398Y-103500000D01*
X99567398Y-103500000D02*
X98687408Y-102620010D01*
X100400000Y-102800000D02*
X100400000Y-103167398D01*
X100400000Y-103167398D02*
X100495001Y-103262399D01*
X100495001Y-103262399D02*
X100495001Y-104404999D01*
X100495001Y-104404999D02*
X100254999Y-104645001D01*
X100254999Y-104645001D02*
X100000000Y-104900000D01*
X100611873Y-102164380D02*
X100611873Y-102279271D01*
X100611873Y-102279271D02*
X100895001Y-102562399D01*
X100895001Y-102562399D02*
X100895001Y-104457561D01*
X100895001Y-104457561D02*
X100500000Y-104852562D01*
X100500000Y-104852562D02*
X100500000Y-105897600D01*
X100500000Y-105897600D02*
X100695000Y-106092600D01*
X102427081Y-101175250D02*
X103000310Y-100602021D01*
X103000310Y-100602021D02*
X103689036Y-100602021D01*
X103689036Y-100602021D02*
X104239037Y-100052019D01*
X104239037Y-100052019D02*
X105682019Y-100052019D01*
X105682019Y-100052019D02*
X105957665Y-100327665D01*
X105957665Y-100327665D02*
X106212664Y-100582664D01*
X106212664Y-100582664D02*
X106130000Y-100500000D01*
X101100000Y-90600000D02*
X100715010Y-90984990D01*
X100715010Y-90984990D02*
X100715010Y-95322446D01*
X100715010Y-95322446D02*
X103642564Y-98250000D01*
X103642564Y-98250000D02*
X104200000Y-98250000D01*
X99630067Y-90950337D02*
X98426379Y-92154025D01*
X103200000Y-99500000D02*
X103200000Y-98712560D01*
X99630067Y-90950337D02*
X99630067Y-90589713D01*
X98426379Y-92826379D02*
X98426379Y-92154025D01*
X99079990Y-93479990D02*
X98426379Y-92826379D01*
X99701238Y-96987809D02*
X99443838Y-96730409D01*
X100176440Y-96987809D02*
X99701238Y-96987809D01*
X103200000Y-98712560D02*
X101217849Y-96730409D01*
X99443838Y-96450369D02*
X99079991Y-96086522D01*
X99079991Y-96086522D02*
X99079990Y-93479990D01*
X99443838Y-96730409D02*
X99443838Y-96450369D01*
X101217849Y-96730409D02*
X100433840Y-96730409D01*
X100433840Y-96730409D02*
X100176440Y-96987809D01*
X100300000Y-90960624D02*
X100300000Y-90600000D01*
X100395000Y-91055624D02*
X100300000Y-90960624D01*
X100395000Y-95454999D02*
X100395000Y-91055624D01*
X103890002Y-98950000D02*
X100395000Y-95454999D01*
X104950000Y-98950000D02*
X103890002Y-98950000D01*
X98750000Y-95387724D02*
X98750000Y-93602562D01*
X98750000Y-93602562D02*
X98106369Y-92958931D01*
X98106369Y-92958931D02*
X98106370Y-92021472D01*
X98106370Y-92021472D02*
X98940131Y-91187711D01*
X98940131Y-91187711D02*
X98940131Y-90583858D01*
X102640699Y-99131102D02*
X102640699Y-98605821D01*
X99568686Y-97307819D02*
X99123829Y-96862962D01*
X102640699Y-98605821D02*
X101085297Y-97050419D01*
X101085297Y-97050419D02*
X100566392Y-97050419D01*
X100566392Y-97050419D02*
X100308993Y-97307818D01*
X100308993Y-97307818D02*
X99568686Y-97307819D01*
X99123829Y-96862962D02*
X99123829Y-96582922D01*
X98759982Y-95397706D02*
X98750000Y-95387724D01*
X99123829Y-96582922D02*
X98759982Y-96219075D01*
X98759982Y-96219075D02*
X98759982Y-95397706D01*
X98750000Y-95387724D02*
X98759982Y-95397708D01*
X98980415Y-97419584D02*
X98980415Y-97180415D01*
X98980415Y-97180415D02*
X98803819Y-97003819D01*
X98803819Y-97003819D02*
X98803819Y-96715474D01*
X96900000Y-92100000D02*
X96700000Y-92100000D01*
X96700000Y-92100000D02*
X96200000Y-91600000D01*
X98803819Y-96715474D02*
X98439973Y-96351628D01*
X98439973Y-96351628D02*
X98439972Y-95539972D01*
X98439972Y-95539972D02*
X98429990Y-95529990D01*
X98429990Y-95529990D02*
X98429990Y-93735114D01*
X98429990Y-93735114D02*
X97786361Y-93091485D01*
X97786361Y-93091485D02*
X97786361Y-92986361D01*
X97786361Y-92986361D02*
X96900000Y-92100000D01*
X98921380Y-92578584D02*
X99400000Y-93057204D01*
X99400000Y-93057204D02*
X99400000Y-95200000D01*
X99400000Y-95200000D02*
X99404999Y-95204999D01*
X99404999Y-95204999D02*
X99404999Y-95958968D01*
X99404999Y-95958968D02*
X99683840Y-96237809D01*
X99683840Y-96237809D02*
X99938839Y-96492808D01*
X99900000Y-95200000D02*
X99900000Y-93000000D01*
X99900000Y-93000000D02*
X99899995Y-92999995D01*
G36*
X102445108Y-88088365D02*
X104712190Y-88790144D01*
X106799786Y-89918903D01*
X108628380Y-91431648D01*
X110128322Y-93270759D01*
X111242480Y-95366184D01*
X111928415Y-97638110D01*
X112160000Y-100000000D01*
X112155259Y-100339527D01*
X111857816Y-102694030D01*
X111108713Y-104945918D01*
X109936482Y-107009417D01*
X108385774Y-108805930D01*
X106515654Y-110267028D01*
X104397355Y-111337057D01*
X102111562Y-111975262D01*
X99745340Y-112157333D01*
X97388818Y-111876335D01*
X95131756Y-111142971D01*
X93060123Y-109985174D01*
X91252828Y-108447046D01*
X89778710Y-106587172D01*
X88693918Y-104476395D01*
X88039771Y-102195113D01*
X87841185Y-99830220D01*
X88080127Y-97700000D01*
X88820000Y-97700000D01*
X88820000Y-102100000D01*
X88825844Y-102130015D01*
X90525844Y-106330015D01*
X90543431Y-106356569D01*
X93643431Y-109456569D01*
X93669359Y-109473899D01*
X97769359Y-111173899D01*
X97800000Y-111180000D01*
X102200000Y-111180000D01*
X102230641Y-111173899D01*
X106330641Y-109473899D01*
X106357488Y-109455634D01*
X109357488Y-106355634D01*
X109373252Y-106332159D01*
X111173252Y-102232159D01*
X111180000Y-102200000D01*
X111180000Y-97800000D01*
X111173899Y-97769359D01*
X109473899Y-93669359D01*
X109456569Y-93643431D01*
X106356569Y-90543431D01*
X106330641Y-90526101D01*
X102230641Y-88826101D01*
X102200000Y-88820000D01*
X97800000Y-88820000D01*
X97769359Y-88826101D01*
X93669359Y-90526101D01*
X93643431Y-90543431D01*
X90543431Y-93643431D01*
X90526374Y-93668709D01*
X88826374Y-97668709D01*
X88820000Y-97700000D01*
X88080127Y-97700000D01*
X88105725Y-97471794D01*
X88823314Y-95209666D01*
X89966620Y-93130001D01*
X91492094Y-91312012D01*
X93341631Y-89824946D01*
X95444784Y-88725444D01*
X97721443Y-88055387D01*
X100084892Y-87840296D01*
X102445108Y-88088365D01*
X102445108Y-88088365D01*
G37*
X102445108Y-88088365D02*
X104712190Y-88790144D01*
X106799786Y-89918903D01*
X108628380Y-91431648D01*
X110128322Y-93270759D01*
X111242480Y-95366184D01*
X111928415Y-97638110D01*
X112160000Y-100000000D01*
X112155259Y-100339527D01*
X111857816Y-102694030D01*
X111108713Y-104945918D01*
X109936482Y-107009417D01*
X108385774Y-108805930D01*
X106515654Y-110267028D01*
X104397355Y-111337057D01*
X102111562Y-111975262D01*
X99745340Y-112157333D01*
X97388818Y-111876335D01*
X95131756Y-111142971D01*
X93060123Y-109985174D01*
X91252828Y-108447046D01*
X89778710Y-106587172D01*
X88693918Y-104476395D01*
X88039771Y-102195113D01*
X87841185Y-99830220D01*
X88080127Y-97700000D01*
X88820000Y-97700000D01*
X88820000Y-102100000D01*
X88825844Y-102130015D01*
X90525844Y-106330015D01*
X90543431Y-106356569D01*
X93643431Y-109456569D01*
X93669359Y-109473899D01*
X97769359Y-111173899D01*
X97800000Y-111180000D01*
X102200000Y-111180000D01*
X102230641Y-111173899D01*
X106330641Y-109473899D01*
X106357488Y-109455634D01*
X109357488Y-106355634D01*
X109373252Y-106332159D01*
X111173252Y-102232159D01*
X111180000Y-102200000D01*
X111180000Y-97800000D01*
X111173899Y-97769359D01*
X109473899Y-93669359D01*
X109456569Y-93643431D01*
X106356569Y-90543431D01*
X106330641Y-90526101D01*
X102230641Y-88826101D01*
X102200000Y-88820000D01*
X97800000Y-88820000D01*
X97769359Y-88826101D01*
X93669359Y-90526101D01*
X93643431Y-90543431D01*
X90543431Y-93643431D01*
X90526374Y-93668709D01*
X88826374Y-97668709D01*
X88820000Y-97700000D01*
X88080127Y-97700000D01*
X88105725Y-97471794D01*
X88823314Y-95209666D01*
X89966620Y-93130001D01*
X91492094Y-91312012D01*
X93341631Y-89824946D01*
X95444784Y-88725444D01*
X97721443Y-88055387D01*
X100084892Y-87840296D01*
X102445108Y-88088365D01*
G36*
X106164018Y-90803430D02*
X109196570Y-93835982D01*
X110860000Y-97847784D01*
X110860000Y-98774350D01*
X110855705Y-98794556D01*
X110854349Y-98891621D01*
X110860000Y-98922411D01*
X110860000Y-102149636D01*
X109097567Y-106164066D01*
X106162127Y-109197354D01*
X102152216Y-110860000D01*
X97847784Y-110860000D01*
X93835982Y-109196570D01*
X90804176Y-106164764D01*
X89140000Y-102053271D01*
X89140000Y-98000000D01*
X89820000Y-98000000D01*
X89820000Y-102000000D01*
X89826067Y-102030559D01*
X90622161Y-103956594D01*
X90643746Y-104074201D01*
X90715217Y-104254716D01*
X90799337Y-104385244D01*
X91376067Y-105780559D01*
X91393431Y-105806569D01*
X94193431Y-108606569D01*
X94219441Y-108623933D01*
X95620931Y-109203216D01*
X95714682Y-109268374D01*
X95892593Y-109346102D01*
X96050752Y-109380875D01*
X97969441Y-110173933D01*
X98000000Y-110180000D01*
X102050000Y-110180000D01*
X102080911Y-110173787D01*
X103860105Y-109428449D01*
X103981632Y-109418922D01*
X104176923Y-109363910D01*
X104357730Y-109271854D01*
X104392054Y-109248919D01*
X104419320Y-109194183D01*
X105780911Y-108623787D01*
X105806569Y-108606569D01*
X108606569Y-105806569D01*
X108623933Y-105780559D01*
X109203381Y-104378669D01*
X109264965Y-104291368D01*
X109343932Y-104114005D01*
X109381962Y-103946619D01*
X110173933Y-102030559D01*
X110180000Y-102000000D01*
X110180000Y-98000000D01*
X110173787Y-97969089D01*
X109388273Y-96093990D01*
X109352332Y-95912474D01*
X109278347Y-95732974D01*
X109170907Y-95571264D01*
X109168115Y-95568452D01*
X108623787Y-94269089D01*
X108606569Y-94243431D01*
X105756569Y-91393431D01*
X105731270Y-91376364D01*
X104402129Y-90811934D01*
X104273146Y-90724934D01*
X104094167Y-90649699D01*
X103950782Y-90620266D01*
X102081270Y-89826364D01*
X102050000Y-89820000D01*
X98000000Y-89820000D01*
X97969441Y-89826067D01*
X96044235Y-90621819D01*
X95919130Y-90645684D01*
X95739118Y-90718414D01*
X95616651Y-90798554D01*
X94219441Y-91376067D01*
X94193431Y-91393431D01*
X91393431Y-94193431D01*
X91376067Y-94219441D01*
X90797049Y-95620291D01*
X90728259Y-95720756D01*
X90651775Y-95899205D01*
X90620028Y-96048569D01*
X89826067Y-97969441D01*
X89820000Y-98000000D01*
X89140000Y-98000000D01*
X89140000Y-97748883D01*
X90802653Y-93836759D01*
X93835982Y-90803430D01*
X97847784Y-89140000D01*
X102152216Y-89140000D01*
X106164018Y-90803430D01*
X106164018Y-90803430D01*
G37*
X106164018Y-90803430D02*
X109196570Y-93835982D01*
X110860000Y-97847784D01*
X110860000Y-98774350D01*
X110855705Y-98794556D01*
X110854349Y-98891621D01*
X110860000Y-98922411D01*
X110860000Y-102149636D01*
X109097567Y-106164066D01*
X106162127Y-109197354D01*
X102152216Y-110860000D01*
X97847784Y-110860000D01*
X93835982Y-109196570D01*
X90804176Y-106164764D01*
X89140000Y-102053271D01*
X89140000Y-98000000D01*
X89820000Y-98000000D01*
X89820000Y-102000000D01*
X89826067Y-102030559D01*
X90622161Y-103956594D01*
X90643746Y-104074201D01*
X90715217Y-104254716D01*
X90799337Y-104385244D01*
X91376067Y-105780559D01*
X91393431Y-105806569D01*
X94193431Y-108606569D01*
X94219441Y-108623933D01*
X95620931Y-109203216D01*
X95714682Y-109268374D01*
X95892593Y-109346102D01*
X96050752Y-109380875D01*
X97969441Y-110173933D01*
X98000000Y-110180000D01*
X102050000Y-110180000D01*
X102080911Y-110173787D01*
X103860105Y-109428449D01*
X103981632Y-109418922D01*
X104176923Y-109363910D01*
X104357730Y-109271854D01*
X104392054Y-109248919D01*
X104419320Y-109194183D01*
X105780911Y-108623787D01*
X105806569Y-108606569D01*
X108606569Y-105806569D01*
X108623933Y-105780559D01*
X109203381Y-104378669D01*
X109264965Y-104291368D01*
X109343932Y-104114005D01*
X109381962Y-103946619D01*
X110173933Y-102030559D01*
X110180000Y-102000000D01*
X110180000Y-98000000D01*
X110173787Y-97969089D01*
X109388273Y-96093990D01*
X109352332Y-95912474D01*
X109278347Y-95732974D01*
X109170907Y-95571264D01*
X109168115Y-95568452D01*
X108623787Y-94269089D01*
X108606569Y-94243431D01*
X105756569Y-91393431D01*
X105731270Y-91376364D01*
X104402129Y-90811934D01*
X104273146Y-90724934D01*
X104094167Y-90649699D01*
X103950782Y-90620266D01*
X102081270Y-89826364D01*
X102050000Y-89820000D01*
X98000000Y-89820000D01*
X97969441Y-89826067D01*
X96044235Y-90621819D01*
X95919130Y-90645684D01*
X95739118Y-90718414D01*
X95616651Y-90798554D01*
X94219441Y-91376067D01*
X94193431Y-91393431D01*
X91393431Y-94193431D01*
X91376067Y-94219441D01*
X90797049Y-95620291D01*
X90728259Y-95720756D01*
X90651775Y-95899205D01*
X90620028Y-96048569D01*
X89826067Y-97969441D01*
X89820000Y-98000000D01*
X89140000Y-98000000D01*
X89140000Y-97748883D01*
X90802653Y-93836759D01*
X93835982Y-90803430D01*
X97847784Y-89140000D01*
X102152216Y-89140000D01*
X106164018Y-90803430D01*
G36*
X102218716Y-104150631D02*
X102313526Y-104171476D01*
X102387024Y-104173016D01*
X103460000Y-105245992D01*
X103460000Y-107469574D01*
X103339118Y-107518414D01*
X103176661Y-107624722D01*
X103037947Y-107760561D01*
X102928259Y-107920756D01*
X102851775Y-108099205D01*
X102811410Y-108289112D01*
X102808699Y-108483242D01*
X102843746Y-108674201D01*
X102915217Y-108854716D01*
X103020390Y-109017912D01*
X103155257Y-109157571D01*
X103314682Y-109268374D01*
X103363312Y-109289620D01*
X102001761Y-109860000D01*
X98047645Y-109860000D01*
X96823580Y-109354053D01*
X96887681Y-109200818D01*
X96200000Y-108513137D01*
X96185858Y-108527280D01*
X96072721Y-108414143D01*
X96086863Y-108400000D01*
X95399182Y-107712319D01*
X95220350Y-107787128D01*
X95119608Y-107990024D01*
X95060385Y-108208676D01*
X95044957Y-108434680D01*
X95070038Y-108629256D01*
X94385884Y-108346472D01*
X92370980Y-106331568D01*
X93863123Y-104839425D01*
X93871873Y-104887101D01*
X93907609Y-104977358D01*
X93960195Y-105058956D01*
X94027628Y-105128785D01*
X94030000Y-105130434D01*
X94030000Y-105461401D01*
X94032889Y-105490868D01*
X94035461Y-105520266D01*
X94035930Y-105521879D01*
X94036094Y-105523556D01*
X94044655Y-105551911D01*
X94052885Y-105580239D01*
X94053658Y-105581729D01*
X94054145Y-105583344D01*
X94068036Y-105609469D01*
X94081625Y-105635685D01*
X94082675Y-105637001D01*
X94083465Y-105638486D01*
X94102136Y-105661380D01*
X94120588Y-105684494D01*
X94122896Y-105686833D01*
X94122937Y-105686884D01*
X94122984Y-105686923D01*
X94123726Y-105687675D01*
X94300774Y-105864723D01*
X93652627Y-105864723D01*
X93643702Y-105858703D01*
X93554213Y-105821085D01*
X93459121Y-105801566D01*
X93362049Y-105800888D01*
X93266694Y-105819078D01*
X93176688Y-105855443D01*
X93095459Y-105908597D01*
X93026102Y-105976517D01*
X92971258Y-106056614D01*
X92933017Y-106145839D01*
X92912834Y-106240792D01*
X92911478Y-106337857D01*
X92929002Y-106433337D01*
X92964738Y-106523594D01*
X93017324Y-106605192D01*
X93084757Y-106675021D01*
X93164470Y-106730423D01*
X93253425Y-106769287D01*
X93348235Y-106790132D01*
X93445289Y-106792165D01*
X93540888Y-106775308D01*
X93631393Y-106740204D01*
X93713356Y-106688189D01*
X93783655Y-106621244D01*
X93839611Y-106541920D01*
X93856172Y-106504723D01*
X95549613Y-106504723D01*
X96298971Y-107254081D01*
X96165320Y-107244957D01*
X95940649Y-107273917D01*
X95725944Y-107346151D01*
X95587128Y-107420350D01*
X95512319Y-107599182D01*
X96200000Y-108286863D01*
X96214143Y-108272721D01*
X96327280Y-108385858D01*
X96313137Y-108400000D01*
X97000818Y-109087681D01*
X97179650Y-109012872D01*
X97280392Y-108809976D01*
X97339615Y-108591324D01*
X97355043Y-108365320D01*
X97345208Y-108289021D01*
X97365565Y-108299937D01*
X97391386Y-108314132D01*
X97392983Y-108314639D01*
X97394472Y-108315437D01*
X97422781Y-108324091D01*
X97450915Y-108333016D01*
X97452589Y-108333204D01*
X97454196Y-108333695D01*
X97483566Y-108336679D01*
X97512979Y-108339978D01*
X97516269Y-108340001D01*
X97516330Y-108340007D01*
X97516387Y-108340002D01*
X97517447Y-108340009D01*
X98682552Y-108340010D01*
X98712019Y-108337121D01*
X98741417Y-108334549D01*
X98743030Y-108334080D01*
X98744707Y-108333916D01*
X98773062Y-108325355D01*
X98801390Y-108317125D01*
X98802880Y-108316352D01*
X98804495Y-108315865D01*
X98830620Y-108301974D01*
X98856836Y-108288385D01*
X98858152Y-108287335D01*
X98859637Y-108286545D01*
X98882531Y-108267874D01*
X98905645Y-108249422D01*
X98907984Y-108247114D01*
X98908035Y-108247073D01*
X98908074Y-108247026D01*
X98908826Y-108246284D01*
X99607490Y-107547620D01*
X101197704Y-107547620D01*
X101227176Y-107544730D01*
X101256568Y-107542159D01*
X101258180Y-107541691D01*
X101259859Y-107541526D01*
X101288239Y-107532958D01*
X101316541Y-107524735D01*
X101318030Y-107523963D01*
X101319647Y-107523475D01*
X101345791Y-107509574D01*
X101371988Y-107495995D01*
X101373304Y-107494945D01*
X101374789Y-107494155D01*
X101397683Y-107475484D01*
X101420797Y-107457032D01*
X101423140Y-107454721D01*
X101423187Y-107454683D01*
X101423223Y-107454640D01*
X101423978Y-107453895D01*
X102081303Y-106796571D01*
X102100092Y-106773698D01*
X102119065Y-106751086D01*
X102119874Y-106749615D01*
X102120944Y-106748312D01*
X102134947Y-106722197D01*
X102149152Y-106696358D01*
X102149659Y-106694759D01*
X102150457Y-106693271D01*
X102159120Y-106664935D01*
X102168036Y-106636829D01*
X102168223Y-106635160D01*
X102168716Y-106633548D01*
X102171709Y-106604084D01*
X102174998Y-106574765D01*
X102175021Y-106571485D01*
X102175028Y-106571414D01*
X102175022Y-106571347D01*
X102175029Y-106570297D01*
X102175030Y-104500000D01*
X102175030Y-104131545D01*
X102218716Y-104150631D01*
X102218716Y-104150631D01*
G37*
X102218716Y-104150631D02*
X102313526Y-104171476D01*
X102387024Y-104173016D01*
X103460000Y-105245992D01*
X103460000Y-107469574D01*
X103339118Y-107518414D01*
X103176661Y-107624722D01*
X103037947Y-107760561D01*
X102928259Y-107920756D01*
X102851775Y-108099205D01*
X102811410Y-108289112D01*
X102808699Y-108483242D01*
X102843746Y-108674201D01*
X102915217Y-108854716D01*
X103020390Y-109017912D01*
X103155257Y-109157571D01*
X103314682Y-109268374D01*
X103363312Y-109289620D01*
X102001761Y-109860000D01*
X98047645Y-109860000D01*
X96823580Y-109354053D01*
X96887681Y-109200818D01*
X96200000Y-108513137D01*
X96185858Y-108527280D01*
X96072721Y-108414143D01*
X96086863Y-108400000D01*
X95399182Y-107712319D01*
X95220350Y-107787128D01*
X95119608Y-107990024D01*
X95060385Y-108208676D01*
X95044957Y-108434680D01*
X95070038Y-108629256D01*
X94385884Y-108346472D01*
X92370980Y-106331568D01*
X93863123Y-104839425D01*
X93871873Y-104887101D01*
X93907609Y-104977358D01*
X93960195Y-105058956D01*
X94027628Y-105128785D01*
X94030000Y-105130434D01*
X94030000Y-105461401D01*
X94032889Y-105490868D01*
X94035461Y-105520266D01*
X94035930Y-105521879D01*
X94036094Y-105523556D01*
X94044655Y-105551911D01*
X94052885Y-105580239D01*
X94053658Y-105581729D01*
X94054145Y-105583344D01*
X94068036Y-105609469D01*
X94081625Y-105635685D01*
X94082675Y-105637001D01*
X94083465Y-105638486D01*
X94102136Y-105661380D01*
X94120588Y-105684494D01*
X94122896Y-105686833D01*
X94122937Y-105686884D01*
X94122984Y-105686923D01*
X94123726Y-105687675D01*
X94300774Y-105864723D01*
X93652627Y-105864723D01*
X93643702Y-105858703D01*
X93554213Y-105821085D01*
X93459121Y-105801566D01*
X93362049Y-105800888D01*
X93266694Y-105819078D01*
X93176688Y-105855443D01*
X93095459Y-105908597D01*
X93026102Y-105976517D01*
X92971258Y-106056614D01*
X92933017Y-106145839D01*
X92912834Y-106240792D01*
X92911478Y-106337857D01*
X92929002Y-106433337D01*
X92964738Y-106523594D01*
X93017324Y-106605192D01*
X93084757Y-106675021D01*
X93164470Y-106730423D01*
X93253425Y-106769287D01*
X93348235Y-106790132D01*
X93445289Y-106792165D01*
X93540888Y-106775308D01*
X93631393Y-106740204D01*
X93713356Y-106688189D01*
X93783655Y-106621244D01*
X93839611Y-106541920D01*
X93856172Y-106504723D01*
X95549613Y-106504723D01*
X96298971Y-107254081D01*
X96165320Y-107244957D01*
X95940649Y-107273917D01*
X95725944Y-107346151D01*
X95587128Y-107420350D01*
X95512319Y-107599182D01*
X96200000Y-108286863D01*
X96214143Y-108272721D01*
X96327280Y-108385858D01*
X96313137Y-108400000D01*
X97000818Y-109087681D01*
X97179650Y-109012872D01*
X97280392Y-108809976D01*
X97339615Y-108591324D01*
X97355043Y-108365320D01*
X97345208Y-108289021D01*
X97365565Y-108299937D01*
X97391386Y-108314132D01*
X97392983Y-108314639D01*
X97394472Y-108315437D01*
X97422781Y-108324091D01*
X97450915Y-108333016D01*
X97452589Y-108333204D01*
X97454196Y-108333695D01*
X97483566Y-108336679D01*
X97512979Y-108339978D01*
X97516269Y-108340001D01*
X97516330Y-108340007D01*
X97516387Y-108340002D01*
X97517447Y-108340009D01*
X98682552Y-108340010D01*
X98712019Y-108337121D01*
X98741417Y-108334549D01*
X98743030Y-108334080D01*
X98744707Y-108333916D01*
X98773062Y-108325355D01*
X98801390Y-108317125D01*
X98802880Y-108316352D01*
X98804495Y-108315865D01*
X98830620Y-108301974D01*
X98856836Y-108288385D01*
X98858152Y-108287335D01*
X98859637Y-108286545D01*
X98882531Y-108267874D01*
X98905645Y-108249422D01*
X98907984Y-108247114D01*
X98908035Y-108247073D01*
X98908074Y-108247026D01*
X98908826Y-108246284D01*
X99607490Y-107547620D01*
X101197704Y-107547620D01*
X101227176Y-107544730D01*
X101256568Y-107542159D01*
X101258180Y-107541691D01*
X101259859Y-107541526D01*
X101288239Y-107532958D01*
X101316541Y-107524735D01*
X101318030Y-107523963D01*
X101319647Y-107523475D01*
X101345791Y-107509574D01*
X101371988Y-107495995D01*
X101373304Y-107494945D01*
X101374789Y-107494155D01*
X101397683Y-107475484D01*
X101420797Y-107457032D01*
X101423140Y-107454721D01*
X101423187Y-107454683D01*
X101423223Y-107454640D01*
X101423978Y-107453895D01*
X102081303Y-106796571D01*
X102100092Y-106773698D01*
X102119065Y-106751086D01*
X102119874Y-106749615D01*
X102120944Y-106748312D01*
X102134947Y-106722197D01*
X102149152Y-106696358D01*
X102149659Y-106694759D01*
X102150457Y-106693271D01*
X102159120Y-106664935D01*
X102168036Y-106636829D01*
X102168223Y-106635160D01*
X102168716Y-106633548D01*
X102171709Y-106604084D01*
X102174998Y-106574765D01*
X102175021Y-106571485D01*
X102175028Y-106571414D01*
X102175022Y-106571347D01*
X102175029Y-106570297D01*
X102175030Y-104500000D01*
X102175030Y-104131545D01*
X102218716Y-104150631D01*
G36*
X107411410Y-96089112D02*
X107408699Y-96283242D01*
X107443746Y-96474201D01*
X107515217Y-96654716D01*
X107620390Y-96817912D01*
X107755257Y-96957571D01*
X107914682Y-97068374D01*
X108092593Y-97146102D01*
X108282213Y-97187792D01*
X108476319Y-97191858D01*
X108667519Y-97158144D01*
X108848528Y-97087935D01*
X109012454Y-96983905D01*
X109153051Y-96850016D01*
X109264965Y-96691368D01*
X109278678Y-96660568D01*
X109860000Y-98048239D01*
X109860000Y-101952355D01*
X109283838Y-103346296D01*
X109278347Y-103332974D01*
X109170907Y-103171264D01*
X109034103Y-103033501D01*
X108873146Y-102924934D01*
X108694167Y-102849699D01*
X108503984Y-102810660D01*
X108309840Y-102809304D01*
X108164132Y-102837099D01*
X108165074Y-102835953D01*
X108184047Y-102813341D01*
X108184856Y-102811870D01*
X108185926Y-102810567D01*
X108199929Y-102784452D01*
X108214134Y-102758613D01*
X108214641Y-102757014D01*
X108215439Y-102755526D01*
X108224102Y-102727190D01*
X108233018Y-102699084D01*
X108233205Y-102697415D01*
X108233698Y-102695803D01*
X108236686Y-102666384D01*
X108239980Y-102637020D01*
X108240003Y-102633730D01*
X108240009Y-102633669D01*
X108240004Y-102633612D01*
X108240011Y-102632552D01*
X108240011Y-101104846D01*
X108237122Y-101075379D01*
X108234550Y-101045981D01*
X108234081Y-101044368D01*
X108233917Y-101042691D01*
X108225347Y-101014305D01*
X108217126Y-100986008D01*
X108216354Y-100984518D01*
X108215866Y-100982903D01*
X108201954Y-100956738D01*
X108188385Y-100930562D01*
X108187338Y-100929250D01*
X108186546Y-100927761D01*
X108167827Y-100904810D01*
X108149422Y-100881753D01*
X108147117Y-100879415D01*
X108147074Y-100879363D01*
X108147025Y-100879323D01*
X108146285Y-100878572D01*
X106725031Y-99457318D01*
X106725030Y-96627518D01*
X107451352Y-95901196D01*
X107411410Y-96089112D01*
X107411410Y-96089112D01*
G37*
X107411410Y-96089112D02*
X107408699Y-96283242D01*
X107443746Y-96474201D01*
X107515217Y-96654716D01*
X107620390Y-96817912D01*
X107755257Y-96957571D01*
X107914682Y-97068374D01*
X108092593Y-97146102D01*
X108282213Y-97187792D01*
X108476319Y-97191858D01*
X108667519Y-97158144D01*
X108848528Y-97087935D01*
X109012454Y-96983905D01*
X109153051Y-96850016D01*
X109264965Y-96691368D01*
X109278678Y-96660568D01*
X109860000Y-98048239D01*
X109860000Y-101952355D01*
X109283838Y-103346296D01*
X109278347Y-103332974D01*
X109170907Y-103171264D01*
X109034103Y-103033501D01*
X108873146Y-102924934D01*
X108694167Y-102849699D01*
X108503984Y-102810660D01*
X108309840Y-102809304D01*
X108164132Y-102837099D01*
X108165074Y-102835953D01*
X108184047Y-102813341D01*
X108184856Y-102811870D01*
X108185926Y-102810567D01*
X108199929Y-102784452D01*
X108214134Y-102758613D01*
X108214641Y-102757014D01*
X108215439Y-102755526D01*
X108224102Y-102727190D01*
X108233018Y-102699084D01*
X108233205Y-102697415D01*
X108233698Y-102695803D01*
X108236686Y-102666384D01*
X108239980Y-102637020D01*
X108240003Y-102633730D01*
X108240009Y-102633669D01*
X108240004Y-102633612D01*
X108240011Y-102632552D01*
X108240011Y-101104846D01*
X108237122Y-101075379D01*
X108234550Y-101045981D01*
X108234081Y-101044368D01*
X108233917Y-101042691D01*
X108225347Y-101014305D01*
X108217126Y-100986008D01*
X108216354Y-100984518D01*
X108215866Y-100982903D01*
X108201954Y-100956738D01*
X108188385Y-100930562D01*
X108187338Y-100929250D01*
X108186546Y-100927761D01*
X108167827Y-100904810D01*
X108149422Y-100881753D01*
X108147117Y-100879415D01*
X108147074Y-100879363D01*
X108147025Y-100879323D01*
X108146285Y-100878572D01*
X106725031Y-99457318D01*
X106725030Y-96627518D01*
X107451352Y-95901196D01*
X107411410Y-96089112D01*
G36*
X94574775Y-95681521D02*
X94597387Y-95700494D01*
X94598858Y-95701303D01*
X94600161Y-95702373D01*
X94626276Y-95716376D01*
X94652115Y-95730581D01*
X94653714Y-95731088D01*
X94655202Y-95731886D01*
X94683538Y-95740549D01*
X94711644Y-95749465D01*
X94713313Y-95749652D01*
X94714925Y-95750145D01*
X94744344Y-95753133D01*
X94773708Y-95756427D01*
X94776998Y-95756450D01*
X94777059Y-95756456D01*
X94777116Y-95756451D01*
X94778176Y-95756458D01*
X95151348Y-95756458D01*
X98509537Y-99114647D01*
X98532410Y-99133436D01*
X98555022Y-99152409D01*
X98556493Y-99153218D01*
X98557796Y-99154288D01*
X98583911Y-99168291D01*
X98609750Y-99182496D01*
X98611349Y-99183003D01*
X98612837Y-99183801D01*
X98641173Y-99192464D01*
X98669279Y-99201380D01*
X98670948Y-99201567D01*
X98672560Y-99202060D01*
X98701979Y-99205048D01*
X98731343Y-99208342D01*
X98734633Y-99208365D01*
X98734694Y-99208371D01*
X98734751Y-99208366D01*
X98735811Y-99208373D01*
X99927028Y-99208374D01*
X99956495Y-99205485D01*
X99985893Y-99202913D01*
X99987506Y-99202444D01*
X99989183Y-99202280D01*
X100017538Y-99193719D01*
X100045866Y-99185489D01*
X100047356Y-99184716D01*
X100048971Y-99184229D01*
X100075096Y-99170338D01*
X100101312Y-99156749D01*
X100102628Y-99155699D01*
X100104113Y-99154909D01*
X100127007Y-99136238D01*
X100150121Y-99117786D01*
X100152460Y-99115478D01*
X100152511Y-99115437D01*
X100152550Y-99115390D01*
X100153302Y-99114648D01*
X100343637Y-98924314D01*
X101612080Y-100192757D01*
X101612080Y-102135372D01*
X101212327Y-102535125D01*
X101212107Y-102532882D01*
X101209539Y-102503534D01*
X101209072Y-102501926D01*
X101208907Y-102500244D01*
X101200334Y-102471848D01*
X101192116Y-102443561D01*
X101191344Y-102442071D01*
X101190856Y-102440456D01*
X101176944Y-102414291D01*
X101163375Y-102388115D01*
X101162328Y-102386803D01*
X101161536Y-102385314D01*
X101142799Y-102362340D01*
X101124412Y-102339306D01*
X101122107Y-102336968D01*
X101122064Y-102336916D01*
X101122015Y-102336876D01*
X101121275Y-102336125D01*
X101088040Y-102302890D01*
X101105346Y-102226720D01*
X101106894Y-102115843D01*
X101088039Y-102020617D01*
X101051047Y-101930867D01*
X100997327Y-101850012D01*
X100928925Y-101781131D01*
X100848446Y-101726847D01*
X100758957Y-101689229D01*
X100663865Y-101669710D01*
X100566793Y-101669032D01*
X100471438Y-101687222D01*
X100381432Y-101723587D01*
X100300203Y-101776741D01*
X100230846Y-101844661D01*
X100176002Y-101924758D01*
X100137761Y-102013983D01*
X100117578Y-102108936D01*
X100116222Y-102206001D01*
X100133746Y-102301481D01*
X100159268Y-102365941D01*
X100088330Y-102412361D01*
X100018973Y-102480281D01*
X100000157Y-102507761D01*
X99985454Y-102485632D01*
X99920000Y-102419720D01*
X99920000Y-102067398D01*
X99917111Y-102037931D01*
X99914539Y-102008533D01*
X99914070Y-102006920D01*
X99913906Y-102005243D01*
X99905345Y-101976888D01*
X99897115Y-101948560D01*
X99896342Y-101947070D01*
X99895855Y-101945455D01*
X99881964Y-101919330D01*
X99868375Y-101893114D01*
X99867325Y-101891798D01*
X99866535Y-101890313D01*
X99847864Y-101867419D01*
X99829412Y-101844305D01*
X99827104Y-101841966D01*
X99827063Y-101841915D01*
X99827016Y-101841876D01*
X99826274Y-101841124D01*
X99063875Y-101078725D01*
X99041002Y-101059936D01*
X99018390Y-101040963D01*
X99016919Y-101040154D01*
X99015616Y-101039084D01*
X98989501Y-101025081D01*
X98963662Y-101010876D01*
X98962063Y-101010369D01*
X98960575Y-101009571D01*
X98932239Y-101000908D01*
X98904133Y-100991992D01*
X98902464Y-100991805D01*
X98900852Y-100991312D01*
X98871433Y-100988324D01*
X98842069Y-100985030D01*
X98838779Y-100985007D01*
X98838718Y-100985001D01*
X98838661Y-100985006D01*
X98837601Y-100984999D01*
X98362399Y-100984999D01*
X98332927Y-100987889D01*
X98303535Y-100990460D01*
X98301923Y-100990928D01*
X98300244Y-100991093D01*
X98271877Y-100999657D01*
X98243561Y-101007884D01*
X98242071Y-101008657D01*
X98240456Y-101009144D01*
X98214331Y-101023035D01*
X98188115Y-101036624D01*
X98186799Y-101037674D01*
X98185314Y-101038464D01*
X98162420Y-101057135D01*
X98139306Y-101075587D01*
X98136967Y-101077895D01*
X98136916Y-101077936D01*
X98136877Y-101077983D01*
X98136125Y-101078725D01*
X98054860Y-101159990D01*
X97217662Y-101159990D01*
X96823274Y-100765602D01*
X96838160Y-100765914D01*
X96933759Y-100749057D01*
X97024264Y-100713953D01*
X97106227Y-100661938D01*
X97176526Y-100594993D01*
X97181503Y-100587938D01*
X97190091Y-100587096D01*
X97219489Y-100584524D01*
X97221102Y-100584055D01*
X97222779Y-100583891D01*
X97251134Y-100575330D01*
X97279462Y-100567100D01*
X97280952Y-100566327D01*
X97282567Y-100565840D01*
X97308692Y-100551949D01*
X97334908Y-100538360D01*
X97336224Y-100537310D01*
X97337709Y-100536520D01*
X97360603Y-100517849D01*
X97383717Y-100499397D01*
X97386056Y-100497089D01*
X97386107Y-100497048D01*
X97386146Y-100497001D01*
X97386898Y-100496259D01*
X97968707Y-99914450D01*
X97987496Y-99891577D01*
X98006469Y-99868965D01*
X98007278Y-99867494D01*
X98008348Y-99866191D01*
X98022351Y-99840076D01*
X98036556Y-99814237D01*
X98037063Y-99812638D01*
X98037861Y-99811150D01*
X98046524Y-99782814D01*
X98055440Y-99754708D01*
X98055627Y-99753039D01*
X98056120Y-99751427D01*
X98059108Y-99722008D01*
X98062402Y-99692644D01*
X98062425Y-99689354D01*
X98062431Y-99689293D01*
X98062426Y-99689236D01*
X98062433Y-99688176D01*
X98062433Y-98800119D01*
X98059544Y-98770652D01*
X98056972Y-98741254D01*
X98056503Y-98739641D01*
X98056339Y-98737964D01*
X98047778Y-98709609D01*
X98039548Y-98681281D01*
X98038776Y-98679791D01*
X98038288Y-98678176D01*
X98024376Y-98652011D01*
X98010807Y-98625835D01*
X98009760Y-98624523D01*
X98008968Y-98623034D01*
X97990249Y-98600083D01*
X97971844Y-98577026D01*
X97969539Y-98574688D01*
X97969496Y-98574636D01*
X97969447Y-98574596D01*
X97968707Y-98573845D01*
X97378610Y-97983748D01*
X97355737Y-97964959D01*
X97333125Y-97945986D01*
X97331654Y-97945177D01*
X97330351Y-97944107D01*
X97304236Y-97930104D01*
X97278397Y-97915899D01*
X97276798Y-97915392D01*
X97275310Y-97914594D01*
X97246974Y-97905931D01*
X97218868Y-97897015D01*
X97217199Y-97896828D01*
X97215587Y-97896335D01*
X97186168Y-97893347D01*
X97156804Y-97890053D01*
X97153514Y-97890030D01*
X97153453Y-97890024D01*
X97153396Y-97890029D01*
X97152336Y-97890022D01*
X93831411Y-97890022D01*
X93801939Y-97892912D01*
X93772547Y-97895483D01*
X93770935Y-97895951D01*
X93769256Y-97896116D01*
X93740889Y-97904680D01*
X93712573Y-97912907D01*
X93711083Y-97913680D01*
X93709468Y-97914167D01*
X93683343Y-97928058D01*
X93657127Y-97941647D01*
X93655811Y-97942697D01*
X93654326Y-97943487D01*
X93631432Y-97962158D01*
X93608318Y-97980610D01*
X93605979Y-97982918D01*
X93605928Y-97982959D01*
X93605889Y-97983006D01*
X93605137Y-97983748D01*
X93523872Y-98065013D01*
X93313766Y-98065013D01*
X92920000Y-97671247D01*
X92920000Y-96599946D01*
X92994947Y-96524999D01*
X93205053Y-96524999D01*
X93484999Y-96804945D01*
X93484999Y-96937601D01*
X93487888Y-96967068D01*
X93490460Y-96996466D01*
X93490929Y-96998079D01*
X93491093Y-96999756D01*
X93499654Y-97028111D01*
X93507884Y-97056439D01*
X93508657Y-97057929D01*
X93509144Y-97059544D01*
X93523035Y-97085669D01*
X93536624Y-97111885D01*
X93537674Y-97113201D01*
X93538464Y-97114686D01*
X93557135Y-97137580D01*
X93575587Y-97160694D01*
X93577895Y-97163033D01*
X93577936Y-97163084D01*
X93577983Y-97163123D01*
X93578725Y-97163875D01*
X93836125Y-97421275D01*
X93859025Y-97440086D01*
X93881610Y-97459037D01*
X93883077Y-97459844D01*
X93884384Y-97460917D01*
X93910537Y-97474940D01*
X93936338Y-97489124D01*
X93937937Y-97489631D01*
X93939425Y-97490429D01*
X93967748Y-97499088D01*
X93995867Y-97508008D01*
X93997538Y-97508195D01*
X93999149Y-97508688D01*
X94028607Y-97511681D01*
X94057931Y-97514970D01*
X94061211Y-97514993D01*
X94061282Y-97515000D01*
X94061349Y-97514994D01*
X94062399Y-97515001D01*
X94537601Y-97515001D01*
X94567068Y-97512112D01*
X94596466Y-97509540D01*
X94598079Y-97509071D01*
X94599756Y-97508907D01*
X94628111Y-97500346D01*
X94656439Y-97492116D01*
X94657929Y-97491343D01*
X94659544Y-97490856D01*
X94685669Y-97476965D01*
X94711885Y-97463376D01*
X94713201Y-97462326D01*
X94714686Y-97461536D01*
X94737580Y-97442865D01*
X94760694Y-97424413D01*
X94763033Y-97422105D01*
X94763084Y-97422064D01*
X94763123Y-97422017D01*
X94763875Y-97421275D01*
X95021275Y-97163875D01*
X95040086Y-97140975D01*
X95059037Y-97118390D01*
X95059844Y-97116923D01*
X95060917Y-97115616D01*
X95074940Y-97089463D01*
X95089124Y-97063662D01*
X95089631Y-97062063D01*
X95090429Y-97060575D01*
X95099088Y-97032252D01*
X95108008Y-97004133D01*
X95108195Y-97002462D01*
X95108688Y-97000851D01*
X95111681Y-96971393D01*
X95114970Y-96942069D01*
X95114993Y-96938789D01*
X95115000Y-96938718D01*
X95114994Y-96938651D01*
X95115001Y-96937601D01*
X95115001Y-96395013D01*
X95112108Y-96365506D01*
X95109540Y-96336148D01*
X95109071Y-96334535D01*
X95108907Y-96332858D01*
X95100346Y-96304503D01*
X95092116Y-96276175D01*
X95091343Y-96274685D01*
X95090856Y-96273070D01*
X95076965Y-96246945D01*
X95063376Y-96220729D01*
X95062326Y-96219413D01*
X95061536Y-96217928D01*
X95042865Y-96195034D01*
X95024413Y-96171920D01*
X95022105Y-96169581D01*
X95022064Y-96169530D01*
X95022017Y-96169491D01*
X95021275Y-96168739D01*
X94529252Y-95676716D01*
X94561337Y-95677388D01*
X94568258Y-95676168D01*
X94574775Y-95681521D01*
X94574775Y-95681521D01*
G37*
X94574775Y-95681521D02*
X94597387Y-95700494D01*
X94598858Y-95701303D01*
X94600161Y-95702373D01*
X94626276Y-95716376D01*
X94652115Y-95730581D01*
X94653714Y-95731088D01*
X94655202Y-95731886D01*
X94683538Y-95740549D01*
X94711644Y-95749465D01*
X94713313Y-95749652D01*
X94714925Y-95750145D01*
X94744344Y-95753133D01*
X94773708Y-95756427D01*
X94776998Y-95756450D01*
X94777059Y-95756456D01*
X94777116Y-95756451D01*
X94778176Y-95756458D01*
X95151348Y-95756458D01*
X98509537Y-99114647D01*
X98532410Y-99133436D01*
X98555022Y-99152409D01*
X98556493Y-99153218D01*
X98557796Y-99154288D01*
X98583911Y-99168291D01*
X98609750Y-99182496D01*
X98611349Y-99183003D01*
X98612837Y-99183801D01*
X98641173Y-99192464D01*
X98669279Y-99201380D01*
X98670948Y-99201567D01*
X98672560Y-99202060D01*
X98701979Y-99205048D01*
X98731343Y-99208342D01*
X98734633Y-99208365D01*
X98734694Y-99208371D01*
X98734751Y-99208366D01*
X98735811Y-99208373D01*
X99927028Y-99208374D01*
X99956495Y-99205485D01*
X99985893Y-99202913D01*
X99987506Y-99202444D01*
X99989183Y-99202280D01*
X100017538Y-99193719D01*
X100045866Y-99185489D01*
X100047356Y-99184716D01*
X100048971Y-99184229D01*
X100075096Y-99170338D01*
X100101312Y-99156749D01*
X100102628Y-99155699D01*
X100104113Y-99154909D01*
X100127007Y-99136238D01*
X100150121Y-99117786D01*
X100152460Y-99115478D01*
X100152511Y-99115437D01*
X100152550Y-99115390D01*
X100153302Y-99114648D01*
X100343637Y-98924314D01*
X101612080Y-100192757D01*
X101612080Y-102135372D01*
X101212327Y-102535125D01*
X101212107Y-102532882D01*
X101209539Y-102503534D01*
X101209072Y-102501926D01*
X101208907Y-102500244D01*
X101200334Y-102471848D01*
X101192116Y-102443561D01*
X101191344Y-102442071D01*
X101190856Y-102440456D01*
X101176944Y-102414291D01*
X101163375Y-102388115D01*
X101162328Y-102386803D01*
X101161536Y-102385314D01*
X101142799Y-102362340D01*
X101124412Y-102339306D01*
X101122107Y-102336968D01*
X101122064Y-102336916D01*
X101122015Y-102336876D01*
X101121275Y-102336125D01*
X101088040Y-102302890D01*
X101105346Y-102226720D01*
X101106894Y-102115843D01*
X101088039Y-102020617D01*
X101051047Y-101930867D01*
X100997327Y-101850012D01*
X100928925Y-101781131D01*
X100848446Y-101726847D01*
X100758957Y-101689229D01*
X100663865Y-101669710D01*
X100566793Y-101669032D01*
X100471438Y-101687222D01*
X100381432Y-101723587D01*
X100300203Y-101776741D01*
X100230846Y-101844661D01*
X100176002Y-101924758D01*
X100137761Y-102013983D01*
X100117578Y-102108936D01*
X100116222Y-102206001D01*
X100133746Y-102301481D01*
X100159268Y-102365941D01*
X100088330Y-102412361D01*
X100018973Y-102480281D01*
X100000157Y-102507761D01*
X99985454Y-102485632D01*
X99920000Y-102419720D01*
X99920000Y-102067398D01*
X99917111Y-102037931D01*
X99914539Y-102008533D01*
X99914070Y-102006920D01*
X99913906Y-102005243D01*
X99905345Y-101976888D01*
X99897115Y-101948560D01*
X99896342Y-101947070D01*
X99895855Y-101945455D01*
X99881964Y-101919330D01*
X99868375Y-101893114D01*
X99867325Y-101891798D01*
X99866535Y-101890313D01*
X99847864Y-101867419D01*
X99829412Y-101844305D01*
X99827104Y-101841966D01*
X99827063Y-101841915D01*
X99827016Y-101841876D01*
X99826274Y-101841124D01*
X99063875Y-101078725D01*
X99041002Y-101059936D01*
X99018390Y-101040963D01*
X99016919Y-101040154D01*
X99015616Y-101039084D01*
X98989501Y-101025081D01*
X98963662Y-101010876D01*
X98962063Y-101010369D01*
X98960575Y-101009571D01*
X98932239Y-101000908D01*
X98904133Y-100991992D01*
X98902464Y-100991805D01*
X98900852Y-100991312D01*
X98871433Y-100988324D01*
X98842069Y-100985030D01*
X98838779Y-100985007D01*
X98838718Y-100985001D01*
X98838661Y-100985006D01*
X98837601Y-100984999D01*
X98362399Y-100984999D01*
X98332927Y-100987889D01*
X98303535Y-100990460D01*
X98301923Y-100990928D01*
X98300244Y-100991093D01*
X98271877Y-100999657D01*
X98243561Y-101007884D01*
X98242071Y-101008657D01*
X98240456Y-101009144D01*
X98214331Y-101023035D01*
X98188115Y-101036624D01*
X98186799Y-101037674D01*
X98185314Y-101038464D01*
X98162420Y-101057135D01*
X98139306Y-101075587D01*
X98136967Y-101077895D01*
X98136916Y-101077936D01*
X98136877Y-101077983D01*
X98136125Y-101078725D01*
X98054860Y-101159990D01*
X97217662Y-101159990D01*
X96823274Y-100765602D01*
X96838160Y-100765914D01*
X96933759Y-100749057D01*
X97024264Y-100713953D01*
X97106227Y-100661938D01*
X97176526Y-100594993D01*
X97181503Y-100587938D01*
X97190091Y-100587096D01*
X97219489Y-100584524D01*
X97221102Y-100584055D01*
X97222779Y-100583891D01*
X97251134Y-100575330D01*
X97279462Y-100567100D01*
X97280952Y-100566327D01*
X97282567Y-100565840D01*
X97308692Y-100551949D01*
X97334908Y-100538360D01*
X97336224Y-100537310D01*
X97337709Y-100536520D01*
X97360603Y-100517849D01*
X97383717Y-100499397D01*
X97386056Y-100497089D01*
X97386107Y-100497048D01*
X97386146Y-100497001D01*
X97386898Y-100496259D01*
X97968707Y-99914450D01*
X97987496Y-99891577D01*
X98006469Y-99868965D01*
X98007278Y-99867494D01*
X98008348Y-99866191D01*
X98022351Y-99840076D01*
X98036556Y-99814237D01*
X98037063Y-99812638D01*
X98037861Y-99811150D01*
X98046524Y-99782814D01*
X98055440Y-99754708D01*
X98055627Y-99753039D01*
X98056120Y-99751427D01*
X98059108Y-99722008D01*
X98062402Y-99692644D01*
X98062425Y-99689354D01*
X98062431Y-99689293D01*
X98062426Y-99689236D01*
X98062433Y-99688176D01*
X98062433Y-98800119D01*
X98059544Y-98770652D01*
X98056972Y-98741254D01*
X98056503Y-98739641D01*
X98056339Y-98737964D01*
X98047778Y-98709609D01*
X98039548Y-98681281D01*
X98038776Y-98679791D01*
X98038288Y-98678176D01*
X98024376Y-98652011D01*
X98010807Y-98625835D01*
X98009760Y-98624523D01*
X98008968Y-98623034D01*
X97990249Y-98600083D01*
X97971844Y-98577026D01*
X97969539Y-98574688D01*
X97969496Y-98574636D01*
X97969447Y-98574596D01*
X97968707Y-98573845D01*
X97378610Y-97983748D01*
X97355737Y-97964959D01*
X97333125Y-97945986D01*
X97331654Y-97945177D01*
X97330351Y-97944107D01*
X97304236Y-97930104D01*
X97278397Y-97915899D01*
X97276798Y-97915392D01*
X97275310Y-97914594D01*
X97246974Y-97905931D01*
X97218868Y-97897015D01*
X97217199Y-97896828D01*
X97215587Y-97896335D01*
X97186168Y-97893347D01*
X97156804Y-97890053D01*
X97153514Y-97890030D01*
X97153453Y-97890024D01*
X97153396Y-97890029D01*
X97152336Y-97890022D01*
X93831411Y-97890022D01*
X93801939Y-97892912D01*
X93772547Y-97895483D01*
X93770935Y-97895951D01*
X93769256Y-97896116D01*
X93740889Y-97904680D01*
X93712573Y-97912907D01*
X93711083Y-97913680D01*
X93709468Y-97914167D01*
X93683343Y-97928058D01*
X93657127Y-97941647D01*
X93655811Y-97942697D01*
X93654326Y-97943487D01*
X93631432Y-97962158D01*
X93608318Y-97980610D01*
X93605979Y-97982918D01*
X93605928Y-97982959D01*
X93605889Y-97983006D01*
X93605137Y-97983748D01*
X93523872Y-98065013D01*
X93313766Y-98065013D01*
X92920000Y-97671247D01*
X92920000Y-96599946D01*
X92994947Y-96524999D01*
X93205053Y-96524999D01*
X93484999Y-96804945D01*
X93484999Y-96937601D01*
X93487888Y-96967068D01*
X93490460Y-96996466D01*
X93490929Y-96998079D01*
X93491093Y-96999756D01*
X93499654Y-97028111D01*
X93507884Y-97056439D01*
X93508657Y-97057929D01*
X93509144Y-97059544D01*
X93523035Y-97085669D01*
X93536624Y-97111885D01*
X93537674Y-97113201D01*
X93538464Y-97114686D01*
X93557135Y-97137580D01*
X93575587Y-97160694D01*
X93577895Y-97163033D01*
X93577936Y-97163084D01*
X93577983Y-97163123D01*
X93578725Y-97163875D01*
X93836125Y-97421275D01*
X93859025Y-97440086D01*
X93881610Y-97459037D01*
X93883077Y-97459844D01*
X93884384Y-97460917D01*
X93910537Y-97474940D01*
X93936338Y-97489124D01*
X93937937Y-97489631D01*
X93939425Y-97490429D01*
X93967748Y-97499088D01*
X93995867Y-97508008D01*
X93997538Y-97508195D01*
X93999149Y-97508688D01*
X94028607Y-97511681D01*
X94057931Y-97514970D01*
X94061211Y-97514993D01*
X94061282Y-97515000D01*
X94061349Y-97514994D01*
X94062399Y-97515001D01*
X94537601Y-97515001D01*
X94567068Y-97512112D01*
X94596466Y-97509540D01*
X94598079Y-97509071D01*
X94599756Y-97508907D01*
X94628111Y-97500346D01*
X94656439Y-97492116D01*
X94657929Y-97491343D01*
X94659544Y-97490856D01*
X94685669Y-97476965D01*
X94711885Y-97463376D01*
X94713201Y-97462326D01*
X94714686Y-97461536D01*
X94737580Y-97442865D01*
X94760694Y-97424413D01*
X94763033Y-97422105D01*
X94763084Y-97422064D01*
X94763123Y-97422017D01*
X94763875Y-97421275D01*
X95021275Y-97163875D01*
X95040086Y-97140975D01*
X95059037Y-97118390D01*
X95059844Y-97116923D01*
X95060917Y-97115616D01*
X95074940Y-97089463D01*
X95089124Y-97063662D01*
X95089631Y-97062063D01*
X95090429Y-97060575D01*
X95099088Y-97032252D01*
X95108008Y-97004133D01*
X95108195Y-97002462D01*
X95108688Y-97000851D01*
X95111681Y-96971393D01*
X95114970Y-96942069D01*
X95114993Y-96938789D01*
X95115000Y-96938718D01*
X95114994Y-96938651D01*
X95115001Y-96937601D01*
X95115001Y-96395013D01*
X95112108Y-96365506D01*
X95109540Y-96336148D01*
X95109071Y-96334535D01*
X95108907Y-96332858D01*
X95100346Y-96304503D01*
X95092116Y-96276175D01*
X95091343Y-96274685D01*
X95090856Y-96273070D01*
X95076965Y-96246945D01*
X95063376Y-96220729D01*
X95062326Y-96219413D01*
X95061536Y-96217928D01*
X95042865Y-96195034D01*
X95024413Y-96171920D01*
X95022105Y-96169581D01*
X95022064Y-96169530D01*
X95022017Y-96169491D01*
X95021275Y-96168739D01*
X94529252Y-95676716D01*
X94561337Y-95677388D01*
X94568258Y-95676168D01*
X94574775Y-95681521D01*
M02*
