G04 #@! TF.FileFunction,Legend,Bot*
%FSLAX46Y46*%
G04 Gerber Fmt 4.6, Leading zero omitted, Abs format (unit mm)*
G04 Created by KiCad (PCBNEW 4.0.4-stable) date Tuesday, June 20, 2017 'PMt' 01:16:25 PM*
%MOMM*%
%LPD*%
G01*
G04 APERTURE LIST*
%ADD10C,0.150000*%
%ADD11C,0.250000*%
%ADD12C,0.500000*%
%ADD13C,0.200000*%
G04 APERTURE END LIST*
D10*
D11*
X106457143Y-106057143D02*
X106504762Y-106104762D01*
X106647619Y-106152381D01*
X106742857Y-106152381D01*
X106885715Y-106104762D01*
X106980953Y-106009524D01*
X107028572Y-105914286D01*
X107076191Y-105723810D01*
X107076191Y-105580952D01*
X107028572Y-105390476D01*
X106980953Y-105295238D01*
X106885715Y-105200000D01*
X106742857Y-105152381D01*
X106647619Y-105152381D01*
X106504762Y-105200000D01*
X106457143Y-105247619D01*
X106076191Y-106104762D02*
X105933334Y-106152381D01*
X105695238Y-106152381D01*
X105600000Y-106104762D01*
X105552381Y-106057143D01*
X105504762Y-105961905D01*
X105504762Y-105866667D01*
X105552381Y-105771429D01*
X105600000Y-105723810D01*
X105695238Y-105676190D01*
X105885715Y-105628571D01*
X105980953Y-105580952D01*
X106028572Y-105533333D01*
X106076191Y-105438095D01*
X106076191Y-105342857D01*
X106028572Y-105247619D01*
X105980953Y-105200000D01*
X105885715Y-105152381D01*
X105647619Y-105152381D01*
X105504762Y-105200000D01*
X104600000Y-106152381D02*
X105076191Y-106152381D01*
X105076191Y-105152381D01*
X103552381Y-105247619D02*
X103504762Y-105200000D01*
X103409524Y-105152381D01*
X103171428Y-105152381D01*
X103076190Y-105200000D01*
X103028571Y-105247619D01*
X102980952Y-105342857D01*
X102980952Y-105438095D01*
X103028571Y-105580952D01*
X103600000Y-106152381D01*
X102980952Y-106152381D01*
X102361905Y-105152381D02*
X102266666Y-105152381D01*
X102171428Y-105200000D01*
X102123809Y-105247619D01*
X102076190Y-105342857D01*
X102028571Y-105533333D01*
X102028571Y-105771429D01*
X102076190Y-105961905D01*
X102123809Y-106057143D01*
X102171428Y-106104762D01*
X102266666Y-106152381D01*
X102361905Y-106152381D01*
X102457143Y-106104762D01*
X102504762Y-106057143D01*
X102552381Y-105961905D01*
X102600000Y-105771429D01*
X102600000Y-105533333D01*
X102552381Y-105342857D01*
X102504762Y-105247619D01*
X102457143Y-105200000D01*
X102361905Y-105152381D01*
X101076190Y-106152381D02*
X101647619Y-106152381D01*
X101361905Y-106152381D02*
X101361905Y-105152381D01*
X101457143Y-105295238D01*
X101552381Y-105390476D01*
X101647619Y-105438095D01*
X100742857Y-105152381D02*
X100076190Y-105152381D01*
X100504762Y-106152381D01*
D12*
X98900000Y-101350252D02*
X101021320Y-99228932D01*
X94778680Y-99228932D02*
X96900000Y-101350252D01*
X102900000Y-97157864D02*
X99971068Y-94228932D01*
X95828932Y-94228932D02*
X92900000Y-97157864D01*
X98900000Y-101350252D02*
X98900000Y-104228932D01*
X96900000Y-101350252D02*
X96900000Y-104228932D01*
X96900000Y-97107612D02*
X96900000Y-94228932D01*
X99971068Y-94228932D02*
X95828932Y-94228932D01*
X95828932Y-104228932D02*
X99971068Y-104228932D01*
X96900000Y-101350252D02*
X99021320Y-99228932D01*
X98900000Y-97107612D02*
X98900000Y-94228932D01*
X99021320Y-99228932D02*
X102900000Y-99228932D01*
X99021320Y-99228932D02*
X96900000Y-97107612D01*
X92900000Y-97157864D02*
X92900000Y-101300000D01*
X96900000Y-97107612D02*
X94778680Y-99228932D01*
X98900000Y-97107612D02*
X96778680Y-99228932D01*
X96778680Y-99228932D02*
X92900000Y-99228932D01*
X99971068Y-104228932D02*
X102900000Y-101300000D01*
X92900000Y-101300000D02*
X95828932Y-104228932D01*
X101021320Y-99228932D02*
X98900000Y-97107612D01*
X96778680Y-99228932D02*
X98900000Y-101350252D01*
X102900000Y-101300000D02*
X102900000Y-97157864D01*
D13*
X112500000Y-100000000D02*
G75*
G03X112500000Y-100000000I-12500000J0D01*
G01*
M02*
