G04 #@! TF.FileFunction,Soldermask,Bot*
%FSLAX46Y46*%
G04 Gerber Fmt 4.6, Leading zero omitted, Abs format (unit mm)*
G04 Created by KiCad (PCBNEW 4.0.4-stable) date Tuesday, June 06, 2017 'AMt' 10:57:04 AM*
%MOMM*%
%LPD*%
G01*
G04 APERTURE LIST*
%ADD10C,0.150000*%
%ADD11C,0.100000*%
%ADD12C,0.700000*%
%ADD13C,2.000000*%
%ADD14R,1.150000X1.400000*%
%ADD15R,0.580000X0.885000*%
%ADD16R,0.680000X0.885000*%
G04 APERTURE END LIST*
D10*
D11*
X111231970Y-108134721D02*
G75*
G02X111059901Y-107269699I561262J561270D01*
G01*
X112536831Y-109439562D02*
X111231970Y-108134721D01*
X113290360Y-109648529D02*
G75*
G02X112536831Y-109439562I-192090J770414D01*
G01*
X113290360Y-109648529D02*
G75*
G02X109648580Y-113290157I1209640J-4851471D01*
G01*
X109439597Y-112536571D02*
G75*
G02X109648580Y-113290157I-561423J-561463D01*
G01*
X108134879Y-111231944D02*
X109439597Y-112536571D01*
X107269845Y-111059867D02*
G75*
G02X108134879Y-111231944I303735J-733425D01*
G01*
X102585911Y-112999990D02*
X107269845Y-111059867D01*
X97414189Y-113000010D02*
X102585911Y-112999990D01*
X92636134Y-111020896D02*
X97414189Y-113000010D01*
X92532703Y-110917981D02*
X92636134Y-111020896D01*
X91763669Y-111686905D02*
G75*
G02X92532703Y-110917981I384517J384462D01*
G01*
X91057001Y-112393473D02*
X91763670Y-111686905D01*
X90824477Y-112954667D02*
G75*
G02X91057001Y-112393473I793751J-112D01*
G01*
X90823632Y-118931203D02*
X90824478Y-112954667D01*
X90823633Y-118931203D02*
G75*
G02X89000000Y-120824930I-1823633J-68797D01*
G01*
X83897210Y-120824930D02*
X89000000Y-120824930D01*
X83897209Y-120824930D02*
G75*
G02X83335670Y-120592276I1J794000D01*
G01*
X79407531Y-116662785D02*
X83335670Y-120592276D01*
X79407531Y-116662785D02*
G75*
G02X79175070Y-116101439I561539J561346D01*
G01*
X79175070Y-111000000D02*
X79175070Y-116101439D01*
X79175070Y-111000000D02*
G75*
G02X81000000Y-109175070I1824930J0D01*
G01*
X87045416Y-109175070D02*
X81000000Y-109175070D01*
X87606642Y-108942626D02*
G75*
G02X87045416Y-109175070I-561226J561306D01*
G01*
X88313311Y-108236057D02*
X87606642Y-108942626D01*
X89082343Y-107467133D02*
G75*
G02X88313311Y-108236057I-384516J-384462D01*
G01*
X88979160Y-107363951D02*
X89082344Y-107467133D01*
X87000010Y-102585911D02*
X88979160Y-107363951D01*
X86999990Y-97414189D02*
X87000010Y-102585911D01*
X88940031Y-92730236D02*
X86999990Y-97414189D01*
X88767993Y-91865208D02*
G75*
G02X88940031Y-92730236I-561282J-561250D01*
G01*
X87504519Y-90601664D02*
X88767993Y-91865208D01*
X86853117Y-90374203D02*
G75*
G02X87504519Y-90601664I89944J-788889D01*
G01*
X86853117Y-90374203D02*
G75*
G02X90374240Y-86853176I-453117J3974253D01*
G01*
X90601685Y-87504584D02*
G75*
G02X90374240Y-86853176I561442J561443D01*
G01*
X91865193Y-88768093D02*
X90601684Y-87504584D01*
X92730217Y-88940155D02*
G75*
G02X91865193Y-88768093I-303758J733329D01*
G01*
X96923943Y-87203037D02*
X92730216Y-88940155D01*
X97414089Y-86469477D02*
G75*
G02X96923943Y-87203037I-794000J-1D01*
G01*
X97414089Y-83994000D02*
X97414089Y-86469478D01*
X96620089Y-83200000D02*
G75*
G02X97414089Y-83994000I0J-794000D01*
G01*
X91250000Y-83200000D02*
X96620089Y-83200000D01*
X91250000Y-80400000D02*
X91250000Y-83200000D01*
X94456000Y-80400000D02*
X91250000Y-80400000D01*
X95250000Y-79606000D02*
G75*
G02X94456000Y-80400000I-794000J0D01*
G01*
X95250000Y-75887486D02*
X95250000Y-79606000D01*
X95250000Y-75887486D02*
G75*
G02X95482557Y-75326043I794000J0D01*
G01*
X98076043Y-72732557D02*
X95482557Y-75326043D01*
X98076043Y-72732557D02*
G75*
G02X98637486Y-72500000I561443J-561443D01*
G01*
X108356000Y-72500000D02*
X98637486Y-72500000D01*
X108356000Y-72500000D02*
G75*
G02X109150000Y-73294000I0J-794000D01*
G01*
X103379811Y-83200000D02*
X108356000Y-83200000D01*
X109150000Y-82406000D02*
X109150000Y-73294000D01*
X109625659Y-86853102D02*
G75*
G02X109398220Y-87504512I-788886J-89971D01*
G01*
X111231944Y-91865121D02*
X112495409Y-90601568D01*
X113000010Y-102585811D02*
X112999990Y-97414089D01*
X109398220Y-87504512D02*
X108134721Y-88768030D01*
X112495410Y-90601568D02*
G75*
G02X113146809Y-90374102I561461J-561423D01*
G01*
X112999990Y-97414089D02*
X111059913Y-92730151D01*
X108134721Y-88768030D02*
G75*
G02X107269699Y-88940099I-561270J561262D01*
G01*
X107269699Y-88940099D02*
X103075963Y-87203016D01*
X111059913Y-92730151D02*
G75*
G02X111231944Y-91865121I733317J303784D01*
G01*
X109625657Y-86853103D02*
G75*
G02X113146809Y-90374102I3974238J453258D01*
G01*
X111059901Y-107269699D02*
X113000010Y-102585811D01*
X102585811Y-86469454D02*
X102585811Y-83994000D01*
X109150000Y-82406000D02*
G75*
G02X108356000Y-83200000I-794000J0D01*
G01*
X102585811Y-83994000D02*
G75*
G02X103379811Y-83200000I794000J0D01*
G01*
X103075963Y-87203016D02*
G75*
G02X102585811Y-86469454I303848J733562D01*
G01*
D12*
X109300000Y-109300000D03*
X108500000Y-110100000D03*
X108050000Y-110525000D03*
X109700000Y-108900000D03*
X110100000Y-108500000D03*
X110500000Y-108100000D03*
X111250000Y-111250000D03*
X110450000Y-112050000D03*
X110025000Y-112475000D03*
X111650000Y-110850000D03*
X112050000Y-110450000D03*
X112450000Y-110050000D03*
X110850000Y-111650000D03*
X90700000Y-109300000D03*
X90300000Y-108900000D03*
X91100000Y-109700000D03*
X89500000Y-108100000D03*
X91900000Y-110500000D03*
D13*
X81000000Y-111000000D03*
X89000000Y-119000000D03*
D12*
X87950000Y-89550000D03*
X89150000Y-88350000D03*
X89950000Y-87550000D03*
X89550000Y-87950000D03*
X88350000Y-89150000D03*
X87550000Y-89950000D03*
D13*
X103600000Y-108200000D03*
X91800000Y-103600000D03*
D12*
X111650000Y-89150000D03*
X112050000Y-89550000D03*
X112450000Y-89950000D03*
X110850000Y-88350000D03*
X111250000Y-88750000D03*
X110050000Y-87550000D03*
X110500000Y-91900000D03*
X110100000Y-91500000D03*
X109700000Y-91100000D03*
X108100000Y-89500000D03*
X108900000Y-90300000D03*
X109300000Y-90700000D03*
X88750000Y-88750000D03*
X89500000Y-91900000D03*
X90300000Y-91100000D03*
X91500000Y-89900000D03*
X91900000Y-89500000D03*
X91100000Y-90300000D03*
X90700000Y-90700000D03*
X98000000Y-86900000D03*
X100000000Y-86900000D03*
X99500000Y-86900000D03*
X98500000Y-86900000D03*
X99000000Y-86900000D03*
X102000000Y-86900000D03*
X101500000Y-86900000D03*
X101000000Y-86900000D03*
D10*
G36*
X114307107Y-87602082D02*
X113776777Y-88132412D01*
X113246447Y-87602082D01*
X113776777Y-87071752D01*
X114307107Y-87602082D01*
X114307107Y-87602082D01*
G37*
G36*
X113847487Y-87142462D02*
X113317157Y-87672792D01*
X112786827Y-87142462D01*
X113317157Y-86612132D01*
X113847487Y-87142462D01*
X113847487Y-87142462D01*
G37*
G36*
X113387868Y-86682843D02*
X112857538Y-87213173D01*
X112327208Y-86682843D01*
X112857538Y-86152513D01*
X113387868Y-86682843D01*
X113387868Y-86682843D01*
G37*
G36*
X112928248Y-86223223D02*
X112397918Y-86753553D01*
X111867588Y-86223223D01*
X112397918Y-85692893D01*
X112928248Y-86223223D01*
X112928248Y-86223223D01*
G37*
G36*
X113953553Y-85197918D02*
X113423223Y-85728248D01*
X112892893Y-85197918D01*
X113423223Y-84667588D01*
X113953553Y-85197918D01*
X113953553Y-85197918D01*
G37*
G36*
X114413173Y-85657538D02*
X113882843Y-86187868D01*
X113352513Y-85657538D01*
X113882843Y-85127208D01*
X114413173Y-85657538D01*
X114413173Y-85657538D01*
G37*
G36*
X114872792Y-86117157D02*
X114342462Y-86647487D01*
X113812132Y-86117157D01*
X114342462Y-85586827D01*
X114872792Y-86117157D01*
X114872792Y-86117157D01*
G37*
G36*
X115332412Y-86576777D02*
X114802082Y-87107107D01*
X114271752Y-86576777D01*
X114802082Y-86046447D01*
X115332412Y-86576777D01*
X115332412Y-86576777D01*
G37*
G36*
X87602082Y-85692893D02*
X88132412Y-86223223D01*
X87602082Y-86753553D01*
X87071752Y-86223223D01*
X87602082Y-85692893D01*
X87602082Y-85692893D01*
G37*
G36*
X87142462Y-86152513D02*
X87672792Y-86682843D01*
X87142462Y-87213173D01*
X86612132Y-86682843D01*
X87142462Y-86152513D01*
X87142462Y-86152513D01*
G37*
G36*
X86682843Y-86612132D02*
X87213173Y-87142462D01*
X86682843Y-87672792D01*
X86152513Y-87142462D01*
X86682843Y-86612132D01*
X86682843Y-86612132D01*
G37*
G36*
X86223223Y-87071752D02*
X86753553Y-87602082D01*
X86223223Y-88132412D01*
X85692893Y-87602082D01*
X86223223Y-87071752D01*
X86223223Y-87071752D01*
G37*
G36*
X85197918Y-86046447D02*
X85728248Y-86576777D01*
X85197918Y-87107107D01*
X84667588Y-86576777D01*
X85197918Y-86046447D01*
X85197918Y-86046447D01*
G37*
G36*
X85657538Y-85586827D02*
X86187868Y-86117157D01*
X85657538Y-86647487D01*
X85127208Y-86117157D01*
X85657538Y-85586827D01*
X85657538Y-85586827D01*
G37*
G36*
X86117157Y-85127208D02*
X86647487Y-85657538D01*
X86117157Y-86187868D01*
X85586827Y-85657538D01*
X86117157Y-85127208D01*
X86117157Y-85127208D01*
G37*
G36*
X86576777Y-84667588D02*
X87107107Y-85197918D01*
X86576777Y-85728248D01*
X86046447Y-85197918D01*
X86576777Y-84667588D01*
X86576777Y-84667588D01*
G37*
D12*
X100500000Y-86900000D03*
D13*
X108200000Y-96400000D03*
D14*
X104600000Y-80550000D03*
X103400000Y-80550000D03*
D15*
X92950000Y-82707500D03*
X93300000Y-82707500D03*
D16*
X94050000Y-82707500D03*
D15*
X93650000Y-82707500D03*
X92250000Y-82707500D03*
X92600000Y-82707500D03*
D16*
X91850000Y-82707500D03*
X91850000Y-80892500D03*
D15*
X92600000Y-80892500D03*
X92950000Y-80892500D03*
X92250000Y-80892500D03*
D16*
X94050000Y-80892500D03*
D15*
X93650000Y-80892500D03*
X93300000Y-80892500D03*
D10*
G36*
X114422218Y-112958614D02*
X113092858Y-111629254D01*
X113729254Y-110992858D01*
X115058614Y-112322218D01*
X114422218Y-112958614D01*
X114422218Y-112958614D01*
G37*
G36*
X115277818Y-113814214D02*
X114287868Y-112824264D01*
X114924264Y-112187868D01*
X115914214Y-113177818D01*
X115277818Y-113814214D01*
X115277818Y-113814214D01*
G37*
G36*
X113227208Y-113177818D02*
X114075736Y-112329290D01*
X114570710Y-112824264D01*
X113722182Y-113672792D01*
X113227208Y-113177818D01*
X113227208Y-113177818D01*
G37*
G36*
X114429290Y-111975736D02*
X115277818Y-111127208D01*
X115772792Y-111622182D01*
X114924264Y-112470710D01*
X114429290Y-111975736D01*
X114429290Y-111975736D01*
G37*
G36*
X113792893Y-113743503D02*
X114641421Y-112894975D01*
X115277817Y-113531371D01*
X114429289Y-114379899D01*
X113792893Y-113743503D01*
X113792893Y-113743503D01*
G37*
G36*
X114994975Y-112541421D02*
X115843503Y-111692893D01*
X116479899Y-112329289D01*
X115631371Y-113177817D01*
X114994975Y-112541421D01*
X114994975Y-112541421D01*
G37*
G36*
X112520101Y-112470711D02*
X113368629Y-111622183D01*
X114005025Y-112258579D01*
X113156497Y-113107107D01*
X112520101Y-112470711D01*
X112520101Y-112470711D01*
G37*
G36*
X113722183Y-111268629D02*
X114570711Y-110420101D01*
X115207107Y-111056497D01*
X114358579Y-111905025D01*
X113722183Y-111268629D01*
X113722183Y-111268629D01*
G37*
G36*
X112322218Y-115058614D02*
X110992858Y-113729254D01*
X111629254Y-113092858D01*
X112958614Y-114422218D01*
X112322218Y-115058614D01*
X112322218Y-115058614D01*
G37*
G36*
X113177818Y-115914214D02*
X112187868Y-114924264D01*
X112824264Y-114287868D01*
X113814214Y-115277818D01*
X113177818Y-115914214D01*
X113177818Y-115914214D01*
G37*
G36*
X111127208Y-115277818D02*
X111975736Y-114429290D01*
X112470710Y-114924264D01*
X111622182Y-115772792D01*
X111127208Y-115277818D01*
X111127208Y-115277818D01*
G37*
G36*
X112329290Y-114075736D02*
X113177818Y-113227208D01*
X113672792Y-113722182D01*
X112824264Y-114570710D01*
X112329290Y-114075736D01*
X112329290Y-114075736D01*
G37*
G36*
X111692893Y-115843503D02*
X112541421Y-114994975D01*
X113177817Y-115631371D01*
X112329289Y-116479899D01*
X111692893Y-115843503D01*
X111692893Y-115843503D01*
G37*
G36*
X112894975Y-114641421D02*
X113743503Y-113792893D01*
X114379899Y-114429289D01*
X113531371Y-115277817D01*
X112894975Y-114641421D01*
X112894975Y-114641421D01*
G37*
G36*
X110420101Y-114570711D02*
X111268629Y-113722183D01*
X111905025Y-114358579D01*
X111056497Y-115207107D01*
X110420101Y-114570711D01*
X110420101Y-114570711D01*
G37*
G36*
X111622183Y-113368629D02*
X112470711Y-112520101D01*
X113107107Y-113156497D01*
X112258579Y-114005025D01*
X111622183Y-113368629D01*
X111622183Y-113368629D01*
G37*
G36*
X114577782Y-116041386D02*
X115907142Y-117370746D01*
X115270746Y-118007142D01*
X113941386Y-116677782D01*
X114577782Y-116041386D01*
X114577782Y-116041386D01*
G37*
G36*
X113722182Y-115185786D02*
X114712132Y-116175736D01*
X114075736Y-116812132D01*
X113085786Y-115822182D01*
X113722182Y-115185786D01*
X113722182Y-115185786D01*
G37*
G36*
X115772792Y-115822182D02*
X114924264Y-116670710D01*
X114429290Y-116175736D01*
X115277818Y-115327208D01*
X115772792Y-115822182D01*
X115772792Y-115822182D01*
G37*
G36*
X114570710Y-117024264D02*
X113722182Y-117872792D01*
X113227208Y-117377818D01*
X114075736Y-116529290D01*
X114570710Y-117024264D01*
X114570710Y-117024264D01*
G37*
G36*
X115207107Y-115256497D02*
X114358579Y-116105025D01*
X113722183Y-115468629D01*
X114570711Y-114620101D01*
X115207107Y-115256497D01*
X115207107Y-115256497D01*
G37*
G36*
X114005025Y-116458579D02*
X113156497Y-117307107D01*
X112520101Y-116670711D01*
X113368629Y-115822183D01*
X114005025Y-116458579D01*
X114005025Y-116458579D01*
G37*
G36*
X116479899Y-116529289D02*
X115631371Y-117377817D01*
X114994975Y-116741421D01*
X115843503Y-115892893D01*
X116479899Y-116529289D01*
X116479899Y-116529289D01*
G37*
G36*
X115277817Y-117731371D02*
X114429289Y-118579899D01*
X113792893Y-117943503D01*
X114641421Y-117094975D01*
X115277817Y-117731371D01*
X115277817Y-117731371D01*
G37*
G36*
X116677782Y-113941386D02*
X118007142Y-115270746D01*
X117370746Y-115907142D01*
X116041386Y-114577782D01*
X116677782Y-113941386D01*
X116677782Y-113941386D01*
G37*
G36*
X115822182Y-113085786D02*
X116812132Y-114075736D01*
X116175736Y-114712132D01*
X115185786Y-113722182D01*
X115822182Y-113085786D01*
X115822182Y-113085786D01*
G37*
G36*
X117872792Y-113722182D02*
X117024264Y-114570710D01*
X116529290Y-114075736D01*
X117377818Y-113227208D01*
X117872792Y-113722182D01*
X117872792Y-113722182D01*
G37*
G36*
X116670710Y-114924264D02*
X115822182Y-115772792D01*
X115327208Y-115277818D01*
X116175736Y-114429290D01*
X116670710Y-114924264D01*
X116670710Y-114924264D01*
G37*
G36*
X117307107Y-113156497D02*
X116458579Y-114005025D01*
X115822183Y-113368629D01*
X116670711Y-112520101D01*
X117307107Y-113156497D01*
X117307107Y-113156497D01*
G37*
G36*
X116105025Y-114358579D02*
X115256497Y-115207107D01*
X114620101Y-114570711D01*
X115468629Y-113722183D01*
X116105025Y-114358579D01*
X116105025Y-114358579D01*
G37*
G36*
X118579899Y-114429289D02*
X117731371Y-115277817D01*
X117094975Y-114641421D01*
X117943503Y-113792893D01*
X118579899Y-114429289D01*
X118579899Y-114429289D01*
G37*
G36*
X117377817Y-115631371D02*
X116529289Y-116479899D01*
X115892893Y-115843503D01*
X116741421Y-114994975D01*
X117377817Y-115631371D01*
X117377817Y-115631371D01*
G37*
M02*
