G04 #@! TF.FileFunction,Legend,Top*
%FSLAX46Y46*%
G04 Gerber Fmt 4.6, Leading zero omitted, Abs format (unit mm)*
G04 Created by KiCad (PCBNEW 4.0.4-stable) date Tuesday, June 06, 2017 'AMt' 10:57:04 AM*
%MOMM*%
%LPD*%
G01*
G04 APERTURE LIST*
%ADD10C,0.150000*%
%ADD11C,0.187500*%
%ADD12C,0.100000*%
%ADD13C,0.200000*%
%ADD14C,0.390000*%
%ADD15C,0.050000*%
%ADD16C,0.127000*%
%ADD17C,0.304800*%
G04 APERTURE END LIST*
D10*
D11*
X108500000Y-101132143D02*
X108500000Y-100775000D01*
X108714286Y-101203571D02*
X107964286Y-100953571D01*
X108714286Y-100703571D01*
X108714286Y-100453572D02*
X107964286Y-100453572D01*
X107964286Y-100167857D01*
X108000000Y-100096429D01*
X108035714Y-100060714D01*
X108107143Y-100025000D01*
X108214286Y-100025000D01*
X108285714Y-100060714D01*
X108321429Y-100096429D01*
X108357143Y-100167857D01*
X108357143Y-100453572D01*
X108500000Y-99739286D02*
X108500000Y-99382143D01*
X108714286Y-99810714D02*
X107964286Y-99560714D01*
X108714286Y-99310714D01*
X108035714Y-99096429D02*
X108000000Y-99060715D01*
X107964286Y-98989286D01*
X107964286Y-98810715D01*
X108000000Y-98739286D01*
X108035714Y-98703572D01*
X108107143Y-98667857D01*
X108178571Y-98667857D01*
X108285714Y-98703572D01*
X108714286Y-99132143D01*
X108714286Y-98667857D01*
X91300000Y-98642857D02*
X91300000Y-99000000D01*
X91085714Y-98571429D02*
X91835714Y-98821429D01*
X91085714Y-99071429D01*
X91085714Y-99321428D02*
X91835714Y-99321428D01*
X91835714Y-99607143D01*
X91800000Y-99678571D01*
X91764286Y-99714286D01*
X91692857Y-99750000D01*
X91585714Y-99750000D01*
X91514286Y-99714286D01*
X91478571Y-99678571D01*
X91442857Y-99607143D01*
X91442857Y-99321428D01*
X91300000Y-100035714D02*
X91300000Y-100392857D01*
X91085714Y-99964286D02*
X91835714Y-100214286D01*
X91085714Y-100464286D01*
X91835714Y-100857143D02*
X91835714Y-100928571D01*
X91800000Y-101000000D01*
X91764286Y-101035714D01*
X91692857Y-101071428D01*
X91550000Y-101107143D01*
X91371429Y-101107143D01*
X91228571Y-101071428D01*
X91157143Y-101035714D01*
X91121429Y-101000000D01*
X91085714Y-100928571D01*
X91085714Y-100857143D01*
X91121429Y-100785714D01*
X91157143Y-100750000D01*
X91228571Y-100714285D01*
X91371429Y-100678571D01*
X91550000Y-100678571D01*
X91692857Y-100714285D01*
X91764286Y-100750000D01*
X91800000Y-100785714D01*
X91835714Y-100857143D01*
X98717857Y-108400000D02*
X99075000Y-108400000D01*
X98646429Y-108614286D02*
X98896429Y-107864286D01*
X99146429Y-108614286D01*
X99396428Y-108614286D02*
X99396428Y-107864286D01*
X99682143Y-107864286D01*
X99753571Y-107900000D01*
X99789286Y-107935714D01*
X99825000Y-108007143D01*
X99825000Y-108114286D01*
X99789286Y-108185714D01*
X99753571Y-108221429D01*
X99682143Y-108257143D01*
X99396428Y-108257143D01*
X100110714Y-108400000D02*
X100467857Y-108400000D01*
X100039286Y-108614286D02*
X100289286Y-107864286D01*
X100539286Y-108614286D01*
X101182143Y-108614286D02*
X100753571Y-108614286D01*
X100967857Y-108614286D02*
X100967857Y-107864286D01*
X100896428Y-107971429D01*
X100825000Y-108042857D01*
X100753571Y-108078571D01*
X94467385Y-105547208D02*
X94997715Y-105016878D01*
X95174493Y-105294670D02*
X95225000Y-105294670D01*
X95300762Y-105319924D01*
X95427030Y-105446193D01*
X95452285Y-105521955D01*
X95452285Y-105572462D01*
X95427031Y-105648224D01*
X95376524Y-105698731D01*
X95275508Y-105749238D01*
X94669416Y-105749239D01*
X94997716Y-106077539D01*
X95578554Y-106557361D02*
X95528047Y-106557361D01*
X95427031Y-106506854D01*
X95376523Y-106456346D01*
X95326016Y-106355330D01*
X95326016Y-106254316D01*
X95351269Y-106178553D01*
X95427031Y-106052285D01*
X95502793Y-105976523D01*
X95629061Y-105900762D01*
X95704823Y-105875509D01*
X95805838Y-105875508D01*
X95906853Y-105926016D01*
X95957361Y-105976524D01*
X96007869Y-106077539D01*
X96007869Y-106128046D01*
X105547208Y-105557615D02*
X105016878Y-105027285D01*
X105294670Y-104850507D02*
X105294670Y-104800000D01*
X105319924Y-104724238D01*
X105446193Y-104597970D01*
X105521955Y-104572715D01*
X105572462Y-104572715D01*
X105648224Y-104597969D01*
X105698731Y-104648476D01*
X105749238Y-104749492D01*
X105749239Y-105355584D01*
X106077539Y-105027284D01*
X106557361Y-104446446D02*
X106557361Y-104496953D01*
X106506854Y-104597969D01*
X106456346Y-104648477D01*
X106355330Y-104698984D01*
X106254316Y-104698984D01*
X106178553Y-104673731D01*
X106052285Y-104597969D01*
X105976523Y-104522207D01*
X105900762Y-104395939D01*
X105875509Y-104320177D01*
X105875508Y-104219162D01*
X105926016Y-104118147D01*
X105976524Y-104067639D01*
X106077539Y-104017131D01*
X106128046Y-104017131D01*
D12*
X111231970Y-108134721D02*
G75*
G02X111059901Y-107269699I561262J561270D01*
G01*
X112536831Y-109439562D02*
X111231970Y-108134721D01*
X113290360Y-109648529D02*
G75*
G02X112536831Y-109439562I-192090J770414D01*
G01*
X113290360Y-109648529D02*
G75*
G02X109648580Y-113290157I1209640J-4851471D01*
G01*
X109439597Y-112536571D02*
G75*
G02X109648580Y-113290157I-561423J-561463D01*
G01*
X108134879Y-111231944D02*
X109439597Y-112536571D01*
X107269845Y-111059867D02*
G75*
G02X108134879Y-111231944I303735J-733425D01*
G01*
X102585911Y-112999990D02*
X107269845Y-111059867D01*
X97414189Y-113000010D02*
X102585911Y-112999990D01*
X92636134Y-111020896D02*
X97414189Y-113000010D01*
X92532703Y-110917981D02*
X92636134Y-111020896D01*
X91763669Y-111686905D02*
G75*
G02X92532703Y-110917981I384517J384462D01*
G01*
X91057001Y-112393473D02*
X91763670Y-111686905D01*
X90824477Y-112954667D02*
G75*
G02X91057001Y-112393473I793751J-112D01*
G01*
X90823632Y-118931203D02*
X90824478Y-112954667D01*
X90823633Y-118931203D02*
G75*
G02X89000000Y-120824930I-1823633J-68797D01*
G01*
X83897210Y-120824930D02*
X89000000Y-120824930D01*
X83897209Y-120824930D02*
G75*
G02X83335670Y-120592276I1J794000D01*
G01*
X79407531Y-116662785D02*
X83335670Y-120592276D01*
X79407531Y-116662785D02*
G75*
G02X79175070Y-116101439I561539J561346D01*
G01*
X79175070Y-111000000D02*
X79175070Y-116101439D01*
X79175070Y-111000000D02*
G75*
G02X81000000Y-109175070I1824930J0D01*
G01*
X87045416Y-109175070D02*
X81000000Y-109175070D01*
X87606642Y-108942626D02*
G75*
G02X87045416Y-109175070I-561226J561306D01*
G01*
X88313311Y-108236057D02*
X87606642Y-108942626D01*
X89082343Y-107467133D02*
G75*
G02X88313311Y-108236057I-384516J-384462D01*
G01*
X88979160Y-107363951D02*
X89082344Y-107467133D01*
X87000010Y-102585911D02*
X88979160Y-107363951D01*
X86999990Y-97414189D02*
X87000010Y-102585911D01*
X88940031Y-92730236D02*
X86999990Y-97414189D01*
X88767993Y-91865208D02*
G75*
G02X88940031Y-92730236I-561282J-561250D01*
G01*
X87504519Y-90601664D02*
X88767993Y-91865208D01*
X86853117Y-90374203D02*
G75*
G02X87504519Y-90601664I89944J-788889D01*
G01*
X86853117Y-90374203D02*
G75*
G02X90374240Y-86853176I-453117J3974253D01*
G01*
X90601685Y-87504584D02*
G75*
G02X90374240Y-86853176I561442J561443D01*
G01*
X91865193Y-88768093D02*
X90601684Y-87504584D01*
X92730217Y-88940155D02*
G75*
G02X91865193Y-88768093I-303758J733329D01*
G01*
X96923943Y-87203037D02*
X92730216Y-88940155D01*
X97414089Y-86469477D02*
G75*
G02X96923943Y-87203037I-794000J-1D01*
G01*
X97414089Y-83994000D02*
X97414089Y-86469478D01*
X96620089Y-83200000D02*
G75*
G02X97414089Y-83994000I0J-794000D01*
G01*
X91250000Y-83200000D02*
X96620089Y-83200000D01*
X91250000Y-80400000D02*
X91250000Y-83200000D01*
X94456000Y-80400000D02*
X91250000Y-80400000D01*
X95250000Y-79606000D02*
G75*
G02X94456000Y-80400000I-794000J0D01*
G01*
X95250000Y-75887486D02*
X95250000Y-79606000D01*
X95250000Y-75887486D02*
G75*
G02X95482557Y-75326043I794000J0D01*
G01*
X98076043Y-72732557D02*
X95482557Y-75326043D01*
X98076043Y-72732557D02*
G75*
G02X98637486Y-72500000I561443J-561443D01*
G01*
X108356000Y-72500000D02*
X98637486Y-72500000D01*
X108356000Y-72500000D02*
G75*
G02X109150000Y-73294000I0J-794000D01*
G01*
X103379811Y-83200000D02*
X108356000Y-83200000D01*
X109150000Y-82406000D02*
X109150000Y-73294000D01*
X109625659Y-86853102D02*
G75*
G02X109398220Y-87504512I-788886J-89971D01*
G01*
X111231944Y-91865121D02*
X112495409Y-90601568D01*
X113000010Y-102585811D02*
X112999990Y-97414089D01*
X109398220Y-87504512D02*
X108134721Y-88768030D01*
X112495410Y-90601568D02*
G75*
G02X113146809Y-90374102I561461J-561423D01*
G01*
X112999990Y-97414089D02*
X111059913Y-92730151D01*
X108134721Y-88768030D02*
G75*
G02X107269699Y-88940099I-561270J561262D01*
G01*
X107269699Y-88940099D02*
X103075963Y-87203016D01*
X111059913Y-92730151D02*
G75*
G02X111231944Y-91865121I733317J303784D01*
G01*
X109625657Y-86853103D02*
G75*
G02X113146809Y-90374102I3974238J453258D01*
G01*
X111059901Y-107269699D02*
X113000010Y-102585811D01*
X102585811Y-86469454D02*
X102585811Y-83994000D01*
X109150000Y-82406000D02*
G75*
G02X108356000Y-83200000I-794000J0D01*
G01*
X102585811Y-83994000D02*
G75*
G02X103379811Y-83200000I794000J0D01*
G01*
X103075963Y-87203016D02*
G75*
G02X102585811Y-86469454I303848J733562D01*
G01*
D11*
X87107614Y-83678300D02*
X87057107Y-83577284D01*
X86930838Y-83451015D01*
X86855076Y-83425762D01*
X86804569Y-83425762D01*
X86728807Y-83451014D01*
X86678299Y-83501522D01*
X86653045Y-83577285D01*
X86653045Y-83627792D01*
X86678300Y-83703553D01*
X86754061Y-83829822D01*
X86779314Y-83905584D01*
X86779315Y-83956092D01*
X86754061Y-84031853D01*
X86703553Y-84082360D01*
X86627792Y-84107615D01*
X86577284Y-84107614D01*
X86501523Y-84082360D01*
X86375254Y-83956091D01*
X86324746Y-83855076D01*
X86602538Y-83122715D02*
X86072208Y-83653045D01*
X85870177Y-83451014D01*
X85844924Y-83375254D01*
X85844923Y-83324746D01*
X85870177Y-83248984D01*
X85945939Y-83173223D01*
X86021700Y-83147969D01*
X86072208Y-83147969D01*
X86147969Y-83173223D01*
X86350000Y-83375254D01*
X86072208Y-82592385D02*
X85541878Y-83122715D01*
X84157615Y-86577792D02*
X83627285Y-87108122D01*
X83450507Y-86830330D02*
X83400000Y-86830330D01*
X83324238Y-86805076D01*
X83197970Y-86678807D01*
X83172715Y-86603045D01*
X83172715Y-86552538D01*
X83197969Y-86476776D01*
X83248476Y-86426269D01*
X83349492Y-86375762D01*
X83955584Y-86375761D01*
X83627284Y-86047461D01*
X83046446Y-85567639D02*
X83096953Y-85567639D01*
X83197969Y-85618146D01*
X83248477Y-85668654D01*
X83298984Y-85769670D01*
X83298984Y-85870684D01*
X83273731Y-85946447D01*
X83197969Y-86072715D01*
X83122207Y-86148477D01*
X82995939Y-86224238D01*
X82920177Y-86249491D01*
X82819162Y-86249492D01*
X82718147Y-86198984D01*
X82667639Y-86148476D01*
X82617131Y-86047461D01*
X82617131Y-85996954D01*
X116221700Y-87107614D02*
X116322716Y-87057107D01*
X116448985Y-86930838D01*
X116474238Y-86855076D01*
X116474238Y-86804569D01*
X116448986Y-86728807D01*
X116398478Y-86678299D01*
X116322715Y-86653045D01*
X116272208Y-86653045D01*
X116196447Y-86678300D01*
X116070178Y-86754061D01*
X115994416Y-86779314D01*
X115943908Y-86779315D01*
X115868147Y-86754061D01*
X115817640Y-86703553D01*
X115792385Y-86627792D01*
X115792386Y-86577284D01*
X115817640Y-86501523D01*
X115943909Y-86375254D01*
X116044924Y-86324746D01*
X116777285Y-86602538D02*
X116246955Y-86072208D01*
X116448986Y-85870177D01*
X116524746Y-85844924D01*
X116575254Y-85844923D01*
X116651016Y-85870177D01*
X116726777Y-85945939D01*
X116752031Y-86021700D01*
X116752031Y-86072208D01*
X116726777Y-86147969D01*
X116524746Y-86350000D01*
X117307615Y-86072208D02*
X116777285Y-85541878D01*
X113422208Y-84157615D02*
X112891878Y-83627285D01*
X113169670Y-83450507D02*
X113169670Y-83400000D01*
X113194924Y-83324238D01*
X113321193Y-83197970D01*
X113396955Y-83172715D01*
X113447462Y-83172715D01*
X113523224Y-83197969D01*
X113573731Y-83248476D01*
X113624238Y-83349492D01*
X113624239Y-83955584D01*
X113952539Y-83627284D01*
X114432361Y-83046446D02*
X114432361Y-83096953D01*
X114381854Y-83197969D01*
X114331346Y-83248477D01*
X114230330Y-83298984D01*
X114129316Y-83298984D01*
X114053553Y-83273731D01*
X113927285Y-83197969D01*
X113851523Y-83122207D01*
X113775762Y-82995939D01*
X113750509Y-82920177D01*
X113750508Y-82819162D01*
X113801016Y-82718147D01*
X113851524Y-82667639D01*
X113952539Y-82617131D01*
X114003046Y-82617131D01*
D10*
X105991652Y-89585131D02*
X105838579Y-89954683D01*
X105936173Y-88804476D02*
X104088414Y-88039109D01*
X104711586Y-91760891D02*
X102863827Y-90995524D01*
X104088414Y-88039109D02*
X102863827Y-90995524D01*
X105936173Y-88804476D02*
X104711586Y-91760891D01*
X82500000Y-111000000D02*
G75*
G03X82500000Y-111000000I-1500000J0D01*
G01*
X90500000Y-119000000D02*
G75*
G03X90500000Y-119000000I-1500000J0D01*
G01*
X105100000Y-108200000D02*
G75*
G03X105100000Y-108200000I-1500000J0D01*
G01*
X93300000Y-103600000D02*
G75*
G03X93300000Y-103600000I-1500000J0D01*
G01*
D13*
X109616762Y-93268234D02*
X108202548Y-94682447D01*
X107891421Y-94371320D02*
X108202548Y-94682447D01*
X105628680Y-92108579D02*
X105317553Y-91797452D01*
X105317553Y-91797452D02*
X106661056Y-90453949D01*
X106731766Y-109616762D02*
X105317553Y-108202548D01*
X105628680Y-107891421D02*
X105317553Y-108202548D01*
X107891421Y-105628680D02*
X108202548Y-105317553D01*
X108202548Y-105317553D02*
X109546051Y-106661056D01*
X90383238Y-106731766D02*
X91797452Y-105317553D01*
X92108579Y-105628680D02*
X91797452Y-105317553D01*
X94371320Y-107891421D02*
X94682447Y-108202548D01*
X94682447Y-108202548D02*
X93338944Y-109546051D01*
X93268234Y-90383238D02*
X94682447Y-91797452D01*
X94371320Y-92108579D02*
X94682447Y-91797452D01*
X92108579Y-94371320D02*
X91797452Y-94682447D01*
X91797452Y-94682447D02*
X90453949Y-93338944D01*
D10*
X103625001Y-96375000D02*
X103625001Y-96900000D01*
X96375001Y-103625000D02*
X96375001Y-103100000D01*
X103625001Y-103625000D02*
X103625001Y-103100000D01*
X96375001Y-96375000D02*
X96900001Y-96375000D01*
X96375001Y-103625000D02*
X96900001Y-103625000D01*
X103625001Y-103625000D02*
X103100001Y-103625000D01*
X103625001Y-96375000D02*
X103100001Y-96375000D01*
D13*
X88400000Y-97460000D02*
X90400000Y-97460000D01*
X90400000Y-97900000D02*
X90400000Y-97460000D01*
X90400000Y-102100000D02*
X90400000Y-102540000D01*
X90400000Y-102540000D02*
X88500000Y-102540000D01*
X97460000Y-111600000D02*
X97460000Y-109600000D01*
X97900000Y-109600000D02*
X97460000Y-109600000D01*
X102100000Y-109600000D02*
X102540000Y-109600000D01*
X102540000Y-109600000D02*
X102540000Y-111500000D01*
X111600000Y-102540000D02*
X109600000Y-102540000D01*
X109600000Y-102100000D02*
X109600000Y-102540000D01*
X109600000Y-97900000D02*
X109600000Y-97460000D01*
X109600000Y-97460000D02*
X111500000Y-97460000D01*
X102540001Y-88400000D02*
X102540001Y-90400000D01*
X102100001Y-90400000D02*
X102540001Y-90400000D01*
X97900001Y-90400000D02*
X97460001Y-90400000D01*
X97460001Y-90400000D02*
X97460001Y-88500000D01*
D10*
X109050000Y-72900000D02*
X109050000Y-82900000D01*
D14*
X104750000Y-74150000D02*
X109750000Y-74150000D01*
X109750000Y-74150000D02*
X109750000Y-81650000D01*
X109750000Y-81650000D02*
X104750000Y-81650000D01*
D10*
X91125000Y-95900000D02*
X91125000Y-98000000D01*
X94375000Y-95125000D02*
X94375000Y-98000000D01*
D15*
X94800000Y-95700000D02*
X94800000Y-94500000D01*
X94800000Y-94500000D02*
X96800000Y-94500000D01*
X96800000Y-94500000D02*
X96800000Y-95700000D01*
X96800000Y-95700000D02*
X94800000Y-95700000D01*
D13*
X110983238Y-86131766D02*
X112397452Y-84717553D01*
X112708579Y-85028680D02*
X112397452Y-84717553D01*
X114971320Y-87291421D02*
X115282447Y-87602548D01*
X115282447Y-87602548D02*
X113938944Y-88946051D01*
X86131766Y-89016762D02*
X84717553Y-87602548D01*
X85028680Y-87291421D02*
X84717553Y-87602548D01*
X87291421Y-85028680D02*
X87602548Y-84717553D01*
X87602548Y-84717553D02*
X88946051Y-86061056D01*
D10*
X103100000Y-73200000D02*
X103100000Y-75800000D01*
X99700000Y-73200000D02*
X99700000Y-75800000D01*
X99700000Y-75800000D02*
X103100000Y-75800000D01*
X99700000Y-73200000D02*
X103100000Y-73200000D01*
X109700000Y-96400000D02*
G75*
G03X109700000Y-96400000I-1500000J0D01*
G01*
X106810786Y-103828553D02*
X107341117Y-103298223D01*
X107871447Y-104889214D02*
X106810786Y-103828553D01*
X108401777Y-104358883D02*
X107871447Y-104889214D01*
X109639214Y-103121447D02*
X109108883Y-103651777D01*
X108578553Y-102060786D02*
X109639214Y-103121447D01*
X108048223Y-102591117D02*
X108578553Y-102060786D01*
X97203553Y-108814214D02*
X96673223Y-108283883D01*
X98264214Y-107753553D02*
X97203553Y-108814214D01*
X97733883Y-107223223D02*
X98264214Y-107753553D01*
X96496447Y-105985786D02*
X97026777Y-106516117D01*
X95435786Y-107046447D02*
X96496447Y-105985786D01*
X95966117Y-107576777D02*
X95435786Y-107046447D01*
X83115076Y-85236396D02*
X83115076Y-84670711D01*
X83115076Y-84670711D02*
X84670711Y-83115076D01*
X84670711Y-83115076D02*
X85236396Y-83115076D01*
X84529289Y-86084924D02*
X83963604Y-86084924D01*
X86084924Y-84529289D02*
X84529289Y-86084924D01*
X86084924Y-84529289D02*
X86084924Y-83963604D01*
X114763604Y-83115076D02*
X115329289Y-83115076D01*
X115329289Y-83115076D02*
X116884924Y-84670711D01*
X116884924Y-84670711D02*
X116884924Y-85236396D01*
X113915076Y-84529289D02*
X113915076Y-83963604D01*
X115470711Y-86084924D02*
X113915076Y-84529289D01*
X115470711Y-86084924D02*
X116036396Y-86084924D01*
D13*
X113868234Y-110983238D02*
X115282447Y-112397452D01*
X114971320Y-112708579D02*
X115282447Y-112397452D01*
X112708579Y-114971320D02*
X112397452Y-115282447D01*
X112397452Y-115282447D02*
X111053949Y-113938944D01*
D10*
X117447487Y-115454594D02*
X117164645Y-115737437D01*
X116987868Y-115560660D02*
X116139340Y-114712132D01*
X118260660Y-114287868D02*
X116987868Y-115560660D01*
X117412132Y-113439340D02*
X118260660Y-114287868D01*
X116139340Y-114712132D02*
X117412132Y-113439340D01*
X112577208Y-117303553D02*
X113496447Y-118222792D01*
X113796967Y-115270621D02*
X115122792Y-116596447D01*
D16*
X81818019Y-115494975D02*
X84505025Y-118181981D01*
X84505025Y-118181981D02*
X88181981Y-114505025D01*
X88181981Y-114505025D02*
X85494975Y-111818019D01*
X85494975Y-111818019D02*
X81818019Y-115494975D01*
D17*
X81918019Y-114929289D02*
G75*
G03X81918019Y-114929289I-100000J0D01*
G01*
D10*
X87265076Y-116786396D02*
X87265076Y-116220711D01*
X87265076Y-116220711D02*
X88820711Y-114665076D01*
X88820711Y-114665076D02*
X89386396Y-114665076D01*
X88679289Y-117634924D02*
X88113604Y-117634924D01*
X90234924Y-116079289D02*
X88679289Y-117634924D01*
X90234924Y-116079289D02*
X90234924Y-115513604D01*
D15*
X82432843Y-112318629D02*
X83281371Y-113167157D01*
X83281371Y-113167157D02*
X81867157Y-114581371D01*
X81867157Y-114581371D02*
X81018629Y-113732843D01*
X81018629Y-113732843D02*
X82432843Y-112318629D01*
D13*
X90516762Y-112368234D02*
X89102548Y-113782447D01*
X88791421Y-113471320D02*
X89102548Y-113782447D01*
X86528680Y-111208579D02*
X86217553Y-110897452D01*
X86217553Y-110897452D02*
X87561056Y-109553949D01*
M02*
