G04 #@! TF.FileFunction,Paste,Bot*
%FSLAX46Y46*%
G04 Gerber Fmt 4.6, Leading zero omitted, Abs format (unit mm)*
G04 Created by KiCad (PCBNEW 4.0.4-stable) date Tuesday, June 06, 2017 'AMt' 10:57:04 AM*
%MOMM*%
%LPD*%
G01*
G04 APERTURE LIST*
%ADD10C,0.150000*%
%ADD11C,0.100000*%
%ADD12R,0.750000X1.000000*%
%ADD13R,0.180000X0.485000*%
%ADD14R,0.280000X0.485000*%
G04 APERTURE END LIST*
D10*
D11*
X111231970Y-108134721D02*
G75*
G02X111059901Y-107269699I561262J561270D01*
G01*
X112536831Y-109439562D02*
X111231970Y-108134721D01*
X113290360Y-109648529D02*
G75*
G02X112536831Y-109439562I-192090J770414D01*
G01*
X113290360Y-109648529D02*
G75*
G02X109648580Y-113290157I1209640J-4851471D01*
G01*
X109439597Y-112536571D02*
G75*
G02X109648580Y-113290157I-561423J-561463D01*
G01*
X108134879Y-111231944D02*
X109439597Y-112536571D01*
X107269845Y-111059867D02*
G75*
G02X108134879Y-111231944I303735J-733425D01*
G01*
X102585911Y-112999990D02*
X107269845Y-111059867D01*
X97414189Y-113000010D02*
X102585911Y-112999990D01*
X92636134Y-111020896D02*
X97414189Y-113000010D01*
X92532703Y-110917981D02*
X92636134Y-111020896D01*
X91763669Y-111686905D02*
G75*
G02X92532703Y-110917981I384517J384462D01*
G01*
X91057001Y-112393473D02*
X91763670Y-111686905D01*
X90824477Y-112954667D02*
G75*
G02X91057001Y-112393473I793751J-112D01*
G01*
X90823632Y-118931203D02*
X90824478Y-112954667D01*
X90823633Y-118931203D02*
G75*
G02X89000000Y-120824930I-1823633J-68797D01*
G01*
X83897210Y-120824930D02*
X89000000Y-120824930D01*
X83897209Y-120824930D02*
G75*
G02X83335670Y-120592276I1J794000D01*
G01*
X79407531Y-116662785D02*
X83335670Y-120592276D01*
X79407531Y-116662785D02*
G75*
G02X79175070Y-116101439I561539J561346D01*
G01*
X79175070Y-111000000D02*
X79175070Y-116101439D01*
X79175070Y-111000000D02*
G75*
G02X81000000Y-109175070I1824930J0D01*
G01*
X87045416Y-109175070D02*
X81000000Y-109175070D01*
X87606642Y-108942626D02*
G75*
G02X87045416Y-109175070I-561226J561306D01*
G01*
X88313311Y-108236057D02*
X87606642Y-108942626D01*
X89082343Y-107467133D02*
G75*
G02X88313311Y-108236057I-384516J-384462D01*
G01*
X88979160Y-107363951D02*
X89082344Y-107467133D01*
X87000010Y-102585911D02*
X88979160Y-107363951D01*
X86999990Y-97414189D02*
X87000010Y-102585911D01*
X88940031Y-92730236D02*
X86999990Y-97414189D01*
X88767993Y-91865208D02*
G75*
G02X88940031Y-92730236I-561282J-561250D01*
G01*
X87504519Y-90601664D02*
X88767993Y-91865208D01*
X86853117Y-90374203D02*
G75*
G02X87504519Y-90601664I89944J-788889D01*
G01*
X86853117Y-90374203D02*
G75*
G02X90374240Y-86853176I-453117J3974253D01*
G01*
X90601685Y-87504584D02*
G75*
G02X90374240Y-86853176I561442J561443D01*
G01*
X91865193Y-88768093D02*
X90601684Y-87504584D01*
X92730217Y-88940155D02*
G75*
G02X91865193Y-88768093I-303758J733329D01*
G01*
X96923943Y-87203037D02*
X92730216Y-88940155D01*
X97414089Y-86469477D02*
G75*
G02X96923943Y-87203037I-794000J-1D01*
G01*
X97414089Y-83994000D02*
X97414089Y-86469478D01*
X96620089Y-83200000D02*
G75*
G02X97414089Y-83994000I0J-794000D01*
G01*
X91250000Y-83200000D02*
X96620089Y-83200000D01*
X91250000Y-80400000D02*
X91250000Y-83200000D01*
X94456000Y-80400000D02*
X91250000Y-80400000D01*
X95250000Y-79606000D02*
G75*
G02X94456000Y-80400000I-794000J0D01*
G01*
X95250000Y-75887486D02*
X95250000Y-79606000D01*
X95250000Y-75887486D02*
G75*
G02X95482557Y-75326043I794000J0D01*
G01*
X98076043Y-72732557D02*
X95482557Y-75326043D01*
X98076043Y-72732557D02*
G75*
G02X98637486Y-72500000I561443J-561443D01*
G01*
X108356000Y-72500000D02*
X98637486Y-72500000D01*
X108356000Y-72500000D02*
G75*
G02X109150000Y-73294000I0J-794000D01*
G01*
X103379811Y-83200000D02*
X108356000Y-83200000D01*
X109150000Y-82406000D02*
X109150000Y-73294000D01*
X109625659Y-86853102D02*
G75*
G02X109398220Y-87504512I-788886J-89971D01*
G01*
X111231944Y-91865121D02*
X112495409Y-90601568D01*
X113000010Y-102585811D02*
X112999990Y-97414089D01*
X109398220Y-87504512D02*
X108134721Y-88768030D01*
X112495410Y-90601568D02*
G75*
G02X113146809Y-90374102I561461J-561423D01*
G01*
X112999990Y-97414089D02*
X111059913Y-92730151D01*
X108134721Y-88768030D02*
G75*
G02X107269699Y-88940099I-561270J561262D01*
G01*
X107269699Y-88940099D02*
X103075963Y-87203016D01*
X111059913Y-92730151D02*
G75*
G02X111231944Y-91865121I733317J303784D01*
G01*
X109625657Y-86853103D02*
G75*
G02X113146809Y-90374102I3974238J453258D01*
G01*
X111059901Y-107269699D02*
X113000010Y-102585811D01*
X102585811Y-86469454D02*
X102585811Y-83994000D01*
X109150000Y-82406000D02*
G75*
G02X108356000Y-83200000I-794000J0D01*
G01*
X102585811Y-83994000D02*
G75*
G02X103379811Y-83200000I794000J0D01*
G01*
X103075963Y-87203016D02*
G75*
G02X102585811Y-86469454I303848J733562D01*
G01*
D10*
G36*
X114024264Y-87602082D02*
X113776777Y-87849569D01*
X113529290Y-87602082D01*
X113776777Y-87354595D01*
X114024264Y-87602082D01*
X114024264Y-87602082D01*
G37*
G36*
X113564644Y-87142462D02*
X113317157Y-87389949D01*
X113069670Y-87142462D01*
X113317157Y-86894975D01*
X113564644Y-87142462D01*
X113564644Y-87142462D01*
G37*
G36*
X113105025Y-86682843D02*
X112857538Y-86930330D01*
X112610051Y-86682843D01*
X112857538Y-86435356D01*
X113105025Y-86682843D01*
X113105025Y-86682843D01*
G37*
G36*
X112645405Y-86223223D02*
X112397918Y-86470710D01*
X112150431Y-86223223D01*
X112397918Y-85975736D01*
X112645405Y-86223223D01*
X112645405Y-86223223D01*
G37*
G36*
X113670710Y-85197918D02*
X113423223Y-85445405D01*
X113175736Y-85197918D01*
X113423223Y-84950431D01*
X113670710Y-85197918D01*
X113670710Y-85197918D01*
G37*
G36*
X114130330Y-85657538D02*
X113882843Y-85905025D01*
X113635356Y-85657538D01*
X113882843Y-85410051D01*
X114130330Y-85657538D01*
X114130330Y-85657538D01*
G37*
G36*
X114589949Y-86117157D02*
X114342462Y-86364644D01*
X114094975Y-86117157D01*
X114342462Y-85869670D01*
X114589949Y-86117157D01*
X114589949Y-86117157D01*
G37*
G36*
X115049569Y-86576777D02*
X114802082Y-86824264D01*
X114554595Y-86576777D01*
X114802082Y-86329290D01*
X115049569Y-86576777D01*
X115049569Y-86576777D01*
G37*
G36*
X87602082Y-85975736D02*
X87849569Y-86223223D01*
X87602082Y-86470710D01*
X87354595Y-86223223D01*
X87602082Y-85975736D01*
X87602082Y-85975736D01*
G37*
G36*
X87142462Y-86435356D02*
X87389949Y-86682843D01*
X87142462Y-86930330D01*
X86894975Y-86682843D01*
X87142462Y-86435356D01*
X87142462Y-86435356D01*
G37*
G36*
X86682843Y-86894975D02*
X86930330Y-87142462D01*
X86682843Y-87389949D01*
X86435356Y-87142462D01*
X86682843Y-86894975D01*
X86682843Y-86894975D01*
G37*
G36*
X86223223Y-87354595D02*
X86470710Y-87602082D01*
X86223223Y-87849569D01*
X85975736Y-87602082D01*
X86223223Y-87354595D01*
X86223223Y-87354595D01*
G37*
G36*
X85197918Y-86329290D02*
X85445405Y-86576777D01*
X85197918Y-86824264D01*
X84950431Y-86576777D01*
X85197918Y-86329290D01*
X85197918Y-86329290D01*
G37*
G36*
X85657538Y-85869670D02*
X85905025Y-86117157D01*
X85657538Y-86364644D01*
X85410051Y-86117157D01*
X85657538Y-85869670D01*
X85657538Y-85869670D01*
G37*
G36*
X86117157Y-85410051D02*
X86364644Y-85657538D01*
X86117157Y-85905025D01*
X85869670Y-85657538D01*
X86117157Y-85410051D01*
X86117157Y-85410051D01*
G37*
G36*
X86576777Y-84950431D02*
X86824264Y-85197918D01*
X86576777Y-85445405D01*
X86329290Y-85197918D01*
X86576777Y-84950431D01*
X86576777Y-84950431D01*
G37*
D12*
X104600000Y-80550000D03*
X103400000Y-80550000D03*
D13*
X92950000Y-82707500D03*
X93300000Y-82707500D03*
D14*
X94050000Y-82707500D03*
D13*
X93650000Y-82707500D03*
X92250000Y-82707500D03*
X92600000Y-82707500D03*
D14*
X91850000Y-82707500D03*
X91850000Y-80892500D03*
D13*
X92600000Y-80892500D03*
X92950000Y-80892500D03*
X92250000Y-80892500D03*
D14*
X94050000Y-80892500D03*
D13*
X93650000Y-80892500D03*
X93300000Y-80892500D03*
D10*
G36*
X114422218Y-112675772D02*
X113375700Y-111629254D01*
X113729254Y-111275700D01*
X114775772Y-112322218D01*
X114422218Y-112675772D01*
X114422218Y-112675772D01*
G37*
G36*
X115277818Y-113531371D02*
X114570711Y-112824264D01*
X114924264Y-112470711D01*
X115631371Y-113177818D01*
X115277818Y-113531371D01*
X115277818Y-113531371D01*
G37*
G36*
X113510050Y-113177818D02*
X114075736Y-112612132D01*
X114287868Y-112824264D01*
X113722182Y-113389950D01*
X113510050Y-113177818D01*
X113510050Y-113177818D01*
G37*
G36*
X114712132Y-111975736D02*
X115277818Y-111410050D01*
X115489950Y-111622182D01*
X114924264Y-112187868D01*
X114712132Y-111975736D01*
X114712132Y-111975736D01*
G37*
G36*
X114075736Y-113743503D02*
X114641421Y-113177818D01*
X114994974Y-113531371D01*
X114429289Y-114097056D01*
X114075736Y-113743503D01*
X114075736Y-113743503D01*
G37*
G36*
X115277818Y-112541421D02*
X115843503Y-111975736D01*
X116197056Y-112329289D01*
X115631371Y-112894974D01*
X115277818Y-112541421D01*
X115277818Y-112541421D01*
G37*
G36*
X112802944Y-112470711D02*
X113368629Y-111905026D01*
X113722182Y-112258579D01*
X113156497Y-112824264D01*
X112802944Y-112470711D01*
X112802944Y-112470711D01*
G37*
G36*
X114005026Y-111268629D02*
X114570711Y-110702944D01*
X114924264Y-111056497D01*
X114358579Y-111622182D01*
X114005026Y-111268629D01*
X114005026Y-111268629D01*
G37*
G36*
X112322218Y-114775772D02*
X111275700Y-113729254D01*
X111629254Y-113375700D01*
X112675772Y-114422218D01*
X112322218Y-114775772D01*
X112322218Y-114775772D01*
G37*
G36*
X113177818Y-115631371D02*
X112470711Y-114924264D01*
X112824264Y-114570711D01*
X113531371Y-115277818D01*
X113177818Y-115631371D01*
X113177818Y-115631371D01*
G37*
G36*
X111410050Y-115277818D02*
X111975736Y-114712132D01*
X112187868Y-114924264D01*
X111622182Y-115489950D01*
X111410050Y-115277818D01*
X111410050Y-115277818D01*
G37*
G36*
X112612132Y-114075736D02*
X113177818Y-113510050D01*
X113389950Y-113722182D01*
X112824264Y-114287868D01*
X112612132Y-114075736D01*
X112612132Y-114075736D01*
G37*
G36*
X111975736Y-115843503D02*
X112541421Y-115277818D01*
X112894974Y-115631371D01*
X112329289Y-116197056D01*
X111975736Y-115843503D01*
X111975736Y-115843503D01*
G37*
G36*
X113177818Y-114641421D02*
X113743503Y-114075736D01*
X114097056Y-114429289D01*
X113531371Y-114994974D01*
X113177818Y-114641421D01*
X113177818Y-114641421D01*
G37*
G36*
X110702944Y-114570711D02*
X111268629Y-114005026D01*
X111622182Y-114358579D01*
X111056497Y-114924264D01*
X110702944Y-114570711D01*
X110702944Y-114570711D01*
G37*
G36*
X111905026Y-113368629D02*
X112470711Y-112802944D01*
X112824264Y-113156497D01*
X112258579Y-113722182D01*
X111905026Y-113368629D01*
X111905026Y-113368629D01*
G37*
G36*
X114577782Y-116324228D02*
X115624300Y-117370746D01*
X115270746Y-117724300D01*
X114224228Y-116677782D01*
X114577782Y-116324228D01*
X114577782Y-116324228D01*
G37*
G36*
X113722182Y-115468629D02*
X114429289Y-116175736D01*
X114075736Y-116529289D01*
X113368629Y-115822182D01*
X113722182Y-115468629D01*
X113722182Y-115468629D01*
G37*
G36*
X115489950Y-115822182D02*
X114924264Y-116387868D01*
X114712132Y-116175736D01*
X115277818Y-115610050D01*
X115489950Y-115822182D01*
X115489950Y-115822182D01*
G37*
G36*
X114287868Y-117024264D02*
X113722182Y-117589950D01*
X113510050Y-117377818D01*
X114075736Y-116812132D01*
X114287868Y-117024264D01*
X114287868Y-117024264D01*
G37*
G36*
X114924264Y-115256497D02*
X114358579Y-115822182D01*
X114005026Y-115468629D01*
X114570711Y-114902944D01*
X114924264Y-115256497D01*
X114924264Y-115256497D01*
G37*
G36*
X113722182Y-116458579D02*
X113156497Y-117024264D01*
X112802944Y-116670711D01*
X113368629Y-116105026D01*
X113722182Y-116458579D01*
X113722182Y-116458579D01*
G37*
G36*
X116197056Y-116529289D02*
X115631371Y-117094974D01*
X115277818Y-116741421D01*
X115843503Y-116175736D01*
X116197056Y-116529289D01*
X116197056Y-116529289D01*
G37*
G36*
X114994974Y-117731371D02*
X114429289Y-118297056D01*
X114075736Y-117943503D01*
X114641421Y-117377818D01*
X114994974Y-117731371D01*
X114994974Y-117731371D01*
G37*
G36*
X116677782Y-114224228D02*
X117724300Y-115270746D01*
X117370746Y-115624300D01*
X116324228Y-114577782D01*
X116677782Y-114224228D01*
X116677782Y-114224228D01*
G37*
G36*
X115822182Y-113368629D02*
X116529289Y-114075736D01*
X116175736Y-114429289D01*
X115468629Y-113722182D01*
X115822182Y-113368629D01*
X115822182Y-113368629D01*
G37*
G36*
X117589950Y-113722182D02*
X117024264Y-114287868D01*
X116812132Y-114075736D01*
X117377818Y-113510050D01*
X117589950Y-113722182D01*
X117589950Y-113722182D01*
G37*
G36*
X116387868Y-114924264D02*
X115822182Y-115489950D01*
X115610050Y-115277818D01*
X116175736Y-114712132D01*
X116387868Y-114924264D01*
X116387868Y-114924264D01*
G37*
G36*
X117024264Y-113156497D02*
X116458579Y-113722182D01*
X116105026Y-113368629D01*
X116670711Y-112802944D01*
X117024264Y-113156497D01*
X117024264Y-113156497D01*
G37*
G36*
X115822182Y-114358579D02*
X115256497Y-114924264D01*
X114902944Y-114570711D01*
X115468629Y-114005026D01*
X115822182Y-114358579D01*
X115822182Y-114358579D01*
G37*
G36*
X118297056Y-114429289D02*
X117731371Y-114994974D01*
X117377818Y-114641421D01*
X117943503Y-114075736D01*
X118297056Y-114429289D01*
X118297056Y-114429289D01*
G37*
G36*
X117094974Y-115631371D02*
X116529289Y-116197056D01*
X116175736Y-115843503D01*
X116741421Y-115277818D01*
X117094974Y-115631371D01*
X117094974Y-115631371D01*
G37*
M02*
