M48
;DRILL file {KiCad 4.0.4-stable} date Tuesday, June 06, 2017 'AMt' 10:57:08 AM
;FORMAT={-:-/ absolute / inch / decimal}
FMAT,2
INCH,TZ
T1C0.005
T2C0.008
%
G90
G05
M72
T1
X3.2894Y-4.5512
X3.2894Y-4.6339
X3.3506Y-3.3552
X3.3632Y-3.4781
X3.3661Y-4.5079
X3.3799Y-4.5453
X3.3818Y-3.4635
X3.3855Y-4.3941
X3.3954Y-4.4912
X3.4161Y-3.4594
X3.4291Y-3.3346
X3.4551Y-4.5534
X3.4594Y-3.4441
X3.4634Y-3.4203
X3.482Y-4.4822
X3.4843Y-3.374
X3.5088Y-4.4655
X3.5315Y-3.9094
X3.5492Y-3.7323
X3.6063Y-3.2185
X3.6201Y-3.9823
X3.626Y-3.2067
X3.626Y-3.2303
X3.6457Y-3.2185
X3.6861Y-3.7293
X3.7008Y-4.1728
X3.7123Y-3.7276
X3.7133Y-3.6683
X3.7205Y-3.2579
X3.7205Y-4.1535
X3.7254Y-3.1801
X3.7362Y-3.685
X3.7363Y-3.6614
X3.7402Y-4.1339
X3.75Y-4.3287
X3.7598Y-4.1142
X3.7677Y-4.2362
X3.8012Y-3.2087
X3.8158Y-3.1485
X3.8287Y-3.8681
X3.8327Y-3.9665
X3.8465Y-3.5591
X3.8474Y-3.9075
X3.8976Y-3.6417
X3.8976Y-3.6713
X3.9052Y-4.2886
X3.9061Y-3.8292
X3.9442Y-4.2428
X3.9547Y-3.1014
X3.9882Y-3.5955
X3.9921Y-3.7598
X4.0063Y-3.8252
X4.0157Y-3.5295
X4.0187Y-3.7207
X4.0354Y-3.9075
X4.0354Y-3.937
X4.0354Y-3.9665
X4.0383Y-3.5383
X4.0423Y-3.7205
X4.0472Y-3.6417
X4.0679Y-3.7205
X4.0701Y-3.8039
X4.0872Y-3.0672
X4.0944Y-3.7197
X4.1093Y-3.5492
X4.1181Y-3.9685
X4.1248Y-3.9999
X4.1343Y-4.1624
X4.1417Y-3.1713
X4.1437Y-4.185
X4.1496Y-3.6752
X4.1506Y-3.9685
X4.1545Y-4.2667
X4.1594Y-3.0925
X4.1659Y-3.6939
X4.1703Y-4.187
X4.1742Y-3.9674
X4.1922Y-3.6122
X4.1959Y-4.1201
X4.2101Y-3.739
X4.2126Y-3.9914
X4.2717Y-3.9911
X4.2776Y-3.6752
X4.2805Y-3.7362
X4.3287Y-4.124
X4.3506Y-4.4962
X4.374Y-4.4232
X4.3917Y-3.3923
X4.3937Y-4.6047
X4.3996Y-4.4144
X4.4055Y-3.4173
X4.4094Y-3.3617
X4.424Y-3.4653
X4.4334Y-4.3989
X4.438Y-4.6339
X4.451Y-3.4661
X4.4587Y-4.377
X4.4596Y-4.6772
X4.4851Y-4.5304
X4.5Y-3.4843
X4.5189Y-3.3506
X4.5197Y-4.4914
X4.5315Y-3.4429
X4.5551Y-4.3854
X4.5604Y-4.51
X4.564Y-4.4557
X4.5709Y-4.436
X4.5728Y-4.3971
X4.5901Y-4.6157
X4.6328Y-4.441
X4.6377Y-4.4185
X4.6572Y-4.4065
T2
X3.4764Y-3.9843
X3.5897Y-4.2078
X3.6634Y-3.5925
X3.8819Y-3.4567
X3.9843Y-4.3976
X4.2078Y-4.2843
X4.3976Y-3.8858
T0
M30
