G04 #@! TF.FileFunction,Glue,Top*
%FSLAX46Y46*%
G04 Gerber Fmt 4.6, Leading zero omitted, Abs format (unit mm)*
G04 Created by KiCad (PCBNEW 4.0.4-stable) date Tuesday, June 06, 2017 'AMt' 10:57:04 AM*
%MOMM*%
%LPD*%
G01*
G04 APERTURE LIST*
%ADD10C,0.150000*%
%ADD11C,0.100000*%
G04 APERTURE END LIST*
D10*
D11*
X111231970Y-108134721D02*
G75*
G02X111059901Y-107269699I561262J561270D01*
G01*
X112536831Y-109439562D02*
X111231970Y-108134721D01*
X113290360Y-109648529D02*
G75*
G02X112536831Y-109439562I-192090J770414D01*
G01*
X113290360Y-109648529D02*
G75*
G02X109648580Y-113290157I1209640J-4851471D01*
G01*
X109439597Y-112536571D02*
G75*
G02X109648580Y-113290157I-561423J-561463D01*
G01*
X108134879Y-111231944D02*
X109439597Y-112536571D01*
X107269845Y-111059867D02*
G75*
G02X108134879Y-111231944I303735J-733425D01*
G01*
X102585911Y-112999990D02*
X107269845Y-111059867D01*
X97414189Y-113000010D02*
X102585911Y-112999990D01*
X92636134Y-111020896D02*
X97414189Y-113000010D01*
X92532703Y-110917981D02*
X92636134Y-111020896D01*
X91763669Y-111686905D02*
G75*
G02X92532703Y-110917981I384517J384462D01*
G01*
X91057001Y-112393473D02*
X91763670Y-111686905D01*
X90824477Y-112954667D02*
G75*
G02X91057001Y-112393473I793751J-112D01*
G01*
X90823632Y-118931203D02*
X90824478Y-112954667D01*
X90823633Y-118931203D02*
G75*
G02X89000000Y-120824930I-1823633J-68797D01*
G01*
X83897210Y-120824930D02*
X89000000Y-120824930D01*
X83897209Y-120824930D02*
G75*
G02X83335670Y-120592276I1J794000D01*
G01*
X79407531Y-116662785D02*
X83335670Y-120592276D01*
X79407531Y-116662785D02*
G75*
G02X79175070Y-116101439I561539J561346D01*
G01*
X79175070Y-111000000D02*
X79175070Y-116101439D01*
X79175070Y-111000000D02*
G75*
G02X81000000Y-109175070I1824930J0D01*
G01*
X87045416Y-109175070D02*
X81000000Y-109175070D01*
X87606642Y-108942626D02*
G75*
G02X87045416Y-109175070I-561226J561306D01*
G01*
X88313311Y-108236057D02*
X87606642Y-108942626D01*
X89082343Y-107467133D02*
G75*
G02X88313311Y-108236057I-384516J-384462D01*
G01*
X88979160Y-107363951D02*
X89082344Y-107467133D01*
X87000010Y-102585911D02*
X88979160Y-107363951D01*
X86999990Y-97414189D02*
X87000010Y-102585911D01*
X88940031Y-92730236D02*
X86999990Y-97414189D01*
X88767993Y-91865208D02*
G75*
G02X88940031Y-92730236I-561282J-561250D01*
G01*
X87504519Y-90601664D02*
X88767993Y-91865208D01*
X86853117Y-90374203D02*
G75*
G02X87504519Y-90601664I89944J-788889D01*
G01*
X86853117Y-90374203D02*
G75*
G02X90374240Y-86853176I-453117J3974253D01*
G01*
X90601685Y-87504584D02*
G75*
G02X90374240Y-86853176I561442J561443D01*
G01*
X91865193Y-88768093D02*
X90601684Y-87504584D01*
X92730217Y-88940155D02*
G75*
G02X91865193Y-88768093I-303758J733329D01*
G01*
X96923943Y-87203037D02*
X92730216Y-88940155D01*
X97414089Y-86469477D02*
G75*
G02X96923943Y-87203037I-794000J-1D01*
G01*
X97414089Y-83994000D02*
X97414089Y-86469478D01*
X96620089Y-83200000D02*
G75*
G02X97414089Y-83994000I0J-794000D01*
G01*
X91250000Y-83200000D02*
X96620089Y-83200000D01*
X91250000Y-80400000D02*
X91250000Y-83200000D01*
X94456000Y-80400000D02*
X91250000Y-80400000D01*
X95250000Y-79606000D02*
G75*
G02X94456000Y-80400000I-794000J0D01*
G01*
X95250000Y-75887486D02*
X95250000Y-79606000D01*
X95250000Y-75887486D02*
G75*
G02X95482557Y-75326043I794000J0D01*
G01*
X98076043Y-72732557D02*
X95482557Y-75326043D01*
X98076043Y-72732557D02*
G75*
G02X98637486Y-72500000I561443J-561443D01*
G01*
X108356000Y-72500000D02*
X98637486Y-72500000D01*
X108356000Y-72500000D02*
G75*
G02X109150000Y-73294000I0J-794000D01*
G01*
X103379811Y-83200000D02*
X108356000Y-83200000D01*
X109150000Y-82406000D02*
X109150000Y-73294000D01*
X109625659Y-86853102D02*
G75*
G02X109398220Y-87504512I-788886J-89971D01*
G01*
X111231944Y-91865121D02*
X112495409Y-90601568D01*
X113000010Y-102585811D02*
X112999990Y-97414089D01*
X109398220Y-87504512D02*
X108134721Y-88768030D01*
X112495410Y-90601568D02*
G75*
G02X113146809Y-90374102I561461J-561423D01*
G01*
X112999990Y-97414089D02*
X111059913Y-92730151D01*
X108134721Y-88768030D02*
G75*
G02X107269699Y-88940099I-561270J561262D01*
G01*
X107269699Y-88940099D02*
X103075963Y-87203016D01*
X111059913Y-92730151D02*
G75*
G02X111231944Y-91865121I733317J303784D01*
G01*
X109625657Y-86853103D02*
G75*
G02X113146809Y-90374102I3974238J453258D01*
G01*
X111059901Y-107269699D02*
X113000010Y-102585811D01*
X102585811Y-86469454D02*
X102585811Y-83994000D01*
X109150000Y-82406000D02*
G75*
G02X108356000Y-83200000I-794000J0D01*
G01*
X102585811Y-83994000D02*
G75*
G02X103379811Y-83200000I794000J0D01*
G01*
X103075963Y-87203016D02*
G75*
G02X102585811Y-86469454I303848J733562D01*
G01*
M02*
