%FSLAX45Y45*%
G04 Gerber Fmt 4.5, Leading zero omitted, Abs format (unit mm)*
G04 Created by KiCad (PCBNEW 4.0.4-stable) date Tuesday, June 06, 2017 'AMt' 10:57:08 AM*
%MOMM*%
%LPD*%
G01*
G04 APERTURE LIST*
%ADD10C,0.127000*%
%ADD11C,0.100000*%
%ADD12C,0.200000*%
%ADD13C,0.300000*%
G04 APERTURE END LIST*
D10*
D11*
X11123197Y-10813472D02*
G75*
G02X11105990Y-10726970I56126J56127D01*
G01*
X11253683Y-10943956D02*
X11123197Y-10813472D01*
X11329036Y-10964853D02*
G75*
G02X11253683Y-10943956I-19209J77041D01*
G01*
X11329036Y-10964853D02*
G75*
G02X10964858Y-11329016I120964J-485147D01*
G01*
X10943960Y-11253657D02*
G75*
G02X10964858Y-11329016I-56142J-56146D01*
G01*
X10813488Y-11123194D02*
X10943960Y-11253657D01*
X10726985Y-11105987D02*
G75*
G02X10813488Y-11123194I30374J-73343D01*
G01*
X10258591Y-11299999D02*
X10726985Y-11105987D01*
X9741419Y-11300001D02*
X10258591Y-11299999D01*
X9263613Y-11102090D02*
X9741419Y-11300001D01*
X9253270Y-11091798D02*
X9263613Y-11102090D01*
X9176367Y-11168691D02*
G75*
G02X9253270Y-11091798I38452J38446D01*
G01*
X9105700Y-11239347D02*
X9176367Y-11168691D01*
X9082448Y-11295467D02*
G75*
G02X9105700Y-11239347I79375J-11D01*
G01*
X9082363Y-11893120D02*
X9082448Y-11295467D01*
X9082363Y-11893120D02*
G75*
G02X8900000Y-12082493I-182363J-6880D01*
G01*
X8389721Y-12082493D02*
X8900000Y-12082493D01*
X8389721Y-12082493D02*
G75*
G02X8333567Y-12059228I0J79400D01*
G01*
X7940753Y-11666278D02*
X8333567Y-12059228D01*
X7940753Y-11666278D02*
G75*
G02X7917507Y-11610144I56154J56135D01*
G01*
X7917507Y-11100000D02*
X7917507Y-11610144D01*
X7917507Y-11100000D02*
G75*
G02X8100000Y-10917507I182493J0D01*
G01*
X8704542Y-10917507D02*
X8100000Y-10917507D01*
X8760664Y-10894263D02*
G75*
G02X8704542Y-10917507I-56123J56131D01*
G01*
X8831331Y-10823606D02*
X8760664Y-10894263D01*
X8908234Y-10746713D02*
G75*
G02X8831331Y-10823606I-38452J-38446D01*
G01*
X8897916Y-10736395D02*
X8908234Y-10746713D01*
X8700001Y-10258591D02*
X8897916Y-10736395D01*
X8699999Y-9741419D02*
X8700001Y-10258591D01*
X8894003Y-9273024D02*
X8699999Y-9741419D01*
X8876799Y-9186521D02*
G75*
G02X8894003Y-9273024I-56128J-56125D01*
G01*
X8750452Y-9060166D02*
X8876799Y-9186521D01*
X8685312Y-9037420D02*
G75*
G02X8750452Y-9060166I8994J-78889D01*
G01*
X8685312Y-9037420D02*
G75*
G02X9037424Y-8685318I-45312J397425D01*
G01*
X9060169Y-8750458D02*
G75*
G02X9037424Y-8685318I56144J56144D01*
G01*
X9186519Y-8876809D02*
X9060168Y-8750458D01*
X9273022Y-8894016D02*
G75*
G02X9186519Y-8876809I-30376J73333D01*
G01*
X9692394Y-8720304D02*
X9273022Y-8894016D01*
X9741409Y-8646948D02*
G75*
G02X9692394Y-8720304I-79400J0D01*
G01*
X9741409Y-8399400D02*
X9741409Y-8646948D01*
X9662009Y-8320000D02*
G75*
G02X9741409Y-8399400I0J-79400D01*
G01*
X9125000Y-8320000D02*
X9662009Y-8320000D01*
X9125000Y-8040000D02*
X9125000Y-8320000D01*
X9445600Y-8040000D02*
X9125000Y-8040000D01*
X9525000Y-7960600D02*
G75*
G02X9445600Y-8040000I-79400J0D01*
G01*
X9525000Y-7588749D02*
X9525000Y-7960600D01*
X9525000Y-7588749D02*
G75*
G02X9548256Y-7532604I79400J0D01*
G01*
X9807604Y-7273256D02*
X9548256Y-7532604D01*
X9807604Y-7273256D02*
G75*
G02X9863749Y-7250000I56144J-56144D01*
G01*
X10835600Y-7250000D02*
X9863749Y-7250000D01*
X10835600Y-7250000D02*
G75*
G02X10915000Y-7329400I0J-79400D01*
G01*
X10337981Y-8320000D02*
X10835600Y-8320000D01*
X10915000Y-8240600D02*
X10915000Y-7329400D01*
X10962566Y-8685310D02*
G75*
G02X10939822Y-8750451I-78889J-8997D01*
G01*
X11123194Y-9186512D02*
X11249541Y-9060157D01*
X11300001Y-10258581D02*
X11299999Y-9741409D01*
X10939822Y-8750451D02*
X10813472Y-8876803D01*
X11249541Y-9060157D02*
G75*
G02X11314681Y-9037410I56146J-56142D01*
G01*
X11299999Y-9741409D02*
X11105991Y-9273015D01*
X10813472Y-8876803D02*
G75*
G02X10726970Y-8894010I-56127J56126D01*
G01*
X10726970Y-8894010D02*
X10307596Y-8720302D01*
X11105991Y-9273015D02*
G75*
G02X11123194Y-9186512I73332J30378D01*
G01*
X10962566Y-8685310D02*
G75*
G02X11314681Y-9037410I397424J45326D01*
G01*
X11105990Y-10726970D02*
X11300001Y-10258581D01*
X10258581Y-8646945D02*
X10258581Y-8399400D01*
X10915000Y-8240600D02*
G75*
G02X10835600Y-8320000I-79400J0D01*
G01*
X10258581Y-8399400D02*
G75*
G02X10337981Y-8320000I79400J0D01*
G01*
X10307596Y-8720302D02*
G75*
G02X10258581Y-8646945I30385J73356D01*
G01*
D12*
X8348650Y-11553650D02*
X8361350Y-11566350D01*
X8361350Y-11553650D02*
X8348650Y-11566350D01*
X8348650Y-11763650D02*
X8361350Y-11776350D01*
X8361350Y-11763650D02*
X8348650Y-11776350D01*
X8504069Y-8515742D02*
X8516769Y-8528442D01*
X8516769Y-8515742D02*
X8504069Y-8528442D01*
X8536193Y-8827982D02*
X8548893Y-8840682D01*
X8548893Y-8827982D02*
X8536193Y-8840682D01*
X8543650Y-11443650D02*
X8556350Y-11456350D01*
X8556350Y-11443650D02*
X8543650Y-11456350D01*
X8578650Y-11538650D02*
X8591350Y-11551350D01*
X8591350Y-11538650D02*
X8578650Y-11551350D01*
X8583433Y-8790989D02*
X8596133Y-8803689D01*
X8596133Y-8790989D02*
X8583433Y-8803689D01*
X8592872Y-11154613D02*
X8605572Y-11167313D01*
X8605572Y-11154613D02*
X8592872Y-11167313D01*
X8617934Y-11401186D02*
X8630634Y-11413886D01*
X8630634Y-11401186D02*
X8617934Y-11413886D01*
X8670636Y-8780413D02*
X8683336Y-8793113D01*
X8683336Y-8780413D02*
X8670636Y-8793113D01*
X8703650Y-8463650D02*
X8716350Y-8476350D01*
X8716350Y-8463650D02*
X8703650Y-8476350D01*
X8769668Y-11559206D02*
X8782368Y-11571906D01*
X8782368Y-11559206D02*
X8769668Y-11571906D01*
X8780596Y-8741705D02*
X8793296Y-8754405D01*
X8793296Y-8741705D02*
X8780596Y-8754405D01*
X8790793Y-8681192D02*
X8803493Y-8693892D01*
X8803493Y-8681192D02*
X8790793Y-8693892D01*
X8837979Y-11378358D02*
X8850679Y-11391058D01*
X8850679Y-11378358D02*
X8837979Y-11391058D01*
X8843650Y-8563650D02*
X8856350Y-8576350D01*
X8856350Y-8563650D02*
X8843650Y-8576350D01*
X8905929Y-11335929D02*
X8918629Y-11348629D01*
X8918629Y-11335929D02*
X8905929Y-11348629D01*
X8963650Y-9923650D02*
X8976350Y-9936350D01*
X8976350Y-9923650D02*
X8963650Y-9936350D01*
X9008650Y-9473650D02*
X9021350Y-9486350D01*
X9021350Y-9473650D02*
X9008650Y-9486350D01*
X9153650Y-8168650D02*
X9166350Y-8181350D01*
X9166350Y-8168650D02*
X9153650Y-8181350D01*
X9188650Y-10108651D02*
X9201350Y-10121351D01*
X9201350Y-10108651D02*
X9188650Y-10121351D01*
X9203650Y-8138650D02*
X9216350Y-8151350D01*
X9216350Y-8138650D02*
X9203650Y-8151350D01*
X9203650Y-8198651D02*
X9216350Y-8211351D01*
X9216350Y-8198651D02*
X9203650Y-8211351D01*
X9253650Y-8168650D02*
X9266350Y-8181350D01*
X9266350Y-8168650D02*
X9253650Y-8181350D01*
X9356349Y-9465951D02*
X9369049Y-9478651D01*
X9369049Y-9465951D02*
X9356349Y-9478651D01*
X9393650Y-10592686D02*
X9406350Y-10605386D01*
X9406350Y-10592686D02*
X9393650Y-10605386D01*
X9422905Y-9461793D02*
X9435605Y-9474493D01*
X9435605Y-9461793D02*
X9422905Y-9474493D01*
X9425469Y-9311149D02*
X9438169Y-9323849D01*
X9438169Y-9311149D02*
X9425469Y-9323849D01*
X9443650Y-8268650D02*
X9456350Y-8281350D01*
X9456350Y-8268650D02*
X9443650Y-8281350D01*
X9443650Y-10543650D02*
X9456350Y-10556350D01*
X9456350Y-10543650D02*
X9443650Y-10556350D01*
X9456150Y-8071149D02*
X9468850Y-8083849D01*
X9468850Y-8071149D02*
X9456150Y-8083849D01*
X9483650Y-9353650D02*
X9496350Y-9366350D01*
X9496350Y-9353650D02*
X9483650Y-9366350D01*
X9483728Y-9293650D02*
X9496428Y-9306350D01*
X9496428Y-9293650D02*
X9483728Y-9306350D01*
X9493650Y-10493650D02*
X9506350Y-10506350D01*
X9506350Y-10493650D02*
X9493650Y-10506350D01*
X9518650Y-10988650D02*
X9531350Y-11001350D01*
X9531350Y-10988650D02*
X9518650Y-11001350D01*
X9543650Y-10443651D02*
X9556350Y-10456351D01*
X9556350Y-10443651D02*
X9543650Y-10456351D01*
X9563650Y-10753650D02*
X9576350Y-10766350D01*
X9576350Y-10753650D02*
X9563650Y-10766350D01*
X9648650Y-8143650D02*
X9661350Y-8156350D01*
X9661350Y-8143650D02*
X9648650Y-8156350D01*
X9685774Y-7990774D02*
X9698474Y-8003474D01*
X9698474Y-7990774D02*
X9685774Y-8003474D01*
X9718650Y-9818650D02*
X9731350Y-9831350D01*
X9731350Y-9818650D02*
X9718650Y-9831350D01*
X9728650Y-10068650D02*
X9741350Y-10081350D01*
X9741350Y-10068650D02*
X9728650Y-10081350D01*
X9763650Y-9033650D02*
X9776350Y-9046350D01*
X9776350Y-9033650D02*
X9763650Y-9046350D01*
X9766150Y-9918650D02*
X9778850Y-9931350D01*
X9778850Y-9918650D02*
X9766150Y-9931350D01*
X9893650Y-9243650D02*
X9906350Y-9256350D01*
X9906350Y-9243650D02*
X9893650Y-9256350D01*
X9893650Y-9318650D02*
X9906350Y-9331350D01*
X9906350Y-9318650D02*
X9893650Y-9331350D01*
X9912781Y-10886633D02*
X9925481Y-10899333D01*
X9925481Y-10886633D02*
X9912781Y-10899333D01*
X9915169Y-9719825D02*
X9927869Y-9732525D01*
X9927869Y-9719825D02*
X9915169Y-9732525D01*
X10012018Y-10770283D02*
X10024718Y-10782983D01*
X10024718Y-10770283D02*
X10012018Y-10782983D01*
X10038650Y-7871150D02*
X10051350Y-7883850D01*
X10051350Y-7871150D02*
X10038650Y-7883850D01*
X10123650Y-9126150D02*
X10136350Y-9138850D01*
X10136350Y-9126150D02*
X10123650Y-9138850D01*
X10133650Y-9543650D02*
X10146350Y-9556350D01*
X10146350Y-9543650D02*
X10133650Y-9556350D01*
X10169650Y-9709650D02*
X10182350Y-9722350D01*
X10182350Y-9709650D02*
X10169650Y-9722350D01*
X10193650Y-8958651D02*
X10206350Y-8971351D01*
X10206350Y-8958651D02*
X10193650Y-8971351D01*
X10201151Y-9444130D02*
X10213851Y-9456830D01*
X10213851Y-9444130D02*
X10201151Y-9456830D01*
X10243650Y-9918650D02*
X10256350Y-9931350D01*
X10256350Y-9918650D02*
X10243650Y-9931350D01*
X10243650Y-9993650D02*
X10256350Y-10006350D01*
X10256350Y-9993650D02*
X10243650Y-10006350D01*
X10243650Y-10068650D02*
X10256350Y-10081350D01*
X10256350Y-10068650D02*
X10243650Y-10081350D01*
X10250980Y-8980824D02*
X10263680Y-8993524D01*
X10263680Y-8980824D02*
X10250980Y-8993524D01*
X10261150Y-9443650D02*
X10273850Y-9456350D01*
X10273850Y-9443650D02*
X10261150Y-9456350D01*
X10273650Y-9243650D02*
X10286350Y-9256350D01*
X10286350Y-9243650D02*
X10273650Y-9256350D01*
X10326150Y-9443650D02*
X10338850Y-9456350D01*
X10338850Y-9443650D02*
X10326150Y-9456350D01*
X10331635Y-9655665D02*
X10344335Y-9668365D01*
X10344335Y-9655665D02*
X10331635Y-9668365D01*
X10375029Y-7784280D02*
X10387729Y-7796980D01*
X10387729Y-7784280D02*
X10375029Y-7796980D01*
X10393366Y-9441620D02*
X10406066Y-9454320D01*
X10406066Y-9441620D02*
X10393366Y-9454320D01*
X10431150Y-9008650D02*
X10443850Y-9021350D01*
X10443850Y-9008650D02*
X10431150Y-9021350D01*
X10453650Y-10073650D02*
X10466350Y-10086350D01*
X10466350Y-10073650D02*
X10453650Y-10086350D01*
X10470731Y-10153317D02*
X10483431Y-10166017D01*
X10483431Y-10153317D02*
X10470731Y-10166017D01*
X10494650Y-10566155D02*
X10507350Y-10578855D01*
X10507350Y-10566155D02*
X10494650Y-10578855D01*
X10513650Y-8048650D02*
X10526350Y-8061350D01*
X10526350Y-8048650D02*
X10513650Y-8061350D01*
X10518650Y-10623649D02*
X10531350Y-10636349D01*
X10531350Y-10623649D02*
X10518650Y-10636349D01*
X10533650Y-9328650D02*
X10546350Y-9341350D01*
X10546350Y-9328650D02*
X10533650Y-9341350D01*
X10536151Y-10073650D02*
X10548851Y-10086350D01*
X10548851Y-10073650D02*
X10536151Y-10086350D01*
X10546150Y-10831150D02*
X10558850Y-10843850D01*
X10558850Y-10831150D02*
X10546150Y-10843850D01*
X10558650Y-7848650D02*
X10571350Y-7861350D01*
X10571350Y-7848650D02*
X10558650Y-7861350D01*
X10575003Y-9376124D02*
X10587703Y-9388824D01*
X10587703Y-9376124D02*
X10575003Y-9388824D01*
X10586149Y-10628650D02*
X10598849Y-10641350D01*
X10598849Y-10628650D02*
X10586149Y-10641350D01*
X10596084Y-10070796D02*
X10608784Y-10083496D01*
X10608784Y-10070796D02*
X10596084Y-10083496D01*
X10641873Y-9168650D02*
X10654573Y-9181350D01*
X10654573Y-9168650D02*
X10641873Y-9181350D01*
X10651279Y-10458610D02*
X10663979Y-10471310D01*
X10663979Y-10458610D02*
X10651279Y-10471310D01*
X10687282Y-9490608D02*
X10699982Y-9503308D01*
X10699982Y-9490608D02*
X10687282Y-9503308D01*
X10693585Y-10131913D02*
X10706285Y-10144613D01*
X10706285Y-10131913D02*
X10693585Y-10144613D01*
X10843651Y-10131150D02*
X10856351Y-10143850D01*
X10856351Y-10131150D02*
X10843651Y-10143850D01*
X10858650Y-9328650D02*
X10871350Y-9341350D01*
X10871350Y-9328650D02*
X10858650Y-9341350D01*
X10866150Y-9483650D02*
X10878850Y-9496350D01*
X10878850Y-9483650D02*
X10866150Y-9496350D01*
X10988650Y-10468650D02*
X11001350Y-10481350D01*
X11001350Y-10468650D02*
X10988650Y-10481350D01*
X11044048Y-11414048D02*
X11056748Y-11426748D01*
X11056748Y-11414048D02*
X11044048Y-11426748D01*
X11103650Y-11228650D02*
X11116350Y-11241350D01*
X11116350Y-11228650D02*
X11103650Y-11241350D01*
X11148650Y-8610041D02*
X11161350Y-8622741D01*
X11161350Y-8610041D02*
X11148650Y-8622741D01*
X11153775Y-11689496D02*
X11166475Y-11702196D01*
X11166475Y-11689496D02*
X11153775Y-11702196D01*
X11168650Y-11206150D02*
X11181350Y-11218850D01*
X11181350Y-11206150D02*
X11168650Y-11218850D01*
X11183650Y-8673650D02*
X11196350Y-8686350D01*
X11196350Y-8673650D02*
X11183650Y-8686350D01*
X11193650Y-8532259D02*
X11206350Y-8544959D01*
X11206350Y-8532259D02*
X11193650Y-8544959D01*
X11230595Y-8795596D02*
X11243295Y-8808296D01*
X11243295Y-8795596D02*
X11230595Y-8808296D01*
X11254413Y-11166913D02*
X11267113Y-11179613D01*
X11267113Y-11166913D02*
X11254413Y-11179613D01*
X11266150Y-11763650D02*
X11278850Y-11776350D01*
X11278850Y-11763650D02*
X11266150Y-11776350D01*
X11299302Y-8797600D02*
X11312002Y-8810300D01*
X11312002Y-8797600D02*
X11299302Y-8810300D01*
X11318650Y-11111150D02*
X11331350Y-11123850D01*
X11331350Y-11111150D02*
X11318650Y-11123850D01*
X11321150Y-11873650D02*
X11333850Y-11886350D01*
X11333850Y-11873650D02*
X11321150Y-11886350D01*
X11385802Y-11500802D02*
X11398502Y-11513502D01*
X11398502Y-11500802D02*
X11385802Y-11513502D01*
X11423650Y-8843650D02*
X11436350Y-8856350D01*
X11436350Y-8843650D02*
X11423650Y-8856350D01*
X11471558Y-8504069D02*
X11484258Y-8516769D01*
X11484258Y-8504069D02*
X11471558Y-8516769D01*
X11473650Y-11401685D02*
X11486350Y-11414385D01*
X11486350Y-11401685D02*
X11473650Y-11414385D01*
X11503650Y-8738650D02*
X11516350Y-8751350D01*
X11516350Y-8738650D02*
X11503650Y-8751350D01*
X11563650Y-11132653D02*
X11576350Y-11145353D01*
X11576350Y-11132653D02*
X11563650Y-11145353D01*
X11577060Y-11449085D02*
X11589760Y-11461785D01*
X11589760Y-11449085D02*
X11577060Y-11461785D01*
X11586150Y-11311150D02*
X11598850Y-11323850D01*
X11598850Y-11311150D02*
X11586150Y-11323850D01*
X11603659Y-11261125D02*
X11616359Y-11273825D01*
X11616359Y-11261125D02*
X11603659Y-11273825D01*
X11608446Y-11162278D02*
X11621146Y-11174978D01*
X11621146Y-11162278D02*
X11608446Y-11174978D01*
X11652622Y-11717622D02*
X11665322Y-11730322D01*
X11665322Y-11717622D02*
X11652622Y-11730322D01*
X11761072Y-11273885D02*
X11773772Y-11286585D01*
X11773772Y-11273885D02*
X11761072Y-11286585D01*
X11773511Y-11216622D02*
X11786211Y-11229322D01*
X11786211Y-11216622D02*
X11773511Y-11229322D01*
X11822938Y-11186167D02*
X11835638Y-11198867D01*
X11835638Y-11186167D02*
X11822938Y-11198867D01*
X8840000Y-10120000D02*
G75*
G03X8840000Y-10120000I-10000J0D01*
G01*
X9127772Y-10687772D02*
G75*
G03X9127772Y-10687772I-10000J0D01*
G01*
X9315158Y-9124842D02*
G75*
G03X9315158Y-9124842I-10000J0D01*
G01*
X9870000Y-8780000D02*
G75*
G03X9870000Y-8780000I-10000J0D01*
G01*
X10130000Y-11170000D02*
G75*
G03X10130000Y-11170000I-10000J0D01*
G01*
X10697772Y-10882228D02*
G75*
G03X10697772Y-10882228I-10000J0D01*
G01*
X11180000Y-9870000D02*
G75*
G03X11180000Y-9870000I-10000J0D01*
G01*
D13*
X8183935Y-12553207D02*
X8183935Y-12253207D01*
X8255364Y-12253207D01*
X8298221Y-12267493D01*
X8326793Y-12296064D01*
X8341078Y-12324636D01*
X8355364Y-12381779D01*
X8355364Y-12424636D01*
X8341078Y-12481779D01*
X8326793Y-12510350D01*
X8298221Y-12538922D01*
X8255364Y-12553207D01*
X8183935Y-12553207D01*
X8483936Y-12553207D02*
X8483936Y-12353207D01*
X8483936Y-12410350D02*
X8498221Y-12381779D01*
X8512507Y-12367493D01*
X8541078Y-12353207D01*
X8569650Y-12353207D01*
X8669650Y-12553207D02*
X8669650Y-12353207D01*
X8669650Y-12253207D02*
X8655364Y-12267493D01*
X8669650Y-12281779D01*
X8683936Y-12267493D01*
X8669650Y-12253207D01*
X8669650Y-12281779D01*
X8855364Y-12553207D02*
X8826793Y-12538922D01*
X8812507Y-12510350D01*
X8812507Y-12253207D01*
X9012507Y-12553207D02*
X8983936Y-12538922D01*
X8969650Y-12510350D01*
X8969650Y-12253207D01*
X9355364Y-12553207D02*
X9355364Y-12253207D01*
X9455364Y-12467493D01*
X9555364Y-12253207D01*
X9555364Y-12553207D01*
X9826793Y-12553207D02*
X9826793Y-12396064D01*
X9812507Y-12367493D01*
X9783936Y-12353207D01*
X9726793Y-12353207D01*
X9698221Y-12367493D01*
X9826793Y-12538922D02*
X9798221Y-12553207D01*
X9726793Y-12553207D01*
X9698221Y-12538922D01*
X9683936Y-12510350D01*
X9683936Y-12481779D01*
X9698221Y-12453207D01*
X9726793Y-12438922D01*
X9798221Y-12438922D01*
X9826793Y-12424636D01*
X9969650Y-12353207D02*
X9969650Y-12653207D01*
X9969650Y-12367493D02*
X9998221Y-12353207D01*
X10055364Y-12353207D01*
X10083936Y-12367493D01*
X10098221Y-12381779D01*
X10112507Y-12410350D01*
X10112507Y-12496064D01*
X10098221Y-12524636D01*
X10083936Y-12538922D01*
X10055364Y-12553207D01*
X9998221Y-12553207D01*
X9969650Y-12538922D01*
X10241078Y-12524636D02*
X10255364Y-12538922D01*
X10241078Y-12553207D01*
X10226793Y-12538922D01*
X10241078Y-12524636D01*
X10241078Y-12553207D01*
X10241078Y-12367493D02*
X10255364Y-12381779D01*
X10241078Y-12396064D01*
X10226793Y-12381779D01*
X10241078Y-12367493D01*
X10241078Y-12396064D01*
X7899807Y-13041143D02*
X7912507Y-13053843D01*
X7912507Y-13041143D02*
X7899807Y-13053843D01*
X8241078Y-12883207D02*
X8269650Y-12883207D01*
X8298221Y-12897493D01*
X8312507Y-12911779D01*
X8326793Y-12940350D01*
X8341078Y-12997493D01*
X8341078Y-13068922D01*
X8326793Y-13126064D01*
X8312507Y-13154636D01*
X8298221Y-13168922D01*
X8269650Y-13183207D01*
X8241078Y-13183207D01*
X8212507Y-13168922D01*
X8198221Y-13154636D01*
X8183935Y-13126064D01*
X8169650Y-13068922D01*
X8169650Y-12997493D01*
X8183935Y-12940350D01*
X8198221Y-12911779D01*
X8212507Y-12897493D01*
X8241078Y-12883207D01*
X8469650Y-13154636D02*
X8483936Y-13168922D01*
X8469650Y-13183207D01*
X8455364Y-13168922D01*
X8469650Y-13154636D01*
X8469650Y-13183207D01*
X8769650Y-13183207D02*
X8598221Y-13183207D01*
X8683935Y-13183207D02*
X8683935Y-12883207D01*
X8655364Y-12926064D01*
X8626793Y-12954636D01*
X8598221Y-12968922D01*
X8869650Y-12883207D02*
X9055364Y-12883207D01*
X8955364Y-12997493D01*
X8998221Y-12997493D01*
X9026793Y-13011779D01*
X9041078Y-13026064D01*
X9055364Y-13054636D01*
X9055364Y-13126064D01*
X9041078Y-13154636D01*
X9026793Y-13168922D01*
X8998221Y-13183207D01*
X8912507Y-13183207D01*
X8883936Y-13168922D01*
X8869650Y-13154636D01*
X9183936Y-13183207D02*
X9183936Y-12983207D01*
X9183936Y-13011779D02*
X9198221Y-12997493D01*
X9226793Y-12983207D01*
X9269650Y-12983207D01*
X9298221Y-12997493D01*
X9312507Y-13026064D01*
X9312507Y-13183207D01*
X9312507Y-13026064D02*
X9326793Y-12997493D01*
X9355364Y-12983207D01*
X9398221Y-12983207D01*
X9426793Y-12997493D01*
X9441078Y-13026064D01*
X9441078Y-13183207D01*
X9583936Y-13183207D02*
X9583936Y-12983207D01*
X9583936Y-13011779D02*
X9598221Y-12997493D01*
X9626793Y-12983207D01*
X9669650Y-12983207D01*
X9698221Y-12997493D01*
X9712507Y-13026064D01*
X9712507Y-13183207D01*
X9712507Y-13026064D02*
X9726793Y-12997493D01*
X9755364Y-12983207D01*
X9798221Y-12983207D01*
X9826793Y-12997493D01*
X9841078Y-13026064D01*
X9841078Y-13183207D01*
X10426793Y-12868922D02*
X10169650Y-13254636D01*
X10812507Y-12883207D02*
X10841078Y-12883207D01*
X10869650Y-12897493D01*
X10883935Y-12911779D01*
X10898221Y-12940350D01*
X10912507Y-12997493D01*
X10912507Y-13068922D01*
X10898221Y-13126064D01*
X10883935Y-13154636D01*
X10869650Y-13168922D01*
X10841078Y-13183207D01*
X10812507Y-13183207D01*
X10783935Y-13168922D01*
X10769650Y-13154636D01*
X10755364Y-13126064D01*
X10741078Y-13068922D01*
X10741078Y-12997493D01*
X10755364Y-12940350D01*
X10769650Y-12911779D01*
X10783935Y-12897493D01*
X10812507Y-12883207D01*
X11041078Y-13154636D02*
X11055364Y-13168922D01*
X11041078Y-13183207D01*
X11026793Y-13168922D01*
X11041078Y-13154636D01*
X11041078Y-13183207D01*
X11241078Y-12883207D02*
X11269650Y-12883207D01*
X11298221Y-12897493D01*
X11312507Y-12911779D01*
X11326792Y-12940350D01*
X11341078Y-12997493D01*
X11341078Y-13068922D01*
X11326792Y-13126064D01*
X11312507Y-13154636D01*
X11298221Y-13168922D01*
X11269650Y-13183207D01*
X11241078Y-13183207D01*
X11212507Y-13168922D01*
X11198221Y-13154636D01*
X11183935Y-13126064D01*
X11169650Y-13068922D01*
X11169650Y-12997493D01*
X11183935Y-12940350D01*
X11198221Y-12911779D01*
X11212507Y-12897493D01*
X11241078Y-12883207D01*
X11526792Y-12883207D02*
X11555364Y-12883207D01*
X11583935Y-12897493D01*
X11598221Y-12911779D01*
X11612507Y-12940350D01*
X11626792Y-12997493D01*
X11626792Y-13068922D01*
X11612507Y-13126064D01*
X11598221Y-13154636D01*
X11583935Y-13168922D01*
X11555364Y-13183207D01*
X11526792Y-13183207D01*
X11498221Y-13168922D01*
X11483935Y-13154636D01*
X11469650Y-13126064D01*
X11455364Y-13068922D01*
X11455364Y-12997493D01*
X11469650Y-12940350D01*
X11483935Y-12911779D01*
X11498221Y-12897493D01*
X11526792Y-12883207D01*
X11898221Y-12883207D02*
X11755364Y-12883207D01*
X11741078Y-13026064D01*
X11755364Y-13011779D01*
X11783935Y-12997493D01*
X11855364Y-12997493D01*
X11883935Y-13011779D01*
X11898221Y-13026064D01*
X11912507Y-13054636D01*
X11912507Y-13126064D01*
X11898221Y-13154636D01*
X11883935Y-13168922D01*
X11855364Y-13183207D01*
X11783935Y-13183207D01*
X11755364Y-13168922D01*
X11741078Y-13154636D01*
X12026793Y-12883207D02*
X12026793Y-12940350D01*
X12141078Y-12883207D02*
X12141078Y-12940350D01*
X12583935Y-13297493D02*
X12569650Y-13283207D01*
X12541078Y-13240350D01*
X12526792Y-13211779D01*
X12512507Y-13168922D01*
X12498221Y-13097493D01*
X12498221Y-13040350D01*
X12512507Y-12968922D01*
X12526792Y-12926064D01*
X12541078Y-12897493D01*
X12569650Y-12854636D01*
X12583935Y-12840350D01*
X12855364Y-13183207D02*
X12683935Y-13183207D01*
X12769650Y-13183207D02*
X12769650Y-12883207D01*
X12741078Y-12926064D01*
X12712507Y-12954636D01*
X12683935Y-12968922D01*
X13141078Y-13183207D02*
X12969650Y-13183207D01*
X13055364Y-13183207D02*
X13055364Y-12883207D01*
X13026792Y-12926064D01*
X12998221Y-12954636D01*
X12969650Y-12968922D01*
X13255364Y-12911779D02*
X13269650Y-12897493D01*
X13298221Y-12883207D01*
X13369650Y-12883207D01*
X13398221Y-12897493D01*
X13412507Y-12911779D01*
X13426792Y-12940350D01*
X13426792Y-12968922D01*
X13412507Y-13011779D01*
X13241078Y-13183207D01*
X13426792Y-13183207D01*
X13783935Y-13183207D02*
X13783935Y-12883207D01*
X13912507Y-13183207D02*
X13912507Y-13026064D01*
X13898221Y-12997493D01*
X13869650Y-12983207D01*
X13826792Y-12983207D01*
X13798221Y-12997493D01*
X13783935Y-13011779D01*
X14098221Y-13183207D02*
X14069650Y-13168922D01*
X14055364Y-13154636D01*
X14041078Y-13126064D01*
X14041078Y-13040350D01*
X14055364Y-13011779D01*
X14069650Y-12997493D01*
X14098221Y-12983207D01*
X14141078Y-12983207D01*
X14169650Y-12997493D01*
X14183935Y-13011779D01*
X14198221Y-13040350D01*
X14198221Y-13126064D01*
X14183935Y-13154636D01*
X14169650Y-13168922D01*
X14141078Y-13183207D01*
X14098221Y-13183207D01*
X14369650Y-13183207D02*
X14341078Y-13168922D01*
X14326793Y-13140350D01*
X14326793Y-12883207D01*
X14598221Y-13168922D02*
X14569650Y-13183207D01*
X14512507Y-13183207D01*
X14483935Y-13168922D01*
X14469650Y-13140350D01*
X14469650Y-13026064D01*
X14483935Y-12997493D01*
X14512507Y-12983207D01*
X14569650Y-12983207D01*
X14598221Y-12997493D01*
X14612507Y-13026064D01*
X14612507Y-13054636D01*
X14469650Y-13083207D01*
X14726793Y-13168922D02*
X14755364Y-13183207D01*
X14812507Y-13183207D01*
X14841078Y-13168922D01*
X14855364Y-13140350D01*
X14855364Y-13126064D01*
X14841078Y-13097493D01*
X14812507Y-13083207D01*
X14769650Y-13083207D01*
X14741078Y-13068922D01*
X14726793Y-13040350D01*
X14726793Y-13026064D01*
X14741078Y-12997493D01*
X14769650Y-12983207D01*
X14812507Y-12983207D01*
X14841078Y-12997493D01*
X14955364Y-13297493D02*
X14969650Y-13283207D01*
X14998221Y-13240350D01*
X15012507Y-13211779D01*
X15026793Y-13168922D01*
X15041078Y-13097493D01*
X15041078Y-13040350D01*
X15026793Y-12968922D01*
X15012507Y-12926064D01*
X14998221Y-12897493D01*
X14969650Y-12854636D01*
X14955364Y-12840350D01*
X7912507Y-13443493D02*
G75*
G03X7912507Y-13443493I-10000J0D01*
G01*
X8241078Y-13279207D02*
X8269650Y-13279207D01*
X8298221Y-13293493D01*
X8312507Y-13307779D01*
X8326793Y-13336350D01*
X8341078Y-13393493D01*
X8341078Y-13464922D01*
X8326793Y-13522064D01*
X8312507Y-13550636D01*
X8298221Y-13564922D01*
X8269650Y-13579207D01*
X8241078Y-13579207D01*
X8212507Y-13564922D01*
X8198221Y-13550636D01*
X8183935Y-13522064D01*
X8169650Y-13464922D01*
X8169650Y-13393493D01*
X8183935Y-13336350D01*
X8198221Y-13307779D01*
X8212507Y-13293493D01*
X8241078Y-13279207D01*
X8469650Y-13550636D02*
X8483936Y-13564922D01*
X8469650Y-13579207D01*
X8455364Y-13564922D01*
X8469650Y-13550636D01*
X8469650Y-13579207D01*
X8598221Y-13307779D02*
X8612507Y-13293493D01*
X8641078Y-13279207D01*
X8712507Y-13279207D01*
X8741078Y-13293493D01*
X8755364Y-13307779D01*
X8769650Y-13336350D01*
X8769650Y-13364922D01*
X8755364Y-13407779D01*
X8583935Y-13579207D01*
X8769650Y-13579207D01*
X8955364Y-13279207D02*
X8983936Y-13279207D01*
X9012507Y-13293493D01*
X9026793Y-13307779D01*
X9041078Y-13336350D01*
X9055364Y-13393493D01*
X9055364Y-13464922D01*
X9041078Y-13522064D01*
X9026793Y-13550636D01*
X9012507Y-13564922D01*
X8983936Y-13579207D01*
X8955364Y-13579207D01*
X8926793Y-13564922D01*
X8912507Y-13550636D01*
X8898221Y-13522064D01*
X8883936Y-13464922D01*
X8883936Y-13393493D01*
X8898221Y-13336350D01*
X8912507Y-13307779D01*
X8926793Y-13293493D01*
X8955364Y-13279207D01*
X9183936Y-13579207D02*
X9183936Y-13379207D01*
X9183936Y-13407779D02*
X9198221Y-13393493D01*
X9226793Y-13379207D01*
X9269650Y-13379207D01*
X9298221Y-13393493D01*
X9312507Y-13422064D01*
X9312507Y-13579207D01*
X9312507Y-13422064D02*
X9326793Y-13393493D01*
X9355364Y-13379207D01*
X9398221Y-13379207D01*
X9426793Y-13393493D01*
X9441078Y-13422064D01*
X9441078Y-13579207D01*
X9583936Y-13579207D02*
X9583936Y-13379207D01*
X9583936Y-13407779D02*
X9598221Y-13393493D01*
X9626793Y-13379207D01*
X9669650Y-13379207D01*
X9698221Y-13393493D01*
X9712507Y-13422064D01*
X9712507Y-13579207D01*
X9712507Y-13422064D02*
X9726793Y-13393493D01*
X9755364Y-13379207D01*
X9798221Y-13379207D01*
X9826793Y-13393493D01*
X9841078Y-13422064D01*
X9841078Y-13579207D01*
X10426793Y-13264922D02*
X10169650Y-13650636D01*
X10812507Y-13279207D02*
X10841078Y-13279207D01*
X10869650Y-13293493D01*
X10883935Y-13307779D01*
X10898221Y-13336350D01*
X10912507Y-13393493D01*
X10912507Y-13464922D01*
X10898221Y-13522064D01*
X10883935Y-13550636D01*
X10869650Y-13564922D01*
X10841078Y-13579207D01*
X10812507Y-13579207D01*
X10783935Y-13564922D01*
X10769650Y-13550636D01*
X10755364Y-13522064D01*
X10741078Y-13464922D01*
X10741078Y-13393493D01*
X10755364Y-13336350D01*
X10769650Y-13307779D01*
X10783935Y-13293493D01*
X10812507Y-13279207D01*
X11041078Y-13550636D02*
X11055364Y-13564922D01*
X11041078Y-13579207D01*
X11026793Y-13564922D01*
X11041078Y-13550636D01*
X11041078Y-13579207D01*
X11241078Y-13279207D02*
X11269650Y-13279207D01*
X11298221Y-13293493D01*
X11312507Y-13307779D01*
X11326792Y-13336350D01*
X11341078Y-13393493D01*
X11341078Y-13464922D01*
X11326792Y-13522064D01*
X11312507Y-13550636D01*
X11298221Y-13564922D01*
X11269650Y-13579207D01*
X11241078Y-13579207D01*
X11212507Y-13564922D01*
X11198221Y-13550636D01*
X11183935Y-13522064D01*
X11169650Y-13464922D01*
X11169650Y-13393493D01*
X11183935Y-13336350D01*
X11198221Y-13307779D01*
X11212507Y-13293493D01*
X11241078Y-13279207D01*
X11526792Y-13279207D02*
X11555364Y-13279207D01*
X11583935Y-13293493D01*
X11598221Y-13307779D01*
X11612507Y-13336350D01*
X11626792Y-13393493D01*
X11626792Y-13464922D01*
X11612507Y-13522064D01*
X11598221Y-13550636D01*
X11583935Y-13564922D01*
X11555364Y-13579207D01*
X11526792Y-13579207D01*
X11498221Y-13564922D01*
X11483935Y-13550636D01*
X11469650Y-13522064D01*
X11455364Y-13464922D01*
X11455364Y-13393493D01*
X11469650Y-13336350D01*
X11483935Y-13307779D01*
X11498221Y-13293493D01*
X11526792Y-13279207D01*
X11798221Y-13407779D02*
X11769650Y-13393493D01*
X11755364Y-13379207D01*
X11741078Y-13350636D01*
X11741078Y-13336350D01*
X11755364Y-13307779D01*
X11769650Y-13293493D01*
X11798221Y-13279207D01*
X11855364Y-13279207D01*
X11883935Y-13293493D01*
X11898221Y-13307779D01*
X11912507Y-13336350D01*
X11912507Y-13350636D01*
X11898221Y-13379207D01*
X11883935Y-13393493D01*
X11855364Y-13407779D01*
X11798221Y-13407779D01*
X11769650Y-13422064D01*
X11755364Y-13436350D01*
X11741078Y-13464922D01*
X11741078Y-13522064D01*
X11755364Y-13550636D01*
X11769650Y-13564922D01*
X11798221Y-13579207D01*
X11855364Y-13579207D01*
X11883935Y-13564922D01*
X11898221Y-13550636D01*
X11912507Y-13522064D01*
X11912507Y-13464922D01*
X11898221Y-13436350D01*
X11883935Y-13422064D01*
X11855364Y-13407779D01*
X12026793Y-13279207D02*
X12026793Y-13336350D01*
X12141078Y-13279207D02*
X12141078Y-13336350D01*
X12583935Y-13693493D02*
X12569650Y-13679207D01*
X12541078Y-13636350D01*
X12526792Y-13607779D01*
X12512507Y-13564922D01*
X12498221Y-13493493D01*
X12498221Y-13436350D01*
X12512507Y-13364922D01*
X12526792Y-13322064D01*
X12541078Y-13293493D01*
X12569650Y-13250636D01*
X12583935Y-13236350D01*
X12669650Y-13279207D02*
X12869650Y-13279207D01*
X12741078Y-13579207D01*
X13212507Y-13579207D02*
X13212507Y-13279207D01*
X13341078Y-13579207D02*
X13341078Y-13422064D01*
X13326792Y-13393493D01*
X13298221Y-13379207D01*
X13255364Y-13379207D01*
X13226792Y-13393493D01*
X13212507Y-13407779D01*
X13526792Y-13579207D02*
X13498221Y-13564922D01*
X13483935Y-13550636D01*
X13469650Y-13522064D01*
X13469650Y-13436350D01*
X13483935Y-13407779D01*
X13498221Y-13393493D01*
X13526792Y-13379207D01*
X13569650Y-13379207D01*
X13598221Y-13393493D01*
X13612507Y-13407779D01*
X13626792Y-13436350D01*
X13626792Y-13522064D01*
X13612507Y-13550636D01*
X13598221Y-13564922D01*
X13569650Y-13579207D01*
X13526792Y-13579207D01*
X13798221Y-13579207D02*
X13769650Y-13564922D01*
X13755364Y-13536350D01*
X13755364Y-13279207D01*
X14026793Y-13564922D02*
X13998221Y-13579207D01*
X13941078Y-13579207D01*
X13912507Y-13564922D01*
X13898221Y-13536350D01*
X13898221Y-13422064D01*
X13912507Y-13393493D01*
X13941078Y-13379207D01*
X13998221Y-13379207D01*
X14026793Y-13393493D01*
X14041078Y-13422064D01*
X14041078Y-13450636D01*
X13898221Y-13479207D01*
X14155364Y-13564922D02*
X14183935Y-13579207D01*
X14241078Y-13579207D01*
X14269650Y-13564922D01*
X14283935Y-13536350D01*
X14283935Y-13522064D01*
X14269650Y-13493493D01*
X14241078Y-13479207D01*
X14198221Y-13479207D01*
X14169650Y-13464922D01*
X14155364Y-13436350D01*
X14155364Y-13422064D01*
X14169650Y-13393493D01*
X14198221Y-13379207D01*
X14241078Y-13379207D01*
X14269650Y-13393493D01*
X14383935Y-13693493D02*
X14398221Y-13679207D01*
X14426793Y-13636350D01*
X14441078Y-13607779D01*
X14455364Y-13564922D01*
X14469650Y-13493493D01*
X14469650Y-13436350D01*
X14455364Y-13364922D01*
X14441078Y-13322064D01*
X14426793Y-13293493D01*
X14398221Y-13250636D01*
X14383935Y-13236350D01*
M02*
