G04 #@! TF.FileFunction,Paste,Top*
%FSLAX46Y46*%
G04 Gerber Fmt 4.6, Leading zero omitted, Abs format (unit mm)*
G04 Created by KiCad (PCBNEW 4.0.4-stable) date Tuesday, June 06, 2017 'AMt' 10:57:04 AM*
%MOMM*%
%LPD*%
G01*
G04 APERTURE LIST*
%ADD10C,0.150000*%
%ADD11C,0.100000*%
%ADD12R,0.500000X0.600000*%
%ADD13R,0.600000X0.500000*%
%ADD14R,0.900000X0.900000*%
%ADD15R,0.700000X0.250000*%
%ADD16R,0.250000X0.700000*%
%ADD17R,1.400000X0.400000*%
%ADD18R,1.900000X2.300000*%
%ADD19R,1.900000X1.800000*%
%ADD20R,0.714000X0.498000*%
%ADD21R,0.400000X0.600000*%
%ADD22R,0.750000X0.800000*%
%ADD23R,2.400000X0.760000*%
G04 APERTURE END LIST*
D10*
D11*
X111231970Y-108134721D02*
G75*
G02X111059901Y-107269699I561262J561270D01*
G01*
X112536831Y-109439562D02*
X111231970Y-108134721D01*
X113290360Y-109648529D02*
G75*
G02X112536831Y-109439562I-192090J770414D01*
G01*
X113290360Y-109648529D02*
G75*
G02X109648580Y-113290157I1209640J-4851471D01*
G01*
X109439597Y-112536571D02*
G75*
G02X109648580Y-113290157I-561423J-561463D01*
G01*
X108134879Y-111231944D02*
X109439597Y-112536571D01*
X107269845Y-111059867D02*
G75*
G02X108134879Y-111231944I303735J-733425D01*
G01*
X102585911Y-112999990D02*
X107269845Y-111059867D01*
X97414189Y-113000010D02*
X102585911Y-112999990D01*
X92636134Y-111020896D02*
X97414189Y-113000010D01*
X92532703Y-110917981D02*
X92636134Y-111020896D01*
X91763669Y-111686905D02*
G75*
G02X92532703Y-110917981I384517J384462D01*
G01*
X91057001Y-112393473D02*
X91763670Y-111686905D01*
X90824477Y-112954667D02*
G75*
G02X91057001Y-112393473I793751J-112D01*
G01*
X90823632Y-118931203D02*
X90824478Y-112954667D01*
X90823633Y-118931203D02*
G75*
G02X89000000Y-120824930I-1823633J-68797D01*
G01*
X83897210Y-120824930D02*
X89000000Y-120824930D01*
X83897209Y-120824930D02*
G75*
G02X83335670Y-120592276I1J794000D01*
G01*
X79407531Y-116662785D02*
X83335670Y-120592276D01*
X79407531Y-116662785D02*
G75*
G02X79175070Y-116101439I561539J561346D01*
G01*
X79175070Y-111000000D02*
X79175070Y-116101439D01*
X79175070Y-111000000D02*
G75*
G02X81000000Y-109175070I1824930J0D01*
G01*
X87045416Y-109175070D02*
X81000000Y-109175070D01*
X87606642Y-108942626D02*
G75*
G02X87045416Y-109175070I-561226J561306D01*
G01*
X88313311Y-108236057D02*
X87606642Y-108942626D01*
X89082343Y-107467133D02*
G75*
G02X88313311Y-108236057I-384516J-384462D01*
G01*
X88979160Y-107363951D02*
X89082344Y-107467133D01*
X87000010Y-102585911D02*
X88979160Y-107363951D01*
X86999990Y-97414189D02*
X87000010Y-102585911D01*
X88940031Y-92730236D02*
X86999990Y-97414189D01*
X88767993Y-91865208D02*
G75*
G02X88940031Y-92730236I-561282J-561250D01*
G01*
X87504519Y-90601664D02*
X88767993Y-91865208D01*
X86853117Y-90374203D02*
G75*
G02X87504519Y-90601664I89944J-788889D01*
G01*
X86853117Y-90374203D02*
G75*
G02X90374240Y-86853176I-453117J3974253D01*
G01*
X90601685Y-87504584D02*
G75*
G02X90374240Y-86853176I561442J561443D01*
G01*
X91865193Y-88768093D02*
X90601684Y-87504584D01*
X92730217Y-88940155D02*
G75*
G02X91865193Y-88768093I-303758J733329D01*
G01*
X96923943Y-87203037D02*
X92730216Y-88940155D01*
X97414089Y-86469477D02*
G75*
G02X96923943Y-87203037I-794000J-1D01*
G01*
X97414089Y-83994000D02*
X97414089Y-86469478D01*
X96620089Y-83200000D02*
G75*
G02X97414089Y-83994000I0J-794000D01*
G01*
X91250000Y-83200000D02*
X96620089Y-83200000D01*
X91250000Y-80400000D02*
X91250000Y-83200000D01*
X94456000Y-80400000D02*
X91250000Y-80400000D01*
X95250000Y-79606000D02*
G75*
G02X94456000Y-80400000I-794000J0D01*
G01*
X95250000Y-75887486D02*
X95250000Y-79606000D01*
X95250000Y-75887486D02*
G75*
G02X95482557Y-75326043I794000J0D01*
G01*
X98076043Y-72732557D02*
X95482557Y-75326043D01*
X98076043Y-72732557D02*
G75*
G02X98637486Y-72500000I561443J-561443D01*
G01*
X108356000Y-72500000D02*
X98637486Y-72500000D01*
X108356000Y-72500000D02*
G75*
G02X109150000Y-73294000I0J-794000D01*
G01*
X103379811Y-83200000D02*
X108356000Y-83200000D01*
X109150000Y-82406000D02*
X109150000Y-73294000D01*
X109625659Y-86853102D02*
G75*
G02X109398220Y-87504512I-788886J-89971D01*
G01*
X111231944Y-91865121D02*
X112495409Y-90601568D01*
X113000010Y-102585811D02*
X112999990Y-97414089D01*
X109398220Y-87504512D02*
X108134721Y-88768030D01*
X112495410Y-90601568D02*
G75*
G02X113146809Y-90374102I561461J-561423D01*
G01*
X112999990Y-97414089D02*
X111059913Y-92730151D01*
X108134721Y-88768030D02*
G75*
G02X107269699Y-88940099I-561270J561262D01*
G01*
X107269699Y-88940099D02*
X103075963Y-87203016D01*
X111059913Y-92730151D02*
G75*
G02X111231944Y-91865121I733317J303784D01*
G01*
X109625657Y-86853103D02*
G75*
G02X113146809Y-90374102I3974238J453258D01*
G01*
X111059901Y-107269699D02*
X113000010Y-102585811D01*
X102585811Y-86469454D02*
X102585811Y-83994000D01*
X109150000Y-82406000D02*
G75*
G02X108356000Y-83200000I-794000J0D01*
G01*
X102585811Y-83994000D02*
G75*
G02X103379811Y-83200000I794000J0D01*
G01*
X103075963Y-87203016D02*
G75*
G02X102585811Y-86469454I303848J733562D01*
G01*
D10*
G36*
X105127352Y-90103863D02*
X105496903Y-90256937D01*
X105428020Y-90423235D01*
X105058469Y-90270161D01*
X105127352Y-90103863D01*
X105127352Y-90103863D01*
G37*
G36*
X105261291Y-89780505D02*
X105630842Y-89933579D01*
X105561959Y-90099877D01*
X105192408Y-89946803D01*
X105261291Y-89780505D01*
X105261291Y-89780505D01*
G37*
G36*
X105395230Y-89457148D02*
X105764781Y-89610222D01*
X105695898Y-89776520D01*
X105326347Y-89623446D01*
X105395230Y-89457148D01*
X105395230Y-89457148D01*
G37*
G36*
X104993412Y-90427221D02*
X105362963Y-90580295D01*
X105294080Y-90746593D01*
X104924529Y-90593519D01*
X104993412Y-90427221D01*
X104993412Y-90427221D01*
G37*
G36*
X104859473Y-90750579D02*
X105229024Y-90903653D01*
X105160141Y-91069951D01*
X104790590Y-90916877D01*
X104859473Y-90750579D01*
X104859473Y-90750579D01*
G37*
G36*
X103371980Y-89376765D02*
X103741531Y-89529839D01*
X103672648Y-89696137D01*
X103303097Y-89543063D01*
X103371980Y-89376765D01*
X103371980Y-89376765D01*
G37*
G36*
X103639859Y-88730049D02*
X104009410Y-88883123D01*
X103940527Y-89049421D01*
X103570976Y-88896347D01*
X103639859Y-88730049D01*
X103639859Y-88730049D01*
G37*
G36*
X103806588Y-89372779D02*
X103437037Y-89219705D01*
X103505920Y-89053407D01*
X103875471Y-89206481D01*
X103806588Y-89372779D01*
X103806588Y-89372779D01*
G37*
G36*
X103238041Y-89700123D02*
X103607592Y-89853197D01*
X103538709Y-90019495D01*
X103169158Y-89866421D01*
X103238041Y-89700123D01*
X103238041Y-89700123D01*
G37*
G36*
X103104102Y-90023480D02*
X103473653Y-90176554D01*
X103404770Y-90342852D01*
X103035219Y-90189778D01*
X103104102Y-90023480D01*
X103104102Y-90023480D01*
G37*
G36*
X105726222Y-88736454D02*
X106031103Y-88862739D01*
X105856982Y-89283104D01*
X105552101Y-89156819D01*
X105726222Y-88736454D01*
X105726222Y-88736454D01*
G37*
G36*
X103980090Y-88013182D02*
X104284971Y-88139467D01*
X104110850Y-88559832D01*
X103805969Y-88433547D01*
X103980090Y-88013182D01*
X103980090Y-88013182D01*
G37*
G36*
X102943018Y-90516896D02*
X103247899Y-90643181D01*
X103073778Y-91063546D01*
X102768897Y-90937261D01*
X102943018Y-90516896D01*
X102943018Y-90516896D01*
G37*
G36*
X104689150Y-91240168D02*
X104994031Y-91366453D01*
X104819910Y-91786818D01*
X104515029Y-91660533D01*
X104689150Y-91240168D01*
X104689150Y-91240168D01*
G37*
D12*
X95250000Y-100100000D03*
X95250000Y-99000000D03*
D13*
X99375000Y-105325000D03*
X100475000Y-105325000D03*
D12*
X104400000Y-97550000D03*
X104400000Y-96450000D03*
D13*
X99570000Y-95500000D03*
X100670000Y-95500000D03*
D10*
G36*
X110696751Y-104572487D02*
X110272487Y-104996751D01*
X109989645Y-104713909D01*
X110413909Y-104289645D01*
X110696751Y-104572487D01*
X110696751Y-104572487D01*
G37*
G36*
X110060355Y-103936091D02*
X109636091Y-104360355D01*
X109353249Y-104077513D01*
X109777513Y-103653249D01*
X110060355Y-103936091D01*
X110060355Y-103936091D01*
G37*
G36*
X95752513Y-109871751D02*
X95328249Y-109447487D01*
X95611091Y-109164645D01*
X96035355Y-109588909D01*
X95752513Y-109871751D01*
X95752513Y-109871751D01*
G37*
G36*
X96388909Y-109235355D02*
X95964645Y-108811091D01*
X96247487Y-108528249D01*
X96671751Y-108952513D01*
X96388909Y-109235355D01*
X96388909Y-109235355D01*
G37*
D14*
X100750001Y-100750000D03*
X99250001Y-100750000D03*
X99250001Y-99250000D03*
D15*
X96600001Y-97250000D03*
X96600001Y-97750000D03*
X96600001Y-98250000D03*
X96600001Y-98750000D03*
X96600001Y-99250000D03*
X96600001Y-99750000D03*
X96600001Y-100250000D03*
X96600001Y-100750000D03*
X96600001Y-101250000D03*
X96600001Y-101750000D03*
X96600001Y-102250000D03*
X96600001Y-102750000D03*
D16*
X97250001Y-103400000D03*
X97750001Y-103400000D03*
X98250001Y-103400000D03*
X98750001Y-103400000D03*
X99250001Y-103400000D03*
X99750001Y-103400000D03*
X100250001Y-103400000D03*
X100750001Y-103400000D03*
X101250001Y-103400000D03*
X101750001Y-103400000D03*
X102250001Y-103400000D03*
X102750001Y-103400000D03*
D15*
X103400001Y-102750000D03*
X103400001Y-102250000D03*
X103400001Y-101750000D03*
X103400001Y-101250000D03*
X103400001Y-100750000D03*
X103400001Y-100250000D03*
X103400001Y-99750000D03*
X103400001Y-99250000D03*
X103400001Y-98750000D03*
X103400001Y-98250000D03*
X103400001Y-97750000D03*
X103400001Y-97250000D03*
D16*
X102750001Y-96600000D03*
X102250001Y-96600000D03*
X101750001Y-96600000D03*
X101250001Y-96600000D03*
X100750001Y-96600000D03*
X100250001Y-96600000D03*
X99750001Y-96600000D03*
X99250001Y-96600000D03*
X98750001Y-96600000D03*
X98250001Y-96600000D03*
X97750001Y-96600000D03*
X97250001Y-96600000D03*
D14*
X100750001Y-99250000D03*
D17*
X104750000Y-79200000D03*
X104750000Y-77900000D03*
X104750000Y-78550000D03*
X104750000Y-77250000D03*
D18*
X107600000Y-81650000D03*
X107600000Y-74150000D03*
D19*
X107600000Y-79050000D03*
X107600000Y-76750000D03*
D17*
X104750000Y-76600000D03*
D13*
X93300000Y-99600000D03*
X92200000Y-99600000D03*
D16*
X93500000Y-95550000D03*
X93000000Y-95550000D03*
X92500000Y-95550000D03*
X92000000Y-95550000D03*
X92000000Y-98350000D03*
X92500000Y-98350000D03*
X93000000Y-98350000D03*
X93500000Y-98350000D03*
D20*
X92155000Y-97365000D03*
X93345000Y-97365000D03*
X92155000Y-96535000D03*
X93345000Y-96535000D03*
D12*
X96500000Y-93750000D03*
X96500000Y-92650000D03*
X95250000Y-96800000D03*
X95250000Y-97900000D03*
D10*
G36*
X115524264Y-88122182D02*
X115877818Y-88475736D01*
X115453554Y-88900000D01*
X115100000Y-88546446D01*
X115524264Y-88122182D01*
X115524264Y-88122182D01*
G37*
G36*
X114746446Y-88900000D02*
X115100000Y-89253554D01*
X114675736Y-89677818D01*
X114322182Y-89324264D01*
X114746446Y-88900000D01*
X114746446Y-88900000D01*
G37*
G36*
X111174264Y-84472182D02*
X111527818Y-84825736D01*
X111103554Y-85250000D01*
X110750000Y-84896446D01*
X111174264Y-84472182D01*
X111174264Y-84472182D01*
G37*
G36*
X110396446Y-85250000D02*
X110750000Y-85603554D01*
X110325736Y-86027818D01*
X109972182Y-85674264D01*
X110396446Y-85250000D01*
X110396446Y-85250000D01*
G37*
G36*
X86027818Y-89674264D02*
X85674264Y-90027818D01*
X85250000Y-89603554D01*
X85603554Y-89250000D01*
X86027818Y-89674264D01*
X86027818Y-89674264D01*
G37*
G36*
X85250000Y-88896446D02*
X84896446Y-89250000D01*
X84472182Y-88825736D01*
X84825736Y-88472182D01*
X85250000Y-88896446D01*
X85250000Y-88896446D01*
G37*
G36*
X89677818Y-85324264D02*
X89324264Y-85677818D01*
X88900000Y-85253554D01*
X89253554Y-84900000D01*
X89677818Y-85324264D01*
X89677818Y-85324264D01*
G37*
G36*
X88900000Y-84546446D02*
X88546446Y-84900000D01*
X88122182Y-84475736D01*
X88475736Y-84122182D01*
X88900000Y-84546446D01*
X88900000Y-84546446D01*
G37*
D13*
X98850000Y-75400000D03*
X97750000Y-75400000D03*
D10*
G36*
X104165327Y-92121581D02*
X103935717Y-92675909D01*
X103566165Y-92522835D01*
X103795775Y-91968507D01*
X104165327Y-92121581D01*
X104165327Y-92121581D01*
G37*
G36*
X103333835Y-91777165D02*
X103104225Y-92331493D01*
X102734673Y-92178419D01*
X102964283Y-91624091D01*
X103333835Y-91777165D01*
X103333835Y-91777165D01*
G37*
D21*
X98050000Y-74150000D03*
X98950000Y-74150000D03*
D22*
X99975000Y-75400000D03*
X102825000Y-75400000D03*
X99975000Y-73600000D03*
X102825000Y-73600000D03*
D23*
X98350000Y-77360000D03*
X102250000Y-77360000D03*
X98350000Y-78630000D03*
X102250000Y-78630000D03*
X98350000Y-79900000D03*
X102250000Y-79900000D03*
X98350000Y-81170000D03*
X102250000Y-81170000D03*
X98350000Y-82440000D03*
X102250000Y-82440000D03*
D10*
G36*
X107712348Y-103280546D02*
X108419454Y-103987652D01*
X107889124Y-104517982D01*
X107182018Y-103810876D01*
X107712348Y-103280546D01*
X107712348Y-103280546D01*
G37*
G36*
X108560876Y-102432018D02*
X109267982Y-103139124D01*
X108737652Y-103669454D01*
X108030546Y-102962348D01*
X108560876Y-102432018D01*
X108560876Y-102432018D01*
G37*
G36*
X96655546Y-107912652D02*
X97362652Y-107205546D01*
X97892982Y-107735876D01*
X97185876Y-108442982D01*
X96655546Y-107912652D01*
X96655546Y-107912652D01*
G37*
G36*
X95807018Y-107064124D02*
X96514124Y-106357018D01*
X97044454Y-106887348D01*
X96337348Y-107594454D01*
X95807018Y-107064124D01*
X95807018Y-107064124D01*
G37*
G36*
X83278249Y-87702513D02*
X83702513Y-87278249D01*
X83985355Y-87561091D01*
X83561091Y-87985355D01*
X83278249Y-87702513D01*
X83278249Y-87702513D01*
G37*
G36*
X83914645Y-88338909D02*
X84338909Y-87914645D01*
X84621751Y-88197487D01*
X84197487Y-88621751D01*
X83914645Y-88338909D01*
X83914645Y-88338909D01*
G37*
G36*
X112297487Y-83278249D02*
X112721751Y-83702513D01*
X112438909Y-83985355D01*
X112014645Y-83561091D01*
X112297487Y-83278249D01*
X112297487Y-83278249D01*
G37*
G36*
X111661091Y-83914645D02*
X112085355Y-84338909D01*
X111802513Y-84621751D01*
X111378249Y-84197487D01*
X111661091Y-83914645D01*
X111661091Y-83914645D01*
G37*
G36*
X110672182Y-114925736D02*
X111025736Y-114572182D01*
X111450000Y-114996446D01*
X111096446Y-115350000D01*
X110672182Y-114925736D01*
X110672182Y-114925736D01*
G37*
G36*
X111450000Y-115703554D02*
X111803554Y-115350000D01*
X112227818Y-115774264D01*
X111874264Y-116127818D01*
X111450000Y-115703554D01*
X111450000Y-115703554D01*
G37*
G36*
X114725736Y-118977818D02*
X114372182Y-118624264D01*
X114796446Y-118200000D01*
X115150000Y-118553554D01*
X114725736Y-118977818D01*
X114725736Y-118977818D01*
G37*
G36*
X115503554Y-118200000D02*
X115150000Y-117846446D01*
X115574264Y-117422182D01*
X115927818Y-117775736D01*
X115503554Y-118200000D01*
X115503554Y-118200000D01*
G37*
G36*
X114522182Y-115575736D02*
X114875736Y-115222182D01*
X115300000Y-115646446D01*
X114946446Y-116000000D01*
X114522182Y-115575736D01*
X114522182Y-115575736D01*
G37*
G36*
X115300000Y-116353554D02*
X115653554Y-116000000D01*
X116077818Y-116424264D01*
X115724264Y-116777818D01*
X115300000Y-116353554D01*
X115300000Y-116353554D01*
G37*
G36*
X116397433Y-114291403D02*
X116772200Y-114666170D01*
X116630779Y-114807591D01*
X116256012Y-114432824D01*
X116397433Y-114291403D01*
X116397433Y-114291403D01*
G37*
G36*
X117139896Y-113548941D02*
X117514663Y-113923708D01*
X117373242Y-114065129D01*
X116998475Y-113690362D01*
X117139896Y-113548941D01*
X117139896Y-113548941D01*
G37*
G36*
X116644921Y-114043916D02*
X117019688Y-114418683D01*
X116878267Y-114560104D01*
X116503500Y-114185337D01*
X116644921Y-114043916D01*
X116644921Y-114043916D01*
G37*
G36*
X116892408Y-113796429D02*
X117267175Y-114171196D01*
X117125754Y-114312617D01*
X116750987Y-113937850D01*
X116892408Y-113796429D01*
X116892408Y-113796429D01*
G37*
G36*
X117139896Y-113548941D02*
X117514663Y-113923708D01*
X117373242Y-114065129D01*
X116998475Y-113690362D01*
X117139896Y-113548941D01*
X117139896Y-113548941D01*
G37*
G36*
X117776292Y-114185337D02*
X118151059Y-114560104D01*
X118009638Y-114701525D01*
X117634871Y-114326758D01*
X117776292Y-114185337D01*
X117776292Y-114185337D01*
G37*
G36*
X117528804Y-114432825D02*
X117903571Y-114807592D01*
X117762150Y-114949013D01*
X117387383Y-114574246D01*
X117528804Y-114432825D01*
X117528804Y-114432825D01*
G37*
G36*
X117281317Y-114680312D02*
X117656084Y-115055079D01*
X117514663Y-115196500D01*
X117139896Y-114821733D01*
X117281317Y-114680312D01*
X117281317Y-114680312D01*
G37*
G36*
X117033830Y-114927800D02*
X117408597Y-115302567D01*
X117267176Y-115443988D01*
X116892409Y-115069221D01*
X117033830Y-114927800D01*
X117033830Y-114927800D01*
G37*
G36*
X113461091Y-115712563D02*
X113673223Y-115500431D01*
X114026777Y-115853985D01*
X113814645Y-116066117D01*
X113461091Y-115712563D01*
X113461091Y-115712563D01*
G37*
G36*
X113107538Y-116066116D02*
X113319670Y-115853984D01*
X113673224Y-116207538D01*
X113461092Y-116419670D01*
X113107538Y-116066116D01*
X113107538Y-116066116D01*
G37*
G36*
X112753984Y-116419670D02*
X112966116Y-116207538D01*
X113319670Y-116561092D01*
X113107538Y-116773224D01*
X112753984Y-116419670D01*
X112753984Y-116419670D01*
G37*
G36*
X112400431Y-116773223D02*
X112612563Y-116561091D01*
X112966117Y-116914645D01*
X112753985Y-117126777D01*
X112400431Y-116773223D01*
X112400431Y-116773223D01*
G37*
G36*
X113673223Y-118046015D02*
X113885355Y-117833883D01*
X114238909Y-118187437D01*
X114026777Y-118399569D01*
X113673223Y-118046015D01*
X113673223Y-118046015D01*
G37*
G36*
X114026776Y-117692462D02*
X114238908Y-117480330D01*
X114592462Y-117833884D01*
X114380330Y-118046016D01*
X114026776Y-117692462D01*
X114026776Y-117692462D01*
G37*
G36*
X114380330Y-117338908D02*
X114592462Y-117126776D01*
X114946016Y-117480330D01*
X114733884Y-117692462D01*
X114380330Y-117338908D01*
X114380330Y-117338908D01*
G37*
G36*
X114733883Y-116985355D02*
X114946015Y-116773223D01*
X115299569Y-117126777D01*
X115087437Y-117338909D01*
X114733883Y-116985355D01*
X114733883Y-116985355D01*
G37*
G36*
X113127337Y-117222943D02*
X113500689Y-116849591D01*
X113950409Y-117299311D01*
X113577057Y-117672663D01*
X113127337Y-117222943D01*
X113127337Y-117222943D01*
G37*
G36*
X113749591Y-116600689D02*
X114122943Y-116227337D01*
X114572663Y-116677057D01*
X114199311Y-117050409D01*
X113749591Y-116600689D01*
X113749591Y-116600689D01*
G37*
G36*
X82224605Y-115194454D02*
X82595837Y-115565686D01*
X82383705Y-115777818D01*
X82012473Y-115406586D01*
X82224605Y-115194454D01*
X82224605Y-115194454D01*
G37*
G36*
X82578159Y-116149048D02*
X82878679Y-115848528D01*
X83090811Y-116060660D01*
X82790291Y-116361180D01*
X82578159Y-116149048D01*
X82578159Y-116149048D01*
G37*
G36*
X82931713Y-116502602D02*
X83232233Y-116202082D01*
X83444365Y-116414214D01*
X83143845Y-116714734D01*
X82931713Y-116502602D01*
X82931713Y-116502602D01*
G37*
G36*
X83285266Y-116856155D02*
X83585786Y-116555635D01*
X83797918Y-116767767D01*
X83497398Y-117068287D01*
X83285266Y-116856155D01*
X83285266Y-116856155D01*
G37*
G36*
X83638820Y-117209709D02*
X83939340Y-116909189D01*
X84151472Y-117121321D01*
X83850952Y-117421841D01*
X83638820Y-117209709D01*
X83638820Y-117209709D01*
G37*
G36*
X84434314Y-117404163D02*
X84805546Y-117775395D01*
X84593414Y-117987527D01*
X84222182Y-117616295D01*
X84434314Y-117404163D01*
X84434314Y-117404163D01*
G37*
G36*
X84787867Y-117050609D02*
X85159099Y-117421841D01*
X84946967Y-117633973D01*
X84575735Y-117262741D01*
X84787867Y-117050609D01*
X84787867Y-117050609D01*
G37*
G36*
X85141421Y-116697056D02*
X85512653Y-117068288D01*
X85300521Y-117280420D01*
X84929289Y-116909188D01*
X85141421Y-116697056D01*
X85141421Y-116697056D01*
G37*
G36*
X85494974Y-116343502D02*
X85866206Y-116714734D01*
X85654074Y-116926866D01*
X85282842Y-116555634D01*
X85494974Y-116343502D01*
X85494974Y-116343502D01*
G37*
G36*
X85848528Y-115989949D02*
X86219760Y-116361181D01*
X86007628Y-116573313D01*
X85636396Y-116202081D01*
X85848528Y-115989949D01*
X85848528Y-115989949D01*
G37*
G36*
X86202081Y-115636396D02*
X86573313Y-116007628D01*
X86361181Y-116219760D01*
X85989949Y-115848528D01*
X86202081Y-115636396D01*
X86202081Y-115636396D01*
G37*
G36*
X86555634Y-115282842D02*
X86926866Y-115654074D01*
X86714734Y-115866206D01*
X86343502Y-115494974D01*
X86555634Y-115282842D01*
X86555634Y-115282842D01*
G37*
G36*
X86909188Y-114929289D02*
X87280420Y-115300521D01*
X87068288Y-115512653D01*
X86697056Y-115141421D01*
X86909188Y-114929289D01*
X86909188Y-114929289D01*
G37*
G36*
X87262741Y-114575735D02*
X87633973Y-114946967D01*
X87421841Y-115159099D01*
X87050609Y-114787867D01*
X87262741Y-114575735D01*
X87262741Y-114575735D01*
G37*
G36*
X87616295Y-114222182D02*
X87987527Y-114593414D01*
X87775395Y-114805546D01*
X87404163Y-114434314D01*
X87616295Y-114222182D01*
X87616295Y-114222182D01*
G37*
G36*
X86909189Y-113939340D02*
X87209709Y-113638820D01*
X87421841Y-113850952D01*
X87121321Y-114151472D01*
X86909189Y-113939340D01*
X86909189Y-113939340D01*
G37*
G36*
X86555635Y-113585786D02*
X86856155Y-113285266D01*
X87068287Y-113497398D01*
X86767767Y-113797918D01*
X86555635Y-113585786D01*
X86555635Y-113585786D01*
G37*
G36*
X86202082Y-113232233D02*
X86502602Y-112931713D01*
X86714734Y-113143845D01*
X86414214Y-113444365D01*
X86202082Y-113232233D01*
X86202082Y-113232233D01*
G37*
G36*
X85848528Y-112878679D02*
X86149048Y-112578159D01*
X86361180Y-112790291D01*
X86060660Y-113090811D01*
X85848528Y-112878679D01*
X85848528Y-112878679D01*
G37*
G36*
X85406586Y-112012473D02*
X85777818Y-112383705D01*
X85565686Y-112595837D01*
X85194454Y-112224605D01*
X85406586Y-112012473D01*
X85406586Y-112012473D01*
G37*
G36*
X85053033Y-112366027D02*
X85424265Y-112737259D01*
X85212133Y-112949391D01*
X84840901Y-112578159D01*
X85053033Y-112366027D01*
X85053033Y-112366027D01*
G37*
G36*
X84699479Y-112719580D02*
X85070711Y-113090812D01*
X84858579Y-113302944D01*
X84487347Y-112931712D01*
X84699479Y-112719580D01*
X84699479Y-112719580D01*
G37*
G36*
X84345926Y-113073134D02*
X84717158Y-113444366D01*
X84505026Y-113656498D01*
X84133794Y-113285266D01*
X84345926Y-113073134D01*
X84345926Y-113073134D01*
G37*
G36*
X83992372Y-113426687D02*
X84363604Y-113797919D01*
X84151472Y-114010051D01*
X83780240Y-113638819D01*
X83992372Y-113426687D01*
X83992372Y-113426687D01*
G37*
G36*
X83638819Y-113780240D02*
X84010051Y-114151472D01*
X83797919Y-114363604D01*
X83426687Y-113992372D01*
X83638819Y-113780240D01*
X83638819Y-113780240D01*
G37*
G36*
X83285266Y-114133794D02*
X83656498Y-114505026D01*
X83444366Y-114717158D01*
X83073134Y-114345926D01*
X83285266Y-114133794D01*
X83285266Y-114133794D01*
G37*
G36*
X82931712Y-114487347D02*
X83302944Y-114858579D01*
X83090812Y-115070711D01*
X82719580Y-114699479D01*
X82931712Y-114487347D01*
X82931712Y-114487347D01*
G37*
G36*
X82578159Y-114840901D02*
X82949391Y-115212133D01*
X82737259Y-115424265D01*
X82366027Y-115053033D01*
X82578159Y-114840901D01*
X82578159Y-114840901D01*
G37*
G36*
X81074264Y-115572182D02*
X81427818Y-115925736D01*
X81003554Y-116350000D01*
X80650000Y-115996446D01*
X81074264Y-115572182D01*
X81074264Y-115572182D01*
G37*
G36*
X80296446Y-116350000D02*
X80650000Y-116703554D01*
X80225736Y-117127818D01*
X79872182Y-116774264D01*
X80296446Y-116350000D01*
X80296446Y-116350000D01*
G37*
G36*
X81624264Y-116122182D02*
X81977818Y-116475736D01*
X81553554Y-116900000D01*
X81200000Y-116546446D01*
X81624264Y-116122182D01*
X81624264Y-116122182D01*
G37*
G36*
X80846446Y-116900000D02*
X81200000Y-117253554D01*
X80775736Y-117677818D01*
X80422182Y-117324264D01*
X80846446Y-116900000D01*
X80846446Y-116900000D01*
G37*
G36*
X81325736Y-118227818D02*
X80972182Y-117874264D01*
X81396446Y-117450000D01*
X81750000Y-117803554D01*
X81325736Y-118227818D01*
X81325736Y-118227818D01*
G37*
G36*
X82103554Y-117450000D02*
X81750000Y-117096446D01*
X82174264Y-116672182D01*
X82527818Y-117025736D01*
X82103554Y-117450000D01*
X82103554Y-117450000D01*
G37*
G36*
X86025736Y-118027818D02*
X85672182Y-117674264D01*
X86096446Y-117250000D01*
X86450000Y-117603554D01*
X86025736Y-118027818D01*
X86025736Y-118027818D01*
G37*
G36*
X86803554Y-117250000D02*
X86450000Y-116896446D01*
X86874264Y-116472182D01*
X87227818Y-116825736D01*
X86803554Y-117250000D01*
X86803554Y-117250000D01*
G37*
G36*
X80022182Y-114175736D02*
X80375736Y-113822182D01*
X80800000Y-114246446D01*
X80446446Y-114600000D01*
X80022182Y-114175736D01*
X80022182Y-114175736D01*
G37*
G36*
X80800000Y-114953554D02*
X81153554Y-114600000D01*
X81577818Y-115024264D01*
X81224264Y-115377818D01*
X80800000Y-114953554D01*
X80800000Y-114953554D01*
G37*
G36*
X82572182Y-111875736D02*
X82925736Y-111522182D01*
X83350000Y-111946446D01*
X82996446Y-112300000D01*
X82572182Y-111875736D01*
X82572182Y-111875736D01*
G37*
G36*
X83350000Y-112653554D02*
X83703554Y-112300000D01*
X84127818Y-112724264D01*
X83774264Y-113077818D01*
X83350000Y-112653554D01*
X83350000Y-112653554D01*
G37*
G36*
X82202513Y-118821751D02*
X81778249Y-118397487D01*
X82061091Y-118114645D01*
X82485355Y-118538909D01*
X82202513Y-118821751D01*
X82202513Y-118821751D01*
G37*
G36*
X82838909Y-118185355D02*
X82414645Y-117761091D01*
X82697487Y-117478249D01*
X83121751Y-117902513D01*
X82838909Y-118185355D01*
X82838909Y-118185355D01*
G37*
G36*
X82852513Y-119471751D02*
X82428249Y-119047487D01*
X82711091Y-118764645D01*
X83135355Y-119188909D01*
X82852513Y-119471751D01*
X82852513Y-119471751D01*
G37*
G36*
X83488909Y-118835355D02*
X83064645Y-118411091D01*
X83347487Y-118128249D01*
X83771751Y-118552513D01*
X83488909Y-118835355D01*
X83488909Y-118835355D01*
G37*
G36*
X87447487Y-117028249D02*
X87871751Y-117452513D01*
X87588909Y-117735355D01*
X87164645Y-117311091D01*
X87447487Y-117028249D01*
X87447487Y-117028249D01*
G37*
G36*
X86811091Y-117664645D02*
X87235355Y-118088909D01*
X86952513Y-118371751D01*
X86528249Y-117947487D01*
X86811091Y-117664645D01*
X86811091Y-117664645D01*
G37*
G36*
X90471751Y-114897487D02*
X90047487Y-115321751D01*
X89764645Y-115038909D01*
X90188909Y-114614645D01*
X90471751Y-114897487D01*
X90471751Y-114897487D01*
G37*
G36*
X89835355Y-114261091D02*
X89411091Y-114685355D01*
X89128249Y-114402513D01*
X89552513Y-113978249D01*
X89835355Y-114261091D01*
X89835355Y-114261091D01*
G37*
M02*
