M48
;DRILL file {KiCad 4.0.4-stable} date Tuesday, June 06, 2017 'AMt' 10:57:08 AM
;FORMAT={-:-/ absolute / inch / decimal}
FMAT,2
INCH,TZ
T1C0.005
T2C0.062
%
G90
G05
M72
T1
X3.4469Y-3.5413
X3.4626Y-3.5256
X3.4783Y-3.5098
X3.4941Y-3.4941
X3.5098Y-3.4783
X3.5236Y-3.6181
X3.5236Y-4.2559
X3.5256Y-3.4626
X3.5413Y-3.4469
X3.5551Y-3.5866
X3.5551Y-4.2874
X3.5709Y-3.5709
X3.5709Y-4.3031
X3.5866Y-3.5551
X3.5866Y-4.3189
X3.6024Y-3.5394
X3.6181Y-3.5236
X3.6181Y-4.3504
X3.8583Y-3.4213
X3.878Y-3.4213
X3.8976Y-3.4213
X3.9173Y-3.4213
X3.937Y-3.4213
X3.9567Y-3.4213
X3.9764Y-3.4213
X3.9961Y-3.4213
X4.0157Y-3.4213
X4.2539Y-4.3514
X4.2559Y-3.5236
X4.2717Y-4.3346
X4.2874Y-3.5551
X4.3031Y-3.5709
X4.3031Y-4.3031
X4.3189Y-3.5866
X4.3189Y-4.2874
X4.3317Y-4.4281
X4.3327Y-3.4469
X4.3346Y-3.6024
X4.3346Y-4.2717
X4.3484Y-4.4114
X4.3504Y-3.6181
X4.3504Y-4.2559
X4.3642Y-3.4783
X4.3642Y-4.3957
X4.3799Y-3.4941
X4.3799Y-4.3799
X4.3957Y-3.5098
X4.3957Y-4.3642
X4.4114Y-3.5256
X4.4114Y-4.3484
X4.4272Y-3.5413
X4.4272Y-4.3327
T2
X3.189Y-4.3701
X3.5039Y-4.685
X3.6142Y-4.0787
X4.0787Y-4.2598
X4.2598Y-3.7953
T0
M30
