G04 #@! TF.FileFunction,Soldermask,Top*
%FSLAX46Y46*%
G04 Gerber Fmt 4.6, Leading zero omitted, Abs format (unit mm)*
G04 Created by KiCad (PCBNEW 4.0.4-stable) date Tuesday, June 06, 2017 'AMt' 10:57:04 AM*
%MOMM*%
%LPD*%
G01*
G04 APERTURE LIST*
%ADD10C,0.150000*%
%ADD11C,0.100000*%
%ADD12C,0.700000*%
%ADD13C,2.000000*%
%ADD14R,0.900000X1.000000*%
%ADD15R,1.000000X0.900000*%
%ADD16R,1.900000X1.900000*%
%ADD17R,1.100000X0.650000*%
%ADD18R,0.650000X1.100000*%
%ADD19R,1.100000X0.700000*%
%ADD20R,1.400000X0.700000*%
%ADD21R,0.700000X1.100000*%
%ADD22R,0.700000X1.400000*%
%ADD23R,1.800000X0.800000*%
%ADD24R,2.300000X2.700000*%
%ADD25R,2.300000X2.200000*%
%ADD26R,1.590000X1.230000*%
%ADD27R,1.150000X1.800000*%
%ADD28R,0.800000X1.000000*%
%ADD29R,1.150000X1.200000*%
%ADD30R,2.800000X1.160000*%
G04 APERTURE END LIST*
D10*
D11*
X111231970Y-108134721D02*
G75*
G02X111059901Y-107269699I561262J561270D01*
G01*
X112536831Y-109439562D02*
X111231970Y-108134721D01*
X113290360Y-109648529D02*
G75*
G02X112536831Y-109439562I-192090J770414D01*
G01*
X113290360Y-109648529D02*
G75*
G02X109648580Y-113290157I1209640J-4851471D01*
G01*
X109439597Y-112536571D02*
G75*
G02X109648580Y-113290157I-561423J-561463D01*
G01*
X108134879Y-111231944D02*
X109439597Y-112536571D01*
X107269845Y-111059867D02*
G75*
G02X108134879Y-111231944I303735J-733425D01*
G01*
X102585911Y-112999990D02*
X107269845Y-111059867D01*
X97414189Y-113000010D02*
X102585911Y-112999990D01*
X92636134Y-111020896D02*
X97414189Y-113000010D01*
X92532703Y-110917981D02*
X92636134Y-111020896D01*
X91763669Y-111686905D02*
G75*
G02X92532703Y-110917981I384517J384462D01*
G01*
X91057001Y-112393473D02*
X91763670Y-111686905D01*
X90824477Y-112954667D02*
G75*
G02X91057001Y-112393473I793751J-112D01*
G01*
X90823632Y-118931203D02*
X90824478Y-112954667D01*
X90823633Y-118931203D02*
G75*
G02X89000000Y-120824930I-1823633J-68797D01*
G01*
X83897210Y-120824930D02*
X89000000Y-120824930D01*
X83897209Y-120824930D02*
G75*
G02X83335670Y-120592276I1J794000D01*
G01*
X79407531Y-116662785D02*
X83335670Y-120592276D01*
X79407531Y-116662785D02*
G75*
G02X79175070Y-116101439I561539J561346D01*
G01*
X79175070Y-111000000D02*
X79175070Y-116101439D01*
X79175070Y-111000000D02*
G75*
G02X81000000Y-109175070I1824930J0D01*
G01*
X87045416Y-109175070D02*
X81000000Y-109175070D01*
X87606642Y-108942626D02*
G75*
G02X87045416Y-109175070I-561226J561306D01*
G01*
X88313311Y-108236057D02*
X87606642Y-108942626D01*
X89082343Y-107467133D02*
G75*
G02X88313311Y-108236057I-384516J-384462D01*
G01*
X88979160Y-107363951D02*
X89082344Y-107467133D01*
X87000010Y-102585911D02*
X88979160Y-107363951D01*
X86999990Y-97414189D02*
X87000010Y-102585911D01*
X88940031Y-92730236D02*
X86999990Y-97414189D01*
X88767993Y-91865208D02*
G75*
G02X88940031Y-92730236I-561282J-561250D01*
G01*
X87504519Y-90601664D02*
X88767993Y-91865208D01*
X86853117Y-90374203D02*
G75*
G02X87504519Y-90601664I89944J-788889D01*
G01*
X86853117Y-90374203D02*
G75*
G02X90374240Y-86853176I-453117J3974253D01*
G01*
X90601685Y-87504584D02*
G75*
G02X90374240Y-86853176I561442J561443D01*
G01*
X91865193Y-88768093D02*
X90601684Y-87504584D01*
X92730217Y-88940155D02*
G75*
G02X91865193Y-88768093I-303758J733329D01*
G01*
X96923943Y-87203037D02*
X92730216Y-88940155D01*
X97414089Y-86469477D02*
G75*
G02X96923943Y-87203037I-794000J-1D01*
G01*
X97414089Y-83994000D02*
X97414089Y-86469478D01*
X96620089Y-83200000D02*
G75*
G02X97414089Y-83994000I0J-794000D01*
G01*
X91250000Y-83200000D02*
X96620089Y-83200000D01*
X91250000Y-80400000D02*
X91250000Y-83200000D01*
X94456000Y-80400000D02*
X91250000Y-80400000D01*
X95250000Y-79606000D02*
G75*
G02X94456000Y-80400000I-794000J0D01*
G01*
X95250000Y-75887486D02*
X95250000Y-79606000D01*
X95250000Y-75887486D02*
G75*
G02X95482557Y-75326043I794000J0D01*
G01*
X98076043Y-72732557D02*
X95482557Y-75326043D01*
X98076043Y-72732557D02*
G75*
G02X98637486Y-72500000I561443J-561443D01*
G01*
X108356000Y-72500000D02*
X98637486Y-72500000D01*
X108356000Y-72500000D02*
G75*
G02X109150000Y-73294000I0J-794000D01*
G01*
X103379811Y-83200000D02*
X108356000Y-83200000D01*
X109150000Y-82406000D02*
X109150000Y-73294000D01*
X109625659Y-86853102D02*
G75*
G02X109398220Y-87504512I-788886J-89971D01*
G01*
X111231944Y-91865121D02*
X112495409Y-90601568D01*
X113000010Y-102585811D02*
X112999990Y-97414089D01*
X109398220Y-87504512D02*
X108134721Y-88768030D01*
X112495410Y-90601568D02*
G75*
G02X113146809Y-90374102I561461J-561423D01*
G01*
X112999990Y-97414089D02*
X111059913Y-92730151D01*
X108134721Y-88768030D02*
G75*
G02X107269699Y-88940099I-561270J561262D01*
G01*
X107269699Y-88940099D02*
X103075963Y-87203016D01*
X111059913Y-92730151D02*
G75*
G02X111231944Y-91865121I733317J303784D01*
G01*
X109625657Y-86853103D02*
G75*
G02X113146809Y-90374102I3974238J453258D01*
G01*
X111059901Y-107269699D02*
X113000010Y-102585811D01*
X102585811Y-86469454D02*
X102585811Y-83994000D01*
X109150000Y-82406000D02*
G75*
G02X108356000Y-83200000I-794000J0D01*
G01*
X102585811Y-83994000D02*
G75*
G02X103379811Y-83200000I794000J0D01*
G01*
X103075963Y-87203016D02*
G75*
G02X102585811Y-86469454I303848J733562D01*
G01*
D10*
G36*
X105100292Y-90038535D02*
X105562232Y-90229877D01*
X105455080Y-90488563D01*
X104993140Y-90297221D01*
X105100292Y-90038535D01*
X105100292Y-90038535D01*
G37*
G36*
X105234231Y-89715177D02*
X105696171Y-89906519D01*
X105589019Y-90165205D01*
X105127079Y-89973863D01*
X105234231Y-89715177D01*
X105234231Y-89715177D01*
G37*
G36*
X105368170Y-89391820D02*
X105830110Y-89583162D01*
X105722958Y-89841848D01*
X105261018Y-89650506D01*
X105368170Y-89391820D01*
X105368170Y-89391820D01*
G37*
G36*
X104966352Y-90361893D02*
X105428292Y-90553235D01*
X105321140Y-90811921D01*
X104859200Y-90620579D01*
X104966352Y-90361893D01*
X104966352Y-90361893D01*
G37*
G36*
X104832413Y-90685251D02*
X105294353Y-90876593D01*
X105187201Y-91135279D01*
X104725261Y-90943937D01*
X104832413Y-90685251D01*
X104832413Y-90685251D01*
G37*
G36*
X103344920Y-89311437D02*
X103806860Y-89502779D01*
X103699708Y-89761465D01*
X103237768Y-89570123D01*
X103344920Y-89311437D01*
X103344920Y-89311437D01*
G37*
G36*
X103612799Y-88664721D02*
X104074739Y-88856063D01*
X103967587Y-89114749D01*
X103505647Y-88923407D01*
X103612799Y-88664721D01*
X103612799Y-88664721D01*
G37*
G36*
X103833648Y-89438107D02*
X103371708Y-89246765D01*
X103478860Y-88988079D01*
X103940800Y-89179421D01*
X103833648Y-89438107D01*
X103833648Y-89438107D01*
G37*
G36*
X103210981Y-89634795D02*
X103672921Y-89826137D01*
X103565769Y-90084823D01*
X103103829Y-89893481D01*
X103210981Y-89634795D01*
X103210981Y-89634795D01*
G37*
G36*
X103077042Y-89958152D02*
X103538982Y-90149494D01*
X103431830Y-90408180D01*
X102969890Y-90216838D01*
X103077042Y-89958152D01*
X103077042Y-89958152D01*
G37*
G36*
X105699163Y-88671125D02*
X106096431Y-88835679D01*
X105884041Y-89348433D01*
X105486773Y-89183879D01*
X105699163Y-88671125D01*
X105699163Y-88671125D01*
G37*
G36*
X103953031Y-87947853D02*
X104350299Y-88112407D01*
X104137909Y-88625161D01*
X103740641Y-88460607D01*
X103953031Y-87947853D01*
X103953031Y-87947853D01*
G37*
G36*
X102915959Y-90451567D02*
X103313227Y-90616121D01*
X103100837Y-91128875D01*
X102703569Y-90964321D01*
X102915959Y-90451567D01*
X102915959Y-90451567D01*
G37*
G36*
X104662091Y-91174839D02*
X105059359Y-91339393D01*
X104846969Y-91852147D01*
X104449701Y-91687593D01*
X104662091Y-91174839D01*
X104662091Y-91174839D01*
G37*
D12*
X109300000Y-109300000D03*
X108500000Y-110100000D03*
X108050000Y-110525000D03*
X109700000Y-108900000D03*
X110100000Y-108500000D03*
X110500000Y-108100000D03*
X111250000Y-111250000D03*
X110450000Y-112050000D03*
X110025000Y-112475000D03*
X111650000Y-110850000D03*
X112050000Y-110450000D03*
X112450000Y-110050000D03*
X110850000Y-111650000D03*
X90700000Y-109300000D03*
X90300000Y-108900000D03*
X91100000Y-109700000D03*
X89500000Y-108100000D03*
X91900000Y-110500000D03*
D13*
X81000000Y-111000000D03*
X89000000Y-119000000D03*
D12*
X87950000Y-89550000D03*
X89150000Y-88350000D03*
X89950000Y-87550000D03*
X89550000Y-87950000D03*
X88350000Y-89150000D03*
X87550000Y-89950000D03*
D13*
X103600000Y-108200000D03*
X91800000Y-103600000D03*
D12*
X111650000Y-89150000D03*
X112050000Y-89550000D03*
X112450000Y-89950000D03*
X110850000Y-88350000D03*
X111250000Y-88750000D03*
X110050000Y-87550000D03*
X110500000Y-91900000D03*
X110100000Y-91500000D03*
X109700000Y-91100000D03*
X108100000Y-89500000D03*
X108900000Y-90300000D03*
X109300000Y-90700000D03*
X88750000Y-88750000D03*
X89500000Y-91900000D03*
X90300000Y-91100000D03*
X91500000Y-89900000D03*
X91900000Y-89500000D03*
X91100000Y-90300000D03*
X90700000Y-90700000D03*
X98000000Y-86900000D03*
X100000000Y-86900000D03*
X99500000Y-86900000D03*
X98500000Y-86900000D03*
X99000000Y-86900000D03*
X102000000Y-86900000D03*
X101500000Y-86900000D03*
X101000000Y-86900000D03*
D14*
X95250000Y-100100000D03*
X95250000Y-99000000D03*
D15*
X99375000Y-105325000D03*
X100475000Y-105325000D03*
D14*
X104400000Y-97550000D03*
X104400000Y-96450000D03*
D15*
X99570000Y-95500000D03*
X100670000Y-95500000D03*
D10*
G36*
X107926777Y-93628859D02*
X107148960Y-94406676D01*
X106653985Y-93911701D01*
X107431802Y-93133884D01*
X107926777Y-93628859D01*
X107926777Y-93628859D01*
G37*
G36*
X108280330Y-93982412D02*
X107502513Y-94760229D01*
X107007538Y-94265254D01*
X107785355Y-93487437D01*
X108280330Y-93982412D01*
X108280330Y-93982412D01*
G37*
G36*
X107573223Y-93275305D02*
X106795406Y-94053122D01*
X106300431Y-93558147D01*
X107078248Y-92780330D01*
X107573223Y-93275305D01*
X107573223Y-93275305D01*
G37*
G36*
X107219670Y-92921752D02*
X106441853Y-93699569D01*
X105946878Y-93204594D01*
X106724695Y-92426777D01*
X107219670Y-92921752D01*
X107219670Y-92921752D01*
G37*
G36*
X107933848Y-89676132D02*
X106943899Y-90666081D01*
X106448924Y-90171106D01*
X107438873Y-89181157D01*
X107933848Y-89676132D01*
X107933848Y-89676132D01*
G37*
G36*
X110818843Y-92561127D02*
X109828894Y-93551076D01*
X109333919Y-93056101D01*
X110323868Y-92066152D01*
X110818843Y-92561127D01*
X110818843Y-92561127D01*
G37*
G36*
X106866116Y-92568198D02*
X106088299Y-93346015D01*
X105593324Y-92851040D01*
X106371141Y-92073223D01*
X106866116Y-92568198D01*
X106866116Y-92568198D01*
G37*
G36*
X106512563Y-92214645D02*
X105734746Y-92992462D01*
X105239771Y-92497487D01*
X106017588Y-91719670D01*
X106512563Y-92214645D01*
X106512563Y-92214645D01*
G37*
G36*
X106371141Y-107926777D02*
X105593324Y-107148960D01*
X106088299Y-106653985D01*
X106866116Y-107431802D01*
X106371141Y-107926777D01*
X106371141Y-107926777D01*
G37*
G36*
X106017588Y-108280330D02*
X105239771Y-107502513D01*
X105734746Y-107007538D01*
X106512563Y-107785355D01*
X106017588Y-108280330D01*
X106017588Y-108280330D01*
G37*
G36*
X106724695Y-107573223D02*
X105946878Y-106795406D01*
X106441853Y-106300431D01*
X107219670Y-107078248D01*
X106724695Y-107573223D01*
X106724695Y-107573223D01*
G37*
G36*
X107078248Y-107219670D02*
X106300431Y-106441853D01*
X106795406Y-105946878D01*
X107573223Y-106724695D01*
X107078248Y-107219670D01*
X107078248Y-107219670D01*
G37*
G36*
X110323868Y-107933848D02*
X109333919Y-106943899D01*
X109828894Y-106448924D01*
X110818843Y-107438873D01*
X110323868Y-107933848D01*
X110323868Y-107933848D01*
G37*
G36*
X107438873Y-110818843D02*
X106448924Y-109828894D01*
X106943899Y-109333919D01*
X107933848Y-110323868D01*
X107438873Y-110818843D01*
X107438873Y-110818843D01*
G37*
G36*
X107431802Y-106866116D02*
X106653985Y-106088299D01*
X107148960Y-105593324D01*
X107926777Y-106371141D01*
X107431802Y-106866116D01*
X107431802Y-106866116D01*
G37*
G36*
X107785355Y-106512563D02*
X107007538Y-105734746D01*
X107502513Y-105239771D01*
X108280330Y-106017588D01*
X107785355Y-106512563D01*
X107785355Y-106512563D01*
G37*
G36*
X92073223Y-106371141D02*
X92851040Y-105593324D01*
X93346015Y-106088299D01*
X92568198Y-106866116D01*
X92073223Y-106371141D01*
X92073223Y-106371141D01*
G37*
G36*
X91719670Y-106017588D02*
X92497487Y-105239771D01*
X92992462Y-105734746D01*
X92214645Y-106512563D01*
X91719670Y-106017588D01*
X91719670Y-106017588D01*
G37*
G36*
X92426777Y-106724695D02*
X93204594Y-105946878D01*
X93699569Y-106441853D01*
X92921752Y-107219670D01*
X92426777Y-106724695D01*
X92426777Y-106724695D01*
G37*
G36*
X92780330Y-107078248D02*
X93558147Y-106300431D01*
X94053122Y-106795406D01*
X93275305Y-107573223D01*
X92780330Y-107078248D01*
X92780330Y-107078248D01*
G37*
G36*
X92066152Y-110323868D02*
X93056101Y-109333919D01*
X93551076Y-109828894D01*
X92561127Y-110818843D01*
X92066152Y-110323868D01*
X92066152Y-110323868D01*
G37*
G36*
X89181157Y-107438873D02*
X90171106Y-106448924D01*
X90666081Y-106943899D01*
X89676132Y-107933848D01*
X89181157Y-107438873D01*
X89181157Y-107438873D01*
G37*
G36*
X93133884Y-107431802D02*
X93911701Y-106653985D01*
X94406676Y-107148960D01*
X93628859Y-107926777D01*
X93133884Y-107431802D01*
X93133884Y-107431802D01*
G37*
G36*
X93487437Y-107785355D02*
X94265254Y-107007538D01*
X94760229Y-107502513D01*
X93982412Y-108280330D01*
X93487437Y-107785355D01*
X93487437Y-107785355D01*
G37*
G36*
X93628859Y-92073223D02*
X94406676Y-92851040D01*
X93911701Y-93346015D01*
X93133884Y-92568198D01*
X93628859Y-92073223D01*
X93628859Y-92073223D01*
G37*
G36*
X93982412Y-91719670D02*
X94760229Y-92497487D01*
X94265254Y-92992462D01*
X93487437Y-92214645D01*
X93982412Y-91719670D01*
X93982412Y-91719670D01*
G37*
G36*
X93275305Y-92426777D02*
X94053122Y-93204594D01*
X93558147Y-93699569D01*
X92780330Y-92921752D01*
X93275305Y-92426777D01*
X93275305Y-92426777D01*
G37*
G36*
X92921752Y-92780330D02*
X93699569Y-93558147D01*
X93204594Y-94053122D01*
X92426777Y-93275305D01*
X92921752Y-92780330D01*
X92921752Y-92780330D01*
G37*
G36*
X89676132Y-92066152D02*
X90666081Y-93056101D01*
X90171106Y-93551076D01*
X89181157Y-92561127D01*
X89676132Y-92066152D01*
X89676132Y-92066152D01*
G37*
G36*
X92561127Y-89181157D02*
X93551076Y-90171106D01*
X93056101Y-90666081D01*
X92066152Y-89676132D01*
X92561127Y-89181157D01*
X92561127Y-89181157D01*
G37*
G36*
X92568198Y-93133884D02*
X93346015Y-93911701D01*
X92851040Y-94406676D01*
X92073223Y-93628859D01*
X92568198Y-93133884D01*
X92568198Y-93133884D01*
G37*
G36*
X92214645Y-93487437D02*
X92992462Y-94265254D01*
X92497487Y-94760229D01*
X91719670Y-93982412D01*
X92214645Y-93487437D01*
X92214645Y-93487437D01*
G37*
G36*
X110979594Y-104572487D02*
X110272487Y-105279594D01*
X109706802Y-104713909D01*
X110413909Y-104006802D01*
X110979594Y-104572487D01*
X110979594Y-104572487D01*
G37*
G36*
X110343198Y-103936091D02*
X109636091Y-104643198D01*
X109070406Y-104077513D01*
X109777513Y-103370406D01*
X110343198Y-103936091D01*
X110343198Y-103936091D01*
G37*
G36*
X95752513Y-110154594D02*
X95045406Y-109447487D01*
X95611091Y-108881802D01*
X96318198Y-109588909D01*
X95752513Y-110154594D01*
X95752513Y-110154594D01*
G37*
G36*
X96388909Y-109518198D02*
X95681802Y-108811091D01*
X96247487Y-108245406D01*
X96954594Y-108952513D01*
X96388909Y-109518198D01*
X96388909Y-109518198D01*
G37*
D16*
X100750001Y-100750000D03*
X99250001Y-100750000D03*
X99250001Y-99250000D03*
D17*
X96600001Y-97250000D03*
X96600001Y-97750000D03*
X96600001Y-98250000D03*
X96600001Y-98750000D03*
X96600001Y-99250000D03*
X96600001Y-99750000D03*
X96600001Y-100250000D03*
X96600001Y-100750000D03*
X96600001Y-101250000D03*
X96600001Y-101750000D03*
X96600001Y-102250000D03*
X96600001Y-102750000D03*
D18*
X97250001Y-103400000D03*
X97750001Y-103400000D03*
X98250001Y-103400000D03*
X98750001Y-103400000D03*
X99250001Y-103400000D03*
X99750001Y-103400000D03*
X100250001Y-103400000D03*
X100750001Y-103400000D03*
X101250001Y-103400000D03*
X101750001Y-103400000D03*
X102250001Y-103400000D03*
X102750001Y-103400000D03*
D17*
X103400001Y-102750000D03*
X103400001Y-102250000D03*
X103400001Y-101750000D03*
X103400001Y-101250000D03*
X103400001Y-100750000D03*
X103400001Y-100250000D03*
X103400001Y-99750000D03*
X103400001Y-99250000D03*
X103400001Y-98750000D03*
X103400001Y-98250000D03*
X103400001Y-97750000D03*
X103400001Y-97250000D03*
D18*
X102750001Y-96600000D03*
X102250001Y-96600000D03*
X101750001Y-96600000D03*
X101250001Y-96600000D03*
X100750001Y-96600000D03*
X100250001Y-96600000D03*
X99750001Y-96600000D03*
X99250001Y-96600000D03*
X98750001Y-96600000D03*
X98250001Y-96600000D03*
X97750001Y-96600000D03*
X97250001Y-96600000D03*
D16*
X100750001Y-99250000D03*
D19*
X90400000Y-98750000D03*
X90400000Y-98250000D03*
X90400000Y-99250000D03*
X90400000Y-99750000D03*
D20*
X87750000Y-102540000D03*
X87750000Y-97460000D03*
D19*
X90400000Y-100250000D03*
X90400000Y-100750000D03*
X90400000Y-101250000D03*
X90400000Y-101750000D03*
D21*
X98750000Y-109600000D03*
X98250000Y-109600000D03*
X99250000Y-109600000D03*
X99750000Y-109600000D03*
D22*
X102540000Y-112250000D03*
X97460000Y-112250000D03*
D21*
X100250000Y-109600000D03*
X100750000Y-109600000D03*
X101250000Y-109600000D03*
X101750000Y-109600000D03*
D19*
X109600000Y-101250000D03*
X109600000Y-101750000D03*
X109600000Y-100750000D03*
X109600000Y-100250000D03*
D20*
X112250000Y-97460000D03*
X112250000Y-102540000D03*
D19*
X109600000Y-99750000D03*
X109600000Y-99250000D03*
X109600000Y-98750000D03*
X109600000Y-98250000D03*
D21*
X101250001Y-90400000D03*
X101750001Y-90400000D03*
X100750001Y-90400000D03*
X100250001Y-90400000D03*
D22*
X97460001Y-87750000D03*
X102540001Y-87750000D03*
D21*
X99750001Y-90400000D03*
X99250001Y-90400000D03*
X98750001Y-90400000D03*
X98250001Y-90400000D03*
D23*
X104750000Y-79200000D03*
X104750000Y-77900000D03*
X104750000Y-78550000D03*
X104750000Y-77250000D03*
D24*
X107600000Y-81650000D03*
X107600000Y-74150000D03*
D25*
X107600000Y-79050000D03*
X107600000Y-76750000D03*
D23*
X104750000Y-76600000D03*
D15*
X93300000Y-99600000D03*
X92200000Y-99600000D03*
D18*
X93500000Y-95550000D03*
X93000000Y-95550000D03*
X92500000Y-95550000D03*
X92000000Y-95550000D03*
X92000000Y-98350000D03*
X92500000Y-98350000D03*
X93000000Y-98350000D03*
X93500000Y-98350000D03*
D26*
X92155000Y-97365000D03*
X93345000Y-97365000D03*
X92155000Y-96535000D03*
X93345000Y-96535000D03*
D14*
X96500000Y-93750000D03*
X96500000Y-92650000D03*
X95250000Y-96800000D03*
X95250000Y-97900000D03*
D27*
X96525000Y-95100000D03*
X95075000Y-95100000D03*
D10*
G36*
X112673223Y-85771141D02*
X113451040Y-84993324D01*
X113946015Y-85488299D01*
X113168198Y-86266116D01*
X112673223Y-85771141D01*
X112673223Y-85771141D01*
G37*
G36*
X112319670Y-85417588D02*
X113097487Y-84639771D01*
X113592462Y-85134746D01*
X112814645Y-85912563D01*
X112319670Y-85417588D01*
X112319670Y-85417588D01*
G37*
G36*
X113026777Y-86124695D02*
X113804594Y-85346878D01*
X114299569Y-85841853D01*
X113521752Y-86619670D01*
X113026777Y-86124695D01*
X113026777Y-86124695D01*
G37*
G36*
X113380330Y-86478248D02*
X114158147Y-85700431D01*
X114653122Y-86195406D01*
X113875305Y-86973223D01*
X113380330Y-86478248D01*
X113380330Y-86478248D01*
G37*
G36*
X112666152Y-89723868D02*
X113656101Y-88733919D01*
X114151076Y-89228894D01*
X113161127Y-90218843D01*
X112666152Y-89723868D01*
X112666152Y-89723868D01*
G37*
G36*
X109781157Y-86838873D02*
X110771106Y-85848924D01*
X111266081Y-86343899D01*
X110276132Y-87333848D01*
X109781157Y-86838873D01*
X109781157Y-86838873D01*
G37*
G36*
X113733884Y-86831802D02*
X114511701Y-86053985D01*
X115006676Y-86548960D01*
X114228859Y-87326777D01*
X113733884Y-86831802D01*
X113733884Y-86831802D01*
G37*
G36*
X114087437Y-87185355D02*
X114865254Y-86407538D01*
X115360229Y-86902513D01*
X114582412Y-87680330D01*
X114087437Y-87185355D01*
X114087437Y-87185355D01*
G37*
G36*
X115524264Y-87839340D02*
X116160660Y-88475736D01*
X115453554Y-89182842D01*
X114817158Y-88546446D01*
X115524264Y-87839340D01*
X115524264Y-87839340D01*
G37*
G36*
X114746446Y-88617158D02*
X115382842Y-89253554D01*
X114675736Y-89960660D01*
X114039340Y-89324264D01*
X114746446Y-88617158D01*
X114746446Y-88617158D01*
G37*
G36*
X111174264Y-84189340D02*
X111810660Y-84825736D01*
X111103554Y-85532842D01*
X110467158Y-84896446D01*
X111174264Y-84189340D01*
X111174264Y-84189340D01*
G37*
G36*
X110396446Y-84967158D02*
X111032842Y-85603554D01*
X110325736Y-86310660D01*
X109689340Y-85674264D01*
X110396446Y-84967158D01*
X110396446Y-84967158D01*
G37*
G36*
X85771141Y-87326777D02*
X84993324Y-86548960D01*
X85488299Y-86053985D01*
X86266116Y-86831802D01*
X85771141Y-87326777D01*
X85771141Y-87326777D01*
G37*
G36*
X85417588Y-87680330D02*
X84639771Y-86902513D01*
X85134746Y-86407538D01*
X85912563Y-87185355D01*
X85417588Y-87680330D01*
X85417588Y-87680330D01*
G37*
G36*
X86124695Y-86973223D02*
X85346878Y-86195406D01*
X85841853Y-85700431D01*
X86619670Y-86478248D01*
X86124695Y-86973223D01*
X86124695Y-86973223D01*
G37*
G36*
X86478248Y-86619670D02*
X85700431Y-85841853D01*
X86195406Y-85346878D01*
X86973223Y-86124695D01*
X86478248Y-86619670D01*
X86478248Y-86619670D01*
G37*
G36*
X89723868Y-87333848D02*
X88733919Y-86343899D01*
X89228894Y-85848924D01*
X90218843Y-86838873D01*
X89723868Y-87333848D01*
X89723868Y-87333848D01*
G37*
G36*
X86838873Y-90218843D02*
X85848924Y-89228894D01*
X86343899Y-88733919D01*
X87333848Y-89723868D01*
X86838873Y-90218843D01*
X86838873Y-90218843D01*
G37*
G36*
X86831802Y-86266116D02*
X86053985Y-85488299D01*
X86548960Y-84993324D01*
X87326777Y-85771141D01*
X86831802Y-86266116D01*
X86831802Y-86266116D01*
G37*
G36*
X87185355Y-85912563D02*
X86407538Y-85134746D01*
X86902513Y-84639771D01*
X87680330Y-85417588D01*
X87185355Y-85912563D01*
X87185355Y-85912563D01*
G37*
G36*
X86310660Y-89674264D02*
X85674264Y-90310660D01*
X84967158Y-89603554D01*
X85603554Y-88967158D01*
X86310660Y-89674264D01*
X86310660Y-89674264D01*
G37*
G36*
X85532842Y-88896446D02*
X84896446Y-89532842D01*
X84189340Y-88825736D01*
X84825736Y-88189340D01*
X85532842Y-88896446D01*
X85532842Y-88896446D01*
G37*
G36*
X89960660Y-85324264D02*
X89324264Y-85960660D01*
X88617158Y-85253554D01*
X89253554Y-84617158D01*
X89960660Y-85324264D01*
X89960660Y-85324264D01*
G37*
G36*
X89182842Y-84546446D02*
X88546446Y-85182842D01*
X87839340Y-84475736D01*
X88475736Y-83839340D01*
X89182842Y-84546446D01*
X89182842Y-84546446D01*
G37*
D15*
X98850000Y-75400000D03*
X97750000Y-75400000D03*
D10*
G36*
X104426640Y-92013342D02*
X104043956Y-92937221D01*
X103304852Y-92631074D01*
X103687536Y-91707195D01*
X104426640Y-92013342D01*
X104426640Y-92013342D01*
G37*
G36*
X103595148Y-91668926D02*
X103212464Y-92592805D01*
X102473360Y-92286658D01*
X102856044Y-91362779D01*
X103595148Y-91668926D01*
X103595148Y-91668926D01*
G37*
D28*
X98050000Y-74150000D03*
X98950000Y-74150000D03*
D29*
X99975000Y-75400000D03*
X102825000Y-75400000D03*
X99975000Y-73600000D03*
X102825000Y-73600000D03*
D12*
X100500000Y-86900000D03*
D13*
X108200000Y-96400000D03*
D30*
X98350000Y-77360000D03*
X102250000Y-77360000D03*
X98350000Y-78630000D03*
X102250000Y-78630000D03*
X98350000Y-79900000D03*
X102250000Y-79900000D03*
X98350000Y-81170000D03*
X102250000Y-81170000D03*
X98350000Y-82440000D03*
X102250000Y-82440000D03*
D10*
G36*
X107712348Y-102997703D02*
X108702297Y-103987652D01*
X107889124Y-104800825D01*
X106899175Y-103810876D01*
X107712348Y-102997703D01*
X107712348Y-102997703D01*
G37*
G36*
X108560876Y-102149175D02*
X109550825Y-103139124D01*
X108737652Y-103952297D01*
X107747703Y-102962348D01*
X108560876Y-102149175D01*
X108560876Y-102149175D01*
G37*
G36*
X96372703Y-107912652D02*
X97362652Y-106922703D01*
X98175825Y-107735876D01*
X97185876Y-108725825D01*
X96372703Y-107912652D01*
X96372703Y-107912652D01*
G37*
G36*
X95524175Y-107064124D02*
X96514124Y-106074175D01*
X97327297Y-106887348D01*
X96337348Y-107877297D01*
X95524175Y-107064124D01*
X95524175Y-107064124D01*
G37*
G36*
X82995406Y-87702513D02*
X83702513Y-86995406D01*
X84268198Y-87561091D01*
X83561091Y-88268198D01*
X82995406Y-87702513D01*
X82995406Y-87702513D01*
G37*
G36*
X83631802Y-88338909D02*
X84338909Y-87631802D01*
X84904594Y-88197487D01*
X84197487Y-88904594D01*
X83631802Y-88338909D01*
X83631802Y-88338909D01*
G37*
G36*
X112297487Y-82995406D02*
X113004594Y-83702513D01*
X112438909Y-84268198D01*
X111731802Y-83561091D01*
X112297487Y-82995406D01*
X112297487Y-82995406D01*
G37*
G36*
X111661091Y-83631802D02*
X112368198Y-84338909D01*
X111802513Y-84904594D01*
X111095406Y-84197487D01*
X111661091Y-83631802D01*
X111661091Y-83631802D01*
G37*
G36*
X84375494Y-83643638D02*
X85556362Y-84824506D01*
X84824506Y-85556362D01*
X83643638Y-84375494D01*
X84375494Y-83643638D01*
X84375494Y-83643638D01*
G37*
G36*
X84950230Y-83068902D02*
X86131098Y-84249770D01*
X85399242Y-84981626D01*
X84218374Y-83800758D01*
X84950230Y-83068902D01*
X84950230Y-83068902D01*
G37*
G36*
X83800758Y-84218374D02*
X84981626Y-85399242D01*
X84249770Y-86131098D01*
X83068902Y-84950230D01*
X83800758Y-84218374D01*
X83800758Y-84218374D01*
G37*
G36*
X116356362Y-84375494D02*
X115175494Y-85556362D01*
X114443638Y-84824506D01*
X115624506Y-83643638D01*
X116356362Y-84375494D01*
X116356362Y-84375494D01*
G37*
G36*
X116931098Y-84950230D02*
X115750230Y-86131098D01*
X115018374Y-85399242D01*
X116199242Y-84218374D01*
X116931098Y-84950230D01*
X116931098Y-84950230D01*
G37*
G36*
X115781626Y-83800758D02*
X114600758Y-84981626D01*
X113868902Y-84249770D01*
X115049770Y-83068902D01*
X115781626Y-83800758D01*
X115781626Y-83800758D01*
G37*
G36*
X110389340Y-114925736D02*
X111025736Y-114289340D01*
X111732842Y-114996446D01*
X111096446Y-115632842D01*
X110389340Y-114925736D01*
X110389340Y-114925736D01*
G37*
G36*
X111167158Y-115703554D02*
X111803554Y-115067158D01*
X112510660Y-115774264D01*
X111874264Y-116410660D01*
X111167158Y-115703554D01*
X111167158Y-115703554D01*
G37*
G36*
X114228859Y-112673223D02*
X115006676Y-113451040D01*
X114511701Y-113946015D01*
X113733884Y-113168198D01*
X114228859Y-112673223D01*
X114228859Y-112673223D01*
G37*
G36*
X114582412Y-112319670D02*
X115360229Y-113097487D01*
X114865254Y-113592462D01*
X114087437Y-112814645D01*
X114582412Y-112319670D01*
X114582412Y-112319670D01*
G37*
G36*
X113875305Y-113026777D02*
X114653122Y-113804594D01*
X114158147Y-114299569D01*
X113380330Y-113521752D01*
X113875305Y-113026777D01*
X113875305Y-113026777D01*
G37*
G36*
X113521752Y-113380330D02*
X114299569Y-114158147D01*
X113804594Y-114653122D01*
X113026777Y-113875305D01*
X113521752Y-113380330D01*
X113521752Y-113380330D01*
G37*
G36*
X110276132Y-112666152D02*
X111266081Y-113656101D01*
X110771106Y-114151076D01*
X109781157Y-113161127D01*
X110276132Y-112666152D01*
X110276132Y-112666152D01*
G37*
G36*
X113161127Y-109781157D02*
X114151076Y-110771106D01*
X113656101Y-111266081D01*
X112666152Y-110276132D01*
X113161127Y-109781157D01*
X113161127Y-109781157D01*
G37*
G36*
X113168198Y-113733884D02*
X113946015Y-114511701D01*
X113451040Y-115006676D01*
X112673223Y-114228859D01*
X113168198Y-113733884D01*
X113168198Y-113733884D01*
G37*
G36*
X112814645Y-114087437D02*
X113592462Y-114865254D01*
X113097487Y-115360229D01*
X112319670Y-114582412D01*
X112814645Y-114087437D01*
X112814645Y-114087437D01*
G37*
G36*
X114725736Y-119260660D02*
X114089340Y-118624264D01*
X114796446Y-117917158D01*
X115432842Y-118553554D01*
X114725736Y-119260660D01*
X114725736Y-119260660D01*
G37*
G36*
X115503554Y-118482842D02*
X114867158Y-117846446D01*
X115574264Y-117139340D01*
X116210660Y-117775736D01*
X115503554Y-118482842D01*
X115503554Y-118482842D01*
G37*
G36*
X114239340Y-115575736D02*
X114875736Y-114939340D01*
X115582842Y-115646446D01*
X114946446Y-116282842D01*
X114239340Y-115575736D01*
X114239340Y-115575736D01*
G37*
G36*
X115017158Y-116353554D02*
X115653554Y-115717158D01*
X116360660Y-116424264D01*
X115724264Y-117060660D01*
X115017158Y-116353554D01*
X115017158Y-116353554D01*
G37*
G36*
X116397433Y-114220692D02*
X116842911Y-114666170D01*
X116630779Y-114878302D01*
X116185301Y-114432824D01*
X116397433Y-114220692D01*
X116397433Y-114220692D01*
G37*
G36*
X117139896Y-113478230D02*
X117585374Y-113923708D01*
X117373242Y-114135840D01*
X116927764Y-113690362D01*
X117139896Y-113478230D01*
X117139896Y-113478230D01*
G37*
G36*
X116644921Y-113973205D02*
X117090399Y-114418683D01*
X116878267Y-114630815D01*
X116432789Y-114185337D01*
X116644921Y-113973205D01*
X116644921Y-113973205D01*
G37*
G36*
X116892408Y-113725718D02*
X117337886Y-114171196D01*
X117125754Y-114383328D01*
X116680276Y-113937850D01*
X116892408Y-113725718D01*
X116892408Y-113725718D01*
G37*
G36*
X117139896Y-113478230D02*
X117585374Y-113923708D01*
X117373242Y-114135840D01*
X116927764Y-113690362D01*
X117139896Y-113478230D01*
X117139896Y-113478230D01*
G37*
G36*
X117776292Y-114114626D02*
X118221770Y-114560104D01*
X118009638Y-114772236D01*
X117564160Y-114326758D01*
X117776292Y-114114626D01*
X117776292Y-114114626D01*
G37*
G36*
X117528804Y-114362114D02*
X117974282Y-114807592D01*
X117762150Y-115019724D01*
X117316672Y-114574246D01*
X117528804Y-114362114D01*
X117528804Y-114362114D01*
G37*
G36*
X117281317Y-114609601D02*
X117726795Y-115055079D01*
X117514663Y-115267211D01*
X117069185Y-114821733D01*
X117281317Y-114609601D01*
X117281317Y-114609601D01*
G37*
G36*
X117033830Y-114857089D02*
X117479308Y-115302567D01*
X117267176Y-115514699D01*
X116821698Y-115069221D01*
X117033830Y-114857089D01*
X117033830Y-114857089D01*
G37*
G36*
X113178249Y-115712563D02*
X113673223Y-115217589D01*
X114309619Y-115853985D01*
X113814645Y-116348959D01*
X113178249Y-115712563D01*
X113178249Y-115712563D01*
G37*
G36*
X112824696Y-116066116D02*
X113319670Y-115571142D01*
X113956066Y-116207538D01*
X113461092Y-116702512D01*
X112824696Y-116066116D01*
X112824696Y-116066116D01*
G37*
G36*
X112471142Y-116419670D02*
X112966116Y-115924696D01*
X113602512Y-116561092D01*
X113107538Y-117056066D01*
X112471142Y-116419670D01*
X112471142Y-116419670D01*
G37*
G36*
X112117589Y-116773223D02*
X112612563Y-116278249D01*
X113248959Y-116914645D01*
X112753985Y-117409619D01*
X112117589Y-116773223D01*
X112117589Y-116773223D01*
G37*
G36*
X113390381Y-118046015D02*
X113885355Y-117551041D01*
X114521751Y-118187437D01*
X114026777Y-118682411D01*
X113390381Y-118046015D01*
X113390381Y-118046015D01*
G37*
G36*
X113743934Y-117692462D02*
X114238908Y-117197488D01*
X114875304Y-117833884D01*
X114380330Y-118328858D01*
X113743934Y-117692462D01*
X113743934Y-117692462D01*
G37*
G36*
X114097488Y-117338908D02*
X114592462Y-116843934D01*
X115228858Y-117480330D01*
X114733884Y-117975304D01*
X114097488Y-117338908D01*
X114097488Y-117338908D01*
G37*
G36*
X114451041Y-116985355D02*
X114946015Y-116490381D01*
X115582411Y-117126777D01*
X115087437Y-117621751D01*
X114451041Y-116985355D01*
X114451041Y-116985355D01*
G37*
G36*
X112570137Y-117197487D02*
X113475233Y-116292391D01*
X114507609Y-117324767D01*
X113602513Y-118229863D01*
X112570137Y-117197487D01*
X112570137Y-117197487D01*
G37*
G36*
X113192391Y-116575233D02*
X114097487Y-115670137D01*
X115129863Y-116702513D01*
X114224767Y-117607609D01*
X113192391Y-116575233D01*
X113192391Y-116575233D01*
G37*
G36*
X82224605Y-114911612D02*
X82878679Y-115565686D01*
X82383705Y-116060660D01*
X81729631Y-115406586D01*
X82224605Y-114911612D01*
X82224605Y-114911612D01*
G37*
G36*
X82295316Y-116149048D02*
X82878679Y-115565685D01*
X83373654Y-116060660D01*
X82790291Y-116644023D01*
X82295316Y-116149048D01*
X82295316Y-116149048D01*
G37*
G36*
X82648870Y-116502602D02*
X83232233Y-115919239D01*
X83727208Y-116414214D01*
X83143845Y-116997577D01*
X82648870Y-116502602D01*
X82648870Y-116502602D01*
G37*
G36*
X83002423Y-116856155D02*
X83585786Y-116272792D01*
X84080761Y-116767767D01*
X83497398Y-117351130D01*
X83002423Y-116856155D01*
X83002423Y-116856155D01*
G37*
G36*
X83355977Y-117209709D02*
X83939340Y-116626346D01*
X84434315Y-117121321D01*
X83850952Y-117704684D01*
X83355977Y-117209709D01*
X83355977Y-117209709D01*
G37*
G36*
X84434314Y-117121321D02*
X85088388Y-117775395D01*
X84593414Y-118270369D01*
X83939340Y-117616295D01*
X84434314Y-117121321D01*
X84434314Y-117121321D01*
G37*
G36*
X84787867Y-116767767D02*
X85441941Y-117421841D01*
X84946967Y-117916815D01*
X84292893Y-117262741D01*
X84787867Y-116767767D01*
X84787867Y-116767767D01*
G37*
G36*
X85141421Y-116414214D02*
X85795495Y-117068288D01*
X85300521Y-117563262D01*
X84646447Y-116909188D01*
X85141421Y-116414214D01*
X85141421Y-116414214D01*
G37*
G36*
X85494974Y-116060660D02*
X86149048Y-116714734D01*
X85654074Y-117209708D01*
X85000000Y-116555634D01*
X85494974Y-116060660D01*
X85494974Y-116060660D01*
G37*
G36*
X85848528Y-115707107D02*
X86502602Y-116361181D01*
X86007628Y-116856155D01*
X85353554Y-116202081D01*
X85848528Y-115707107D01*
X85848528Y-115707107D01*
G37*
G36*
X86202081Y-115353554D02*
X86856155Y-116007628D01*
X86361181Y-116502602D01*
X85707107Y-115848528D01*
X86202081Y-115353554D01*
X86202081Y-115353554D01*
G37*
G36*
X86555634Y-115000000D02*
X87209708Y-115654074D01*
X86714734Y-116149048D01*
X86060660Y-115494974D01*
X86555634Y-115000000D01*
X86555634Y-115000000D01*
G37*
G36*
X86909188Y-114646447D02*
X87563262Y-115300521D01*
X87068288Y-115795495D01*
X86414214Y-115141421D01*
X86909188Y-114646447D01*
X86909188Y-114646447D01*
G37*
G36*
X87262741Y-114292893D02*
X87916815Y-114946967D01*
X87421841Y-115441941D01*
X86767767Y-114787867D01*
X87262741Y-114292893D01*
X87262741Y-114292893D01*
G37*
G36*
X87616295Y-113939340D02*
X88270369Y-114593414D01*
X87775395Y-115088388D01*
X87121321Y-114434314D01*
X87616295Y-113939340D01*
X87616295Y-113939340D01*
G37*
G36*
X86626346Y-113939340D02*
X87209709Y-113355977D01*
X87704684Y-113850952D01*
X87121321Y-114434315D01*
X86626346Y-113939340D01*
X86626346Y-113939340D01*
G37*
G36*
X86272792Y-113585786D02*
X86856155Y-113002423D01*
X87351130Y-113497398D01*
X86767767Y-114080761D01*
X86272792Y-113585786D01*
X86272792Y-113585786D01*
G37*
G36*
X85919239Y-113232233D02*
X86502602Y-112648870D01*
X86997577Y-113143845D01*
X86414214Y-113727208D01*
X85919239Y-113232233D01*
X85919239Y-113232233D01*
G37*
G36*
X85565685Y-112878679D02*
X86149048Y-112295316D01*
X86644023Y-112790291D01*
X86060660Y-113373654D01*
X85565685Y-112878679D01*
X85565685Y-112878679D01*
G37*
G36*
X85406586Y-111729631D02*
X86060660Y-112383705D01*
X85565686Y-112878679D01*
X84911612Y-112224605D01*
X85406586Y-111729631D01*
X85406586Y-111729631D01*
G37*
G36*
X85053033Y-112083185D02*
X85707107Y-112737259D01*
X85212133Y-113232233D01*
X84558059Y-112578159D01*
X85053033Y-112083185D01*
X85053033Y-112083185D01*
G37*
G36*
X84699479Y-112436738D02*
X85353553Y-113090812D01*
X84858579Y-113585786D01*
X84204505Y-112931712D01*
X84699479Y-112436738D01*
X84699479Y-112436738D01*
G37*
G36*
X84345926Y-112790292D02*
X85000000Y-113444366D01*
X84505026Y-113939340D01*
X83850952Y-113285266D01*
X84345926Y-112790292D01*
X84345926Y-112790292D01*
G37*
G36*
X83992372Y-113143845D02*
X84646446Y-113797919D01*
X84151472Y-114292893D01*
X83497398Y-113638819D01*
X83992372Y-113143845D01*
X83992372Y-113143845D01*
G37*
G36*
X83638819Y-113497398D02*
X84292893Y-114151472D01*
X83797919Y-114646446D01*
X83143845Y-113992372D01*
X83638819Y-113497398D01*
X83638819Y-113497398D01*
G37*
G36*
X83285266Y-113850952D02*
X83939340Y-114505026D01*
X83444366Y-115000000D01*
X82790292Y-114345926D01*
X83285266Y-113850952D01*
X83285266Y-113850952D01*
G37*
G36*
X82931712Y-114204505D02*
X83585786Y-114858579D01*
X83090812Y-115353553D01*
X82436738Y-114699479D01*
X82931712Y-114204505D01*
X82931712Y-114204505D01*
G37*
G36*
X82578159Y-114558059D02*
X83232233Y-115212133D01*
X82737259Y-115707107D01*
X82083185Y-115053033D01*
X82578159Y-114558059D01*
X82578159Y-114558059D01*
G37*
G36*
X81074264Y-115289340D02*
X81710660Y-115925736D01*
X81003554Y-116632842D01*
X80367158Y-115996446D01*
X81074264Y-115289340D01*
X81074264Y-115289340D01*
G37*
G36*
X80296446Y-116067158D02*
X80932842Y-116703554D01*
X80225736Y-117410660D01*
X79589340Y-116774264D01*
X80296446Y-116067158D01*
X80296446Y-116067158D01*
G37*
G36*
X81624264Y-115839340D02*
X82260660Y-116475736D01*
X81553554Y-117182842D01*
X80917158Y-116546446D01*
X81624264Y-115839340D01*
X81624264Y-115839340D01*
G37*
G36*
X80846446Y-116617158D02*
X81482842Y-117253554D01*
X80775736Y-117960660D01*
X80139340Y-117324264D01*
X80846446Y-116617158D01*
X80846446Y-116617158D01*
G37*
G36*
X81325736Y-118510660D02*
X80689340Y-117874264D01*
X81396446Y-117167158D01*
X82032842Y-117803554D01*
X81325736Y-118510660D01*
X81325736Y-118510660D01*
G37*
G36*
X82103554Y-117732842D02*
X81467158Y-117096446D01*
X82174264Y-116389340D01*
X82810660Y-117025736D01*
X82103554Y-117732842D01*
X82103554Y-117732842D01*
G37*
G36*
X86025736Y-118310660D02*
X85389340Y-117674264D01*
X86096446Y-116967158D01*
X86732842Y-117603554D01*
X86025736Y-118310660D01*
X86025736Y-118310660D01*
G37*
G36*
X86803554Y-117532842D02*
X86167158Y-116896446D01*
X86874264Y-116189340D01*
X87510660Y-116825736D01*
X86803554Y-117532842D01*
X86803554Y-117532842D01*
G37*
G36*
X79739340Y-114175736D02*
X80375736Y-113539340D01*
X81082842Y-114246446D01*
X80446446Y-114882842D01*
X79739340Y-114175736D01*
X79739340Y-114175736D01*
G37*
G36*
X80517158Y-114953554D02*
X81153554Y-114317158D01*
X81860660Y-115024264D01*
X81224264Y-115660660D01*
X80517158Y-114953554D01*
X80517158Y-114953554D01*
G37*
G36*
X88525494Y-115193638D02*
X89706362Y-116374506D01*
X88974506Y-117106362D01*
X87793638Y-115925494D01*
X88525494Y-115193638D01*
X88525494Y-115193638D01*
G37*
G36*
X89100230Y-114618902D02*
X90281098Y-115799770D01*
X89549242Y-116531626D01*
X88368374Y-115350758D01*
X89100230Y-114618902D01*
X89100230Y-114618902D01*
G37*
G36*
X87950758Y-115768374D02*
X89131626Y-116949242D01*
X88399770Y-117681098D01*
X87218902Y-116500230D01*
X87950758Y-115768374D01*
X87950758Y-115768374D01*
G37*
G36*
X82289340Y-111875736D02*
X82925736Y-111239340D01*
X83632842Y-111946446D01*
X82996446Y-112582842D01*
X82289340Y-111875736D01*
X82289340Y-111875736D01*
G37*
G36*
X83067158Y-112653554D02*
X83703554Y-112017158D01*
X84410660Y-112724264D01*
X83774264Y-113360660D01*
X83067158Y-112653554D01*
X83067158Y-112653554D01*
G37*
G36*
X82202513Y-119104594D02*
X81495406Y-118397487D01*
X82061091Y-117831802D01*
X82768198Y-118538909D01*
X82202513Y-119104594D01*
X82202513Y-119104594D01*
G37*
G36*
X82838909Y-118468198D02*
X82131802Y-117761091D01*
X82697487Y-117195406D01*
X83404594Y-117902513D01*
X82838909Y-118468198D01*
X82838909Y-118468198D01*
G37*
G36*
X82852513Y-119754594D02*
X82145406Y-119047487D01*
X82711091Y-118481802D01*
X83418198Y-119188909D01*
X82852513Y-119754594D01*
X82852513Y-119754594D01*
G37*
G36*
X83488909Y-119118198D02*
X82781802Y-118411091D01*
X83347487Y-117845406D01*
X84054594Y-118552513D01*
X83488909Y-119118198D01*
X83488909Y-119118198D01*
G37*
G36*
X87447487Y-116745406D02*
X88154594Y-117452513D01*
X87588909Y-118018198D01*
X86881802Y-117311091D01*
X87447487Y-116745406D01*
X87447487Y-116745406D01*
G37*
G36*
X86811091Y-117381802D02*
X87518198Y-118088909D01*
X86952513Y-118654594D01*
X86245406Y-117947487D01*
X86811091Y-117381802D01*
X86811091Y-117381802D01*
G37*
G36*
X90754594Y-114897487D02*
X90047487Y-115604594D01*
X89481802Y-115038909D01*
X90188909Y-114331802D01*
X90754594Y-114897487D01*
X90754594Y-114897487D01*
G37*
G36*
X90118198Y-114261091D02*
X89411091Y-114968198D01*
X88845406Y-114402513D01*
X89552513Y-113695406D01*
X90118198Y-114261091D01*
X90118198Y-114261091D01*
G37*
G36*
X81867158Y-115005635D02*
X80594365Y-113732842D01*
X81407538Y-112919669D01*
X82680331Y-114192462D01*
X81867158Y-115005635D01*
X81867158Y-115005635D01*
G37*
G36*
X82892462Y-113980331D02*
X81619669Y-112707538D01*
X82432842Y-111894365D01*
X83705635Y-113167158D01*
X82892462Y-113980331D01*
X82892462Y-113980331D01*
G37*
G36*
X88826777Y-112728859D02*
X88048960Y-113506676D01*
X87553985Y-113011701D01*
X88331802Y-112233884D01*
X88826777Y-112728859D01*
X88826777Y-112728859D01*
G37*
G36*
X89180330Y-113082412D02*
X88402513Y-113860229D01*
X87907538Y-113365254D01*
X88685355Y-112587437D01*
X89180330Y-113082412D01*
X89180330Y-113082412D01*
G37*
G36*
X88473223Y-112375305D02*
X87695406Y-113153122D01*
X87200431Y-112658147D01*
X87978248Y-111880330D01*
X88473223Y-112375305D01*
X88473223Y-112375305D01*
G37*
G36*
X88119670Y-112021752D02*
X87341853Y-112799569D01*
X86846878Y-112304594D01*
X87624695Y-111526777D01*
X88119670Y-112021752D01*
X88119670Y-112021752D01*
G37*
G36*
X88833848Y-108776132D02*
X87843899Y-109766081D01*
X87348924Y-109271106D01*
X88338873Y-108281157D01*
X88833848Y-108776132D01*
X88833848Y-108776132D01*
G37*
G36*
X91718843Y-111661127D02*
X90728894Y-112651076D01*
X90233919Y-112156101D01*
X91223868Y-111166152D01*
X91718843Y-111661127D01*
X91718843Y-111661127D01*
G37*
G36*
X87766116Y-111668198D02*
X86988299Y-112446015D01*
X86493324Y-111951040D01*
X87271141Y-111173223D01*
X87766116Y-111668198D01*
X87766116Y-111668198D01*
G37*
G36*
X87412563Y-111314645D02*
X86634746Y-112092462D01*
X86139771Y-111597487D01*
X86917588Y-110819670D01*
X87412563Y-111314645D01*
X87412563Y-111314645D01*
G37*
M02*
