(export (version D)
  (design
    (source /Users/dcellucci/gitlab/Sticker-Sensor/Skin-Sensor/V3_Connector_Adapter_FFC_DIP2/V3_Connector_Adapter_FFC_DIP2.sch)
    (date "Saturday, July 22, 2017 'AMt' 11:58:06 AM")
    (tool "Eeschema 4.0.4-stable")
    (sheet (number 1) (name /) (tstamps /)
      (title_block
        (title)
        (company)
        (rev)
        (date)
        (source V3_Connector_Adapter_FFC_DIP2.sch)
        (comment (number 1) (value ""))
        (comment (number 2) (value ""))
        (comment (number 3) (value ""))
        (comment (number 4) (value "")))))
  (components
    (comp (ref P1)
      (value CONN_02X05)
      (footprint _CSL:FFC_DIP_ADAPTER)
      (libsource (lib conn) (part CONN_02X05))
      (sheetpath (names /) (tstamps /))
      (tstamp 59739307))
    (comp (ref P2)
      (value CONN_02X05)
      (footprint Pin_Headers:Pin_Header_Straight_2x05_Pitch2.54mm)
      (libsource (lib conn) (part CONN_02X05))
      (sheetpath (names /) (tstamps /))
      (tstamp 59739334))
    (comp (ref P3)
      (value CONN_02X05)
      (footprint Pin_Headers:Pin_Header_Straight_2x05_Pitch2.54mm)
      (libsource (lib conn) (part CONN_02X05))
      (sheetpath (names /) (tstamps /))
      (tstamp 59739D44))
    (comp (ref R1)
      (value RES)
      (footprint _Fab_Footprint:CAP_1206_FAB)
      (libsource (lib Fab) (part RES))
      (sheetpath (names /) (tstamps /))
      (tstamp 5973A202)))
  (libparts
    (libpart (lib conn) (part CONN_02X05)
      (footprints
        (fp Pin_Header_Straight_2X05)
        (fp Pin_Header_Angled_2X05)
        (fp Socket_Strip_Straight_2X05)
        (fp Socket_Strip_Angled_2X05))
      (fields
        (field (name Reference) P)
        (field (name Value) CONN_02X05))
      (pins
        (pin (num 1) (name P1) (type passive))
        (pin (num 2) (name P2) (type passive))
        (pin (num 3) (name P3) (type passive))
        (pin (num 4) (name P4) (type passive))
        (pin (num 5) (name P5) (type passive))
        (pin (num 6) (name P6) (type passive))
        (pin (num 7) (name P7) (type passive))
        (pin (num 8) (name P8) (type passive))
        (pin (num 9) (name P9) (type passive))
        (pin (num 10) (name P10) (type passive))))
    (libpart (lib Fab) (part RES)
      (fields
        (field (name Reference) R)
        (field (name Value) RES))
      (pins
        (pin (num 1) (name ~) (type input))
        (pin (num 2) (name ~) (type input)))))
  (libraries
    (library (logical Fab)
      (uri /Users/dcellucci/gitlab/CSL-Part-Library/KICAD/Components/Fab.lib))
    (library (logical conn)
      (uri "/Users/dcellucci/Library/Application Support/kicad/library/conn.lib")))
  (nets
    (net (code 1) (name RX)
      (node (ref P2) (pin 8))
      (node (ref P2) (pin 7))
      (node (ref P1) (pin 4))
      (node (ref P3) (pin 7)))
    (net (code 2) (name RTS)
      (node (ref R1) (pin 2))
      (node (ref R1) (pin 1))
      (node (ref P1) (pin 6))
      (node (ref P2) (pin 6))
      (node (ref P3) (pin 5)))
    (net (code 3) (name TX)
      (node (ref P1) (pin 5))
      (node (ref P2) (pin 4))
      (node (ref P3) (pin 3))
      (node (ref P2) (pin 3)))
    (net (code 4) (name CTS)
      (node (ref P2) (pin 5))
      (node (ref P1) (pin 3)))
    (net (code 5) (name +12V)
      (node (ref P2) (pin 1))
      (node (ref P1) (pin 7))
      (node (ref P2) (pin 10))
      (node (ref P1) (pin 2))
      (node (ref P3) (pin 9)))
    (net (code 6) (name GND)
      (node (ref P3) (pin 1))
      (node (ref P3) (pin 2))
      (node (ref P3) (pin 4))
      (node (ref P3) (pin 6))
      (node (ref P3) (pin 8))
      (node (ref P3) (pin 10))
      (node (ref P2) (pin 9))
      (node (ref P2) (pin 2))
      (node (ref P1) (pin 8))
      (node (ref P1) (pin 1)))
    (net (code 7) (name "Net-(P1-Pad10)")
      (node (ref P1) (pin 10)))
    (net (code 8) (name "Net-(P1-Pad9)")
      (node (ref P1) (pin 9)))))