EESchema Schematic File Version 2
LIBS:power
LIBS:device
LIBS:transistors
LIBS:conn
LIBS:linear
LIBS:regul
LIBS:74xx
LIBS:cmos4000
LIBS:adc-dac
LIBS:memory
LIBS:xilinx
LIBS:microcontrollers
LIBS:dsp
LIBS:microchip
LIBS:analog_switches
LIBS:motorola
LIBS:texas
LIBS:intel
LIBS:audio
LIBS:interface
LIBS:digital-audio
LIBS:philips
LIBS:display
LIBS:cypress
LIBS:siliconi
LIBS:opto
LIBS:atmel
LIBS:contrib
LIBS:valves
LIBS:CSL_Opto
LIBS:CSL_uP
LIBS:CSL_Power
LIBS:CSL_Sensors
LIBS:CSL_Conn
LIBS:Fab
EELAYER 25 0
EELAYER END
$Descr A4 11693 8268
encoding utf-8
Sheet 1 1
Title ""
Date ""
Rev ""
Comp ""
Comment1 ""
Comment2 ""
Comment3 ""
Comment4 ""
$EndDescr
$Comp
L CONN_02X05 P1
U 1 1 59739307
P 3550 3100
F 0 "P1" H 3550 3400 50  0000 C CNN
F 1 "CONN_02X05" H 3550 2800 50  0000 C CNN
F 2 "_CSL:FFC_DIP_ADAPTER" H 3550 1900 60  0001 C CNN
F 3 "" H 3550 1900 60  0000 C CNN
	1    3550 3100
	1    0    0    -1  
$EndComp
$Comp
L CONN_02X05 P2
U 1 1 59739334
P 4900 3100
F 0 "P2" H 4900 3400 50  0000 C CNN
F 1 "CONN_02X05" H 4900 2800 50  0000 C CNN
F 2 "Pin_Headers:Pin_Header_Straight_2x05_Pitch2.54mm" H 4900 1900 60  0001 C CNN
F 3 "" H 4900 1900 60  0000 C CNN
	1    4900 3100
	1    0    0    -1  
$EndComp
Text Notes 4550 2650 0    60   ~ 0
RIBBON CABLE
Text Notes 5800 2650 0    60   ~ 0
Test Points
Text Notes 3400 2600 0    60   ~ 0
Adapter
$Comp
L GND #PWR01
U 1 1 597397FC
P 3950 3350
F 0 "#PWR01" H 3950 3100 60  0001 C CNN
F 1 "GND" H 3950 3200 60  0000 C CNN
F 2 "" H 3950 3350 60  0000 C CNN
F 3 "" H 3950 3350 60  0000 C CNN
	1    3950 3350
	1    0    0    -1  
$EndComp
Wire Wire Line
	3800 3200 3950 3200
Wire Wire Line
	3950 3200 3950 3350
$Comp
L GND #PWR02
U 1 1 5973984C
P 3250 2850
F 0 "#PWR02" H 3250 2600 60  0001 C CNN
F 1 "GND" H 3250 2700 60  0000 C CNN
F 2 "" H 3250 2850 60  0000 C CNN
F 3 "" H 3250 2850 60  0000 C CNN
	1    3250 2850
	-1   0    0    1   
$EndComp
Wire Wire Line
	3250 2850 3250 2900
Wire Wire Line
	3250 2900 3300 2900
$Comp
L +12V #PWR03
U 1 1 5973988B
P 3850 2850
F 0 "#PWR03" H 3850 2700 60  0001 C CNN
F 1 "+12V" H 3850 2990 60  0000 C CNN
F 2 "" H 3850 2850 60  0000 C CNN
F 3 "" H 3850 2850 60  0000 C CNN
	1    3850 2850
	1    0    0    -1  
$EndComp
Wire Wire Line
	3800 2900 3850 2900
Wire Wire Line
	3850 2900 3850 2850
$Comp
L +12V #PWR04
U 1 1 597398D0
P 2800 2850
F 0 "#PWR04" H 2800 2700 60  0001 C CNN
F 1 "+12V" H 2800 2990 60  0000 C CNN
F 2 "" H 2800 2850 60  0000 C CNN
F 3 "" H 2800 2850 60  0000 C CNN
	1    2800 2850
	1    0    0    -1  
$EndComp
Wire Wire Line
	3300 3200 2800 3200
Wire Wire Line
	2800 3200 2800 2850
Text GLabel 3250 3000 0    60   Input ~ 0
CTS
Text GLabel 3250 3100 0    60   Input ~ 0
TX
Wire Wire Line
	3300 3000 3250 3000
Wire Wire Line
	3300 3100 3250 3100
Text GLabel 3850 3000 2    60   Input ~ 0
RX
Text GLabel 3850 3100 2    60   Input ~ 0
RTS
Wire Wire Line
	3800 3100 3850 3100
Wire Wire Line
	3800 3000 3850 3000
Text GLabel 4600 3100 0    60   Input ~ 0
CTS
Text GLabel 5200 3100 2    60   Input ~ 0
RTS
Text GLabel 4600 3000 0    60   Input ~ 0
TX
Text GLabel 5200 3000 2    60   Input ~ 0
TX
Text GLabel 4600 3200 0    60   Input ~ 0
RX
Text GLabel 5200 3200 2    60   Input ~ 0
RX
$Comp
L GND #PWR05
U 1 1 59739A91
P 5200 2850
F 0 "#PWR05" H 5200 2600 60  0001 C CNN
F 1 "GND" H 5200 2700 60  0000 C CNN
F 2 "" H 5200 2850 60  0000 C CNN
F 3 "" H 5200 2850 60  0000 C CNN
	1    5200 2850
	-1   0    0    1   
$EndComp
Wire Wire Line
	5150 3300 5200 3300
Wire Wire Line
	5200 3300 5200 3350
$Comp
L GND #PWR06
U 1 1 59739ADE
P 4600 3350
F 0 "#PWR06" H 4600 3100 60  0001 C CNN
F 1 "GND" H 4600 3200 60  0000 C CNN
F 2 "" H 4600 3350 60  0000 C CNN
F 3 "" H 4600 3350 60  0000 C CNN
	1    4600 3350
	1    0    0    -1  
$EndComp
Wire Wire Line
	4650 3300 4600 3300
Wire Wire Line
	4600 3300 4600 3350
$Comp
L +12V #PWR07
U 1 1 59739B32
P 5200 3350
F 0 "#PWR07" H 5200 3200 60  0001 C CNN
F 1 "+12V" H 5200 3490 60  0000 C CNN
F 2 "" H 5200 3350 60  0000 C CNN
F 3 "" H 5200 3350 60  0000 C CNN
	1    5200 3350
	1    0    0    1   
$EndComp
Wire Wire Line
	5150 2900 5200 2900
Wire Wire Line
	5200 2900 5200 2850
$Comp
L +12V #PWR08
U 1 1 59739B79
P 4600 2850
F 0 "#PWR08" H 4600 2700 60  0001 C CNN
F 1 "+12V" H 4600 2990 60  0000 C CNN
F 2 "" H 4600 2850 60  0000 C CNN
F 3 "" H 4600 2850 60  0000 C CNN
	1    4600 2850
	1    0    0    -1  
$EndComp
Wire Wire Line
	4650 2900 4600 2900
Wire Wire Line
	4600 2900 4600 2850
Wire Wire Line
	5150 3000 5200 3000
Wire Wire Line
	4600 3000 4650 3000
Wire Wire Line
	4600 3100 4650 3100
Wire Wire Line
	5150 3100 5200 3100
Wire Wire Line
	5150 3200 5200 3200
Wire Wire Line
	4600 3200 4650 3200
$Comp
L CONN_02X05 P3
U 1 1 59739D44
P 6050 3100
F 0 "P3" H 6050 3400 50  0000 C CNN
F 1 "CONN_02X05" H 6050 2800 50  0000 C CNN
F 2 "Pin_Headers:Pin_Header_Straight_2x05_Pitch2.54mm" H 6050 1900 60  0001 C CNN
F 3 "" H 6050 1900 60  0000 C CNN
	1    6050 3100
	1    0    0    -1  
$EndComp
Text GLabel 5750 3100 0    60   Input ~ 0
RTS
Text GLabel 5750 3000 0    60   Input ~ 0
TX
Text GLabel 5750 3200 0    60   Input ~ 0
RX
$Comp
L GND #PWR09
U 1 1 59739D50
P 6350 3350
F 0 "#PWR09" H 6350 3100 60  0001 C CNN
F 1 "GND" H 6350 3200 60  0000 C CNN
F 2 "" H 6350 3350 60  0000 C CNN
F 3 "" H 6350 3350 60  0000 C CNN
	1    6350 3350
	1    0    0    -1  
$EndComp
Wire Wire Line
	6350 3300 6300 3300
Wire Wire Line
	6300 2900 6350 2900
$Comp
L +12V #PWR010
U 1 1 59739D68
P 5750 3350
F 0 "#PWR010" H 5750 3200 60  0001 C CNN
F 1 "+12V" H 5750 3490 60  0000 C CNN
F 2 "" H 5750 3350 60  0000 C CNN
F 3 "" H 5750 3350 60  0000 C CNN
	1    5750 3350
	-1   0    0    1   
$EndComp
Wire Wire Line
	5800 2900 5750 2900
Wire Wire Line
	5750 2900 5750 2850
Wire Wire Line
	6300 3000 6350 3000
Wire Wire Line
	5750 3000 5800 3000
Wire Wire Line
	5750 3100 5800 3100
Wire Wire Line
	6350 3100 6300 3100
Wire Wire Line
	6350 3200 6300 3200
Wire Wire Line
	5750 3200 5800 3200
Wire Wire Line
	5750 3300 5800 3300
Connection ~ 6350 3300
Connection ~ 6350 3200
Connection ~ 6350 3100
Connection ~ 6350 2900
Connection ~ 6350 3000
Wire Wire Line
	6350 2900 6350 3350
$Comp
L RES R1
U 1 1 5973A202
P 5950 3800
F 0 "R1" H 6000 3725 20  0000 C CNN
F 1 "RES" V 5950 3800 20  0000 C CNN
F 2 "_Fab_Footprint:CAP_1206_FAB" H 5950 3800 60  0001 C CNN
F 3 "" H 5950 3800 60  0001 C CNN
	1    5950 3800
	0    1    1    0   
$EndComp
Text GLabel 6100 3800 2    60   Input ~ 0
RTS
Text GLabel 5800 3800 0    60   Input ~ 0
RTS
Wire Wire Line
	5850 3800 5800 3800
Wire Wire Line
	6100 3800 6050 3800
Wire Wire Line
	5750 3300 5750 3350
$Comp
L GND #PWR011
U 1 1 5973A466
P 5750 2850
F 0 "#PWR011" H 5750 2600 60  0001 C CNN
F 1 "GND" H 5750 2700 60  0000 C CNN
F 2 "" H 5750 2850 60  0000 C CNN
F 3 "" H 5750 2850 60  0000 C CNN
	1    5750 2850
	-1   0    0    1   
$EndComp
$EndSCHEMATC
