(kicad_pcb (version 4) (host pcbnew 4.0.4-stable)

  (general
    (links 24)
    (no_connects 15)
    (area 86.924999 74.486666 111.985001 107.485001)
    (thickness 1.6)
    (drawings 4)
    (tracks 50)
    (zones 0)
    (modules 5)
    (nets 9)
  )

  (page A4)
  (layers
    (0 F.Cu signal)
    (31 B.Cu signal)
    (32 B.Adhes user)
    (33 F.Adhes user)
    (34 B.Paste user)
    (35 F.Paste user)
    (36 B.SilkS user)
    (37 F.SilkS user)
    (38 B.Mask user)
    (39 F.Mask user)
    (40 Dwgs.User user)
    (41 Cmts.User user)
    (42 Eco1.User user)
    (43 Eco2.User user)
    (44 Edge.Cuts user)
    (45 Margin user)
    (46 B.CrtYd user)
    (47 F.CrtYd user)
    (48 B.Fab user)
    (49 F.Fab user)
  )

  (setup
    (last_trace_width 0.8)
    (user_trace_width 0.45)
    (user_trace_width 0.8)
    (user_trace_width 1.2)
    (trace_clearance 0.41)
    (zone_clearance 0.508)
    (zone_45_only no)
    (trace_min 0.2)
    (segment_width 0.2)
    (edge_width 0.15)
    (via_size 0.6)
    (via_drill 0.4)
    (via_min_size 0.4)
    (via_min_drill 0.3)
    (uvia_size 0.3)
    (uvia_drill 0.1)
    (uvias_allowed no)
    (uvia_min_size 0.2)
    (uvia_min_drill 0.1)
    (pcb_text_width 0.3)
    (pcb_text_size 1.5 1.5)
    (mod_edge_width 0.15)
    (mod_text_size 1 1)
    (mod_text_width 0.15)
    (pad_size 1.524 1.524)
    (pad_drill 0.762)
    (pad_to_mask_clearance 0.2)
    (aux_axis_origin 0 0)
    (visible_elements FFFFDF7F)
    (pcbplotparams
      (layerselection 0x00000_00000001)
      (usegerberextensions false)
      (excludeedgelayer false)
      (linewidth 0.100000)
      (plotframeref false)
      (viasonmask false)
      (mode 1)
      (useauxorigin false)
      (hpglpennumber 1)
      (hpglpenspeed 20)
      (hpglpendiameter 15)
      (hpglpenoverlay 2)
      (psnegative false)
      (psa4output false)
      (plotreference false)
      (plotvalue false)
      (plotinvisibletext false)
      (padsonsilk false)
      (subtractmaskfromsilk false)
      (outputformat 4)
      (mirror false)
      (drillshape 2)
      (scaleselection 1)
      (outputdirectory CAM/))
  )

  (net 0 "")
  (net 1 GND)
  (net 2 CTS)
  (net 3 TX)
  (net 4 +12V)
  (net 5 "Net-(P1-Pad9)")
  (net 6 "Net-(P1-Pad10)")
  (net 7 RX)
  (net 8 RTS)

  (net_class Default "This is the default net class."
    (clearance 0.41)
    (trace_width 0.41)
    (via_dia 0.6)
    (via_drill 0.4)
    (uvia_dia 0.3)
    (uvia_drill 0.1)
    (add_net +12V)
    (add_net CTS)
    (add_net GND)
    (add_net "Net-(P1-Pad10)")
    (add_net "Net-(P1-Pad9)")
    (add_net RTS)
    (add_net RX)
    (add_net TX)
  )

  (module _Fab_Footprint:CAP_1206_FAB (layer F.Cu) (tedit 58606E9C) (tstamp 5973A126)
    (at 97.651 84)
    (path /5973A202)
    (fp_text reference R1 (at 0 0 90) (layer F.Fab)
      (effects (font (size 0.5 0.5) (thickness 0.125)))
    )
    (fp_text value RES (at 0 -1.5) (layer F.Fab)
      (effects (font (size 0.5 0.5) (thickness 0.125)))
    )
    (pad 2 smd rect (at 1.651 0) (size 1.27 1.905) (layers F.Cu F.Paste F.Mask)
      (net 8 RTS))
    (pad 1 smd rect (at -1.651 0) (size 1.27 1.905) (layers F.Cu F.Paste F.Mask)
      (net 8 RTS))
  )

  (module _CSL:FFC_DIP_ADAPTER (layer B.Cu) (tedit 59739502) (tstamp 597399A0)
    (at 100 100)
    (path /59739307)
    (fp_text reference P1 (at 1.27 0 270) (layer B.SilkS)
      (effects (font (size 0.5 0.5) (thickness 0.125)) (justify mirror))
    )
    (fp_text value CONN_02X05 (at -1.270001 0 180) (layer B.Fab)
      (effects (font (size 0.5 0.5) (thickness 0.125)) (justify mirror))
    )
    (fp_line (start 11.5 7) (end 11.5 -7) (layer B.SilkS) (width 0.15))
    (fp_line (start -11.5 7) (end 11.5 7) (layer B.SilkS) (width 0.15))
    (fp_line (start 11.5 -7) (end -11.5 -7) (layer B.SilkS) (width 0.15))
    (fp_line (start -11.5 -7) (end -11.5 7) (layer B.SilkS) (width 0.15))
    (pad 1 thru_hole circle (at 3.81 5.08) (size 1.8 1.8) (drill 0.9) (layers *.Cu *.Mask)
      (net 1 GND))
    (pad 3 thru_hole circle (at 3.81 2.54) (size 1.8 1.8) (drill 0.9) (layers *.Cu *.Mask)
      (net 2 CTS))
    (pad 5 thru_hole circle (at 3.81 0) (size 1.8 1.8) (drill 0.9) (layers *.Cu *.Mask)
      (net 3 TX))
    (pad 7 thru_hole circle (at 3.81 -2.54) (size 1.8 1.8) (drill 0.9) (layers *.Cu *.Mask)
      (net 4 +12V))
    (pad 9 thru_hole circle (at 3.81 -5.08) (size 1.8 1.8) (drill 0.9) (layers *.Cu *.Mask)
      (net 5 "Net-(P1-Pad9)"))
    (pad 2 thru_hole circle (at -3.81 5.08) (size 1.8 1.8) (drill 0.9) (layers *.Cu *.Mask)
      (net 4 +12V))
    (pad 10 thru_hole circle (at -3.81 -5.08) (size 1.8 1.8) (drill 0.9) (layers *.Cu *.Mask)
      (net 6 "Net-(P1-Pad10)"))
    (pad 8 thru_hole circle (at -3.81 -2.54) (size 1.8 1.8) (drill 0.9) (layers *.Cu *.Mask)
      (net 1 GND))
    (pad 4 thru_hole circle (at -3.81 2.54) (size 1.8 1.8) (drill 0.9) (layers *.Cu *.Mask)
      (net 7 RX))
    (pad 6 thru_hole circle (at -3.81 0) (size 1.8 1.8) (drill 0.9) (layers *.Cu *.Mask)
      (net 8 RTS))
  )

  (module Pin_Headers:Pin_Header_Straight_2x05_Pitch2.54mm (layer B.Cu) (tedit 59650532) (tstamp 597399C0)
    (at 105.08 89.54 90)
    (descr "Through hole straight pin header, 2x05, 2.54mm pitch, double rows")
    (tags "Through hole pin header THT 2x05 2.54mm double row")
    (path /59739334)
    (fp_text reference P2 (at 1.27 2.33 90) (layer B.SilkS)
      (effects (font (size 1 1) (thickness 0.15)) (justify mirror))
    )
    (fp_text value CONN_02X05 (at 1.27 -12.49 90) (layer B.Fab)
      (effects (font (size 1 1) (thickness 0.15)) (justify mirror))
    )
    (fp_line (start 0 1.27) (end 3.81 1.27) (layer B.Fab) (width 0.1))
    (fp_line (start 3.81 1.27) (end 3.81 -11.43) (layer B.Fab) (width 0.1))
    (fp_line (start 3.81 -11.43) (end -1.27 -11.43) (layer B.Fab) (width 0.1))
    (fp_line (start -1.27 -11.43) (end -1.27 0) (layer B.Fab) (width 0.1))
    (fp_line (start -1.27 0) (end 0 1.27) (layer B.Fab) (width 0.1))
    (fp_line (start -1.33 -11.49) (end 3.87 -11.49) (layer B.SilkS) (width 0.12))
    (fp_line (start -1.33 -1.27) (end -1.33 -11.49) (layer B.SilkS) (width 0.12))
    (fp_line (start 3.87 1.33) (end 3.87 -11.49) (layer B.SilkS) (width 0.12))
    (fp_line (start -1.33 -1.27) (end 1.27 -1.27) (layer B.SilkS) (width 0.12))
    (fp_line (start 1.27 -1.27) (end 1.27 1.33) (layer B.SilkS) (width 0.12))
    (fp_line (start 1.27 1.33) (end 3.87 1.33) (layer B.SilkS) (width 0.12))
    (fp_line (start -1.33 0) (end -1.33 1.33) (layer B.SilkS) (width 0.12))
    (fp_line (start -1.33 1.33) (end 0 1.33) (layer B.SilkS) (width 0.12))
    (fp_line (start -1.8 1.8) (end -1.8 -11.95) (layer B.CrtYd) (width 0.05))
    (fp_line (start -1.8 -11.95) (end 4.35 -11.95) (layer B.CrtYd) (width 0.05))
    (fp_line (start 4.35 -11.95) (end 4.35 1.8) (layer B.CrtYd) (width 0.05))
    (fp_line (start 4.35 1.8) (end -1.8 1.8) (layer B.CrtYd) (width 0.05))
    (fp_text user %R (at 1.27 -5.08 315) (layer B.Fab)
      (effects (font (size 1 1) (thickness 0.15)) (justify mirror))
    )
    (pad 1 thru_hole rect (at 0 0 90) (size 1.7 1.7) (drill 1) (layers *.Cu *.Mask)
      (net 4 +12V))
    (pad 2 thru_hole oval (at 2.54 0 90) (size 1.7 1.7) (drill 1) (layers *.Cu *.Mask)
      (net 1 GND))
    (pad 3 thru_hole oval (at 0 -2.54 90) (size 1.7 1.7) (drill 1) (layers *.Cu *.Mask)
      (net 3 TX))
    (pad 4 thru_hole oval (at 2.54 -2.54 90) (size 1.7 1.7) (drill 1) (layers *.Cu *.Mask)
      (net 3 TX))
    (pad 5 thru_hole oval (at 0 -5.08 90) (size 1.7 1.7) (drill 1) (layers *.Cu *.Mask)
      (net 2 CTS))
    (pad 6 thru_hole oval (at 2.54 -5.08 90) (size 1.7 1.7) (drill 1) (layers *.Cu *.Mask)
      (net 8 RTS))
    (pad 7 thru_hole oval (at 0 -7.62 90) (size 1.7 1.7) (drill 1) (layers *.Cu *.Mask)
      (net 7 RX))
    (pad 8 thru_hole oval (at 2.54 -7.62 90) (size 1.7 1.7) (drill 1) (layers *.Cu *.Mask)
      (net 7 RX))
    (pad 9 thru_hole oval (at 0 -10.16 90) (size 1.7 1.7) (drill 1) (layers *.Cu *.Mask)
      (net 1 GND))
    (pad 10 thru_hole oval (at 2.54 -10.16 90) (size 1.7 1.7) (drill 1) (layers *.Cu *.Mask)
      (net 4 +12V))
    (model ${KISYS3DMOD}/Pin_Headers.3dshapes/Pin_Header_Straight_2x05_Pitch2.54mm.wrl
      (at (xyz 0 0 0))
      (scale (xyz 1 1 1))
      (rotate (xyz 0 0 0))
    )
  )

  (module Pin_Headers:Pin_Header_Straight_2x05_Pitch2.54mm (layer B.Cu) (tedit 59650532) (tstamp 597399E0)
    (at 105.08 81 90)
    (descr "Through hole straight pin header, 2x05, 2.54mm pitch, double rows")
    (tags "Through hole pin header THT 2x05 2.54mm double row")
    (path /59739D44)
    (fp_text reference P3 (at 1.27 2.33 90) (layer B.SilkS)
      (effects (font (size 1 1) (thickness 0.15)) (justify mirror))
    )
    (fp_text value CONN_02X05 (at 1.27 -12.49 90) (layer B.Fab)
      (effects (font (size 1 1) (thickness 0.15)) (justify mirror))
    )
    (fp_line (start 0 1.27) (end 3.81 1.27) (layer B.Fab) (width 0.1))
    (fp_line (start 3.81 1.27) (end 3.81 -11.43) (layer B.Fab) (width 0.1))
    (fp_line (start 3.81 -11.43) (end -1.27 -11.43) (layer B.Fab) (width 0.1))
    (fp_line (start -1.27 -11.43) (end -1.27 0) (layer B.Fab) (width 0.1))
    (fp_line (start -1.27 0) (end 0 1.27) (layer B.Fab) (width 0.1))
    (fp_line (start -1.33 -11.49) (end 3.87 -11.49) (layer B.SilkS) (width 0.12))
    (fp_line (start -1.33 -1.27) (end -1.33 -11.49) (layer B.SilkS) (width 0.12))
    (fp_line (start 3.87 1.33) (end 3.87 -11.49) (layer B.SilkS) (width 0.12))
    (fp_line (start -1.33 -1.27) (end 1.27 -1.27) (layer B.SilkS) (width 0.12))
    (fp_line (start 1.27 -1.27) (end 1.27 1.33) (layer B.SilkS) (width 0.12))
    (fp_line (start 1.27 1.33) (end 3.87 1.33) (layer B.SilkS) (width 0.12))
    (fp_line (start -1.33 0) (end -1.33 1.33) (layer B.SilkS) (width 0.12))
    (fp_line (start -1.33 1.33) (end 0 1.33) (layer B.SilkS) (width 0.12))
    (fp_line (start -1.8 1.8) (end -1.8 -11.95) (layer B.CrtYd) (width 0.05))
    (fp_line (start -1.8 -11.95) (end 4.35 -11.95) (layer B.CrtYd) (width 0.05))
    (fp_line (start 4.35 -11.95) (end 4.35 1.8) (layer B.CrtYd) (width 0.05))
    (fp_line (start 4.35 1.8) (end -1.8 1.8) (layer B.CrtYd) (width 0.05))
    (fp_text user %R (at 1.27 -5.08 360) (layer B.Fab)
      (effects (font (size 1 1) (thickness 0.15)) (justify mirror))
    )
    (pad 1 thru_hole rect (at 0 0 90) (size 1.7 1.7) (drill 1) (layers *.Cu *.Mask)
      (net 1 GND))
    (pad 2 thru_hole oval (at 2.54 0 90) (size 1.7 1.7) (drill 1) (layers *.Cu *.Mask)
      (net 1 GND))
    (pad 3 thru_hole oval (at 0 -2.54 90) (size 1.7 1.7) (drill 1) (layers *.Cu *.Mask)
      (net 3 TX))
    (pad 4 thru_hole oval (at 2.54 -2.54 90) (size 1.7 1.7) (drill 1) (layers *.Cu *.Mask)
      (net 1 GND))
    (pad 5 thru_hole oval (at 0 -5.08 90) (size 1.7 1.7) (drill 1) (layers *.Cu *.Mask)
      (net 8 RTS))
    (pad 6 thru_hole oval (at 2.54 -5.08 90) (size 1.7 1.7) (drill 1) (layers *.Cu *.Mask)
      (net 1 GND))
    (pad 7 thru_hole oval (at 0 -7.62 90) (size 1.7 1.7) (drill 1) (layers *.Cu *.Mask)
      (net 7 RX))
    (pad 8 thru_hole oval (at 2.54 -7.62 90) (size 1.7 1.7) (drill 1) (layers *.Cu *.Mask)
      (net 1 GND))
    (pad 9 thru_hole oval (at 0 -10.16 90) (size 1.7 1.7) (drill 1) (layers *.Cu *.Mask)
      (net 4 +12V))
    (pad 10 thru_hole oval (at 2.54 -10.16 90) (size 1.7 1.7) (drill 1) (layers *.Cu *.Mask)
      (net 1 GND))
    (model ${KISYS3DMOD}/Pin_Headers.3dshapes/Pin_Header_Straight_2x05_Pitch2.54mm.wrl
      (at (xyz 0 0 0))
      (scale (xyz 1 1 1))
      (rotate (xyz 0 0 0))
    )
  )

  (module _Fab_Footprint:CAP_1206_FAB (layer F.Cu) (tedit 58606E9C) (tstamp 5973A08D)
    (at 92 100)
    (path /5973A202)
    (fp_text reference R1 (at 0 0 90) (layer F.Fab)
      (effects (font (size 0.5 0.5) (thickness 0.125)))
    )
    (fp_text value RES (at 0 -1.5) (layer F.Fab)
      (effects (font (size 0.5 0.5) (thickness 0.125)))
    )
    (pad 2 smd rect (at 1.651 0) (size 1.27 1.905) (layers F.Cu F.Paste F.Mask)
      (net 8 RTS))
    (pad 1 smd rect (at -1.651 0) (size 1.27 1.905) (layers F.Cu F.Paste F.Mask)
      (net 8 RTS))
  )

  (gr_line (start 87 107) (end 108 107) (layer Edge.Cuts) (width 0.15))
  (gr_line (start 87 76) (end 87 107) (layer Edge.Cuts) (width 0.15))
  (gr_line (start 108 76) (end 87 76) (layer Edge.Cuts) (width 0.15))
  (gr_line (start 108 107) (end 108 76) (layer Edge.Cuts) (width 0.15))

  (segment (start 105.08 81) (end 105.08 87) (width 0.8) (layer F.Cu) (net 1))
  (segment (start 105.08 78.46) (end 105.08 81) (width 0.8) (layer F.Cu) (net 1))
  (segment (start 102.54 78.46) (end 105.08 78.46) (width 0.8) (layer F.Cu) (net 1))
  (segment (start 100 78.46) (end 102.54 78.46) (width 0.8) (layer F.Cu) (net 1))
  (segment (start 97.46 78.46) (end 100 78.46) (width 0.8) (layer F.Cu) (net 1))
  (segment (start 94.92 78.46) (end 97.46 78.46) (width 0.8) (layer F.Cu) (net 1))
  (segment (start 96.19 97.46) (end 94 95.27) (width 0.8) (layer F.Cu) (net 1))
  (segment (start 94 95.27) (end 94 90.46) (width 0.8) (layer F.Cu) (net 1))
  (segment (start 94 90.46) (end 94.92 89.54) (width 0.8) (layer F.Cu) (net 1))
  (segment (start 103.81 105.08) (end 106.740001 102.149999) (width 0.8) (layer F.Cu) (net 1))
  (segment (start 106.740001 102.149999) (end 106.740001 87.45792) (width 0.8) (layer F.Cu) (net 1))
  (segment (start 106.740001 87.45792) (end 106.282081 87) (width 0.8) (layer F.Cu) (net 1))
  (segment (start 106.282081 87) (end 105.08 87) (width 0.8) (layer F.Cu) (net 1))
  (segment (start 100 89.54) (end 100 98.73) (width 0.8) (layer F.Cu) (net 2))
  (segment (start 100 98.73) (end 103.81 102.54) (width 0.8) (layer F.Cu) (net 2))
  (segment (start 102.54 87) (end 102.54 81) (width 0.8) (layer F.Cu) (net 3))
  (segment (start 101.21001 92.072071) (end 101.21001 97.40001) (width 0.8) (layer F.Cu) (net 3))
  (segment (start 101.21001 97.40001) (end 103.81 100) (width 0.8) (layer F.Cu) (net 3))
  (segment (start 102.54 89.54) (end 102.54 90.742081) (width 0.8) (layer F.Cu) (net 3))
  (segment (start 102.54 90.742081) (end 101.21001 92.072071) (width 0.8) (layer F.Cu) (net 3))
  (segment (start 102.54 89.54) (end 102.54 87) (width 0.8) (layer F.Cu) (net 3))
  (segment (start 92 102.162792) (end 89.46629 102.162792) (width 0.8) (layer F.Cu) (net 4))
  (segment (start 89.46629 102.162792) (end 88.903999 101.600501) (width 0.8) (layer F.Cu) (net 4))
  (segment (start 88.903999 101.600501) (end 88.903999 87.016001) (width 0.8) (layer F.Cu) (net 4))
  (segment (start 88.903999 87.016001) (end 94.070001 81.849999) (width 0.8) (layer F.Cu) (net 4))
  (segment (start 94.070001 81.849999) (end 94.92 81) (width 0.8) (layer F.Cu) (net 4))
  (segment (start 96.19 105.08) (end 94.917208 105.08) (width 0.8) (layer F.Cu) (net 4))
  (segment (start 94.917208 105.08) (end 92 102.162792) (width 0.8) (layer F.Cu) (net 4))
  (segment (start 92 102.162792) (end 92 89.92) (width 0.8) (layer F.Cu) (net 4))
  (segment (start 92 89.92) (end 94.070001 87.849999) (width 0.8) (layer F.Cu) (net 4))
  (segment (start 94.070001 87.849999) (end 94.92 87) (width 0.8) (layer F.Cu) (net 4))
  (segment (start 105.08 89.54) (end 105.08 93.659198) (width 0.8) (layer F.Cu) (net 4))
  (segment (start 105.08 93.659198) (end 105.520001 94.099199) (width 0.8) (layer F.Cu) (net 4))
  (segment (start 105.520001 94.099199) (end 105.520001 95.749999) (width 0.8) (layer F.Cu) (net 4))
  (segment (start 105.520001 95.749999) (end 104.709999 96.560001) (width 0.8) (layer F.Cu) (net 4))
  (segment (start 104.709999 96.560001) (end 103.81 97.46) (width 0.8) (layer F.Cu) (net 4))
  (segment (start 97.46 87) (end 97.46 81) (width 0.8) (layer F.Cu) (net 7))
  (segment (start 98.78999 92.072071) (end 98.78999 99.94001) (width 0.8) (layer F.Cu) (net 7))
  (segment (start 98.78999 99.94001) (end 96.19 102.54) (width 0.8) (layer F.Cu) (net 7))
  (segment (start 97.46 89.54) (end 97.46 90.742081) (width 0.8) (layer F.Cu) (net 7))
  (segment (start 97.46 90.742081) (end 98.78999 92.072071) (width 0.8) (layer F.Cu) (net 7))
  (segment (start 97.46 89.54) (end 97.46 87) (width 0.8) (layer F.Cu) (net 7))
  (segment (start 96 84) (end 94.565 84) (width 0.8) (layer F.Cu) (net 8))
  (segment (start 94.565 84) (end 90.349 88.216) (width 0.8) (layer F.Cu) (net 8))
  (segment (start 90.349 88.216) (end 90.349 98.2475) (width 0.8) (layer F.Cu) (net 8))
  (segment (start 90.349 98.2475) (end 90.349 100) (width 0.8) (layer F.Cu) (net 8))
  (segment (start 100 84) (end 100 81) (width 0.8) (layer F.Cu) (net 8))
  (segment (start 100 87) (end 100 84) (width 0.8) (layer F.Cu) (net 8))
  (segment (start 100 84) (end 99.302 84) (width 0.8) (layer F.Cu) (net 8))
  (segment (start 96.19 100) (end 93.651 100) (width 0.8) (layer F.Cu) (net 8))

)
