EESchema Schematic File Version 2
LIBS:power
LIBS:device
LIBS:transistors
LIBS:conn
LIBS:linear
LIBS:regul
LIBS:74xx
LIBS:cmos4000
LIBS:adc-dac
LIBS:memory
LIBS:xilinx
LIBS:microcontrollers
LIBS:dsp
LIBS:microchip
LIBS:analog_switches
LIBS:motorola
LIBS:texas
LIBS:intel
LIBS:audio
LIBS:interface
LIBS:digital-audio
LIBS:philips
LIBS:display
LIBS:cypress
LIBS:siliconi
LIBS:opto
LIBS:atmel
LIBS:contrib
LIBS:valves
LIBS:CSL_uP
LIBS:Fab
LIBS:CSL_Conn
LIBS:CSL_Power
LIBS:CSL_Sensors
LIBS:CSL_Opto
EELAYER 25 0
EELAYER END
$Descr A4 11693 8268
encoding utf-8
Sheet 1 1
Title ""
Date ""
Rev ""
Comp ""
Comment1 ""
Comment2 ""
Comment3 ""
Comment4 ""
$EndDescr
$Comp
L PSoC4000-WLCSP U1
U 1 1 5881A9F3
P 2550 4450
F 0 "U1" H 2950 4000 39  0000 C CNN
F 1 "PSoC4000-WLCSP" H 2350 4950 39  0000 C CNN
F 2 "_CSL:WLCSP-16" H 2650 4550 60  0001 C CNN
F 3 "" H 2650 4550 60  0001 C CNN
	1    2550 4450
	1    0    0    -1  
$EndComp
$Comp
L DPS310 U4
U 1 1 5881AA26
P 4250 1600
F 0 "U4" H 4450 1350 60  0000 C CNN
F 1 "DPS310" H 4175 1850 60  0000 C CNN
F 2 "_CSL:8-LGA" H 4250 1600 60  0001 C CNN
F 3 "" H 4250 1600 60  0001 C CNN
	1    4250 1600
	1    0    0    -1  
$EndComp
$Comp
L DPS310 U3
U 1 1 5881AA56
P 4500 4550
F 0 "U3" H 4700 4300 60  0000 C CNN
F 1 "DPS310" H 4425 4800 60  0000 C CNN
F 2 "_CSL:8-LGA" H 4500 4550 60  0001 C CNN
F 3 "" H 4500 4550 60  0001 C CNN
	1    4500 4550
	1    0    0    -1  
$EndComp
$Comp
L WM1386x04 C1
U 1 1 5881AA85
P 750 1550
F 0 "C1" H 800 1350 39  0000 C CNN
F 1 "WM1386x04" H 550 1700 39  0000 C CNN
F 2 "_Fab_Footprint:WM1386x04-REC" H 750 1450 60  0001 C CNN
F 3 "" H 750 1450 60  0001 C CNN
	1    750  1550
	-1   0    0    1   
$EndComp
$Comp
L WM1386x04 C2
U 1 1 5881AABE
P 900 4400
F 0 "C2" H 950 4200 39  0000 C CNN
F 1 "WM1386x04" H 700 4550 39  0000 C CNN
F 2 "_Fab_Footprint:WM1386x04-REC" H 900 4300 60  0001 C CNN
F 3 "" H 900 4300 60  0001 C CNN
	1    900  4400
	-1   0    0    1   
$EndComp
$Comp
L CAP C3
U 1 1 5881ACF8
P 1600 1300
F 0 "C3" H 1650 1225 20  0000 C CNN
F 1 "CAP" H 1600 1300 20  0000 C CNN
F 2 "Capacitors_SMD:C_0201" H 1600 1300 60  0001 C CNN
F 3 "" H 1600 1300 60  0001 C CNN
	1    1600 1300
	1    0    0    -1  
$EndComp
$Comp
L CAP C7
U 1 1 5881AD63
P 4750 1400
F 0 "C7" H 4800 1325 20  0000 C CNN
F 1 "CAP" H 4750 1400 20  0000 C CNN
F 2 "Capacitors_SMD:C_0201" H 4750 1400 60  0001 C CNN
F 3 "" H 4750 1400 60  0001 C CNN
	1    4750 1400
	1    0    0    -1  
$EndComp
$Comp
L CAP C6
U 1 1 5881ADED
P 5000 4350
F 0 "C6" H 5050 4275 20  0000 C CNN
F 1 "CAP" H 5000 4350 20  0000 C CNN
F 2 "Capacitors_SMD:C_0201" H 5000 4350 60  0001 C CNN
F 3 "" H 5000 4350 60  0001 C CNN
	1    5000 4350
	1    0    0    -1  
$EndComp
$Comp
L CAP C4
U 1 1 5881AE2F
P 1750 4350
F 0 "C4" H 1800 4275 20  0000 C CNN
F 1 "CAP" H 1750 4350 20  0000 C CNN
F 2 "Capacitors_SMD:C_0201" H 1750 4350 60  0001 C CNN
F 3 "" H 1750 4350 60  0001 C CNN
	1    1750 4350
	1    0    0    -1  
$EndComp
$Comp
L CAP C5
U 1 1 5881AE74
P 1950 4350
F 0 "C5" H 2000 4275 20  0000 C CNN
F 1 "CAP" H 1950 4350 20  0000 C CNN
F 2 "Capacitors_SMD:C_0201" H 1950 4350 60  0001 C CNN
F 3 "" H 1950 4350 60  0001 C CNN
	1    1950 4350
	1    0    0    -1  
$EndComp
Text GLabel 1050 1450 2    60   Input ~ 0
SDA1
Text GLabel 1050 1600 2    60   Input ~ 0
SCL1
Text GLabel 1200 4300 2    60   Input ~ 0
SDA2
Text GLabel 1200 4450 2    60   Input ~ 0
SCL2
Text GLabel 950  1750 3    60   Input ~ 0
GND1
Text GLabel 950  1400 1    60   Input ~ 0
VCC1
Text GLabel 1600 950  1    60   Input ~ 0
VCC1
Text GLabel 1600 2050 3    60   Input ~ 0
GND1
Text GLabel 3000 1000 2    60   Input ~ 0
RST1
Text GLabel 3050 1950 2    60   Input ~ 0
SWCLK1
Text GLabel 3050 2050 2    60   Input ~ 0
SWDIO1
Text GLabel 3050 1450 2    60   Input ~ 0
SDA1
Text GLabel 3050 1550 2    60   Input ~ 0
SCL1
Text GLabel 4800 1550 2    60   Input ~ 0
GND1
Text GLabel 4800 1200 1    60   Input ~ 0
VCC1
Text GLabel 3850 1450 0    60   Input ~ 0
GND1
$Comp
L RES R4
U 1 1 588252E1
P 3500 1450
F 0 "R4" H 3550 1375 20  0000 C CNN
F 1 "RES" V 3500 1450 20  0000 C CNN
F 2 "Resistors_SMD:R_0201" H 3500 1450 60  0001 C CNN
F 3 "" H 3500 1450 60  0001 C CNN
	1    3500 1450
	1    0    0    -1  
$EndComp
$Comp
L RES R3
U 1 1 5882537E
P 3400 1450
F 0 "R3" H 3450 1375 20  0000 C CNN
F 1 "RES" V 3400 1450 20  0000 C CNN
F 2 "Resistors_SMD:R_0201" H 3400 1450 60  0001 C CNN
F 3 "" H 3400 1450 60  0001 C CNN
	1    3400 1450
	1    0    0    -1  
$EndComp
Text GLabel 3450 1250 1    60   Input ~ 0
VCC1
Wire Wire Line
	1050 4450 1100 4450
Wire Wire Line
	1100 4450 1100 4600
Wire Wire Line
	1050 4300 1100 4300
Wire Wire Line
	1100 4300 1100 4250
Wire Wire Line
	900  1600 950  1600
Wire Wire Line
	950  1600 950  1750
Wire Wire Line
	900  1450 950  1450
Wire Wire Line
	900  1500 1000 1500
Wire Wire Line
	1000 1500 1000 1450
Wire Wire Line
	1000 1450 1050 1450
Wire Wire Line
	900  1550 1000 1550
Wire Wire Line
	1000 1550 1000 1600
Wire Wire Line
	1000 1600 1050 1600
Wire Wire Line
	600  1700 950  1700
Wire Wire Line
	750  1700 750  1650
Connection ~ 950  1700
Wire Wire Line
	600  1700 600  1350
Wire Wire Line
	600  1350 750  1350
Wire Wire Line
	750  1350 750  1400
Connection ~ 750  1700
Wire Wire Line
	750  4550 1100 4550
Wire Wire Line
	900  4550 900  4500
Connection ~ 1100 4550
Wire Wire Line
	750  4550 750  4200
Wire Wire Line
	750  4200 900  4200
Wire Wire Line
	900  4200 900  4250
Connection ~ 900  4550
Wire Wire Line
	1050 4350 1150 4350
Wire Wire Line
	1150 4350 1150 4300
Wire Wire Line
	1150 4300 1200 4300
Wire Wire Line
	2050 4200 1950 4200
Wire Wire Line
	1950 4200 1950 4250
Wire Wire Line
	1950 4450 1950 4800
Wire Wire Line
	1750 4800 2050 4800
Wire Wire Line
	1750 4050 2050 4050
Wire Wire Line
	1750 4000 1750 4250
Wire Wire Line
	2050 4100 2000 4100
Wire Wire Line
	2000 4100 2000 4050
Connection ~ 2000 4050
Wire Wire Line
	1750 4450 1750 4850
Connection ~ 1950 4800
Connection ~ 1750 4800
Connection ~ 1750 4050
Wire Wire Line
	1050 4400 1150 4400
Wire Wire Line
	1150 4400 1150 4450
Wire Wire Line
	1150 4450 1200 4450
Wire Wire Line
	1850 1000 1600 1000
Wire Wire Line
	1600 950  1600 1200
Wire Wire Line
	1600 1400 1600 2050
Wire Wire Line
	1600 2000 1850 2000
Connection ~ 1600 2000
Connection ~ 1600 1000
Wire Wire Line
	950  1450 950  1400
Wire Wire Line
	4600 1550 4800 1550
Wire Wire Line
	4750 1550 4750 1500
Wire Wire Line
	4600 1450 4650 1450
Wire Wire Line
	4650 1450 4650 1250
Wire Wire Line
	4650 1250 5150 1250
Wire Wire Line
	4800 1250 4800 1200
Wire Wire Line
	4750 1300 4750 1250
Connection ~ 4750 1250
Wire Wire Line
	2950 1950 3050 1950
Wire Wire Line
	2950 2000 3000 2000
Wire Wire Line
	3000 2000 3000 2050
Wire Wire Line
	3000 2050 3050 2050
Wire Wire Line
	2950 1650 3900 1650
Wire Wire Line
	3000 1750 3900 1750
Connection ~ 4750 1550
Wire Wire Line
	5150 1250 5150 1650
Wire Wire Line
	5150 1650 4600 1650
Connection ~ 4800 1250
Wire Wire Line
	3900 1450 3850 1450
Wire Wire Line
	3500 1550 3500 1750
Connection ~ 3500 1750
Wire Wire Line
	3400 1550 3400 1650
Connection ~ 3400 1650
Wire Wire Line
	3450 1250 3450 1300
Wire Wire Line
	3400 1300 3500 1300
Wire Wire Line
	3500 1300 3500 1350
Wire Wire Line
	3400 1300 3400 1350
Connection ~ 3450 1300
$Comp
L CONN_01X01 P1
U 1 1 58825BF0
P 5000 5100
F 0 "P1" H 5000 5200 50  0000 C CNN
F 1 "CONN_01X01" V 5100 5100 50  0000 C CNN
F 2 "_CSL:POGO-SINGLE" H 5000 5100 60  0001 C CNN
F 3 "" H 5000 5100 60  0000 C CNN
	1    5000 5100
	1    0    0    -1  
$EndComp
$Comp
L CONN_01X01 P2
U 1 1 58825C84
P 5000 5200
F 0 "P2" H 5000 5300 50  0000 C CNN
F 1 "CONN_01X01" V 5100 5200 50  0000 C CNN
F 2 "_CSL:POGO-SINGLE" H 5000 5200 60  0001 C CNN
F 3 "" H 5000 5200 60  0000 C CNN
	1    5000 5200
	1    0    0    -1  
$EndComp
$Comp
L CONN_01X01 P3
U 1 1 58825CC1
P 5000 5300
F 0 "P3" H 5000 5400 50  0000 C CNN
F 1 "CONN_01X01" V 5100 5300 50  0000 C CNN
F 2 "_CSL:POGO-SINGLE" H 5000 5300 60  0001 C CNN
F 3 "" H 5000 5300 60  0000 C CNN
	1    5000 5300
	1    0    0    -1  
$EndComp
$Comp
L CONN_01X01 P4
U 1 1 58825CFF
P 5000 5400
F 0 "P4" H 5000 5500 50  0000 C CNN
F 1 "CONN_01X01" V 5100 5400 50  0000 C CNN
F 2 "_CSL:POGO-SINGLE" H 5000 5400 60  0001 C CNN
F 3 "" H 5000 5400 60  0000 C CNN
	1    5000 5400
	1    0    0    -1  
$EndComp
$Comp
L CONN_01X01 P5
U 1 1 58825D42
P 5000 5500
F 0 "P5" H 5000 5600 50  0000 C CNN
F 1 "CONN_01X01" V 5100 5500 50  0000 C CNN
F 2 "_CSL:POGO-SINGLE" H 5000 5500 60  0001 C CNN
F 3 "" H 5000 5500 60  0000 C CNN
	1    5000 5500
	1    0    0    -1  
$EndComp
Text GLabel 4800 5100 0    60   Input ~ 0
VCC2
Text GLabel 4800 5500 0    60   Input ~ 0
GND2
Text GLabel 4800 5200 0    60   Input ~ 0
SCL2
Text GLabel 4800 5300 0    60   Input ~ 0
SDA2
Text GLabel 4800 5400 0    60   Input ~ 0
RST2
Wire Wire Line
	4850 4400 4900 4400
Wire Wire Line
	4900 4400 4900 4200
Wire Wire Line
	4900 4200 5400 4200
Wire Wire Line
	5000 4200 5000 4250
Wire Wire Line
	4850 4500 5050 4500
Wire Wire Line
	5000 4500 5000 4450
Text GLabel 1100 4600 3    60   Input ~ 0
GND2
Text GLabel 1100 4250 1    60   Input ~ 0
VCC2
Text GLabel 1750 4000 1    60   Input ~ 0
VCC2
Text GLabel 1750 4850 3    60   Input ~ 0
GND2
Text GLabel 5050 4150 1    60   Input ~ 0
VCC2
Text GLabel 5050 4500 2    60   Input ~ 0
GND2
Text GLabel 4100 4400 0    60   Input ~ 0
GND2
$Comp
L RES R1
U 1 1 58826A86
P 3350 4450
F 0 "R1" H 3400 4375 20  0000 C CNN
F 1 "RES" V 3350 4450 20  0000 C CNN
F 2 "Resistors_SMD:R_0201" H 3350 4450 60  0001 C CNN
F 3 "" H 3350 4450 60  0001 C CNN
	1    3350 4450
	1    0    0    -1  
$EndComp
Text GLabel 3150 4750 2    60   Input ~ 0
SDA2
Text GLabel 3150 4850 2    60   Input ~ 0
SCL2
Wire Wire Line
	3050 4750 3150 4750
Wire Wire Line
	3050 4800 3100 4800
Wire Wire Line
	3100 4800 3100 4850
Wire Wire Line
	3100 4850 3150 4850
Wire Wire Line
	3050 4600 4150 4600
Wire Wire Line
	3350 4600 3350 4550
$Comp
L RES R2
U 1 1 58826DDE
P 3450 4450
F 0 "R2" H 3500 4375 20  0000 C CNN
F 1 "RES" V 3450 4450 20  0000 C CNN
F 2 "Resistors_SMD:R_0201" H 3450 4450 60  0001 C CNN
F 3 "" H 3450 4450 60  0001 C CNN
	1    3450 4450
	1    0    0    -1  
$EndComp
Wire Wire Line
	3050 4650 4100 4650
Wire Wire Line
	3450 4650 3450 4550
Connection ~ 3350 4600
Wire Wire Line
	4100 4650 4100 4700
Wire Wire Line
	4100 4700 4150 4700
Connection ~ 3450 4650
Wire Wire Line
	4150 4400 4100 4400
Wire Wire Line
	3450 4300 3450 4350
Wire Wire Line
	3350 4300 3450 4300
Wire Wire Line
	3350 4300 3350 4350
Text GLabel 3400 4250 1    60   Input ~ 0
VCC2
Wire Wire Line
	3400 4250 3400 4300
Connection ~ 3400 4300
Wire Wire Line
	5050 4200 5050 4150
Connection ~ 5000 4200
Wire Wire Line
	5400 4200 5400 4600
Wire Wire Line
	5400 4600 4850 4600
Connection ~ 5050 4200
Connection ~ 5000 4500
Text GLabel 3200 4300 1    60   Input ~ 0
RST2
Wire Wire Line
	3050 4350 3200 4350
Wire Wire Line
	3200 4350 3200 4300
$Comp
L CONN_01X01 P6
U 1 1 58827D45
P 3250 2450
F 0 "P6" H 3250 2550 50  0000 C CNN
F 1 "CONN_01X01" V 3350 2450 50  0000 C CNN
F 2 "_CSL:POGO-SINGLE" H 3250 2450 60  0001 C CNN
F 3 "" H 3250 2450 60  0000 C CNN
	1    3250 2450
	1    0    0    -1  
$EndComp
$Comp
L CONN_01X01 P7
U 1 1 58827D4B
P 3250 2550
F 0 "P7" H 3250 2650 50  0000 C CNN
F 1 "CONN_01X01" V 3350 2550 50  0000 C CNN
F 2 "_CSL:POGO-SINGLE" H 3250 2550 60  0001 C CNN
F 3 "" H 3250 2550 60  0000 C CNN
	1    3250 2550
	1    0    0    -1  
$EndComp
$Comp
L CONN_01X01 P8
U 1 1 58827D51
P 3250 2650
F 0 "P8" H 3250 2750 50  0000 C CNN
F 1 "CONN_01X01" V 3350 2650 50  0000 C CNN
F 2 "_CSL:POGO-SINGLE" H 3250 2650 60  0001 C CNN
F 3 "" H 3250 2650 60  0000 C CNN
	1    3250 2650
	1    0    0    -1  
$EndComp
$Comp
L CONN_01X01 P9
U 1 1 58827D57
P 3250 2750
F 0 "P9" H 3250 2850 50  0000 C CNN
F 1 "CONN_01X01" V 3350 2750 50  0000 C CNN
F 2 "_CSL:POGO-SINGLE" H 3250 2750 60  0001 C CNN
F 3 "" H 3250 2750 60  0000 C CNN
	1    3250 2750
	1    0    0    -1  
$EndComp
$Comp
L CONN_01X01 P10
U 1 1 58827D5D
P 3250 2850
F 0 "P10" H 3250 2950 50  0000 C CNN
F 1 "CONN_01X01" V 3350 2850 50  0000 C CNN
F 2 "_CSL:POGO-SINGLE" H 3250 2850 60  0001 C CNN
F 3 "" H 3250 2850 60  0000 C CNN
	1    3250 2850
	1    0    0    -1  
$EndComp
Text GLabel 3050 2450 0    60   Input ~ 0
VCC1
Text GLabel 3050 2850 0    60   Input ~ 0
GND1
Text GLabel 3050 2550 0    60   Input ~ 0
SWCLK1
Text GLabel 3050 2650 0    60   Input ~ 0
SWDIO1
Text GLabel 3050 2750 0    60   Input ~ 0
RST1
$Comp
L D11D-WLCSP U2
U 1 1 588284DF
P 2400 1500
F 0 "U2" H 2850 900 39  0000 C CNN
F 1 "D11D-WLCSP" H 2100 2100 39  0000 C CNN
F 2 "_CSL:WLCSP-20" H 2100 1550 60  0001 C CNN
F 3 "" H 2100 1550 60  0001 C CNN
	1    2400 1500
	1    0    0    -1  
$EndComp
Wire Wire Line
	2950 1000 3000 1000
Wire Wire Line
	2950 1550 3050 1550
Wire Wire Line
	2950 1500 3000 1500
Wire Wire Line
	3000 1500 3000 1450
Wire Wire Line
	3000 1450 3050 1450
Wire Wire Line
	3000 1750 3000 1700
Wire Wire Line
	3000 1700 2950 1700
$EndSCHEMATC
