EESchema Schematic File Version 2
LIBS:power
LIBS:device
LIBS:transistors
LIBS:conn
LIBS:linear
LIBS:regul
LIBS:74xx
LIBS:cmos4000
LIBS:adc-dac
LIBS:memory
LIBS:xilinx
LIBS:microcontrollers
LIBS:dsp
LIBS:microchip
LIBS:analog_switches
LIBS:motorola
LIBS:texas
LIBS:intel
LIBS:audio
LIBS:interface
LIBS:digital-audio
LIBS:philips
LIBS:display
LIBS:cypress
LIBS:siliconi
LIBS:opto
LIBS:atmel
LIBS:contrib
LIBS:valves
EELAYER 25 0
EELAYER END
$Descr A4 11693 8268
encoding utf-8
Sheet 1 1
Title ""
Date ""
Rev ""
Comp ""
Comment1 ""
Comment2 ""
Comment3 ""
Comment4 ""
$EndDescr
$Comp
L CONN_01X05 P1
U 1 1 594D5C86
P 3050 1850
F 0 "P1" H 3050 2150 50  0000 C CNN
F 1 "CONN_01X05" V 3150 1850 50  0000 C CNN
F 2 "Pin_Headers:Pin_Header_Straight_1x05_Pitch2.54mm_SMD_Pin1Right" H 3050 1850 60  0001 C CNN
F 3 "" H 3050 1850 60  0000 C CNN
	1    3050 1850
	1    0    0    1   
$EndComp
$Comp
L CONN_01X05 P3
U 1 1 594D5CAD
P 3800 1850
F 0 "P3" H 3800 2150 50  0000 C CNN
F 1 "CONN_01X05" V 3900 1850 50  0000 C CNN
F 2 "Pin_Headers:Pin_Header_Straight_1x05_Pitch2.54mm_SMD_Pin1Right" H 3800 1850 60  0001 C CNN
F 3 "" H 3800 1850 60  0000 C CNN
	1    3800 1850
	-1   0    0    1   
$EndComp
$Comp
L CONN_01X06 P2
U 1 1 594D5D08
P 3400 2650
F 0 "P2" H 3400 3000 50  0000 C CNN
F 1 "CONN_01X06" V 3500 2650 50  0000 C CNN
F 2 "Pin_Headers:Pin_Header_Angled_1x06_Pitch2.54mm" H 3400 2650 60  0001 C CNN
F 3 "" H 3400 2650 60  0000 C CNN
	1    3400 2650
	0    1    1    0   
$EndComp
$Comp
L +3V3 #PWR01
U 1 1 594D6114
P 3450 2300
F 0 "#PWR01" H 3450 2150 60  0001 C CNN
F 1 "+3V3" H 3450 2440 60  0000 C CNN
F 2 "" H 3450 2300 60  0000 C CNN
F 3 "" H 3450 2300 60  0000 C CNN
	1    3450 2300
	1    0    0    -1  
$EndComp
$Comp
L GND #PWR02
U 1 1 594D6179
P 2800 2100
F 0 "#PWR02" H 2800 1850 60  0001 C CNN
F 1 "GND" H 2800 1950 60  0000 C CNN
F 2 "" H 2800 2100 60  0000 C CNN
F 3 "" H 2800 2100 60  0000 C CNN
	1    2800 2100
	1    0    0    -1  
$EndComp
Wire Wire Line
	2850 2050 2800 2050
Wire Wire Line
	2800 2050 2800 2100
Text GLabel 2750 1950 0    60   Input ~ 0
CTS
Text GLabel 2750 1850 0    60   Input ~ 0
TX
Text GLabel 2750 1750 0    60   Input ~ 0
VRAW
Text GLabel 4100 2050 2    60   Input ~ 0
VRAW
Text GLabel 4100 1950 2    60   Input ~ 0
RX
Text GLabel 4100 1850 2    60   Input ~ 0
RTS
$Comp
L GND #PWR03
U 1 1 594D6200
P 4150 1750
F 0 "#PWR03" H 4150 1500 60  0001 C CNN
F 1 "GND" H 4150 1600 60  0000 C CNN
F 2 "" H 4150 1750 60  0000 C CNN
F 3 "" H 4150 1750 60  0000 C CNN
	1    4150 1750
	0    -1   -1   0   
$EndComp
Wire Wire Line
	4000 1750 4150 1750
Wire Wire Line
	4000 1850 4100 1850
Wire Wire Line
	4000 1950 4100 1950
Wire Wire Line
	4000 2050 4100 2050
Wire Wire Line
	2850 1950 2750 1950
Wire Wire Line
	2850 1850 2750 1850
Wire Wire Line
	2850 1750 2750 1750
Text GLabel 3550 2350 1    60   Input ~ 0
RTS
Wire Wire Line
	3550 2350 3550 2450
Wire Wire Line
	3450 2300 3450 2450
$Comp
L GND #PWR04
U 1 1 594D62E8
P 3900 2550
F 0 "#PWR04" H 3900 2300 60  0001 C CNN
F 1 "GND" H 3900 2400 60  0000 C CNN
F 2 "" H 3900 2550 60  0000 C CNN
F 3 "" H 3900 2550 60  0000 C CNN
	1    3900 2550
	1    0    0    -1  
$EndComp
Wire Wire Line
	3650 2450 3650 2400
Wire Wire Line
	3650 2400 3900 2400
Wire Wire Line
	3900 2400 3900 2550
Text GLabel 3350 2350 1    60   Input ~ 0
RX
Text GLabel 3250 2350 1    60   Input ~ 0
TX
Wire Wire Line
	3250 2350 3250 2450
Wire Wire Line
	3350 2350 3350 2450
$Comp
L CONN_01X02 P4
U 1 1 594D635E
P 1850 2000
F 0 "P4" H 1850 2150 50  0000 C CNN
F 1 "CONN_01X02" V 1950 2000 50  0000 C CNN
F 2 "Pin_Headers:Pin_Header_Angled_1x02_Pitch2.54mm" H 1850 2000 60  0001 C CNN
F 3 "" H 1850 2000 60  0000 C CNN
	1    1850 2000
	-1   0    0    1   
$EndComp
Text GLabel 2150 1850 1    60   Input ~ 0
VRAW
$Comp
L GND #PWR05
U 1 1 594D63D8
P 2150 2150
F 0 "#PWR05" H 2150 1900 60  0001 C CNN
F 1 "GND" H 2150 2000 60  0000 C CNN
F 2 "" H 2150 2150 60  0000 C CNN
F 3 "" H 2150 2150 60  0000 C CNN
	1    2150 2150
	1    0    0    -1  
$EndComp
Wire Wire Line
	2050 2050 2150 2050
Wire Wire Line
	2150 2050 2150 2150
Wire Wire Line
	2050 1950 2150 1950
Wire Wire Line
	2150 1950 2150 1850
$EndSCHEMATC
