EESchema Schematic File Version 2
LIBS:power
LIBS:device
LIBS:transistors
LIBS:conn
LIBS:linear
LIBS:regul
LIBS:74xx
LIBS:cmos4000
LIBS:adc-dac
LIBS:memory
LIBS:xilinx
LIBS:microcontrollers
LIBS:dsp
LIBS:microchip
LIBS:analog_switches
LIBS:motorola
LIBS:texas
LIBS:intel
LIBS:audio
LIBS:interface
LIBS:digital-audio
LIBS:philips
LIBS:display
LIBS:cypress
LIBS:siliconi
LIBS:opto
LIBS:atmel
LIBS:contrib
LIBS:valves
LIBS:CSL_Sensors
LIBS:CSL_Power
LIBS:CSL_Opto
LIBS:CSL_uP
LIBS:Fab
LIBS:CSL_Conn
LIBS:Skin-Sensor-V3-cache
EELAYER 25 0
EELAYER END
$Descr A4 11693 8268
encoding utf-8
Sheet 1 1
Title ""
Date ""
Rev ""
Comp ""
Comment1 ""
Comment2 ""
Comment3 ""
Comment4 ""
$EndDescr
$Comp
L ATSAMD21G18A U2
U 1 1 5927776B
P 2600 3400
F 0 "U2" H 3150 1975 60  0000 C CNN
F 1 "ATSAMD21G18A" H 2300 4800 60  0000 C CNN
F 2 "_Fab_Footprint:QFN-48-1EP_7x7mm_Pitch0.5mm" H 2650 4000 60  0001 C CNN
F 3 "" H 2650 4000 60  0001 C CNN
	1    2600 3400
	1    0    0    -1  
$EndComp
Text Notes 3550 3000 0    60   ~ 0
Sercom 2 - APA
Text Notes 3550 2700 0    60   ~ 0
Sercom 0 - APA
Text Notes 3600 3400 0    60   ~ 0
Sercom 4 - APA
Text Notes 3600 3650 0    60   ~ 0
Sercom 1 - APA
Text Notes 3600 4000 0    60   ~ 0
Sercom 3 - I2C
Text Notes 3600 4700 0    60   ~ 0
Sercom 5 - APA
$Comp
L WM1386x08 C5
U 1 1 5927B934
P 5500 1350
F 0 "C5" V 5625 1150 39  0000 C CNN
F 1 "WM1386x08" V 5500 1325 39  0000 C CNN
F 2 "_Fab_Footprint:WM1388x08-REC" H 5500 1300 60  0001 C CNN
F 3 "" H 5500 1300 60  0001 C CNN
	1    5500 1350
	1    0    0    -1  
$EndComp
Text GLabel 5250 1300 0    30   Input ~ 0
RTS0
Text GLabel 5250 1450 0    30   Input ~ 0
CTS0
Text GLabel 5250 1400 0    30   Input ~ 0
RX0
Text GLabel 5250 1350 0    30   Input ~ 0
TX0
$Comp
L GND #PWR01
U 1 1 5927BE3C
P 1800 4750
F 0 "#PWR01" H 1800 4500 60  0001 C CNN
F 1 "GND" H 1800 4600 60  0000 C CNN
F 2 "" H 1800 4750 60  0000 C CNN
F 3 "" H 1800 4750 60  0000 C CNN
	1    1800 4750
	1    0    0    -1  
$EndComp
$Comp
L GND #PWR02
U 1 1 5927BFBB
P 5500 1700
F 0 "#PWR02" H 5500 1450 60  0001 C CNN
F 1 "GND" H 5500 1550 60  0000 C CNN
F 2 "" H 5500 1700 60  0000 C CNN
F 3 "" H 5500 1700 60  0000 C CNN
	1    5500 1700
	1    0    0    -1  
$EndComp
Text GLabel 3350 4500 2    30   Input ~ 0
SWDCLK
Text GLabel 3350 4550 2    30   Input ~ 0
SWDIO
$Comp
L WM1386x08 C6
U 1 1 5927C852
P 5500 2200
F 0 "C6" V 5625 2000 39  0000 C CNN
F 1 "WM1386x08" V 5500 2175 39  0000 C CNN
F 2 "_Fab_Footprint:WM1388x08-REC" H 5500 2150 60  0001 C CNN
F 3 "" H 5500 2150 60  0001 C CNN
	1    5500 2200
	1    0    0    -1  
$EndComp
Text GLabel 5250 2150 0    30   Input ~ 0
RTS1
Text GLabel 5250 2300 0    30   Input ~ 0
CTS1
Text GLabel 5250 2250 0    30   Input ~ 0
RX1
Text GLabel 5250 2200 0    30   Input ~ 0
TX1
$Comp
L GND #PWR03
U 1 1 5927C875
P 5500 2550
F 0 "#PWR03" H 5500 2300 60  0001 C CNN
F 1 "GND" H 5500 2400 60  0000 C CNN
F 2 "" H 5500 2550 60  0000 C CNN
F 3 "" H 5500 2550 60  0000 C CNN
	1    5500 2550
	1    0    0    -1  
$EndComp
$Comp
L WM1386x08 C11
U 1 1 5927C8BB
P 6350 1350
F 0 "C11" V 6475 1150 39  0000 C CNN
F 1 "WM1386x08" V 6350 1325 39  0000 C CNN
F 2 "_Fab_Footprint:WM1388x08-REC" H 6350 1300 60  0001 C CNN
F 3 "" H 6350 1300 60  0001 C CNN
	1    6350 1350
	1    0    0    -1  
$EndComp
Text GLabel 6100 1300 0    30   Input ~ 0
RTS2
Text GLabel 6100 1450 0    30   Input ~ 0
CTS2
Text GLabel 6100 1400 0    30   Input ~ 0
RX2
Text GLabel 6100 1350 0    30   Input ~ 0
TX2
$Comp
L GND #PWR04
U 1 1 5927C8DE
P 6350 1700
F 0 "#PWR04" H 6350 1450 60  0001 C CNN
F 1 "GND" H 6350 1550 60  0000 C CNN
F 2 "" H 6350 1700 60  0000 C CNN
F 3 "" H 6350 1700 60  0000 C CNN
	1    6350 1700
	1    0    0    -1  
$EndComp
$Comp
L WM1386x08 C12
U 1 1 5927C8E4
P 6350 2200
F 0 "C12" V 6475 2000 39  0000 C CNN
F 1 "WM1386x08" V 6350 2175 39  0000 C CNN
F 2 "_Fab_Footprint:WM1388x08-REC" H 6350 2150 60  0001 C CNN
F 3 "" H 6350 2150 60  0001 C CNN
	1    6350 2200
	1    0    0    -1  
$EndComp
Text GLabel 6100 2150 0    30   Input ~ 0
RTS3
Text GLabel 6100 2300 0    30   Input ~ 0
CTS3
Text GLabel 6100 2250 0    30   Input ~ 0
RX3
Text GLabel 6100 2200 0    30   Input ~ 0
TX3
$Comp
L GND #PWR05
U 1 1 5927C907
P 6350 2550
F 0 "#PWR05" H 6350 2300 60  0001 C CNN
F 1 "GND" H 6350 2400 60  0000 C CNN
F 2 "" H 6350 2550 60  0000 C CNN
F 3 "" H 6350 2550 60  0000 C CNN
	1    6350 2550
	1    0    0    -1  
$EndComp
Text GLabel 5050 1100 1    30   Input ~ 0
VRAW
Text GLabel 5900 1100 1    30   Input ~ 0
VRAW
Text GLabel 5900 1950 1    30   Input ~ 0
VRAW
Text GLabel 5050 1950 1    30   Input ~ 0
VRAW
Text GLabel 3350 4050 2    30   Input ~ 0
USBD-
Text GLabel 3350 4100 2    30   Input ~ 0
USBD+
$Comp
L CAP C4
U 1 1 5927D90F
P 1800 2750
F 0 "C4" H 1850 2675 20  0000 C CNN
F 1 "0.1uF" H 1800 2750 20  0000 C CNN
F 2 "Capacitors_SMD:C_0402_NoSilk" H 1800 2750 60  0001 C CNN
F 3 "" H 1800 2750 60  0001 C CNN
	1    1800 2750
	1    0    0    -1  
$EndComp
$Comp
L CAP C3
U 1 1 5927D966
P 1650 2750
F 0 "C3" H 1700 2675 20  0000 C CNN
F 1 "0.1uF" H 1650 2750 20  0000 C CNN
F 2 "Capacitors_SMD:C_0402_NoSilk" H 1650 2750 60  0001 C CNN
F 3 "" H 1650 2750 60  0001 C CNN
	1    1650 2750
	1    0    0    1   
$EndComp
$Comp
L CAP C2
U 1 1 5927D990
P 1500 2750
F 0 "C2" H 1550 2675 20  0000 C CNN
F 1 "0.1uF" H 1500 2750 20  0000 C CNN
F 2 "Capacitors_SMD:C_0402_NoSilk" H 1500 2750 60  0001 C CNN
F 3 "" H 1500 2750 60  0001 C CNN
	1    1500 2750
	1    0    0    -1  
$EndComp
$Comp
L CAP C1
U 1 1 5927D9BD
P 1350 2750
F 0 "C1" H 1400 2675 20  0000 C CNN
F 1 "0.1uF" H 1350 2750 20  0000 C CNN
F 2 "Capacitors_SMD:C_0402_NoSilk" H 1350 2750 60  0001 C CNN
F 3 "" H 1350 2750 60  0001 C CNN
	1    1350 2750
	1    0    0    -1  
$EndComp
$Comp
L GND #PWR06
U 1 1 5927DCCB
P 1800 2950
F 0 "#PWR06" H 1800 2700 60  0001 C CNN
F 1 "GND" H 1800 2800 60  0000 C CNN
F 2 "" H 1800 2950 60  0000 C CNN
F 3 "" H 1800 2950 60  0000 C CNN
	1    1800 2950
	1    0    0    -1  
$EndComp
$Comp
L +3V3 #PWR07
U 1 1 5927E1EF
P 1350 1850
F 0 "#PWR07" H 1350 1700 60  0001 C CNN
F 1 "+3V3" H 1350 1990 60  0000 C CNN
F 2 "" H 1350 1850 60  0000 C CNN
F 3 "" H 1350 1850 60  0000 C CNN
	1    1350 1850
	1    0    0    -1  
$EndComp
$Comp
L +3V3 #PWR08
U 1 1 5927E2FF
P 1500 2050
F 0 "#PWR08" H 1500 1900 60  0001 C CNN
F 1 "+3V3" H 1500 2190 60  0000 C CNN
F 2 "" H 1500 2050 60  0000 C CNN
F 3 "" H 1500 2050 60  0000 C CNN
	1    1500 2050
	1    0    0    -1  
$EndComp
Text GLabel 3350 3950 2    30   Input ~ 0
SDA
Text GLabel 3350 4000 2    30   Input ~ 0
SCL
$Comp
L +3V3 #PWR09
U 1 1 59285BC8
P 4500 1050
F 0 "#PWR09" H 4500 900 60  0001 C CNN
F 1 "+3V3" H 4500 1190 60  0000 C CNN
F 2 "" H 4500 1050 60  0000 C CNN
F 3 "" H 4500 1050 60  0000 C CNN
	1    4500 1050
	1    0    0    -1  
$EndComp
Text GLabel 4500 2050 3    30   Input ~ 0
SDA
Text GLabel 4650 2050 3    30   Input ~ 0
SCL
$Comp
L RES R1
U 1 1 59285D97
P 4500 1250
F 0 "R1" H 4550 1175 20  0000 C CNN
F 1 "10k" V 4500 1250 20  0000 C CNN
F 2 "Resistors_SMD:R_0402_NoSilk" H 4500 1250 60  0001 C CNN
F 3 "" H 4500 1250 60  0001 C CNN
	1    4500 1250
	1    0    0    -1  
$EndComp
$Comp
L RES R2
U 1 1 59285E04
P 4650 1250
F 0 "R2" H 4700 1175 20  0000 C CNN
F 1 "10k" V 4650 1250 20  0000 C CNN
F 2 "Resistors_SMD:R_0402_NoSilk" H 4650 1250 60  0001 C CNN
F 3 "" H 4650 1250 60  0001 C CNN
	1    4650 1250
	1    0    0    -1  
$EndComp
$Comp
L WM1386x06 C7
U 1 1 59286B03
P 6300 3250
F 0 "C7" H 6425 3000 39  0000 C CNN
F 1 "WM1386x06" H 6125 3450 39  0000 C CNN
F 2 "_Fab_Footprint:WM1387x06-REC" H 6300 3200 60  0001 C CNN
F 3 "" H 6300 3200 60  0001 C CNN
	1    6300 3250
	1    0    0    -1  
$EndComp
$Comp
L WM1386x06 C9
U 1 1 59286B66
P 5500 4250
F 0 "C9" H 5625 4000 39  0000 C CNN
F 1 "WM1386x06" H 5325 4450 39  0000 C CNN
F 2 "_Fab_Footprint:WM1387x06-REC" H 5500 4200 60  0001 C CNN
F 3 "" H 5500 4200 60  0001 C CNN
	1    5500 4250
	1    0    0    -1  
$EndComp
$Comp
L WM1386x06 C8
U 1 1 59286BB3
P 5500 3150
F 0 "C8" H 5625 2900 39  0000 C CNN
F 1 "WM1386x06" H 5325 3350 39  0000 C CNN
F 2 "_Fab_Footprint:WM1387x06-REC" H 5500 3100 60  0001 C CNN
F 3 "" H 5500 3100 60  0001 C CNN
	1    5500 3150
	1    0    0    -1  
$EndComp
Text GLabel 3350 3800 2    30   Input ~ 0
SDI
$Comp
L +3V3 #PWR010
U 1 1 592876D1
P 6100 3100
F 0 "#PWR010" H 6100 2950 60  0001 C CNN
F 1 "+3V3" H 6100 3240 60  0000 C CNN
F 2 "" H 6100 3100 60  0000 C CNN
F 3 "" H 6100 3100 60  0000 C CNN
	1    6100 3100
	1    0    0    -1  
$EndComp
$Comp
L +3V3 #PWR011
U 1 1 5928787B
P 5300 4100
F 0 "#PWR011" H 5300 3950 60  0001 C CNN
F 1 "+3V3" H 5300 4240 60  0000 C CNN
F 2 "" H 5300 4100 60  0000 C CNN
F 3 "" H 5300 4100 60  0000 C CNN
	1    5300 4100
	1    0    0    -1  
$EndComp
$Comp
L +3V3 #PWR012
U 1 1 5928795B
P 5300 3000
F 0 "#PWR012" H 5300 2850 60  0001 C CNN
F 1 "+3V3" H 5300 3140 60  0000 C CNN
F 2 "" H 5300 3000 60  0000 C CNN
F 3 "" H 5300 3000 60  0000 C CNN
	1    5300 3000
	1    0    0    -1  
$EndComp
Text GLabel 3350 3850 2    30   Input ~ 0
SS0/INT0
$Comp
L GND #PWR013
U 1 1 59288241
P 6300 3550
F 0 "#PWR013" H 6300 3300 60  0001 C CNN
F 1 "GND" H 6300 3400 60  0000 C CNN
F 2 "" H 6300 3550 60  0000 C CNN
F 3 "" H 6300 3550 60  0000 C CNN
	1    6300 3550
	1    0    0    -1  
$EndComp
$Comp
L GND #PWR014
U 1 1 592886BE
P 5500 4550
F 0 "#PWR014" H 5500 4300 60  0001 C CNN
F 1 "GND" H 5500 4400 60  0000 C CNN
F 2 "" H 5500 4550 60  0000 C CNN
F 3 "" H 5500 4550 60  0000 C CNN
	1    5500 4550
	1    0    0    -1  
$EndComp
$Comp
L GND #PWR015
U 1 1 59288A5A
P 5500 3450
F 0 "#PWR015" H 5500 3200 60  0001 C CNN
F 1 "GND" H 5500 3300 60  0000 C CNN
F 2 "" H 5500 3450 60  0000 C CNN
F 3 "" H 5500 3450 60  0000 C CNN
	1    5500 3450
	1    0    0    -1  
$EndComp
Text GLabel 6100 3350 0    30   Input ~ 0
SS0/INT0
Text GLabel 5300 4350 0    30   Input ~ 0
SS1/INT1
Text GLabel 6100 3300 0    30   Input ~ 0
SDI
Text GLabel 6100 3200 0    30   Input ~ 0
SDA
Text GLabel 6100 3250 0    30   Input ~ 0
SCL
Text GLabel 5300 4300 0    30   Input ~ 0
SDI
Text GLabel 5300 4250 0    30   Input ~ 0
SCL
Text GLabel 5300 4200 0    30   Input ~ 0
SDA
Text GLabel 5300 3100 0    30   Input ~ 0
SDA
Text GLabel 5300 3150 0    30   Input ~ 0
SCL
Text GLabel 5300 3200 0    30   Input ~ 0
SDI
Text GLabel 5300 3250 0    30   Input ~ 0
SS2/INT2
$Comp
L WM1386x06 C10
U 1 1 5928A1A0
P 6350 4300
F 0 "C10" H 6475 4050 39  0000 C CNN
F 1 "WM1386x06" H 6175 4500 39  0000 C CNN
F 2 "_Fab_Footprint:WM1387x06-REC" H 6350 4250 60  0001 C CNN
F 3 "" H 6350 4250 60  0001 C CNN
	1    6350 4300
	1    0    0    -1  
$EndComp
$Comp
L +3V3 #PWR016
U 1 1 5928A1A6
P 6150 4150
F 0 "#PWR016" H 6150 4000 60  0001 C CNN
F 1 "+3V3" H 6150 4290 60  0000 C CNN
F 2 "" H 6150 4150 60  0000 C CNN
F 3 "" H 6150 4150 60  0000 C CNN
	1    6150 4150
	1    0    0    -1  
$EndComp
$Comp
L GND #PWR017
U 1 1 5928A1AE
P 6350 4600
F 0 "#PWR017" H 6350 4350 60  0001 C CNN
F 1 "GND" H 6350 4450 60  0000 C CNN
F 2 "" H 6350 4600 60  0000 C CNN
F 3 "" H 6350 4600 60  0000 C CNN
	1    6350 4600
	1    0    0    -1  
$EndComp
$Comp
L JUMPER JP1
U 1 1 5928A8E9
P 4500 1700
F 0 "JP1" H 4500 1850 60  0000 C CNN
F 1 "JUMPER" H 4500 1620 40  0000 C CNN
F 2 "_Fab_Footprint:SolderJumper" H 4500 1700 60  0001 C CNN
F 3 "" H 4500 1700 60  0000 C CNN
	1    4500 1700
	0    -1   -1   0   
$EndComp
$Comp
L JUMPER JP2
U 1 1 5928AA26
P 4650 1700
F 0 "JP2" H 4650 1850 60  0000 C CNN
F 1 "JUMPER" H 4650 1620 40  0000 C CNN
F 2 "_Fab_Footprint:SolderJumper" H 4650 1700 60  0001 C CNN
F 3 "" H 4650 1700 60  0000 C CNN
	1    4650 1700
	0    1    1    0   
$EndComp
Text GLabel 6150 4250 0    30   Input ~ 0
SDA
Text GLabel 6150 4300 0    30   Input ~ 0
SCL
Text GLabel 6150 4350 0    30   Input ~ 0
SDI
Text GLabel 3350 2650 2    30   Input ~ 0
RX0
Text GLabel 3350 2600 2    30   Input ~ 0
TX0
Text GLabel 3350 2700 2    30   Input ~ 0
RTS0
Text GLabel 3350 2750 2    30   Input ~ 0
CTS0
Text GLabel 3350 2900 2    30   Input ~ 0
TX1
Text GLabel 3350 2950 2    30   Input ~ 0
RX1
Text GLabel 3350 3000 2    30   Input ~ 0
RTS1
Text GLabel 3350 3050 2    30   Input ~ 0
CTS1
Text GLabel 3350 3650 2    30   Input ~ 0
RTS3
Text GLabel 3350 3700 2    30   Input ~ 0
CTS3
Text GLabel 3350 3550 2    30   Input ~ 0
TX3
Text GLabel 3350 3600 2    30   Input ~ 0
RX3
Text GLabel 3400 3400 2    30   Input ~ 0
RTS2
Text GLabel 3400 3450 2    30   Input ~ 0
CTS2
Text GLabel 3400 3350 2    30   Input ~ 0
RX2
Text GLabel 3400 3300 2    30   Input ~ 0
TX2
$Comp
L +3V3 #PWR018
U 1 1 592946D5
P 1650 6150
F 0 "#PWR018" H 1650 6000 60  0001 C CNN
F 1 "+3V3" H 1650 6290 60  0000 C CNN
F 2 "" H 1650 6150 60  0000 C CNN
F 3 "" H 1650 6150 60  0000 C CNN
	1    1650 6150
	0    -1   -1   0   
$EndComp
Text GLabel 1650 6350 0    30   Input ~ 0
SWDCLK
Text GLabel 1650 6450 0    30   Input ~ 0
SWDIO
Text GLabel 1650 6250 0    30   Input ~ 0
RESET
Text GLabel 1650 6550 0    30   Input ~ 0
VRAW
Text GLabel 1650 5950 0    30   Input ~ 0
USBD-
Text GLabel 1650 6050 0    30   Input ~ 0
USBD+
$Comp
L ADP7102 U3
U 1 1 59296B32
P 2600 1400
F 0 "U3" H 2800 1150 60  0000 C CNN
F 1 "ADP7102" H 2550 1650 60  0000 C CNN
F 2 "Housings_DFN_QFN:DFN-8-1EP_3x3mm_Pitch0.5mm" H 2500 1450 60  0001 C CNN
F 3 "" H 2500 1450 60  0001 C CNN
	1    2600 1400
	1    0    0    -1  
$EndComp
Text GLabel 2250 1200 1    30   Input ~ 0
VRAW
$Comp
L GND #PWR019
U 1 1 59296FFC
P 2250 1600
F 0 "#PWR019" H 2250 1350 60  0001 C CNN
F 1 "GND" H 2250 1450 60  0000 C CNN
F 2 "" H 2250 1600 60  0000 C CNN
F 3 "" H 2250 1600 60  0000 C CNN
	1    2250 1600
	1    0    0    -1  
$EndComp
$Comp
L CAP C13
U 1 1 592973EE
P 2100 1400
F 0 "C13" H 2150 1325 20  0000 C CNN
F 1 "1uF" H 2100 1400 20  0000 C CNN
F 2 "Capacitors_SMD:C_0402_NoSilk" H 2100 1400 60  0001 C CNN
F 3 "" H 2100 1400 60  0001 C CNN
	1    2100 1400
	1    0    0    1   
$EndComp
$Comp
L +3V3 #PWR020
U 1 1 592978B2
P 3100 1200
F 0 "#PWR020" H 3100 1050 60  0001 C CNN
F 1 "+3V3" H 3100 1340 60  0000 C CNN
F 2 "" H 3100 1200 60  0000 C CNN
F 3 "" H 3100 1200 60  0000 C CNN
	1    3100 1200
	1    0    0    -1  
$EndComp
Text GLabel 2950 1000 1    30   Input ~ 0
VRAW
Text GLabel 1750 2100 0    30   Input ~ 0
RESET
$Comp
L CRYSTAL X1
U 1 1 592C71FF
P 3700 1950
F 0 "X1" H 3700 2100 60  0000 C CNN
F 1 "32.7kHz" H 3700 1800 60  0000 C CNN
F 2 "_Fab_Footprint:ABS06" H 3700 1950 60  0001 C CNN
F 3 "" H 3700 1950 60  0000 C CNN
	1    3700 1950
	1    0    0    -1  
$EndComp
$Comp
L CAP C14
U 1 1 592C72E9
P 3400 1800
F 0 "C14" H 3450 1725 20  0000 C CNN
F 1 "22pF" H 3400 1800 20  0000 C CNN
F 2 "Capacitors_SMD:C_0402_NoSilk" H 3400 1800 60  0001 C CNN
F 3 "" H 3400 1800 60  0001 C CNN
	1    3400 1800
	1    0    0    1   
$EndComp
$Comp
L CAP C15
U 1 1 592C73A5
P 4000 1800
F 0 "C15" H 4050 1725 20  0000 C CNN
F 1 "22pF" H 4000 1800 20  0000 C CNN
F 2 "Capacitors_SMD:C_0402_NoSilk" H 4000 1800 60  0001 C CNN
F 3 "" H 4000 1800 60  0001 C CNN
	1    4000 1800
	1    0    0    1   
$EndComp
$Comp
L GND #PWR021
U 1 1 592C745F
P 3700 1550
F 0 "#PWR021" H 3700 1300 60  0001 C CNN
F 1 "GND" H 3700 1400 60  0000 C CNN
F 2 "" H 3700 1550 60  0000 C CNN
F 3 "" H 3700 1550 60  0000 C CNN
	1    3700 1550
	1    0    0    -1  
$EndComp
Text GLabel 3350 2250 2    30   Input ~ 0
SS3/INT3
Text GLabel 3350 3200 2    30   Input ~ 0
SS2/INT2
$Comp
L RES R3
U 1 1 592DE9C7
P 1800 1950
F 0 "R3" H 1850 1875 20  0000 C CNN
F 1 "10k" V 1800 1950 20  0000 C CNN
F 2 "Resistors_SMD:R_0402_NoSilk" H 1800 1950 60  0001 C CNN
F 3 "" H 1800 1950 60  0001 C CNN
	1    1800 1950
	1    0    0    -1  
$EndComp
$Comp
L +3V3 #PWR022
U 1 1 592DED09
P 1800 1800
F 0 "#PWR022" H 1800 1650 60  0001 C CNN
F 1 "+3V3" H 1800 1940 60  0000 C CNN
F 2 "" H 1800 1800 60  0000 C CNN
F 3 "" H 1800 1800 60  0000 C CNN
	1    1800 1800
	1    0    0    -1  
$EndComp
$Comp
L GND #PWR023
U 1 1 592ED462
P 1650 6650
F 0 "#PWR023" H 1650 6400 60  0001 C CNN
F 1 "GND" H 1650 6500 60  0000 C CNN
F 2 "" H 1650 6650 60  0000 C CNN
F 3 "" H 1650 6650 60  0000 C CNN
	1    1650 6650
	0    1    1    0   
$EndComp
$Comp
L CONN_01X01 P1
U 1 1 594370A0
P 1900 5950
F 0 "P1" H 1900 6050 50  0000 C CNN
F 1 "CONN_01X01" V 2000 5950 50  0000 C CNN
F 2 "Measurement_Points:Measurement_Point_Round-TH_Small" H 1900 5950 60  0001 C CNN
F 3 "" H 1900 5950 60  0000 C CNN
	1    1900 5950
	1    0    0    -1  
$EndComp
$Comp
L CONN_01X01 P4
U 1 1 59437168
P 1900 6050
F 0 "P4" H 1900 6150 50  0000 C CNN
F 1 "CONN_01X01" V 2000 6050 50  0000 C CNN
F 2 "Measurement_Points:Measurement_Point_Round-TH_Small" H 1900 6050 60  0001 C CNN
F 3 "" H 1900 6050 60  0000 C CNN
	1    1900 6050
	1    0    0    -1  
$EndComp
$Comp
L CONN_01X01 P5
U 1 1 59437225
P 1900 6150
F 0 "P5" H 1900 6250 50  0000 C CNN
F 1 "CONN_01X01" V 2000 6150 50  0000 C CNN
F 2 "Measurement_Points:Measurement_Point_Round-TH_Small" H 1900 6150 60  0001 C CNN
F 3 "" H 1900 6150 60  0000 C CNN
	1    1900 6150
	1    0    0    -1  
$EndComp
$Comp
L CONN_01X01 P6
U 1 1 594372E3
P 1900 6250
F 0 "P6" H 1900 6350 50  0000 C CNN
F 1 "CONN_01X01" V 2000 6250 50  0000 C CNN
F 2 "Measurement_Points:Measurement_Point_Round-TH_Small" H 1900 6250 60  0001 C CNN
F 3 "" H 1900 6250 60  0000 C CNN
	1    1900 6250
	1    0    0    -1  
$EndComp
$Comp
L CONN_01X01 P7
U 1 1 594373A4
P 1900 6350
F 0 "P7" H 1900 6450 50  0000 C CNN
F 1 "CONN_01X01" V 2000 6350 50  0000 C CNN
F 2 "Measurement_Points:Measurement_Point_Round-TH_Small" H 1900 6350 60  0001 C CNN
F 3 "" H 1900 6350 60  0000 C CNN
	1    1900 6350
	1    0    0    -1  
$EndComp
$Comp
L CONN_01X01 P8
U 1 1 59437466
P 1900 6450
F 0 "P8" H 1900 6550 50  0000 C CNN
F 1 "CONN_01X01" V 2000 6450 50  0000 C CNN
F 2 "Measurement_Points:Measurement_Point_Round-TH_Small" H 1900 6450 60  0001 C CNN
F 3 "" H 1900 6450 60  0000 C CNN
	1    1900 6450
	1    0    0    -1  
$EndComp
$Comp
L CONN_01X01 P9
U 1 1 5943752B
P 1900 6550
F 0 "P9" H 1900 6650 50  0000 C CNN
F 1 "CONN_01X01" V 2000 6550 50  0000 C CNN
F 2 "Measurement_Points:Measurement_Point_Round-TH_Small" H 1900 6550 60  0001 C CNN
F 3 "" H 1900 6550 60  0000 C CNN
	1    1900 6550
	1    0    0    -1  
$EndComp
$Comp
L CONN_01X01 P10
U 1 1 594375F3
P 1900 6650
F 0 "P10" H 1900 6750 50  0000 C CNN
F 1 "CONN_01X01" V 2000 6650 50  0000 C CNN
F 2 "Measurement_Points:Measurement_Point_Round-TH_Small" H 1900 6650 60  0001 C CNN
F 3 "" H 1900 6650 60  0000 C CNN
	1    1900 6650
	1    0    0    -1  
$EndComp
Text GLabel 6150 4400 0    30   Input ~ 0
SS3/INT3
$Comp
L LED_Common_Anode L1
U 1 1 594862B6
P 3800 5700
F 0 "L1" H 3950 5450 30  0000 C CNN
F 1 "LED_Common_Anode" H 3625 5900 30  0000 C CNN
F 2 "_CSL:0606-LED" H 3800 5550 60  0001 C CNN
F 3 "" H 3800 5550 60  0001 C CNN
	1    3800 5700
	1    0    0    -1  
$EndComp
$Comp
L +3V3 #PWR024
U 1 1 59486456
P 3800 5500
F 0 "#PWR024" H 3800 5350 60  0001 C CNN
F 1 "+3V3" H 3800 5640 60  0000 C CNN
F 2 "" H 3800 5500 60  0000 C CNN
F 3 "" H 3800 5500 60  0000 C CNN
	1    3800 5500
	1    0    0    -1  
$EndComp
$Comp
L N-MOSFET Q1
U 1 1 594866D5
P 3550 6250
F 0 "Q1" H 3620 6140 30  0000 C CNN
F 1 "N-MOSFET" H 3565 6395 30  0000 C CNN
F 2 "_CSL:VML0806" H 3550 6250 60  0001 C CNN
F 3 "" H 3550 6250 60  0001 C CNN
	1    3550 6250
	1    0    0    1   
$EndComp
$Comp
L N-MOSFET Q2
U 1 1 5948696C
P 3800 6250
F 0 "Q2" H 3870 6140 30  0000 C CNN
F 1 "N-MOSFET" H 3815 6395 30  0000 C CNN
F 2 "_CSL:VML0806" H 3800 6250 60  0001 C CNN
F 3 "" H 3800 6250 60  0001 C CNN
	1    3800 6250
	1    0    0    1   
$EndComp
$Comp
L N-MOSFET Q3
U 1 1 59486B48
P 4050 6250
F 0 "Q3" H 4120 6140 30  0000 C CNN
F 1 "N-MOSFET" H 4065 6395 30  0000 C CNN
F 2 "_CSL:VML0806" H 4050 6250 60  0001 C CNN
F 3 "" H 4050 6250 60  0001 C CNN
	1    4050 6250
	1    0    0    1   
$EndComp
$Comp
L RES R5
U 1 1 59486C52
P 3800 6000
F 0 "R5" H 3850 5925 20  0000 C CNN
F 1 "10" V 3800 6000 20  0000 C CNN
F 2 "Resistors_SMD:R_0402_NoSilk" H 3800 6000 60  0001 C CNN
F 3 "" H 3800 6000 60  0001 C CNN
	1    3800 6000
	1    0    0    -1  
$EndComp
$Comp
L RES R6
U 1 1 59487159
P 3900 6000
F 0 "R6" H 3950 5925 20  0000 C CNN
F 1 "10" V 3900 6000 20  0000 C CNN
F 2 "Resistors_SMD:R_0402_NoSilk" H 3900 6000 60  0001 C CNN
F 3 "" H 3900 6000 60  0001 C CNN
	1    3900 6000
	1    0    0    -1  
$EndComp
$Comp
L RES R4
U 1 1 594871DF
P 3700 6000
F 0 "R4" H 3750 5925 20  0000 C CNN
F 1 "57.6" V 3700 6000 20  0000 C CNN
F 2 "Resistors_SMD:R_0402_NoSilk" H 3700 6000 60  0001 C CNN
F 3 "" H 3700 6000 60  0001 C CNN
	1    3700 6000
	1    0    0    -1  
$EndComp
Text GLabel 3400 6300 3    30   Input ~ 0
LED_R
Text GLabel 3650 6300 3    30   Input ~ 0
LED_G
Text GLabel 3900 6300 3    30   Input ~ 0
LED_B
$Comp
L GND #PWR025
U 1 1 59488ED6
P 3800 6600
F 0 "#PWR025" H 3800 6350 60  0001 C CNN
F 1 "GND" H 3800 6450 60  0000 C CNN
F 2 "" H 3800 6600 60  0000 C CNN
F 3 "" H 3800 6600 60  0000 C CNN
	1    3800 6600
	1    0    0    -1  
$EndComp
Text GLabel 3350 4250 2    30   Input ~ 0
LED_R
Text GLabel 3350 4200 2    30   Input ~ 0
LED_G
Text GLabel 3350 4650 2    30   Input ~ 0
LED_B
Wire Wire Line
	5350 1300 5250 1300
Wire Wire Line
	5350 1350 5250 1350
Wire Wire Line
	5350 1400 5250 1400
Wire Wire Line
	5350 1450 5250 1450
Wire Wire Line
	5350 1250 5050 1250
Wire Wire Line
	5050 1100 5050 1500
Wire Wire Line
	5050 1500 5350 1500
Wire Wire Line
	5300 1100 5700 1100
Wire Wire Line
	5500 1100 5500 1150
Wire Wire Line
	5700 1100 5700 1650
Wire Wire Line
	5700 1650 5300 1650
Wire Wire Line
	5500 1600 5500 1700
Connection ~ 5500 1100
Wire Wire Line
	5300 1650 5300 1550
Wire Wire Line
	5300 1550 5350 1550
Connection ~ 5500 1650
Wire Wire Line
	5300 1100 5300 1200
Wire Wire Line
	5300 1200 5350 1200
Connection ~ 5050 1250
Wire Wire Line
	1800 4700 1850 4700
Wire Wire Line
	1800 4500 1800 4750
Wire Wire Line
	1850 4650 1800 4650
Connection ~ 1800 4700
Wire Wire Line
	1850 4600 1800 4600
Connection ~ 1800 4650
Wire Wire Line
	1850 4550 1800 4550
Connection ~ 1800 4600
Wire Wire Line
	1850 4500 1800 4500
Connection ~ 1800 4550
Wire Wire Line
	3350 4550 3300 4550
Wire Wire Line
	3350 4500 3300 4500
Wire Wire Line
	5350 2150 5250 2150
Wire Wire Line
	5350 2200 5250 2200
Wire Wire Line
	5350 2250 5250 2250
Wire Wire Line
	5350 2300 5250 2300
Wire Wire Line
	5350 2100 5050 2100
Wire Wire Line
	5050 1950 5050 2350
Wire Wire Line
	5050 2350 5350 2350
Wire Wire Line
	5300 1950 5700 1950
Wire Wire Line
	5500 1950 5500 2000
Wire Wire Line
	5700 1950 5700 2500
Wire Wire Line
	5700 2500 5300 2500
Wire Wire Line
	5500 2450 5500 2550
Connection ~ 5500 1950
Wire Wire Line
	5300 2500 5300 2400
Wire Wire Line
	5300 2400 5350 2400
Connection ~ 5500 2500
Wire Wire Line
	5300 1950 5300 2050
Wire Wire Line
	5300 2050 5350 2050
Connection ~ 5050 2100
Wire Wire Line
	6200 1300 6100 1300
Wire Wire Line
	6200 1350 6100 1350
Wire Wire Line
	6200 1400 6100 1400
Wire Wire Line
	6200 1450 6100 1450
Wire Wire Line
	6200 1250 5900 1250
Wire Wire Line
	5900 1100 5900 1500
Wire Wire Line
	5900 1500 6200 1500
Wire Wire Line
	6150 1100 6550 1100
Wire Wire Line
	6350 1100 6350 1150
Wire Wire Line
	6550 1100 6550 1650
Wire Wire Line
	6550 1650 6150 1650
Wire Wire Line
	6350 1600 6350 1700
Connection ~ 6350 1100
Wire Wire Line
	6150 1650 6150 1550
Wire Wire Line
	6150 1550 6200 1550
Connection ~ 6350 1650
Wire Wire Line
	6150 1100 6150 1200
Wire Wire Line
	6150 1200 6200 1200
Connection ~ 5900 1250
Wire Wire Line
	6200 2150 6100 2150
Wire Wire Line
	6200 2200 6100 2200
Wire Wire Line
	6200 2250 6100 2250
Wire Wire Line
	6200 2300 6100 2300
Wire Wire Line
	6200 2100 5900 2100
Wire Wire Line
	5900 1950 5900 2350
Wire Wire Line
	5900 2350 6200 2350
Wire Wire Line
	6150 1950 6550 1950
Wire Wire Line
	6350 1950 6350 2000
Wire Wire Line
	6550 1950 6550 2500
Wire Wire Line
	6550 2500 6150 2500
Wire Wire Line
	6350 2450 6350 2550
Connection ~ 6350 1950
Wire Wire Line
	6150 2500 6150 2400
Wire Wire Line
	6150 2400 6200 2400
Connection ~ 6350 2500
Wire Wire Line
	6150 1950 6150 2050
Wire Wire Line
	6150 2050 6200 2050
Connection ~ 5900 2100
Wire Wire Line
	3350 4050 3300 4050
Wire Wire Line
	3350 4100 3300 4100
Wire Wire Line
	1850 2400 1800 2400
Wire Wire Line
	1800 2400 1800 2350
Wire Wire Line
	1500 2350 1850 2350
Wire Wire Line
	1500 2050 1500 2650
Connection ~ 1800 2350
Wire Wire Line
	1850 2500 1650 2500
Wire Wire Line
	1650 2350 1650 2650
Wire Wire Line
	1850 2600 1800 2600
Wire Wire Line
	1800 2600 1800 2650
Wire Wire Line
	1850 2250 1350 2250
Wire Wire Line
	1350 1850 1350 2650
Wire Wire Line
	1800 2850 1800 2950
Wire Wire Line
	1350 2900 1800 2900
Wire Wire Line
	1650 2900 1650 2850
Connection ~ 1800 2900
Wire Wire Line
	1500 2900 1500 2850
Connection ~ 1650 2900
Wire Wire Line
	1350 2900 1350 2850
Connection ~ 1500 2900
Connection ~ 1350 2250
Connection ~ 1500 2350
Connection ~ 1650 2350
Connection ~ 1650 2500
Wire Wire Line
	3300 4000 3350 4000
Wire Wire Line
	3300 3950 3350 3950
Wire Wire Line
	4500 1050 4500 1150
Wire Wire Line
	4500 1100 4650 1100
Wire Wire Line
	4650 1100 4650 1150
Connection ~ 4500 1100
Wire Wire Line
	3300 3800 3350 3800
Wire Wire Line
	6100 3100 6100 3150
Wire Wire Line
	6100 3150 6150 3150
Wire Wire Line
	5300 4100 5300 4150
Wire Wire Line
	5300 4150 5350 4150
Wire Wire Line
	5300 3000 5300 3050
Wire Wire Line
	5300 3050 5350 3050
Wire Wire Line
	6300 3450 6300 3550
Wire Wire Line
	6100 3500 6450 3500
Wire Wire Line
	6100 3500 6100 3400
Wire Wire Line
	6100 3400 6150 3400
Connection ~ 6300 3500
Wire Wire Line
	6450 3500 6450 3050
Wire Wire Line
	6450 3050 6300 3050
Wire Wire Line
	6300 3050 6300 3100
Wire Wire Line
	5500 4450 5500 4550
Wire Wire Line
	5300 4500 5650 4500
Wire Wire Line
	5300 4500 5300 4400
Wire Wire Line
	5300 4400 5350 4400
Connection ~ 5500 4500
Wire Wire Line
	5500 4100 5500 4050
Wire Wire Line
	5500 4050 5650 4050
Wire Wire Line
	5650 4050 5650 4500
Wire Wire Line
	5500 3350 5500 3450
Wire Wire Line
	5350 3300 5300 3300
Wire Wire Line
	5300 3300 5300 3400
Wire Wire Line
	5300 3400 5650 3400
Connection ~ 5500 3400
Wire Wire Line
	5650 3400 5650 2950
Wire Wire Line
	5650 2950 5500 2950
Wire Wire Line
	5500 2950 5500 3000
Wire Wire Line
	6100 3200 6150 3200
Wire Wire Line
	6100 3250 6150 3250
Wire Wire Line
	6100 3300 6150 3300
Wire Wire Line
	6100 3350 6150 3350
Wire Wire Line
	5300 4350 5350 4350
Wire Wire Line
	5300 4200 5350 4200
Wire Wire Line
	5300 4250 5350 4250
Wire Wire Line
	5300 4300 5350 4300
Wire Wire Line
	5350 3100 5300 3100
Wire Wire Line
	5350 3150 5300 3150
Wire Wire Line
	5350 3200 5300 3200
Wire Wire Line
	5350 3250 5300 3250
Wire Wire Line
	6150 4150 6150 4200
Wire Wire Line
	6150 4200 6200 4200
Wire Wire Line
	6350 4500 6350 4600
Wire Wire Line
	6200 4450 6150 4450
Wire Wire Line
	6150 4450 6150 4550
Wire Wire Line
	6150 4550 6500 4550
Connection ~ 6350 4550
Wire Wire Line
	6500 4550 6500 4100
Wire Wire Line
	6500 4100 6350 4100
Wire Wire Line
	6350 4100 6350 4150
Wire Wire Line
	6200 4250 6150 4250
Wire Wire Line
	6200 4300 6150 4300
Wire Wire Line
	6200 4350 6150 4350
Wire Wire Line
	6200 4400 6150 4400
Wire Wire Line
	4650 1350 4650 1400
Wire Wire Line
	4500 1350 4500 1400
Wire Wire Line
	4500 2000 4500 2050
Wire Wire Line
	4650 2000 4650 2050
Wire Wire Line
	3300 2600 3350 2600
Wire Wire Line
	3300 2650 3350 2650
Wire Wire Line
	3300 2700 3350 2700
Wire Wire Line
	3300 2750 3350 2750
Wire Wire Line
	3300 2900 3350 2900
Wire Wire Line
	3300 2950 3350 2950
Wire Wire Line
	3300 3000 3350 3000
Wire Wire Line
	3300 3050 3350 3050
Wire Wire Line
	3300 3700 3350 3700
Wire Wire Line
	3300 3650 3350 3650
Wire Wire Line
	3300 3600 3350 3600
Wire Wire Line
	3300 3550 3350 3550
Wire Wire Line
	1700 5950 1650 5950
Wire Wire Line
	1700 6050 1650 6050
Wire Wire Line
	1700 6550 1650 6550
Wire Wire Line
	1700 6350 1650 6350
Wire Wire Line
	1700 6450 1650 6450
Wire Wire Line
	2250 1200 2250 1250
Wire Wire Line
	2100 1250 2300 1250
Wire Wire Line
	2100 1550 2300 1550
Wire Wire Line
	2250 1450 2250 1600
Wire Wire Line
	2300 1500 2250 1500
Connection ~ 2250 1550
Wire Wire Line
	2300 1450 2250 1450
Connection ~ 2250 1500
Wire Wire Line
	2100 1500 2100 1550
Wire Wire Line
	2100 1250 2100 1300
Connection ~ 2250 1250
Wire Wire Line
	2900 1250 3100 1250
Wire Wire Line
	3100 1200 3100 1400
Wire Wire Line
	3100 1400 2900 1400
Connection ~ 3100 1250
Wire Wire Line
	2900 1350 2950 1350
Wire Wire Line
	2950 1350 2950 1000
Wire Wire Line
	1750 2100 1850 2100
Wire Wire Line
	3700 1550 3700 1500
Wire Wire Line
	3400 1500 4000 1500
Wire Wire Line
	4000 1500 4000 1700
Wire Wire Line
	3400 1500 3400 1700
Connection ~ 3700 1500
Wire Wire Line
	3400 1900 3400 2100
Wire Wire Line
	4000 1900 4000 2150
Wire Wire Line
	3400 2100 3300 2100
Connection ~ 3400 1950
Wire Wire Line
	4000 2150 3300 2150
Connection ~ 4000 1950
Wire Wire Line
	3300 2250 3350 2250
Wire Wire Line
	3300 4350 3350 4350
Wire Wire Line
	3300 3450 3400 3450
Wire Wire Line
	1800 2050 1800 2100
Connection ~ 1800 2100
Wire Wire Line
	1800 1800 1800 1850
Wire Wire Line
	1700 6250 1650 6250
Wire Wire Line
	1700 6150 1650 6150
Wire Wire Line
	1650 6650 1700 6650
Wire Wire Line
	3300 3300 3400 3300
Wire Wire Line
	3300 3350 3400 3350
Wire Wire Line
	3300 3400 3400 3400
Wire Wire Line
	3300 3200 3350 3200
Wire Wire Line
	3800 5500 3800 5550
Wire Wire Line
	3800 5850 3800 5900
Wire Wire Line
	3800 6100 3800 6200
Wire Wire Line
	3700 5850 3700 5900
Wire Wire Line
	3900 5850 3900 5900
Wire Wire Line
	3900 6100 3900 6150
Wire Wire Line
	3900 6150 4050 6150
Wire Wire Line
	4050 6150 4050 6200
Wire Wire Line
	3700 6100 3700 6150
Wire Wire Line
	3700 6150 3550 6150
Wire Wire Line
	3550 6150 3550 6200
Wire Wire Line
	3400 6300 3400 6250
Wire Wire Line
	3400 6250 3450 6250
Wire Wire Line
	3700 6250 3650 6250
Wire Wire Line
	3650 6250 3650 6300
Wire Wire Line
	3950 6250 3900 6250
Wire Wire Line
	3900 6250 3900 6300
Wire Wire Line
	3800 6350 3800 6600
Wire Wire Line
	3550 6550 4050 6550
Wire Wire Line
	4050 6550 4050 6350
Connection ~ 3800 6550
Wire Wire Line
	3550 6550 3550 6350
Wire Wire Line
	3300 4650 3350 4650
Wire Wire Line
	3300 4200 3350 4200
Wire Wire Line
	3300 4250 3350 4250
Wire Wire Line
	3300 3850 3350 3850
Text GLabel 3350 2500 2    30   Input ~ 0
SS1/INT1
Wire Wire Line
	3300 2500 3350 2500
$Comp
L LM2775 U1
U 1 1 594B01C2
P 5950 5400
F 0 "U1" H 6125 5225 30  0000 C CNN
F 1 "LM2775" H 5850 5625 30  0000 C CNN
F 2 "Housings_DFN_QFN:DFN-8-1EP_2x2mm_Pitch0.5mm" H 5950 5400 60  0001 C CNN
F 3 "" H 5950 5400 60  0001 C CNN
	1    5950 5400
	1    0    0    -1  
$EndComp
$Comp
L APA102-2020 A1
U 1 1 594B08C8
P 7200 5850
F 0 "A1" H 7325 5675 30  0000 C CNN
F 1 "APA102-2020" H 7200 6025 30  0000 C CNN
F 2 "_CSL:APA102-2020" H 7200 5850 60  0001 C CNN
F 3 "" H 7200 5850 60  0001 C CNN
	1    7200 5850
	1    0    0    -1  
$EndComp
$Comp
L NTS0102 U4
U 1 1 594B0DDB
P 7200 5100
F 0 "U4" H 7350 4850 30  0000 C CNN
F 1 "NTS0102" H 7100 5300 30  0000 C CNN
F 2 "_CSL:XQFN-8-1.4x1.2" H 7200 5050 60  0001 C CNN
F 3 "" H 7200 5050 60  0001 C CNN
	1    7200 5100
	1    0    0    -1  
$EndComp
$Comp
L WM1386x06 C16
U 1 1 594B147E
P 4850 5700
F 0 "C16" H 4975 5450 39  0000 C CNN
F 1 "WM1386x06" H 4675 5900 39  0000 C CNN
F 2 "_Fab_Footprint:WM1387x06-REC" H 4850 5650 60  0001 C CNN
F 3 "" H 4850 5650 60  0001 C CNN
	1    4850 5700
	-1   0    0    1   
$EndComp
Text GLabel 5050 5600 2    30   Input ~ 0
SDAL
Text GLabel 5050 5650 2    30   Input ~ 0
SCLL
Text GLabel 5050 5700 2    30   Input ~ 0
SDIL
Text GLabel 5050 5750 2    30   Input ~ 0
CSL
Text GLabel 5050 5500 1    30   Input ~ 0
3v3L
Text GLabel 5050 5950 3    30   Input ~ 0
GNDL
Wire Wire Line
	5000 5550 5050 5550
Wire Wire Line
	5050 5550 5050 5500
Wire Wire Line
	5000 5600 5050 5600
Wire Wire Line
	5000 5650 5050 5650
Wire Wire Line
	5000 5700 5050 5700
Wire Wire Line
	5000 5750 5050 5750
Wire Wire Line
	5000 5800 5050 5800
Wire Wire Line
	5050 5800 5050 5950
Wire Wire Line
	4700 5900 5050 5900
Wire Wire Line
	4850 5900 4850 5850
Connection ~ 5050 5900
Wire Wire Line
	4700 5900 4700 5450
Wire Wire Line
	4700 5450 4850 5450
Wire Wire Line
	4850 5450 4850 5500
Connection ~ 4850 5900
Text GLabel 5650 5200 1    30   Input ~ 0
3v3L
Wire Wire Line
	5650 5200 5650 5550
Wire Wire Line
	5450 5250 5700 5250
Wire Wire Line
	5650 5350 5700 5350
Connection ~ 5650 5250
Wire Wire Line
	5650 5400 5700 5400
Connection ~ 5650 5350
Wire Wire Line
	5650 5550 5700 5550
Text GLabel 6900 5250 0    30   Input ~ 0
CSL
Wire Wire Line
	6900 5250 6950 5250
Text GLabel 6250 5100 1    30   Input ~ 0
5VL
Wire Wire Line
	6250 5250 6200 5250
Wire Wire Line
	6250 5100 6250 5250
Text GLabel 6950 5700 1    30   Input ~ 0
5VL
Wire Wire Line
	6950 5700 6950 5800
Wire Wire Line
	6950 5800 7000 5800
Wire Wire Line
	7000 5750 6950 5750
Connection ~ 6950 5750
Wire Wire Line
	6900 5950 7000 5950
Wire Wire Line
	6900 5900 7000 5900
Text GLabel 6250 5750 3    30   Input ~ 0
GNDL
Wire Wire Line
	6200 5500 6250 5500
Wire Wire Line
	6250 5500 6250 5750
Wire Wire Line
	6200 5550 6250 5550
Connection ~ 6250 5550
$Comp
L CAP C18
U 1 1 594B47EC
P 6350 5400
F 0 "C18" H 6400 5325 20  0000 C CNN
F 1 "1uF" H 6350 5400 20  0000 C CNN
F 2 "Capacitors_SMD:C_0402_NoSilk" H 6350 5400 60  0001 C CNN
F 3 "" H 6350 5400 60  0001 C CNN
	1    6350 5400
	1    0    0    1   
$EndComp
Wire Wire Line
	6200 5350 6300 5350
Wire Wire Line
	6300 5350 6300 5250
Wire Wire Line
	6300 5250 6350 5250
Wire Wire Line
	6350 5250 6350 5300
Wire Wire Line
	6200 5400 6300 5400
Wire Wire Line
	6300 5400 6300 5550
Wire Wire Line
	6300 5550 6350 5550
Wire Wire Line
	6350 5550 6350 5500
Text GLabel 6900 4950 1    30   Input ~ 0
3v3L
Wire Wire Line
	6900 4950 6900 5000
Wire Wire Line
	6900 5000 6950 5000
Text GLabel 6900 5100 0    30   Input ~ 0
SDAL
Text GLabel 6900 5150 0    30   Input ~ 0
SCLL
Wire Wire Line
	6900 5100 6950 5100
Wire Wire Line
	6900 5150 6950 5150
Text GLabel 7500 5100 2    30   Input ~ 0
SDAH
Text GLabel 7500 5150 2    30   Input ~ 0
SCLH
Wire Wire Line
	7450 5100 7500 5100
Wire Wire Line
	7450 5150 7500 5150
Text GLabel 7500 4950 1    30   Input ~ 0
5VL
Wire Wire Line
	7450 5000 7500 5000
Wire Wire Line
	7500 5000 7500 4950
Text GLabel 7500 5300 3    30   Input ~ 0
GNDL
Wire Wire Line
	7450 5250 7500 5250
Wire Wire Line
	7500 5250 7500 5300
Text GLabel 6900 5900 0    30   Input ~ 0
SCLH
Text GLabel 6900 5950 0    30   Input ~ 0
SDAH
Text GLabel 7650 5950 3    30   Input ~ 0
GNDL
Wire Wire Line
	7400 5750 7650 5750
Wire Wire Line
	7650 5750 7650 5950
Wire Wire Line
	7400 5800 7650 5800
Connection ~ 7650 5800
$Comp
L CAP C17
U 1 1 594B71B4
P 5450 5450
F 0 "C17" H 5500 5375 20  0000 C CNN
F 1 "10uF" H 5450 5450 20  0000 C CNN
F 2 "Capacitors_SMD:C_0402_NoSilk" H 5450 5450 60  0001 C CNN
F 3 "" H 5450 5450 60  0001 C CNN
	1    5450 5450
	1    0    0    1   
$EndComp
$Comp
L CAP C19
U 1 1 594B7254
P 6500 5400
F 0 "C19" H 6550 5325 20  0000 C CNN
F 1 "10uF" H 6500 5400 20  0000 C CNN
F 2 "Capacitors_SMD:C_0402_NoSilk" H 6500 5400 60  0001 C CNN
F 3 "" H 6500 5400 60  0001 C CNN
	1    6500 5400
	1    0    0    1   
$EndComp
Wire Wire Line
	6250 5200 6500 5200
Wire Wire Line
	6500 5200 6500 5300
Connection ~ 6250 5200
Wire Wire Line
	6500 5500 6500 5600
Wire Wire Line
	6500 5600 6250 5600
Connection ~ 6250 5600
Wire Wire Line
	6250 5650 5450 5650
Wire Wire Line
	5450 5650 5450 5550
Connection ~ 6250 5650
Wire Wire Line
	5450 5350 5450 5250
Connection ~ 5650 5400
$EndSCHEMATC
