(export (version D)
  (design
    (source /Users/dcellucci/gitlab/Sticker-Sensor/Skin-Sensor/V3_NODE/Skin-Sensor-V3.sch)
    (date "Thursday, June 22, 2017 'AMt' 11:33:51 AM")
    (tool "Eeschema 4.0.4-stable")
    (sheet (number 1) (name /) (tstamps /)
      (title_block
        (title)
        (company)
        (rev)
        (date)
        (source Skin-Sensor-V3.sch)
        (comment (number 1) (value ""))
        (comment (number 2) (value ""))
        (comment (number 3) (value ""))
        (comment (number 4) (value "")))))
  (components
    (comp (ref U2)
      (value ATSAMD21G18A)
      (footprint _Fab_Footprint:QFN-48-1EP_7x7mm_Pitch0.5mm)
      (libsource (lib CSL_uP) (part ATSAMD21G18A))
      (sheetpath (names /) (tstamps /))
      (tstamp 5927776B))
    (comp (ref C5)
      (value WM1386x08)
      (footprint _Fab_Footprint:WM1388x08-REC)
      (libsource (lib CSL_Conn) (part WM1386x08))
      (sheetpath (names /) (tstamps /))
      (tstamp 5927B934))
    (comp (ref C6)
      (value WM1386x08)
      (footprint _Fab_Footprint:WM1388x08-REC)
      (libsource (lib CSL_Conn) (part WM1386x08))
      (sheetpath (names /) (tstamps /))
      (tstamp 5927C852))
    (comp (ref C11)
      (value WM1386x08)
      (footprint _Fab_Footprint:WM1388x08-REC)
      (libsource (lib CSL_Conn) (part WM1386x08))
      (sheetpath (names /) (tstamps /))
      (tstamp 5927C8BB))
    (comp (ref C12)
      (value WM1386x08)
      (footprint _Fab_Footprint:WM1388x08-REC)
      (libsource (lib CSL_Conn) (part WM1386x08))
      (sheetpath (names /) (tstamps /))
      (tstamp 5927C8E4))
    (comp (ref C4)
      (value 0.1uF)
      (footprint Capacitors_SMD:C_0402_NoSilk)
      (libsource (lib Fab) (part CAP))
      (sheetpath (names /) (tstamps /))
      (tstamp 5927D90F))
    (comp (ref C3)
      (value 0.1uF)
      (footprint Capacitors_SMD:C_0402_NoSilk)
      (libsource (lib Fab) (part CAP))
      (sheetpath (names /) (tstamps /))
      (tstamp 5927D966))
    (comp (ref C2)
      (value 0.1uF)
      (footprint Capacitors_SMD:C_0402_NoSilk)
      (libsource (lib Fab) (part CAP))
      (sheetpath (names /) (tstamps /))
      (tstamp 5927D990))
    (comp (ref C1)
      (value 0.1uF)
      (footprint Capacitors_SMD:C_0402_NoSilk)
      (libsource (lib Fab) (part CAP))
      (sheetpath (names /) (tstamps /))
      (tstamp 5927D9BD))
    (comp (ref R1)
      (value 10k)
      (footprint Resistors_SMD:R_0402_NoSilk)
      (libsource (lib Fab) (part RES))
      (sheetpath (names /) (tstamps /))
      (tstamp 59285D97))
    (comp (ref R2)
      (value 10k)
      (footprint Resistors_SMD:R_0402_NoSilk)
      (libsource (lib Fab) (part RES))
      (sheetpath (names /) (tstamps /))
      (tstamp 59285E04))
    (comp (ref C7)
      (value WM1386x06)
      (footprint _Fab_Footprint:WM1387x06-REC)
      (libsource (lib CSL_Conn) (part WM1386x06))
      (sheetpath (names /) (tstamps /))
      (tstamp 59286B03))
    (comp (ref C9)
      (value WM1386x06)
      (footprint _Fab_Footprint:WM1387x06-REC)
      (libsource (lib CSL_Conn) (part WM1386x06))
      (sheetpath (names /) (tstamps /))
      (tstamp 59286B66))
    (comp (ref C8)
      (value WM1386x06)
      (footprint _Fab_Footprint:WM1387x06-REC)
      (libsource (lib CSL_Conn) (part WM1386x06))
      (sheetpath (names /) (tstamps /))
      (tstamp 59286BB3))
    (comp (ref C10)
      (value WM1386x06)
      (footprint _Fab_Footprint:WM1387x06-REC)
      (libsource (lib CSL_Conn) (part WM1386x06))
      (sheetpath (names /) (tstamps /))
      (tstamp 5928A1A0))
    (comp (ref JP1)
      (value JUMPER)
      (footprint _Fab_Footprint:SolderJumper)
      (libsource (lib device) (part JUMPER))
      (sheetpath (names /) (tstamps /))
      (tstamp 5928A8E9))
    (comp (ref JP2)
      (value JUMPER)
      (footprint _Fab_Footprint:SolderJumper)
      (libsource (lib device) (part JUMPER))
      (sheetpath (names /) (tstamps /))
      (tstamp 5928AA26))
    (comp (ref U3)
      (value ADP7102)
      (footprint Housings_DFN_QFN:DFN-8-1EP_3x3mm_Pitch0.5mm)
      (libsource (lib CSL_Power) (part ADP7102))
      (sheetpath (names /) (tstamps /))
      (tstamp 59296B32))
    (comp (ref C13)
      (value 1uF)
      (footprint Capacitors_SMD:C_0402_NoSilk)
      (libsource (lib Fab) (part CAP))
      (sheetpath (names /) (tstamps /))
      (tstamp 592973EE))
    (comp (ref X1)
      (value 32.7kHz)
      (footprint _Fab_Footprint:ABS06)
      (libsource (lib device) (part CRYSTAL))
      (sheetpath (names /) (tstamps /))
      (tstamp 592C71FF))
    (comp (ref C14)
      (value 22pF)
      (footprint Capacitors_SMD:C_0402_NoSilk)
      (libsource (lib Fab) (part CAP))
      (sheetpath (names /) (tstamps /))
      (tstamp 592C72E9))
    (comp (ref C15)
      (value 22pF)
      (footprint Capacitors_SMD:C_0402_NoSilk)
      (libsource (lib Fab) (part CAP))
      (sheetpath (names /) (tstamps /))
      (tstamp 592C73A5))
    (comp (ref R3)
      (value 10k)
      (footprint Resistors_SMD:R_0402_NoSilk)
      (libsource (lib Fab) (part RES))
      (sheetpath (names /) (tstamps /))
      (tstamp 592DE9C7))
    (comp (ref P1)
      (value CONN_01X01)
      (footprint Measurement_Points:Measurement_Point_Round-TH_Small)
      (libsource (lib conn) (part CONN_01X01))
      (sheetpath (names /) (tstamps /))
      (tstamp 594370A0))
    (comp (ref P4)
      (value CONN_01X01)
      (footprint Measurement_Points:Measurement_Point_Round-TH_Small)
      (libsource (lib conn) (part CONN_01X01))
      (sheetpath (names /) (tstamps /))
      (tstamp 59437168))
    (comp (ref P5)
      (value CONN_01X01)
      (footprint Measurement_Points:Measurement_Point_Round-TH_Small)
      (libsource (lib conn) (part CONN_01X01))
      (sheetpath (names /) (tstamps /))
      (tstamp 59437225))
    (comp (ref P6)
      (value CONN_01X01)
      (footprint Measurement_Points:Measurement_Point_Round-TH_Small)
      (libsource (lib conn) (part CONN_01X01))
      (sheetpath (names /) (tstamps /))
      (tstamp 594372E3))
    (comp (ref P7)
      (value CONN_01X01)
      (footprint Measurement_Points:Measurement_Point_Round-TH_Small)
      (libsource (lib conn) (part CONN_01X01))
      (sheetpath (names /) (tstamps /))
      (tstamp 594373A4))
    (comp (ref P8)
      (value CONN_01X01)
      (footprint Measurement_Points:Measurement_Point_Round-TH_Small)
      (libsource (lib conn) (part CONN_01X01))
      (sheetpath (names /) (tstamps /))
      (tstamp 59437466))
    (comp (ref P9)
      (value CONN_01X01)
      (footprint Measurement_Points:Measurement_Point_Round-TH_Small)
      (libsource (lib conn) (part CONN_01X01))
      (sheetpath (names /) (tstamps /))
      (tstamp 5943752B))
    (comp (ref P10)
      (value CONN_01X01)
      (footprint Measurement_Points:Measurement_Point_Round-TH_Small)
      (libsource (lib conn) (part CONN_01X01))
      (sheetpath (names /) (tstamps /))
      (tstamp 594375F3))
    (comp (ref L1)
      (value LED_Common_Anode)
      (footprint _CSL:0606-LED)
      (libsource (lib CSL_Opto) (part LED_Common_Anode))
      (sheetpath (names /) (tstamps /))
      (tstamp 594862B6))
    (comp (ref Q1)
      (value N-MOSFET)
      (footprint _CSL:VML0806)
      (libsource (lib Fab) (part N-MOSFET))
      (sheetpath (names /) (tstamps /))
      (tstamp 594866D5))
    (comp (ref Q2)
      (value N-MOSFET)
      (footprint _CSL:VML0806)
      (libsource (lib Fab) (part N-MOSFET))
      (sheetpath (names /) (tstamps /))
      (tstamp 5948696C))
    (comp (ref Q3)
      (value N-MOSFET)
      (footprint _CSL:VML0806)
      (libsource (lib Fab) (part N-MOSFET))
      (sheetpath (names /) (tstamps /))
      (tstamp 59486B48))
    (comp (ref R5)
      (value 10)
      (footprint Resistors_SMD:R_0402_NoSilk)
      (libsource (lib Fab) (part RES))
      (sheetpath (names /) (tstamps /))
      (tstamp 59486C52))
    (comp (ref R6)
      (value 10)
      (footprint Resistors_SMD:R_0402_NoSilk)
      (libsource (lib Fab) (part RES))
      (sheetpath (names /) (tstamps /))
      (tstamp 59487159))
    (comp (ref R4)
      (value 57.6)
      (footprint Resistors_SMD:R_0402_NoSilk)
      (libsource (lib Fab) (part RES))
      (sheetpath (names /) (tstamps /))
      (tstamp 594871DF))
    (comp (ref U1)
      (value LM2775)
      (footprint Housings_DFN_QFN:DFN-8-1EP_2x2mm_Pitch0.5mm)
      (libsource (lib CSL_Power) (part LM2775))
      (sheetpath (names /) (tstamps /))
      (tstamp 594B01C2))
    (comp (ref A1)
      (value APA102-2020)
      (footprint _CSL:APA102-2020)
      (libsource (lib CSL_Opto) (part APA102-2020))
      (sheetpath (names /) (tstamps /))
      (tstamp 594B08C8))
    (comp (ref U4)
      (value NTS0102)
      (footprint _CSL:XQFN-8-1.4x1.2)
      (libsource (lib CSL_uP) (part NTS0102))
      (sheetpath (names /) (tstamps /))
      (tstamp 594B0DDB))
    (comp (ref C16)
      (value WM1386x06)
      (footprint _Fab_Footprint:WM1387x06-REC)
      (libsource (lib CSL_Conn) (part WM1386x06))
      (sheetpath (names /) (tstamps /))
      (tstamp 594B147E))
    (comp (ref C18)
      (value 1uF)
      (footprint Capacitors_SMD:C_0402_NoSilk)
      (libsource (lib Fab) (part CAP))
      (sheetpath (names /) (tstamps /))
      (tstamp 594B47EC))
    (comp (ref C17)
      (value 10uF)
      (footprint Capacitors_SMD:C_0402_NoSilk)
      (libsource (lib Fab) (part CAP))
      (sheetpath (names /) (tstamps /))
      (tstamp 594B71B4))
    (comp (ref C19)
      (value 10uF)
      (footprint Capacitors_SMD:C_0402_NoSilk)
      (libsource (lib Fab) (part CAP))
      (sheetpath (names /) (tstamps /))
      (tstamp 594B7254))
    (comp (ref U5)
      (value ZLDO330)
      (footprint TO_SOT_Packages_SMD:SOT-223-8)
      (libsource (lib CSL_Power) (part ZLDO330))
      (sheetpath (names /) (tstamps /))
      (tstamp 594C1001)))
  (libparts
    (libpart (lib CSL_Power) (part ADP7102)
      (fields
        (field (name Reference) U)
        (field (name Value) ADP7102))
      (pins
        (pin (num 1) (name VOUT) (type passive))
        (pin (num 2) (name SEN/ADJ) (type passive))
        (pin (num 3) (name GND) (type passive))
        (pin (num 5) (name EN/UVLO) (type passive))
        (pin (num 6) (name GND) (type passive))
        (pin (num 7) (name PG) (type passive))
        (pin (num 8) (name VIN) (type passive))
        (pin (num 9) (name GND) (type passive))))
    (libpart (lib CSL_Opto) (part APA102-2020)
      (fields
        (field (name Reference) A)
        (field (name Value) APA102-2020))
      (pins
        (pin (num 1) (name VDD) (type input))
        (pin (num 2) (name CKO) (type input))
        (pin (num 3) (name SDO) (type input))
        (pin (num 4) (name SDI) (type input))
        (pin (num 5) (name CKI) (type input))
        (pin (num 6) (name GND) (type input))
        (pin (num 7) (name VDD) (type input))
        (pin (num 8) (name GND) (type input))))
    (libpart (lib CSL_uP) (part ATSAMD21G18A)
      (description "48-pin Atmel SMART D21 Microcontroller")
      (fields
        (field (name Reference) U)
        (field (name Value) ATSAMD21G18A))
      (pins
        (pin (num 1) (name XI32|A00) (type BiDi))
        (pin (num 2) (name XO32|A01) (type BiDi))
        (pin (num 3) (name DAC|A02) (type BiDi))
        (pin (num 4) (name A03) (type BiDi))
        (pin (num 5) (name GNDANA) (type BiDi))
        (pin (num 6) (name VDDANA) (type BiDi))
        (pin (num 7) (name B08) (type BiDi))
        (pin (num 8) (name B09) (type BiDi))
        (pin (num 9) (name A04) (type BiDi))
        (pin (num 10) (name A05) (type BiDi))
        (pin (num 11) (name A06) (type BiDi))
        (pin (num 12) (name A07) (type BiDi))
        (pin (num 13) (name NMI|A08) (type BiDi))
        (pin (num 14) (name A09) (type BiDi))
        (pin (num 15) (name A10) (type BiDi))
        (pin (num 16) (name A11) (type BiDi))
        (pin (num 17) (name VDDIO) (type BiDi))
        (pin (num 18) (name GND) (type BiDi))
        (pin (num 19) (name B10) (type BiDi))
        (pin (num 20) (name B11) (type BiDi))
        (pin (num 21) (name A12) (type input))
        (pin (num 22) (name A13) (type input))
        (pin (num 23) (name XIN|A14) (type input))
        (pin (num 24) (name XOUT|A15) (type input))
        (pin (num 25) (name A16) (type input))
        (pin (num 26) (name A17) (type input))
        (pin (num 27) (name A18) (type input))
        (pin (num 28) (name A19) (type input))
        (pin (num 29) (name A20) (type input))
        (pin (num 30) (name A21) (type input))
        (pin (num 31) (name A22) (type input))
        (pin (num 32) (name SOF|A23) (type input))
        (pin (num 33) (name D-|A24) (type input))
        (pin (num 34) (name D+|A25) (type input))
        (pin (num 35) (name GND) (type BiDi))
        (pin (num 36) (name VDDIO) (type BiDi))
        (pin (num 37) (name B22) (type input))
        (pin (num 38) (name B23) (type input))
        (pin (num 39) (name A27) (type input))
        (pin (num 40) (name ~RESET) (type BiDi))
        (pin (num 41) (name A28) (type input))
        (pin (num 42) (name GND) (type BiDi))
        (pin (num 43) (name VDDCORE) (type BiDi))
        (pin (num 44) (name VDDIN) (type BiDi))
        (pin (num 45) (name SWC|A30) (type input))
        (pin (num 46) (name SWD|A31) (type input))
        (pin (num 47) (name B02) (type input))
        (pin (num 48) (name B03) (type input))
        (pin (num 49) (name GND) (type BiDi))))
    (libpart (lib Fab) (part CAP)
      (fields
        (field (name Reference) C)
        (field (name Value) CAP))
      (pins
        (pin (num 1) (name ~) (type input))
        (pin (num 2) (name ~) (type input))))
    (libpart (lib conn) (part CONN_01X01)
      (footprints
        (fp Pin_Header_Straight_1X01)
        (fp Pin_Header_Angled_1X01)
        (fp Socket_Strip_Straight_1X01)
        (fp Socket_Strip_Angled_1X01))
      (fields
        (field (name Reference) P)
        (field (name Value) CONN_01X01))
      (pins
        (pin (num 1) (name P1) (type passive))))
    (libpart (lib device) (part CRYSTAL)
      (fields
        (field (name Reference) X)
        (field (name Value) CRYSTAL))
      (pins
        (pin (num 1) (name 1) (type passive))
        (pin (num 2) (name 2) (type passive))))
    (libpart (lib device) (part JUMPER)
      (fields
        (field (name Reference) JP)
        (field (name Value) JUMPER))
      (pins
        (pin (num 1) (name 1) (type passive))
        (pin (num 2) (name 2) (type passive))))
    (libpart (lib CSL_Opto) (part LED_Common_Anode)
      (fields
        (field (name Reference) L)
        (field (name Value) LED_Common_Anode))
      (pins
        (pin (num 1) (name R) (type input))
        (pin (num 2) (name G) (type input))
        (pin (num 3) (name B) (type input))
        (pin (num 4) (name +) (type input))))
    (libpart (lib CSL_Power) (part LM2775)
      (fields
        (field (name Reference) U)
        (field (name Value) LM2775))
      (pins
        (pin (num 1) (name PFM) (type input))
        (pin (num 2) (name C1-) (type input))
        (pin (num 3) (name C1+) (type input))
        (pin (num 4) (name OUTDIS) (type input))
        (pin (num 5) (name EN) (type input))
        (pin (num 6) (name VOUT) (type input))
        (pin (num 7) (name VIN) (type input))
        (pin (num 8) (name GND) (type input))
        (pin (num 9) (name GND) (type input))))
    (libpart (lib Fab) (part N-MOSFET)
      (fields
        (field (name Reference) Q)
        (field (name Value) N-MOSFET))
      (pins
        (pin (num 1) (name ~) (type input))
        (pin (num 2) (name ~) (type input))
        (pin (num 3) (name ~) (type input))))
    (libpart (lib CSL_uP) (part NTS0102)
      (fields
        (field (name Reference) U)
        (field (name Value) NTS0102))
      (pins
        (pin (num 1) (name B2) (type input))
        (pin (num 2) (name GND) (type input))
        (pin (num 3) (name VCCA) (type input))
        (pin (num 4) (name A2) (type input))
        (pin (num 5) (name A1) (type input))
        (pin (num 6) (name OE) (type input))
        (pin (num 7) (name VCCB) (type input))
        (pin (num 8) (name B1) (type input))))
    (libpart (lib Fab) (part RES)
      (fields
        (field (name Reference) R)
        (field (name Value) RES))
      (pins
        (pin (num 1) (name ~) (type input))
        (pin (num 2) (name ~) (type input))))
    (libpart (lib CSL_Conn) (part WM1386x06)
      (fields
        (field (name Reference) C)
        (field (name Value) WM1386x06))
      (pins
        (pin (num 1) (name ~) (type input))
        (pin (num 2) (name ~) (type input))
        (pin (num 3) (name ~) (type input))
        (pin (num 4) (name ~) (type input))
        (pin (num 5) (name ~) (type BiDi))
        (pin (num 6) (name ~) (type BiDi))
        (pin (num 7) (name ~) (type input))))
    (libpart (lib CSL_Conn) (part WM1386x08)
      (fields
        (field (name Reference) C)
        (field (name Value) WM1386x08))
      (pins
        (pin (num 1) (name ~) (type input))
        (pin (num 2) (name ~) (type input))
        (pin (num 3) (name ~) (type input))
        (pin (num 4) (name ~) (type input))
        (pin (num 5) (name ~) (type BiDi))
        (pin (num 6) (name ~) (type BiDi))
        (pin (num 7) (name ~) (type input))
        (pin (num 8) (name ~) (type input))
        (pin (num 9) (name ~) (type input))))
    (libpart (lib CSL_Power) (part ZLDO330)
      (fields
        (field (name Reference) U)
        (field (name Value) ZLDO330))
      (pins
        (pin (num 1) (name LBF) (type input))
        (pin (num 2) (name SC) (type input))
        (pin (num 3) (name VIN) (type input))
        (pin (num 5) (name VOUT) (type input))
        (pin (num 7) (name GND) (type input))
        (pin (num 8) (name SPG) (type input)))))
  (libraries
    (library (logical conn)
      (uri "/Users/dcellucci/Library/Application Support/kicad/library/conn.lib"))
    (library (logical device)
      (uri "/Users/dcellucci/Library/Application Support/kicad/library/device.lib"))
    (library (logical CSL_Power)
      (uri /Users/dcellucci/gitlab/CSL-Part-Library/KICAD/Components/CSL_Power.lib))
    (library (logical CSL_Conn)
      (uri /Users/dcellucci/gitlab/CSL-Part-Library/KICAD/Components/CSL_Conn.lib))
    (library (logical CSL_Opto)
      (uri /Users/dcellucci/gitlab/CSL-Part-Library/KICAD/Components/CSL_Opto.lib))
    (library (logical CSL_uP)
      (uri /Users/dcellucci/gitlab/CSL-Part-Library/KICAD/Components/CSL_uP.lib))
    (library (logical Fab)
      (uri /Users/dcellucci/gitlab/CSL-Part-Library/KICAD/Components/Fab.lib)))
  (nets
    (net (code 1) (name SS2/INT2)
      (node (ref C8) (pin 5))
      (node (ref U2) (pin 20)))
    (net (code 2) (name SS3/INT3)
      (node (ref U2) (pin 3))
      (node (ref C10) (pin 5)))
    (net (code 3) (name "Net-(JP2-Pad1)")
      (node (ref JP2) (pin 1))
      (node (ref R2) (pin 2)))
    (net (code 4) (name "Net-(JP1-Pad2)")
      (node (ref R1) (pin 2))
      (node (ref JP1) (pin 2)))
    (net (code 5) (name RTS3)
      (node (ref U2) (pin 27))
      (node (ref C12) (pin 3)))
    (net (code 6) (name TX3)
      (node (ref C12) (pin 4))
      (node (ref U2) (pin 25)))
    (net (code 7) (name RX3)
      (node (ref C12) (pin 5))
      (node (ref U2) (pin 26)))
    (net (code 8) (name CTS3)
      (node (ref U2) (pin 28))
      (node (ref C12) (pin 6)))
    (net (code 9) (name GND)
      (node (ref C8) (pin 6))
      (node (ref C8) (pin 7))
      (node (ref C7) (pin 6))
      (node (ref C7) (pin 7))
      (node (ref U2) (pin 35))
      (node (ref U2) (pin 18))
      (node (ref U2) (pin 5))
      (node (ref U2) (pin 42))
      (node (ref C6) (pin 1))
      (node (ref C6) (pin 8))
      (node (ref C9) (pin 7))
      (node (ref C9) (pin 6))
      (node (ref C12) (pin 9))
      (node (ref C12) (pin 8))
      (node (ref C12) (pin 1))
      (node (ref C11) (pin 9))
      (node (ref C11) (pin 8))
      (node (ref C1) (pin 2))
      (node (ref C2) (pin 2))
      (node (ref C3) (pin 1))
      (node (ref C4) (pin 2))
      (node (ref C10) (pin 7))
      (node (ref C10) (pin 6))
      (node (ref U3) (pin 6))
      (node (ref U3) (pin 3))
      (node (ref C15) (pin 2))
      (node (ref C14) (pin 2))
      (node (ref C13) (pin 1))
      (node (ref U3) (pin 9))
      (node (ref Q3) (pin 2))
      (node (ref Q2) (pin 2))
      (node (ref Q1) (pin 2))
      (node (ref C5) (pin 9))
      (node (ref C5) (pin 8))
      (node (ref C5) (pin 1))
      (node (ref U2) (pin 49))
      (node (ref C11) (pin 1))
      (node (ref C6) (pin 9))
      (node (ref P10) (pin 1)))
    (net (code 10) (name USBD-)
      (node (ref U2) (pin 33))
      (node (ref P1) (pin 1)))
    (net (code 11) (name RTS2)
      (node (ref C11) (pin 3))
      (node (ref U2) (pin 23)))
    (net (code 12) (name TX2)
      (node (ref C11) (pin 4))
      (node (ref U2) (pin 21)))
    (net (code 13) (name RX2)
      (node (ref U2) (pin 22))
      (node (ref C11) (pin 5)))
    (net (code 14) (name CTS2)
      (node (ref C11) (pin 6))
      (node (ref U2) (pin 24)))
    (net (code 15) (name SCL)
      (node (ref C9) (pin 3))
      (node (ref C8) (pin 3))
      (node (ref C7) (pin 3))
      (node (ref JP2) (pin 2))
      (node (ref C10) (pin 3))
      (node (ref U2) (pin 32)))
    (net (code 16) (name SDA)
      (node (ref C10) (pin 2))
      (node (ref C9) (pin 2))
      (node (ref C8) (pin 2))
      (node (ref JP1) (pin 1))
      (node (ref C7) (pin 2))
      (node (ref U2) (pin 31)))
    (net (code 17) (name SDI)
      (node (ref C8) (pin 4))
      (node (ref U2) (pin 29))
      (node (ref C9) (pin 4))
      (node (ref C7) (pin 4))
      (node (ref C10) (pin 4)))
    (net (code 18) (name +3V3)
      (node (ref U3) (pin 1))
      (node (ref U3) (pin 2))
      (node (ref C3) (pin 2))
      (node (ref C10) (pin 1))
      (node (ref C2) (pin 1))
      (node (ref C1) (pin 1))
      (node (ref C7) (pin 1))
      (node (ref C9) (pin 1))
      (node (ref U2) (pin 44))
      (node (ref L1) (pin 4))
      (node (ref P5) (pin 1))
      (node (ref U2) (pin 36))
      (node (ref U2) (pin 17))
      (node (ref R3) (pin 1))
      (node (ref U2) (pin 6))
      (node (ref C8) (pin 1))
      (node (ref R1) (pin 1))
      (node (ref R2) (pin 1)))
    (net (code 19) (name USBD+)
      (node (ref U2) (pin 34))
      (node (ref P4) (pin 1)))
    (net (code 20) (name "Net-(C4-Pad1)")
      (node (ref U2) (pin 43))
      (node (ref C4) (pin 1)))
    (net (code 21) (name 5VL)
      (node (ref U4) (pin 7))
      (node (ref A1) (pin 7))
      (node (ref C19) (pin 2))
      (node (ref A1) (pin 1))
      (node (ref U1) (pin 6)))
    (net (code 22) (name "Net-(C18-Pad2)")
      (node (ref C18) (pin 2))
      (node (ref U1) (pin 3)))
    (net (code 23) (name "Net-(C18-Pad1)")
      (node (ref C18) (pin 1))
      (node (ref U1) (pin 2)))
    (net (code 24) (name 3v3L)
      (node (ref U1) (pin 7))
      (node (ref U1) (pin 5))
      (node (ref U1) (pin 4))
      (node (ref C17) (pin 2))
      (node (ref U4) (pin 3))
      (node (ref U1) (pin 1))
      (node (ref C16) (pin 6)))
    (net (code 25) (name CSL)
      (node (ref U4) (pin 6))
      (node (ref C16) (pin 2)))
    (net (code 26) (name GNDL)
      (node (ref C19) (pin 1))
      (node (ref C16) (pin 1))
      (node (ref C16) (pin 7))
      (node (ref U1) (pin 8))
      (node (ref U1) (pin 9))
      (node (ref U4) (pin 2))
      (node (ref C17) (pin 1))
      (node (ref A1) (pin 8))
      (node (ref A1) (pin 6)))
    (net (code 27) (name "Net-(U5-Pad1)")
      (node (ref U5) (pin 1)))
    (net (code 28) (name "Net-(U5-Pad2)")
      (node (ref U5) (pin 2)))
    (net (code 29) (name "Net-(U5-Pad3)")
      (node (ref U5) (pin 3)))
    (net (code 30) (name "Net-(U5-Pad5)")
      (node (ref U5) (pin 5)))
    (net (code 31) (name "Net-(U5-Pad7)")
      (node (ref U5) (pin 7)))
    (net (code 32) (name "Net-(U5-Pad8)")
      (node (ref U5) (pin 8)))
    (net (code 33) (name SDAL)
      (node (ref U4) (pin 5))
      (node (ref C16) (pin 5)))
    (net (code 34) (name SCLL)
      (node (ref U4) (pin 4))
      (node (ref C16) (pin 4)))
    (net (code 35) (name SDAH)
      (node (ref U4) (pin 8))
      (node (ref A1) (pin 4)))
    (net (code 36) (name SCLH)
      (node (ref U4) (pin 1))
      (node (ref A1) (pin 5)))
    (net (code 37) (name "Net-(Q3-Pad3)")
      (node (ref Q3) (pin 3))
      (node (ref R6) (pin 2)))
    (net (code 38) (name "Net-(Q1-Pad3)")
      (node (ref R4) (pin 2))
      (node (ref Q1) (pin 3)))
    (net (code 39) (name LED_R)
      (node (ref Q1) (pin 1))
      (node (ref U2) (pin 38)))
    (net (code 40) (name LED_G)
      (node (ref U2) (pin 37))
      (node (ref Q2) (pin 1)))
    (net (code 41) (name LED_B)
      (node (ref U2) (pin 47))
      (node (ref Q3) (pin 1)))
    (net (code 42) (name SS0/INT0)
      (node (ref U2) (pin 30))
      (node (ref C7) (pin 5)))
    (net (code 43) (name SS1/INT1)
      (node (ref U2) (pin 8))
      (node (ref C9) (pin 5)))
    (net (code 44) (name "Net-(U2-Pad39)")
      (node (ref U2) (pin 39)))
    (net (code 45) (name RESET)
      (node (ref U2) (pin 40))
      (node (ref R3) (pin 2))
      (node (ref P6) (pin 1)))
    (net (code 46) (name "Net-(L1-Pad2)")
      (node (ref L1) (pin 2))
      (node (ref R5) (pin 1)))
    (net (code 47) (name "Net-(Q2-Pad3)")
      (node (ref R5) (pin 2))
      (node (ref Q2) (pin 3)))
    (net (code 48) (name "Net-(L1-Pad1)")
      (node (ref R4) (pin 1))
      (node (ref L1) (pin 1)))
    (net (code 49) (name "Net-(L1-Pad3)")
      (node (ref L1) (pin 3))
      (node (ref R6) (pin 1)))
    (net (code 50) (name SDIL)
      (node (ref C16) (pin 3)))
    (net (code 51) (name "Net-(A1-Pad2)")
      (node (ref A1) (pin 2)))
    (net (code 52) (name "Net-(A1-Pad3)")
      (node (ref A1) (pin 3)))
    (net (code 53) (name "Net-(U2-Pad4)")
      (node (ref U2) (pin 4)))
    (net (code 54) (name "Net-(U2-Pad7)")
      (node (ref U2) (pin 7)))
    (net (code 55) (name "Net-(U2-Pad41)")
      (node (ref U2) (pin 41)))
    (net (code 56) (name SWDCLK)
      (node (ref U2) (pin 45))
      (node (ref P7) (pin 1)))
    (net (code 57) (name SWDIO)
      (node (ref P8) (pin 1))
      (node (ref U2) (pin 46)))
    (net (code 58) (name RTS1)
      (node (ref C6) (pin 3))
      (node (ref U2) (pin 15)))
    (net (code 59) (name CTS1)
      (node (ref C6) (pin 6))
      (node (ref U2) (pin 16)))
    (net (code 60) (name RX1)
      (node (ref C6) (pin 5))
      (node (ref U2) (pin 14)))
    (net (code 61) (name TX1)
      (node (ref C6) (pin 4))
      (node (ref U2) (pin 13)))
    (net (code 62) (name "Net-(U2-Pad48)")
      (node (ref U2) (pin 48)))
    (net (code 63) (name "Net-(U2-Pad19)")
      (node (ref U2) (pin 19)))
    (net (code 64) (name VRAW)
      (node (ref C12) (pin 2))
      (node (ref C11) (pin 2))
      (node (ref C12) (pin 7))
      (node (ref U3) (pin 8))
      (node (ref C5) (pin 7))
      (node (ref C13) (pin 2))
      (node (ref U3) (pin 5))
      (node (ref C11) (pin 7))
      (node (ref C6) (pin 7))
      (node (ref C6) (pin 2))
      (node (ref C5) (pin 2))
      (node (ref P9) (pin 1)))
    (net (code 65) (name RTS0)
      (node (ref C5) (pin 3))
      (node (ref U2) (pin 11)))
    (net (code 66) (name CTS0)
      (node (ref C5) (pin 6))
      (node (ref U2) (pin 12)))
    (net (code 67) (name RX0)
      (node (ref U2) (pin 10))
      (node (ref C5) (pin 5)))
    (net (code 68) (name TX0)
      (node (ref U2) (pin 9))
      (node (ref C5) (pin 4)))
    (net (code 69) (name "Net-(U3-Pad7)")
      (node (ref U3) (pin 7)))
    (net (code 70) (name "Net-(C14-Pad1)")
      (node (ref X1) (pin 1))
      (node (ref C14) (pin 1))
      (node (ref U2) (pin 1)))
    (net (code 71) (name "Net-(C15-Pad1)")
      (node (ref X1) (pin 2))
      (node (ref C15) (pin 1))
      (node (ref U2) (pin 2)))))