%FSLAX45Y45*%
G04 Gerber Fmt 4.5, Leading zero omitted, Abs format (unit mm)*
G04 Created by KiCad (PCBNEW 4.0.4-stable) date Tuesday, June 20, 2017 'PMt' 02:58:46 PM*
%MOMM*%
%LPD*%
G01*
G04 APERTURE LIST*
%ADD10C,0.127000*%
%ADD11C,0.150000*%
%ADD12C,0.200000*%
%ADD13C,0.300000*%
G04 APERTURE END LIST*
D10*
D11*
X10400000Y-10000000D02*
G75*
G03X10400000Y-10000000I-400000J0D01*
G01*
D12*
X9807300Y-9907300D02*
X9832700Y-9932700D01*
X9832700Y-9907300D02*
X9807300Y-9932700D01*
X9827300Y-10127300D02*
X9852700Y-10152700D01*
X9852700Y-10127300D02*
X9827300Y-10152700D01*
X9947300Y-10127300D02*
X9972700Y-10152700D01*
X9972700Y-10127300D02*
X9947300Y-10152700D01*
X9987300Y-9787300D02*
X10012700Y-9812700D01*
X10012700Y-9787300D02*
X9987300Y-9812700D01*
X10027300Y-10127300D02*
X10052700Y-10152700D01*
X10052700Y-10127300D02*
X10027300Y-10152700D01*
X10147300Y-9907300D02*
X10172700Y-9932700D01*
X10172700Y-9907300D02*
X10147300Y-9932700D01*
X10217300Y-9907300D02*
X10242700Y-9932700D01*
X10242700Y-9907300D02*
X10217300Y-9932700D01*
D13*
X9863929Y-10873214D02*
X9863929Y-10573214D01*
X9935357Y-10573214D01*
X9978214Y-10587500D01*
X10006786Y-10616072D01*
X10021071Y-10644643D01*
X10035357Y-10701786D01*
X10035357Y-10744643D01*
X10021071Y-10801786D01*
X10006786Y-10830357D01*
X9978214Y-10858929D01*
X9935357Y-10873214D01*
X9863929Y-10873214D01*
X10163929Y-10873214D02*
X10163929Y-10673214D01*
X10163929Y-10730357D02*
X10178214Y-10701786D01*
X10192500Y-10687500D01*
X10221071Y-10673214D01*
X10249643Y-10673214D01*
X10349643Y-10873214D02*
X10349643Y-10673214D01*
X10349643Y-10573214D02*
X10335357Y-10587500D01*
X10349643Y-10601786D01*
X10363929Y-10587500D01*
X10349643Y-10573214D01*
X10349643Y-10601786D01*
X10535357Y-10873214D02*
X10506786Y-10858929D01*
X10492500Y-10830357D01*
X10492500Y-10573214D01*
X10692500Y-10873214D02*
X10663929Y-10858929D01*
X10649643Y-10830357D01*
X10649643Y-10573214D01*
X11035357Y-10873214D02*
X11035357Y-10573214D01*
X11135357Y-10787500D01*
X11235357Y-10573214D01*
X11235357Y-10873214D01*
X11506786Y-10873214D02*
X11506786Y-10716072D01*
X11492500Y-10687500D01*
X11463928Y-10673214D01*
X11406786Y-10673214D01*
X11378214Y-10687500D01*
X11506786Y-10858929D02*
X11478214Y-10873214D01*
X11406786Y-10873214D01*
X11378214Y-10858929D01*
X11363928Y-10830357D01*
X11363928Y-10801786D01*
X11378214Y-10773214D01*
X11406786Y-10758929D01*
X11478214Y-10758929D01*
X11506786Y-10744643D01*
X11649643Y-10673214D02*
X11649643Y-10973214D01*
X11649643Y-10687500D02*
X11678214Y-10673214D01*
X11735357Y-10673214D01*
X11763928Y-10687500D01*
X11778214Y-10701786D01*
X11792500Y-10730357D01*
X11792500Y-10816072D01*
X11778214Y-10844643D01*
X11763928Y-10858929D01*
X11735357Y-10873214D01*
X11678214Y-10873214D01*
X11649643Y-10858929D01*
X11921071Y-10844643D02*
X11935357Y-10858929D01*
X11921071Y-10873214D01*
X11906786Y-10858929D01*
X11921071Y-10844643D01*
X11921071Y-10873214D01*
X11921071Y-10687500D02*
X11935357Y-10701786D01*
X11921071Y-10716072D01*
X11906786Y-10701786D01*
X11921071Y-10687500D01*
X11921071Y-10716072D01*
X9567100Y-11354800D02*
X9592500Y-11380200D01*
X9592500Y-11354800D02*
X9567100Y-11380200D01*
X9921071Y-11203214D02*
X9949643Y-11203214D01*
X9978214Y-11217500D01*
X9992500Y-11231786D01*
X10006786Y-11260357D01*
X10021071Y-11317500D01*
X10021071Y-11388929D01*
X10006786Y-11446071D01*
X9992500Y-11474643D01*
X9978214Y-11488929D01*
X9949643Y-11503214D01*
X9921071Y-11503214D01*
X9892500Y-11488929D01*
X9878214Y-11474643D01*
X9863929Y-11446071D01*
X9849643Y-11388929D01*
X9849643Y-11317500D01*
X9863929Y-11260357D01*
X9878214Y-11231786D01*
X9892500Y-11217500D01*
X9921071Y-11203214D01*
X10149643Y-11474643D02*
X10163929Y-11488929D01*
X10149643Y-11503214D01*
X10135357Y-11488929D01*
X10149643Y-11474643D01*
X10149643Y-11503214D01*
X10278214Y-11231786D02*
X10292500Y-11217500D01*
X10321071Y-11203214D01*
X10392500Y-11203214D01*
X10421071Y-11217500D01*
X10435357Y-11231786D01*
X10449643Y-11260357D01*
X10449643Y-11288929D01*
X10435357Y-11331786D01*
X10263928Y-11503214D01*
X10449643Y-11503214D01*
X10721071Y-11203214D02*
X10578214Y-11203214D01*
X10563929Y-11346071D01*
X10578214Y-11331786D01*
X10606786Y-11317500D01*
X10678214Y-11317500D01*
X10706786Y-11331786D01*
X10721071Y-11346071D01*
X10735357Y-11374643D01*
X10735357Y-11446071D01*
X10721071Y-11474643D01*
X10706786Y-11488929D01*
X10678214Y-11503214D01*
X10606786Y-11503214D01*
X10578214Y-11488929D01*
X10563929Y-11474643D01*
X10863929Y-11503214D02*
X10863929Y-11303214D01*
X10863929Y-11331786D02*
X10878214Y-11317500D01*
X10906786Y-11303214D01*
X10949643Y-11303214D01*
X10978214Y-11317500D01*
X10992500Y-11346071D01*
X10992500Y-11503214D01*
X10992500Y-11346071D02*
X11006786Y-11317500D01*
X11035357Y-11303214D01*
X11078214Y-11303214D01*
X11106786Y-11317500D01*
X11121071Y-11346071D01*
X11121071Y-11503214D01*
X11263928Y-11503214D02*
X11263928Y-11303214D01*
X11263928Y-11331786D02*
X11278214Y-11317500D01*
X11306786Y-11303214D01*
X11349643Y-11303214D01*
X11378214Y-11317500D01*
X11392500Y-11346071D01*
X11392500Y-11503214D01*
X11392500Y-11346071D02*
X11406786Y-11317500D01*
X11435357Y-11303214D01*
X11478214Y-11303214D01*
X11506786Y-11317500D01*
X11521071Y-11346071D01*
X11521071Y-11503214D01*
X12106786Y-11188929D02*
X11849643Y-11574643D01*
X12492500Y-11203214D02*
X12521071Y-11203214D01*
X12549643Y-11217500D01*
X12563928Y-11231786D01*
X12578214Y-11260357D01*
X12592500Y-11317500D01*
X12592500Y-11388929D01*
X12578214Y-11446071D01*
X12563928Y-11474643D01*
X12549643Y-11488929D01*
X12521071Y-11503214D01*
X12492500Y-11503214D01*
X12463928Y-11488929D01*
X12449643Y-11474643D01*
X12435357Y-11446071D01*
X12421071Y-11388929D01*
X12421071Y-11317500D01*
X12435357Y-11260357D01*
X12449643Y-11231786D01*
X12463928Y-11217500D01*
X12492500Y-11203214D01*
X12721071Y-11474643D02*
X12735357Y-11488929D01*
X12721071Y-11503214D01*
X12706786Y-11488929D01*
X12721071Y-11474643D01*
X12721071Y-11503214D01*
X12921071Y-11203214D02*
X12949643Y-11203214D01*
X12978214Y-11217500D01*
X12992500Y-11231786D01*
X13006785Y-11260357D01*
X13021071Y-11317500D01*
X13021071Y-11388929D01*
X13006785Y-11446071D01*
X12992500Y-11474643D01*
X12978214Y-11488929D01*
X12949643Y-11503214D01*
X12921071Y-11503214D01*
X12892500Y-11488929D01*
X12878214Y-11474643D01*
X12863928Y-11446071D01*
X12849643Y-11388929D01*
X12849643Y-11317500D01*
X12863928Y-11260357D01*
X12878214Y-11231786D01*
X12892500Y-11217500D01*
X12921071Y-11203214D01*
X13306785Y-11503214D02*
X13135357Y-11503214D01*
X13221071Y-11503214D02*
X13221071Y-11203214D01*
X13192500Y-11246071D01*
X13163928Y-11274643D01*
X13135357Y-11288929D01*
X13492500Y-11203214D02*
X13521071Y-11203214D01*
X13549643Y-11217500D01*
X13563928Y-11231786D01*
X13578214Y-11260357D01*
X13592500Y-11317500D01*
X13592500Y-11388929D01*
X13578214Y-11446071D01*
X13563928Y-11474643D01*
X13549643Y-11488929D01*
X13521071Y-11503214D01*
X13492500Y-11503214D01*
X13463928Y-11488929D01*
X13449643Y-11474643D01*
X13435357Y-11446071D01*
X13421071Y-11388929D01*
X13421071Y-11317500D01*
X13435357Y-11260357D01*
X13449643Y-11231786D01*
X13463928Y-11217500D01*
X13492500Y-11203214D01*
X13706786Y-11203214D02*
X13706786Y-11260357D01*
X13821071Y-11203214D02*
X13821071Y-11260357D01*
X14263928Y-11617500D02*
X14249643Y-11603214D01*
X14221071Y-11560357D01*
X14206785Y-11531786D01*
X14192500Y-11488929D01*
X14178214Y-11417500D01*
X14178214Y-11360357D01*
X14192500Y-11288929D01*
X14206785Y-11246071D01*
X14221071Y-11217500D01*
X14249643Y-11174643D01*
X14263928Y-11160357D01*
X14349643Y-11203214D02*
X14549643Y-11203214D01*
X14421071Y-11503214D01*
X14892500Y-11503214D02*
X14892500Y-11203214D01*
X15021071Y-11503214D02*
X15021071Y-11346071D01*
X15006785Y-11317500D01*
X14978214Y-11303214D01*
X14935357Y-11303214D01*
X14906785Y-11317500D01*
X14892500Y-11331786D01*
X15206785Y-11503214D02*
X15178214Y-11488929D01*
X15163928Y-11474643D01*
X15149643Y-11446071D01*
X15149643Y-11360357D01*
X15163928Y-11331786D01*
X15178214Y-11317500D01*
X15206785Y-11303214D01*
X15249643Y-11303214D01*
X15278214Y-11317500D01*
X15292500Y-11331786D01*
X15306785Y-11360357D01*
X15306785Y-11446071D01*
X15292500Y-11474643D01*
X15278214Y-11488929D01*
X15249643Y-11503214D01*
X15206785Y-11503214D01*
X15478214Y-11503214D02*
X15449643Y-11488929D01*
X15435357Y-11460357D01*
X15435357Y-11203214D01*
X15706786Y-11488929D02*
X15678214Y-11503214D01*
X15621071Y-11503214D01*
X15592500Y-11488929D01*
X15578214Y-11460357D01*
X15578214Y-11346071D01*
X15592500Y-11317500D01*
X15621071Y-11303214D01*
X15678214Y-11303214D01*
X15706786Y-11317500D01*
X15721071Y-11346071D01*
X15721071Y-11374643D01*
X15578214Y-11403214D01*
X15835357Y-11488929D02*
X15863928Y-11503214D01*
X15921071Y-11503214D01*
X15949643Y-11488929D01*
X15963928Y-11460357D01*
X15963928Y-11446071D01*
X15949643Y-11417500D01*
X15921071Y-11403214D01*
X15878214Y-11403214D01*
X15849643Y-11388929D01*
X15835357Y-11360357D01*
X15835357Y-11346071D01*
X15849643Y-11317500D01*
X15878214Y-11303214D01*
X15921071Y-11303214D01*
X15949643Y-11317500D01*
X16063928Y-11617500D02*
X16078214Y-11603214D01*
X16106786Y-11560357D01*
X16121071Y-11531786D01*
X16135357Y-11488929D01*
X16149643Y-11417500D01*
X16149643Y-11360357D01*
X16135357Y-11288929D01*
X16121071Y-11246071D01*
X16106786Y-11217500D01*
X16078214Y-11174643D01*
X16063928Y-11160357D01*
M02*
