G04 #@! TF.FileFunction,Legend,Bot*
%FSLAX46Y46*%
G04 Gerber Fmt 4.6, Leading zero omitted, Abs format (unit mm)*
G04 Created by KiCad (PCBNEW 4.0.4-stable) date Wednesday, June 14, 2017 'PMt' 01:16:32 PM*
%MOMM*%
%LPD*%
G01*
G04 APERTURE LIST*
%ADD10C,0.150000*%
%ADD11C,0.125000*%
G04 APERTURE END LIST*
D10*
X101000000Y-99500000D02*
G75*
G03X101000000Y-99500000I-250000J0D01*
G01*
X98500000Y-100750000D02*
X98500000Y-101250000D01*
X98500000Y-101250000D02*
X99000000Y-101250000D01*
X101250000Y-99000000D02*
X98750000Y-99000000D01*
X98750000Y-99000000D02*
X98750000Y-101000000D01*
X98750000Y-101000000D02*
X101250000Y-101000000D01*
X101250000Y-101000000D02*
X101250000Y-99000000D01*
D11*
X101726190Y-99619048D02*
X102130952Y-99619048D01*
X102178571Y-99642857D01*
X102202381Y-99666667D01*
X102226190Y-99714286D01*
X102226190Y-99809524D01*
X102202381Y-99857143D01*
X102178571Y-99880952D01*
X102130952Y-99904762D01*
X101726190Y-99904762D01*
X102226190Y-100404762D02*
X102226190Y-100119048D01*
X102226190Y-100261905D02*
X101726190Y-100261905D01*
X101797619Y-100214286D01*
X101845238Y-100166667D01*
X101869048Y-100119048D01*
M02*
