EESchema Schematic File Version 2
LIBS:power
LIBS:device
LIBS:transistors
LIBS:conn
LIBS:linear
LIBS:regul
LIBS:74xx
LIBS:cmos4000
LIBS:adc-dac
LIBS:memory
LIBS:xilinx
LIBS:microcontrollers
LIBS:dsp
LIBS:microchip
LIBS:analog_switches
LIBS:motorola
LIBS:texas
LIBS:intel
LIBS:audio
LIBS:interface
LIBS:digital-audio
LIBS:philips
LIBS:display
LIBS:cypress
LIBS:siliconi
LIBS:opto
LIBS:atmel
LIBS:contrib
LIBS:valves
LIBS:CSL_Sensors
LIBS:CSL_Opto
LIBS:CSL_uP
LIBS:CSL_Power
LIBS:CSL_Conn
LIBS:Fab
EELAYER 25 0
EELAYER END
$Descr A4 11693 8268
encoding utf-8
Sheet 1 1
Title ""
Date ""
Rev ""
Comp ""
Comment1 ""
Comment2 ""
Comment3 ""
Comment4 ""
$EndDescr
$Comp
L CONN_02X05 P1
U 1 1 595D193F
P 2800 1750
F 0 "P1" H 2800 2050 50  0000 C CNN
F 1 "CONN_02X05" H 2800 1450 50  0000 C CNN
F 2 "_Fab_Footprint:JTAGICE3-10p" H 2800 550 60  0001 C CNN
F 3 "" H 2800 550 60  0000 C CNN
	1    2800 1750
	1    0    0    -1  
$EndComp
$Comp
L CONN_02X05 P2
U 1 1 595D1965
P 4400 1750
F 0 "P2" H 4400 2050 50  0000 C CNN
F 1 "CONN_02X05" H 4400 1450 50  0000 C CNN
F 2 "_Fab_Footprint:JTAGICE3-10p" H 4400 550 60  0001 C CNN
F 3 "" H 4400 550 60  0000 C CNN
	1    4400 1750
	1    0    0    -1  
$EndComp
$Comp
L CONN_01X01 P3
U 1 1 595D19B2
P 4750 3000
F 0 "P3" H 4750 3100 50  0000 C CNN
F 1 "CONN_01X01" V 4850 3000 50  0000 C CNN
F 2 "_Fab_Footprint:POGO_TH" H 4750 3000 60  0001 C CNN
F 3 "" H 4750 3000 60  0000 C CNN
	1    4750 3000
	1    0    0    -1  
$EndComp
$Comp
L CONN_01X01 P4
U 1 1 595D19F7
P 4750 3200
F 0 "P4" H 4750 3300 50  0000 C CNN
F 1 "CONN_01X01" V 4850 3200 50  0000 C CNN
F 2 "_Fab_Footprint:POGO_TH" H 4750 3200 60  0001 C CNN
F 3 "" H 4750 3200 60  0000 C CNN
	1    4750 3200
	1    0    0    -1  
$EndComp
$Comp
L CONN_01X01 P5
U 1 1 595D1A15
P 4750 3400
F 0 "P5" H 4750 3500 50  0000 C CNN
F 1 "CONN_01X01" V 4850 3400 50  0000 C CNN
F 2 "_Fab_Footprint:POGO_TH" H 4750 3400 60  0001 C CNN
F 3 "" H 4750 3400 60  0000 C CNN
	1    4750 3400
	1    0    0    -1  
$EndComp
$Comp
L CONN_01X01 P6
U 1 1 595D1A34
P 4750 3600
F 0 "P6" H 4750 3700 50  0000 C CNN
F 1 "CONN_01X01" V 4850 3600 50  0000 C CNN
F 2 "_Fab_Footprint:POGO_TH" H 4750 3600 60  0001 C CNN
F 3 "" H 4750 3600 60  0000 C CNN
	1    4750 3600
	1    0    0    -1  
$EndComp
$Comp
L CONN_01X01 P7
U 1 1 595D1A56
P 4750 3800
F 0 "P7" H 4750 3900 50  0000 C CNN
F 1 "CONN_01X01" V 4850 3800 50  0000 C CNN
F 2 "_Fab_Footprint:POGO_TH" H 4750 3800 60  0001 C CNN
F 3 "" H 4750 3800 60  0000 C CNN
	1    4750 3800
	1    0    0    -1  
$EndComp
$Comp
L CONN_01X01 P8
U 1 1 595D1A7B
P 4750 4000
F 0 "P8" H 4750 4100 50  0000 C CNN
F 1 "CONN_01X01" V 4850 4000 50  0000 C CNN
F 2 "_Fab_Footprint:POGO_TH" H 4750 4000 60  0001 C CNN
F 3 "" H 4750 4000 60  0000 C CNN
	1    4750 4000
	1    0    0    -1  
$EndComp
$Comp
L CONN_01X01 P9
U 1 1 595D1AAD
P 4750 4200
F 0 "P9" H 4750 4300 50  0000 C CNN
F 1 "CONN_01X01" V 4850 4200 50  0000 C CNN
F 2 "_Fab_Footprint:POGO_TH" H 4750 4200 60  0001 C CNN
F 3 "" H 4750 4200 60  0000 C CNN
	1    4750 4200
	1    0    0    -1  
$EndComp
$Comp
L CONN_01X01 P10
U 1 1 595D1AD9
P 4750 4400
F 0 "P10" H 4750 4500 50  0000 C CNN
F 1 "CONN_01X01" V 4850 4400 50  0000 C CNN
F 2 "_Fab_Footprint:POGO_TH" H 4750 4400 60  0001 C CNN
F 3 "" H 4750 4400 60  0000 C CNN
	1    4750 4400
	1    0    0    -1  
$EndComp
$Comp
L USB2 U1
U 1 1 595D1BC7
P 2750 3400
F 0 "U1" H 2850 3100 60  0000 C CNN
F 1 "USB2" H 2650 3700 60  0000 C CNN
F 2 "_Fab_Footprint:USBMINIB2.0" H 2750 3400 60  0001 C CNN
F 3 "" H 2750 3400 60  0001 C CNN
	1    2750 3400
	1    0    0    -1  
$EndComp
$Comp
L FAB_LED L1
U 1 1 595D1CA5
P 5850 1800
F 0 "L1" H 5900 1750 20  0000 C CNN
F 1 "FAB_LED" H 5750 1825 20  0000 C CNN
F 2 "_Fab_Footprint:LED_1206_FAB" H 5850 1825 60  0001 C CNN
F 3 "" H 5850 1825 60  0001 C CNN
	1    5850 1800
	-1   0    0    1   
$EndComp
$Comp
L RES R1
U 1 1 595D1E59
P 5850 1500
F 0 "R1" H 5900 1425 20  0000 C CNN
F 1 "RES" V 5850 1500 20  0000 C CNN
F 2 "_Fab_Footprint:CAP_1206_FAB" H 5850 1500 60  0001 C CNN
F 3 "" H 5850 1500 60  0001 C CNN
	1    5850 1500
	1    0    0    -1  
$EndComp
Text GLabel 2500 1550 0    60   Input ~ 0
SWDCLK
Text GLabel 2500 1750 0    60   Input ~ 0
SWDIO
Text GLabel 3100 1750 2    60   Input ~ 0
RESET
$Comp
L +3V3 #PWR01
U 1 1 595D206C
P 3100 1350
F 0 "#PWR01" H 3100 1200 60  0001 C CNN
F 1 "+3V3" H 3100 1490 60  0000 C CNN
F 2 "" H 3100 1350 60  0000 C CNN
F 3 "" H 3100 1350 60  0000 C CNN
	1    3100 1350
	1    0    0    -1  
$EndComp
$Comp
L GND #PWR02
U 1 1 595D20A7
P 3500 1850
F 0 "#PWR02" H 3500 1600 60  0001 C CNN
F 1 "GND" H 3500 1700 60  0000 C CNN
F 2 "" H 3500 1850 60  0000 C CNN
F 3 "" H 3500 1850 60  0000 C CNN
	1    3500 1850
	1    0    0    -1  
$EndComp
Wire Wire Line
	3050 1550 3500 1550
Wire Wire Line
	3500 1550 3500 1850
Wire Wire Line
	3050 1650 3100 1650
Wire Wire Line
	3100 1650 3100 1350
Wire Wire Line
	2550 1550 2500 1550
Wire Wire Line
	2550 1750 2500 1750
Wire Wire Line
	3100 1750 3050 1750
$Comp
L +3V3 #PWR03
U 1 1 595D22F7
P 4100 1350
F 0 "#PWR03" H 4100 1200 60  0001 C CNN
F 1 "+3V3" H 4100 1490 60  0000 C CNN
F 2 "" H 4100 1350 60  0000 C CNN
F 3 "" H 4100 1350 60  0000 C CNN
	1    4100 1350
	1    0    0    -1  
$EndComp
Wire Wire Line
	4150 1550 4100 1550
Wire Wire Line
	4100 1550 4100 1350
$Comp
L GND #PWR04
U 1 1 595D233F
P 3950 1850
F 0 "#PWR04" H 3950 1600 60  0001 C CNN
F 1 "GND" H 3950 1700 60  0000 C CNN
F 2 "" H 3950 1850 60  0000 C CNN
F 3 "" H 3950 1850 60  0000 C CNN
	1    3950 1850
	1    0    0    -1  
$EndComp
Wire Wire Line
	4150 1750 3950 1750
Wire Wire Line
	3950 1650 3950 1850
Wire Wire Line
	4150 1650 3950 1650
Connection ~ 3950 1750
Text GLabel 4750 1550 2    60   Input ~ 0
SWDIO
Wire Wire Line
	4650 1550 4750 1550
Text GLabel 4750 1650 2    60   Input ~ 0
SWDCLK
Wire Wire Line
	4650 1650 4750 1650
Text GLabel 4700 1950 2    60   Input ~ 0
RESET
Wire Wire Line
	4650 1950 4700 1950
Text GLabel 4500 3400 0    60   Input ~ 0
SWDIO
Text GLabel 4500 3600 0    60   Input ~ 0
SWDCLK
Wire Wire Line
	2950 3200 3000 3200
$Comp
L +3V3 #PWR05
U 1 1 595D26B6
P 4200 2950
F 0 "#PWR05" H 4200 2800 60  0001 C CNN
F 1 "+3V3" H 4200 3090 60  0000 C CNN
F 2 "" H 4200 2950 60  0000 C CNN
F 3 "" H 4200 2950 60  0000 C CNN
	1    4200 2950
	1    0    0    -1  
$EndComp
Wire Wire Line
	4550 3000 4400 3000
Wire Wire Line
	4400 3000 4400 2900
Wire Wire Line
	4550 3200 4200 3200
Wire Wire Line
	4200 3200 4200 2950
Text GLabel 4500 3800 0    60   Input ~ 0
RESET
$Comp
L GND #PWR06
U 1 1 595D2755
P 4500 4500
F 0 "#PWR06" H 4500 4250 60  0001 C CNN
F 1 "GND" H 4500 4350 60  0000 C CNN
F 2 "" H 4500 4500 60  0000 C CNN
F 3 "" H 4500 4500 60  0000 C CNN
	1    4500 4500
	1    0    0    -1  
$EndComp
Wire Wire Line
	4550 4400 4500 4400
Wire Wire Line
	4500 4400 4500 4500
$Comp
L GND #PWR07
U 1 1 595D2920
P 5850 2000
F 0 "#PWR07" H 5850 1750 60  0001 C CNN
F 1 "GND" H 5850 1850 60  0000 C CNN
F 2 "" H 5850 2000 60  0000 C CNN
F 3 "" H 5850 2000 60  0000 C CNN
	1    5850 2000
	1    0    0    -1  
$EndComp
$Comp
L +3V3 #PWR08
U 1 1 595D2A70
P 5850 1300
F 0 "#PWR08" H 5850 1150 60  0001 C CNN
F 1 "+3V3" H 5850 1440 60  0000 C CNN
F 2 "" H 5850 1300 60  0000 C CNN
F 3 "" H 5850 1300 60  0000 C CNN
	1    5850 1300
	1    0    0    -1  
$EndComp
Wire Wire Line
	5850 1300 5850 1400
Wire Wire Line
	5850 1600 5850 1700
Wire Wire Line
	5850 1900 5850 2000
$Comp
L GND #PWR09
U 1 1 595D2DB8
P 3000 3850
F 0 "#PWR09" H 3000 3600 60  0001 C CNN
F 1 "GND" H 3000 3700 60  0000 C CNN
F 2 "" H 3000 3850 60  0000 C CNN
F 3 "" H 3000 3850 60  0000 C CNN
	1    3000 3850
	1    0    0    -1  
$EndComp
Wire Wire Line
	2950 3600 3000 3600
Wire Wire Line
	3000 3600 3000 3850
Wire Wire Line
	2500 3400 2450 3400
Wire Wire Line
	2450 3400 2450 3750
Wire Wire Line
	2450 3750 3000 3750
Connection ~ 3000 3750
Wire Wire Line
	4550 3800 4500 3800
Wire Wire Line
	4550 3600 4500 3600
Wire Wire Line
	4550 3400 4500 3400
Text GLabel 4500 4000 0    60   Input ~ 0
D-
Text GLabel 4500 4200 0    60   Input ~ 0
D+
Wire Wire Line
	4500 4000 4550 4000
Wire Wire Line
	4500 4200 4550 4200
Text GLabel 3000 3300 2    60   Input ~ 0
D-
Text GLabel 3000 3400 2    60   Input ~ 0
D+
Wire Wire Line
	3000 3400 2950 3400
Wire Wire Line
	3000 3300 2950 3300
$Comp
L SW_PUSH SW1
U 1 1 595D35EA
P 5800 3200
F 0 "SW1" H 5950 3310 50  0000 C CNN
F 1 "SW_PUSH" H 5800 3120 50  0000 C CNN
F 2 "_Fab_Footprint:Switch-Tactile-B3SN-3112P" H 5800 3200 60  0001 C CNN
F 3 "" H 5800 3200 60  0000 C CNN
	1    5800 3200
	0    -1   -1   0   
$EndComp
Text GLabel 6350 2800 2    60   Input ~ 0
RESET
$Comp
L RES R2
U 1 1 595D381E
P 6000 2800
F 0 "R2" H 6050 2725 20  0000 C CNN
F 1 "RES" V 6000 2800 20  0000 C CNN
F 2 "_Fab_Footprint:CAP_1206_FAB" H 6000 2800 60  0001 C CNN
F 3 "" H 6000 2800 60  0001 C CNN
	1    6000 2800
	0    1    1    0   
$EndComp
Wire Wire Line
	5850 2900 5850 2800
Wire Wire Line
	5800 2800 5900 2800
Wire Wire Line
	5800 2900 5800 2800
Connection ~ 5850 2800
$Comp
L GND #PWR010
U 1 1 595D396C
P 6200 3600
F 0 "#PWR010" H 6200 3350 60  0001 C CNN
F 1 "GND" H 6200 3450 60  0000 C CNN
F 2 "" H 6200 3600 60  0000 C CNN
F 3 "" H 6200 3600 60  0000 C CNN
	1    6200 3600
	1    0    0    -1  
$EndComp
Wire Wire Line
	5850 3500 5850 3550
Wire Wire Line
	5800 3550 6200 3550
Wire Wire Line
	6200 3250 6200 3600
Wire Wire Line
	5800 3550 5800 3500
Connection ~ 5850 3550
$Comp
L CAP C1
U 1 1 595D3A26
P 6200 3150
F 0 "C1" H 6250 3075 20  0000 C CNN
F 1 "CAP" H 6200 3150 20  0000 C CNN
F 2 "_Fab_Footprint:CAP_1206_FAB" H 6200 3150 60  0001 C CNN
F 3 "" H 6200 3150 60  0001 C CNN
	1    6200 3150
	1    0    0    -1  
$EndComp
Wire Wire Line
	6100 2800 6350 2800
Wire Wire Line
	6200 2800 6200 3050
Connection ~ 6200 3550
Connection ~ 6200 2800
Text Notes 5650 1050 0    60   ~ 0
Status LED (3.3V)
Text Notes 3950 1050 0    60   ~ 0
JTAG Interface
Text Notes 2350 1050 0    60   ~ 0
AVR Interface
Text Notes 2350 2750 0    60   ~ 0
USB
Text Notes 4050 2700 0    60   ~ 0
POGO
Text Notes 5650 2700 0    60   ~ 0
Reset Button
$Comp
L RES R3
U 1 1 595D4B21
P 6550 1500
F 0 "R3" H 6600 1425 20  0000 C CNN
F 1 "RES" V 6550 1500 20  0000 C CNN
F 2 "_Fab_Footprint:CAP_1206_FAB" H 6550 1500 60  0001 C CNN
F 3 "" H 6550 1500 60  0001 C CNN
	1    6550 1500
	0    1    1    0   
$EndComp
$Comp
L GND #PWR011
U 1 1 595D4BD7
P 6400 1550
F 0 "#PWR011" H 6400 1300 60  0001 C CNN
F 1 "GND" H 6400 1400 60  0000 C CNN
F 2 "" H 6400 1550 60  0000 C CNN
F 3 "" H 6400 1550 60  0000 C CNN
	1    6400 1550
	1    0    0    -1  
$EndComp
$Comp
L GND #PWR012
U 1 1 595D4C6A
P 6700 1550
F 0 "#PWR012" H 6700 1300 60  0001 C CNN
F 1 "GND" H 6700 1400 60  0000 C CNN
F 2 "" H 6700 1550 60  0000 C CNN
F 3 "" H 6700 1550 60  0000 C CNN
	1    6700 1550
	1    0    0    -1  
$EndComp
Wire Wire Line
	6650 1500 6700 1500
Wire Wire Line
	6700 1500 6700 1550
Wire Wire Line
	6450 1500 6400 1500
Wire Wire Line
	6400 1500 6400 1550
$Comp
L CONN_01X02 P11
U 1 1 595D57D6
P 3350 4600
F 0 "P11" H 3350 4750 50  0000 C CNN
F 1 "CONN_01X02" V 3450 4600 50  0000 C CNN
F 2 "Pin_Headers:Pin_Header_Angled_1x02_Pitch2.54mm" H 3350 4600 60  0001 C CNN
F 3 "" H 3350 4600 60  0000 C CNN
	1    3350 4600
	1    0    0    -1  
$EndComp
$Comp
L FabDiode D1
U 1 1 595D5972
P 3100 3200
F 0 "D1" V 3160 3135 30  0000 C CNN
F 1 "FabDiode" V 3020 3205 30  0000 C CNN
F 2 "_Fab_Footprint:LED_1206_FAB" H 3100 3200 60  0001 C CNN
F 3 "" H 3100 3200 60  0001 C CNN
	1    3100 3200
	0    1    1    0   
$EndComp
$Comp
L GND #PWR013
U 1 1 595D5F8F
P 3100 4700
F 0 "#PWR013" H 3100 4450 60  0001 C CNN
F 1 "GND" H 3100 4550 60  0000 C CNN
F 2 "" H 3100 4700 60  0000 C CNN
F 3 "" H 3100 4700 60  0000 C CNN
	1    3100 4700
	1    0    0    -1  
$EndComp
Text GLabel 3250 3200 2    60   Input ~ 0
VRAW
Text GLabel 3100 4550 0    60   Input ~ 0
VRAW
Text GLabel 4400 2900 1    60   Input ~ 0
VRAW
Wire Wire Line
	3200 3200 3250 3200
Wire Wire Line
	3100 4550 3150 4550
Wire Wire Line
	3100 4700 3100 4650
Wire Wire Line
	3100 4650 3150 4650
$EndSCHEMATC
