(export (version D)
  (design
    (source /Users/dcellucci/gitlab/Sticker-Sensor/Skin-Sensor/V3_Programmer/V3_Programmer.sch)
    (date "Wednesday, July 05, 2017 'PMt' 04:17:18 PM")
    (tool "Eeschema 4.0.4-stable")
    (sheet (number 1) (name /) (tstamps /)
      (title_block
        (title)
        (company)
        (rev)
        (date)
        (source V3_Programmer.sch)
        (comment (number 1) (value ""))
        (comment (number 2) (value ""))
        (comment (number 3) (value ""))
        (comment (number 4) (value "")))))
  (components
    (comp (ref P1)
      (value CONN_02X05)
      (footprint _Fab_Footprint:JTAGICE3-10p)
      (libsource (lib conn) (part CONN_02X05))
      (sheetpath (names /) (tstamps /))
      (tstamp 595D193F))
    (comp (ref P2)
      (value CONN_02X05)
      (footprint _Fab_Footprint:JTAGICE3-10p)
      (libsource (lib conn) (part CONN_02X05))
      (sheetpath (names /) (tstamps /))
      (tstamp 595D1965))
    (comp (ref P3)
      (value CONN_01X01)
      (footprint _Fab_Footprint:POGO_TH)
      (libsource (lib conn) (part CONN_01X01))
      (sheetpath (names /) (tstamps /))
      (tstamp 595D19B2))
    (comp (ref P4)
      (value CONN_01X01)
      (footprint _Fab_Footprint:POGO_TH)
      (libsource (lib conn) (part CONN_01X01))
      (sheetpath (names /) (tstamps /))
      (tstamp 595D19F7))
    (comp (ref P5)
      (value CONN_01X01)
      (footprint _Fab_Footprint:POGO_TH)
      (libsource (lib conn) (part CONN_01X01))
      (sheetpath (names /) (tstamps /))
      (tstamp 595D1A15))
    (comp (ref P6)
      (value CONN_01X01)
      (footprint _Fab_Footprint:POGO_TH)
      (libsource (lib conn) (part CONN_01X01))
      (sheetpath (names /) (tstamps /))
      (tstamp 595D1A34))
    (comp (ref P7)
      (value CONN_01X01)
      (footprint _Fab_Footprint:POGO_TH)
      (libsource (lib conn) (part CONN_01X01))
      (sheetpath (names /) (tstamps /))
      (tstamp 595D1A56))
    (comp (ref P8)
      (value CONN_01X01)
      (footprint _Fab_Footprint:POGO_TH)
      (libsource (lib conn) (part CONN_01X01))
      (sheetpath (names /) (tstamps /))
      (tstamp 595D1A7B))
    (comp (ref P9)
      (value CONN_01X01)
      (footprint _Fab_Footprint:POGO_TH)
      (libsource (lib conn) (part CONN_01X01))
      (sheetpath (names /) (tstamps /))
      (tstamp 595D1AAD))
    (comp (ref P10)
      (value CONN_01X01)
      (footprint _Fab_Footprint:POGO_TH)
      (libsource (lib conn) (part CONN_01X01))
      (sheetpath (names /) (tstamps /))
      (tstamp 595D1AD9))
    (comp (ref U1)
      (value USB2)
      (footprint _Fab_Footprint:USBMINIB2.0)
      (libsource (lib Fab) (part USB2))
      (sheetpath (names /) (tstamps /))
      (tstamp 595D1BC7))
    (comp (ref L1)
      (value FAB_LED)
      (footprint _Fab_Footprint:LED_1206_FAB)
      (libsource (lib Fab) (part FAB_LED))
      (sheetpath (names /) (tstamps /))
      (tstamp 595D1CA5))
    (comp (ref R1)
      (value RES)
      (footprint _Fab_Footprint:CAP_1206_FAB)
      (libsource (lib Fab) (part RES))
      (sheetpath (names /) (tstamps /))
      (tstamp 595D1E59))
    (comp (ref SW1)
      (value SW_PUSH)
      (footprint _Fab_Footprint:Switch-Tactile-B3SN-3112P)
      (libsource (lib device) (part SW_PUSH))
      (sheetpath (names /) (tstamps /))
      (tstamp 595D35EA))
    (comp (ref R2)
      (value RES)
      (footprint _Fab_Footprint:CAP_1206_FAB)
      (libsource (lib Fab) (part RES))
      (sheetpath (names /) (tstamps /))
      (tstamp 595D381E))
    (comp (ref C1)
      (value CAP)
      (footprint _Fab_Footprint:CAP_1206_FAB)
      (libsource (lib Fab) (part CAP))
      (sheetpath (names /) (tstamps /))
      (tstamp 595D3A26))
    (comp (ref R3)
      (value RES)
      (footprint _Fab_Footprint:CAP_1206_FAB)
      (libsource (lib Fab) (part RES))
      (sheetpath (names /) (tstamps /))
      (tstamp 595D4B21))
    (comp (ref P11)
      (value CONN_01X02)
      (footprint Pin_Headers:Pin_Header_Angled_1x02_Pitch2.54mm)
      (libsource (lib conn) (part CONN_01X02))
      (sheetpath (names /) (tstamps /))
      (tstamp 595D57D6))
    (comp (ref D1)
      (value FabDiode)
      (footprint _Fab_Footprint:LED_1206_FAB)
      (libsource (lib Fab) (part FabDiode))
      (sheetpath (names /) (tstamps /))
      (tstamp 595D5972)))
  (libparts
    (libpart (lib Fab) (part CAP)
      (fields
        (field (name Reference) C)
        (field (name Value) CAP))
      (pins
        (pin (num 1) (name ~) (type input))
        (pin (num 2) (name ~) (type input))))
    (libpart (lib conn) (part CONN_01X01)
      (footprints
        (fp Pin_Header_Straight_1X01)
        (fp Pin_Header_Angled_1X01)
        (fp Socket_Strip_Straight_1X01)
        (fp Socket_Strip_Angled_1X01))
      (fields
        (field (name Reference) P)
        (field (name Value) CONN_01X01))
      (pins
        (pin (num 1) (name P1) (type passive))))
    (libpart (lib conn) (part CONN_01X02)
      (fields
        (field (name Reference) P)
        (field (name Value) CONN_01X02))
      (pins
        (pin (num 1) (name P1) (type passive))
        (pin (num 2) (name P2) (type passive))))
    (libpart (lib conn) (part CONN_02X05)
      (footprints
        (fp Pin_Header_Straight_2X05)
        (fp Pin_Header_Angled_2X05)
        (fp Socket_Strip_Straight_2X05)
        (fp Socket_Strip_Angled_2X05))
      (fields
        (field (name Reference) P)
        (field (name Value) CONN_02X05))
      (pins
        (pin (num 1) (name P1) (type passive))
        (pin (num 2) (name P2) (type passive))
        (pin (num 3) (name P3) (type passive))
        (pin (num 4) (name P4) (type passive))
        (pin (num 5) (name P5) (type passive))
        (pin (num 6) (name P6) (type passive))
        (pin (num 7) (name P7) (type passive))
        (pin (num 8) (name P8) (type passive))
        (pin (num 9) (name P9) (type passive))
        (pin (num 10) (name P10) (type passive))))
    (libpart (lib Fab) (part FAB_LED)
      (fields
        (field (name Reference) L)
        (field (name Value) FAB_LED))
      (pins
        (pin (num 1) (name ~) (type input))
        (pin (num 2) (name ~) (type input))))
    (libpart (lib Fab) (part FabDiode)
      (fields
        (field (name Reference) D)
        (field (name Value) FabDiode))
      (pins
        (pin (num 1) (name ~) (type input))
        (pin (num 2) (name ~) (type input))))
    (libpart (lib Fab) (part RES)
      (fields
        (field (name Reference) R)
        (field (name Value) RES))
      (pins
        (pin (num 1) (name ~) (type input))
        (pin (num 2) (name ~) (type input))))
    (libpart (lib device) (part SW_PUSH)
      (description "Push Button")
      (fields
        (field (name Reference) SW)
        (field (name Value) SW_PUSH))
      (pins
        (pin (num 1) (name 1) (type passive))
        (pin (num 2) (name 2) (type input))
        (pin (num 3) (name 3) (type passive))
        (pin (num 4) (name 4) (type input))))
    (libpart (lib Fab) (part USB2)
      (fields
        (field (name Reference) U)
        (field (name Value) USB2))
      (pins
        (pin (num 1) (name VCC) (type input))
        (pin (num 2) (name D-) (type input))
        (pin (num 3) (name D+) (type input))
        (pin (num 4) (name OTG) (type input))
        (pin (num 5) (name GND) (type input))
        (pin (num 6) (name ~) (type input)))))
  (libraries
    (library (logical Fab)
      (uri /Users/dcellucci/gitlab/CSL-Part-Library/KICAD/Components/Fab.lib))
    (library (logical device)
      (uri "/Users/dcellucci/Library/Application Support/kicad/library/device.lib"))
    (library (logical conn)
      (uri "/Users/dcellucci/Library/Application Support/kicad/library/conn.lib")))
  (nets
    (net (code 1) (name D-)
      (node (ref P8) (pin 1))
      (node (ref U1) (pin 2)))
    (net (code 2) (name D+)
      (node (ref U1) (pin 3))
      (node (ref P9) (pin 1)))
    (net (code 3) (name "Net-(R2-Pad2)")
      (node (ref SW1) (pin 3))
      (node (ref SW1) (pin 4))
      (node (ref R2) (pin 2)))
    (net (code 4) (name GND)
      (node (ref U1) (pin 5))
      (node (ref U1) (pin 6))
      (node (ref L1) (pin 2))
      (node (ref C1) (pin 2))
      (node (ref R3) (pin 1))
      (node (ref R3) (pin 2))
      (node (ref P10) (pin 1))
      (node (ref SW1) (pin 1))
      (node (ref SW1) (pin 2))
      (node (ref P2) (pin 3))
      (node (ref P1) (pin 2))
      (node (ref P2) (pin 5))
      (node (ref P11) (pin 2)))
    (net (code 5) (name +3V3)
      (node (ref P1) (pin 4))
      (node (ref P2) (pin 1))
      (node (ref R1) (pin 1))
      (node (ref P4) (pin 1)))
    (net (code 6) (name "Net-(L1-Pad1)")
      (node (ref L1) (pin 1))
      (node (ref R1) (pin 2)))
    (net (code 7) (name VRAW)
      (node (ref P11) (pin 1))
      (node (ref D1) (pin 1))
      (node (ref P3) (pin 1)))
    (net (code 8) (name RESET)
      (node (ref P7) (pin 1))
      (node (ref C1) (pin 1))
      (node (ref R2) (pin 1))
      (node (ref P1) (pin 6))
      (node (ref P2) (pin 10)))
    (net (code 9) (name "Net-(D1-Pad2)")
      (node (ref D1) (pin 2))
      (node (ref U1) (pin 1)))
    (net (code 10) (name "Net-(U1-Pad4)")
      (node (ref U1) (pin 4)))
    (net (code 11) (name SWDCLK)
      (node (ref P2) (pin 4))
      (node (ref P1) (pin 1))
      (node (ref P6) (pin 1)))
    (net (code 12) (name "Net-(P1-Pad3)")
      (node (ref P1) (pin 3)))
    (net (code 13) (name "Net-(P1-Pad7)")
      (node (ref P1) (pin 7)))
    (net (code 14) (name "Net-(P1-Pad8)")
      (node (ref P1) (pin 8)))
    (net (code 15) (name "Net-(P1-Pad9)")
      (node (ref P1) (pin 9)))
    (net (code 16) (name "Net-(P1-Pad10)")
      (node (ref P1) (pin 10)))
    (net (code 17) (name "Net-(P2-Pad6)")
      (node (ref P2) (pin 6)))
    (net (code 18) (name "Net-(P2-Pad7)")
      (node (ref P2) (pin 7)))
    (net (code 19) (name "Net-(P2-Pad8)")
      (node (ref P2) (pin 8)))
    (net (code 20) (name "Net-(P2-Pad9)")
      (node (ref P2) (pin 9)))
    (net (code 21) (name SWDIO)
      (node (ref P1) (pin 5))
      (node (ref P2) (pin 2))
      (node (ref P5) (pin 1)))))