EESchema Schematic File Version 2
LIBS:Skin-Sensor-V2-rescue
LIBS:power
LIBS:device
LIBS:transistors
LIBS:conn
LIBS:linear
LIBS:regul
LIBS:74xx
LIBS:cmos4000
LIBS:adc-dac
LIBS:memory
LIBS:xilinx
LIBS:microcontrollers
LIBS:dsp
LIBS:microchip
LIBS:analog_switches
LIBS:motorola
LIBS:texas
LIBS:intel
LIBS:audio
LIBS:interface
LIBS:digital-audio
LIBS:philips
LIBS:display
LIBS:cypress
LIBS:siliconi
LIBS:opto
LIBS:atmel
LIBS:contrib
LIBS:valves
LIBS:CSL_Sensors
LIBS:CSL_Power
LIBS:CSL_Opto
LIBS:Fab
LIBS:CSL_Conn
LIBS:CSL_uP
LIBS:Skin-Sensor-V2-cache
EELAYER 25 0
EELAYER END
$Descr A4 11693 8268
encoding utf-8
Sheet 1 1
Title ""
Date ""
Rev ""
Comp ""
Comment1 ""
Comment2 ""
Comment3 ""
Comment4 ""
$EndDescr
$Comp
L ATSAMD21G18A U2
U 1 1 5927776B
P 2600 3400
F 0 "U2" H 3150 1975 60  0000 C CNN
F 1 "ATSAMD21G18A" H 2300 4800 60  0000 C CNN
F 2 "_Fab_Footprint:QFN-48-1EP_7x7mm_Pitch0.5mm" H 2650 4000 60  0001 C CNN
F 3 "" H 2650 4000 60  0001 C CNN
	1    2600 3400
	1    0    0    -1  
$EndComp
$Comp
L USB2 U1
U 1 1 59277F47
P 8500 1400
F 0 "U1" H 8600 1100 60  0000 C CNN
F 1 "USB2" H 8400 1700 60  0000 C CNN
F 2 "_CSL:USBMICRO-10104110" H 8500 1400 60  0001 C CNN
F 3 "" H 8500 1400 60  0001 C CNN
	1    8500 1400
	1    0    0    -1  
$EndComp
Text Notes 3550 3000 0    60   ~ 0
Sercom 2 - APA
Text Notes 3550 2700 0    60   ~ 0
Sercom 0 - APA
Text Notes 3600 3400 0    60   ~ 0
Sercom 4 - APA
Text Notes 3600 3650 0    60   ~ 0
Sercom 1 - APA
Text Notes 3600 4000 0    60   ~ 0
Sercom 3 - I2C
Text Notes 3600 4700 0    60   ~ 0
Sercom 5 - APA
$Comp
L WM1386x08 C5
U 1 1 5927B934
P 5500 1350
F 0 "C5" V 5625 1150 39  0000 C CNN
F 1 "WM1386x08" V 5500 1325 39  0000 C CNN
F 2 "_Fab_Footprint:WM1388x08-REC" H 5500 1300 60  0001 C CNN
F 3 "" H 5500 1300 60  0001 C CNN
	1    5500 1350
	1    0    0    -1  
$EndComp
Text GLabel 5250 1300 0    30   Input ~ 0
RTS0
Text GLabel 5250 1450 0    30   Input ~ 0
CTS0
Text GLabel 5250 1400 0    30   Input ~ 0
RX0
Text GLabel 5250 1350 0    30   Input ~ 0
TX0
$Comp
L GND #PWR01
U 1 1 5927BE3C
P 1800 4750
F 0 "#PWR01" H 1800 4500 60  0001 C CNN
F 1 "GND" H 1800 4600 60  0000 C CNN
F 2 "" H 1800 4750 60  0000 C CNN
F 3 "" H 1800 4750 60  0000 C CNN
	1    1800 4750
	1    0    0    -1  
$EndComp
$Comp
L GND #PWR02
U 1 1 5927BFBB
P 5500 1700
F 0 "#PWR02" H 5500 1450 60  0001 C CNN
F 1 "GND" H 5500 1550 60  0000 C CNN
F 2 "" H 5500 1700 60  0000 C CNN
F 3 "" H 5500 1700 60  0000 C CNN
	1    5500 1700
	1    0    0    -1  
$EndComp
Text GLabel 3350 4500 2    30   Input ~ 0
SWDCLK
Text GLabel 3350 4550 2    30   Input ~ 0
SWDIO
Text GLabel 8750 450  1    30   Input ~ 0
AVRAW
$Comp
L WM1386x08 C6
U 1 1 5927C852
P 5500 2200
F 0 "C6" V 5625 2000 39  0000 C CNN
F 1 "WM1386x08" V 5500 2175 39  0000 C CNN
F 2 "_Fab_Footprint:WM1388x08-REC" H 5500 2150 60  0001 C CNN
F 3 "" H 5500 2150 60  0001 C CNN
	1    5500 2200
	1    0    0    -1  
$EndComp
Text GLabel 5250 2150 0    30   Input ~ 0
RTS1
Text GLabel 5250 2300 0    30   Input ~ 0
CTS1
Text GLabel 5250 2250 0    30   Input ~ 0
RX1
Text GLabel 5250 2200 0    30   Input ~ 0
TX1
$Comp
L GND #PWR03
U 1 1 5927C875
P 5500 2550
F 0 "#PWR03" H 5500 2300 60  0001 C CNN
F 1 "GND" H 5500 2400 60  0000 C CNN
F 2 "" H 5500 2550 60  0000 C CNN
F 3 "" H 5500 2550 60  0000 C CNN
	1    5500 2550
	1    0    0    -1  
$EndComp
$Comp
L WM1386x08 C11
U 1 1 5927C8BB
P 6350 1350
F 0 "C11" V 6475 1150 39  0000 C CNN
F 1 "WM1386x08" V 6350 1325 39  0000 C CNN
F 2 "_Fab_Footprint:WM1388x08-REC" H 6350 1300 60  0001 C CNN
F 3 "" H 6350 1300 60  0001 C CNN
	1    6350 1350
	1    0    0    -1  
$EndComp
Text GLabel 6100 1300 0    30   Input ~ 0
RTS2
Text GLabel 6100 1450 0    30   Input ~ 0
CTS2
Text GLabel 6100 1400 0    30   Input ~ 0
RX2
Text GLabel 6100 1350 0    30   Input ~ 0
TX2
$Comp
L GND #PWR04
U 1 1 5927C8DE
P 6350 1700
F 0 "#PWR04" H 6350 1450 60  0001 C CNN
F 1 "GND" H 6350 1550 60  0000 C CNN
F 2 "" H 6350 1700 60  0000 C CNN
F 3 "" H 6350 1700 60  0000 C CNN
	1    6350 1700
	1    0    0    -1  
$EndComp
$Comp
L WM1386x08 C12
U 1 1 5927C8E4
P 6350 2200
F 0 "C12" V 6475 2000 39  0000 C CNN
F 1 "WM1386x08" V 6350 2175 39  0000 C CNN
F 2 "_Fab_Footprint:WM1388x08-REC" H 6350 2150 60  0001 C CNN
F 3 "" H 6350 2150 60  0001 C CNN
	1    6350 2200
	1    0    0    -1  
$EndComp
Text GLabel 6100 2150 0    30   Input ~ 0
RTS3
Text GLabel 6100 2300 0    30   Input ~ 0
CTS3
Text GLabel 6100 2250 0    30   Input ~ 0
RX3
Text GLabel 6100 2200 0    30   Input ~ 0
TX3
$Comp
L GND #PWR05
U 1 1 5927C907
P 6350 2550
F 0 "#PWR05" H 6350 2300 60  0001 C CNN
F 1 "GND" H 6350 2400 60  0000 C CNN
F 2 "" H 6350 2550 60  0000 C CNN
F 3 "" H 6350 2550 60  0000 C CNN
	1    6350 2550
	1    0    0    -1  
$EndComp
Text GLabel 5050 1100 1    30   Input ~ 0
VRAW
Text GLabel 5900 1100 1    30   Input ~ 0
VRAW
Text GLabel 5900 1950 1    30   Input ~ 0
VRAW
Text GLabel 5050 1950 1    30   Input ~ 0
VRAW
Text GLabel 3350 4050 2    30   Input ~ 0
USBD-
Text GLabel 3350 4100 2    30   Input ~ 0
USBD+
Text GLabel 8750 1300 2    30   Input ~ 0
AUSBD-
Text GLabel 8750 1400 2    30   Input ~ 0
AUSBD+
$Comp
L CAP C4
U 1 1 5927D90F
P 1800 2750
F 0 "C4" H 1850 2675 20  0000 C CNN
F 1 "0.1uF" H 1800 2750 20  0000 C CNN
F 2 "Capacitors_SMD:C_0402_NoSilk" H 1800 2750 60  0001 C CNN
F 3 "" H 1800 2750 60  0001 C CNN
	1    1800 2750
	1    0    0    -1  
$EndComp
$Comp
L CAP C3
U 1 1 5927D966
P 1650 2750
F 0 "C3" H 1700 2675 20  0000 C CNN
F 1 "0.1uF" H 1650 2750 20  0000 C CNN
F 2 "Capacitors_SMD:C_0402_NoSilk" H 1650 2750 60  0001 C CNN
F 3 "" H 1650 2750 60  0001 C CNN
	1    1650 2750
	1    0    0    1   
$EndComp
$Comp
L CAP C2
U 1 1 5927D990
P 1500 2750
F 0 "C2" H 1550 2675 20  0000 C CNN
F 1 "0.1uF" H 1500 2750 20  0000 C CNN
F 2 "Capacitors_SMD:C_0402_NoSilk" H 1500 2750 60  0001 C CNN
F 3 "" H 1500 2750 60  0001 C CNN
	1    1500 2750
	1    0    0    -1  
$EndComp
$Comp
L CAP C1
U 1 1 5927D9BD
P 1350 2750
F 0 "C1" H 1400 2675 20  0000 C CNN
F 1 "0.1uF" H 1350 2750 20  0000 C CNN
F 2 "Capacitors_SMD:C_0402_NoSilk" H 1350 2750 60  0001 C CNN
F 3 "" H 1350 2750 60  0001 C CNN
	1    1350 2750
	1    0    0    -1  
$EndComp
$Comp
L GND #PWR06
U 1 1 5927DCCB
P 1800 2950
F 0 "#PWR06" H 1800 2700 60  0001 C CNN
F 1 "GND" H 1800 2800 60  0000 C CNN
F 2 "" H 1800 2950 60  0000 C CNN
F 3 "" H 1800 2950 60  0000 C CNN
	1    1800 2950
	1    0    0    -1  
$EndComp
$Comp
L FabInductor L1
U 1 1 5927E046
P 1350 2050
F 0 "L1" H 1425 1925 30  0000 C CNN
F 1 "FabInductor" V 1275 2050 30  0000 C CNN
F 2 "" H 1350 2050 60  0001 C CNN
F 3 "" H 1350 2050 60  0001 C CNN
	1    1350 2050
	1    0    0    -1  
$EndComp
$Comp
L +3V3 #PWR07
U 1 1 5927E1EF
P 1350 1850
F 0 "#PWR07" H 1350 1700 60  0001 C CNN
F 1 "+3V3" H 1350 1990 60  0000 C CNN
F 2 "" H 1350 1850 60  0000 C CNN
F 3 "" H 1350 1850 60  0000 C CNN
	1    1350 1850
	1    0    0    -1  
$EndComp
$Comp
L +3V3 #PWR08
U 1 1 5927E2FF
P 1500 2050
F 0 "#PWR08" H 1500 1900 60  0001 C CNN
F 1 "+3V3" H 1500 2190 60  0000 C CNN
F 2 "" H 1500 2050 60  0000 C CNN
F 3 "" H 1500 2050 60  0000 C CNN
	1    1500 2050
	1    0    0    -1  
$EndComp
Text GLabel 3350 3950 2    30   Input ~ 0
SDA
Text GLabel 3350 4000 2    30   Input ~ 0
SCL
$Comp
L +3V3 #PWR09
U 1 1 59285BC8
P 4500 1050
F 0 "#PWR09" H 4500 900 60  0001 C CNN
F 1 "+3V3" H 4500 1190 60  0000 C CNN
F 2 "" H 4500 1050 60  0000 C CNN
F 3 "" H 4500 1050 60  0000 C CNN
	1    4500 1050
	1    0    0    -1  
$EndComp
Text GLabel 4500 2050 3    30   Input ~ 0
SDA
Text GLabel 4650 2050 3    30   Input ~ 0
SCL
$Comp
L RES R1
U 1 1 59285D97
P 4500 1250
F 0 "R1" H 4550 1175 20  0000 C CNN
F 1 "10k" V 4500 1250 20  0000 C CNN
F 2 "Resistors_SMD:R_0402_NoSilk" H 4500 1250 60  0001 C CNN
F 3 "" H 4500 1250 60  0001 C CNN
	1    4500 1250
	1    0    0    -1  
$EndComp
$Comp
L RES R2
U 1 1 59285E04
P 4650 1250
F 0 "R2" H 4700 1175 20  0000 C CNN
F 1 "10k" V 4650 1250 20  0000 C CNN
F 2 "Resistors_SMD:R_0402_NoSilk" H 4650 1250 60  0001 C CNN
F 3 "" H 4650 1250 60  0001 C CNN
	1    4650 1250
	1    0    0    -1  
$EndComp
$Comp
L WM1386x06 C7
U 1 1 59286B03
P 8300 3300
F 0 "C7" H 8425 3050 39  0000 C CNN
F 1 "WM1386x06" H 8125 3500 39  0000 C CNN
F 2 "_Fab_Footprint:WM1387x06-REC" H 8300 3250 60  0001 C CNN
F 3 "" H 8300 3250 60  0001 C CNN
	1    8300 3300
	1    0    0    -1  
$EndComp
$Comp
L WM1386x06 C9
U 1 1 59286B66
P 4200 7000
F 0 "C9" H 4325 6750 39  0000 C CNN
F 1 "WM1386x06" H 4025 7200 39  0000 C CNN
F 2 "_Fab_Footprint:WM1387x06-REC" H 4200 6950 60  0001 C CNN
F 3 "" H 4200 6950 60  0001 C CNN
	1    4200 7000
	1    0    0    -1  
$EndComp
$Comp
L WM1386x06 C8
U 1 1 59286BB3
P 5500 3150
F 0 "C8" H 5625 2900 39  0000 C CNN
F 1 "WM1386x06" H 5325 3350 39  0000 C CNN
F 2 "_Fab_Footprint:WM1387x06-REC" H 5500 3100 60  0001 C CNN
F 3 "" H 5500 3100 60  0001 C CNN
	1    5500 3150
	1    0    0    -1  
$EndComp
Text GLabel 3350 3800 2    30   Input ~ 0
SDI
Text GLabel 3350 2500 2    30   Input ~ 0
SS1/INT1
$Comp
L +3V3 #PWR010
U 1 1 592876D1
P 8100 3150
F 0 "#PWR010" H 8100 3000 60  0001 C CNN
F 1 "+3V3" H 8100 3290 60  0000 C CNN
F 2 "" H 8100 3150 60  0000 C CNN
F 3 "" H 8100 3150 60  0000 C CNN
	1    8100 3150
	1    0    0    -1  
$EndComp
$Comp
L +3V3 #PWR011
U 1 1 5928787B
P 4000 6850
F 0 "#PWR011" H 4000 6700 60  0001 C CNN
F 1 "+3V3" H 4000 6990 60  0000 C CNN
F 2 "" H 4000 6850 60  0000 C CNN
F 3 "" H 4000 6850 60  0000 C CNN
	1    4000 6850
	1    0    0    -1  
$EndComp
$Comp
L +3V3 #PWR012
U 1 1 5928795B
P 5300 3000
F 0 "#PWR012" H 5300 2850 60  0001 C CNN
F 1 "+3V3" H 5300 3140 60  0000 C CNN
F 2 "" H 5300 3000 60  0000 C CNN
F 3 "" H 5300 3000 60  0000 C CNN
	1    5300 3000
	1    0    0    -1  
$EndComp
Text GLabel 3350 4350 2    30   Input ~ 0
SS0/INT0
$Comp
L GND #PWR013
U 1 1 59288241
P 8300 3600
F 0 "#PWR013" H 8300 3350 60  0001 C CNN
F 1 "GND" H 8300 3450 60  0000 C CNN
F 2 "" H 8300 3600 60  0000 C CNN
F 3 "" H 8300 3600 60  0000 C CNN
	1    8300 3600
	1    0    0    -1  
$EndComp
$Comp
L GND #PWR014
U 1 1 592886BE
P 4200 7300
F 0 "#PWR014" H 4200 7050 60  0001 C CNN
F 1 "GND" H 4200 7150 60  0000 C CNN
F 2 "" H 4200 7300 60  0000 C CNN
F 3 "" H 4200 7300 60  0000 C CNN
	1    4200 7300
	1    0    0    -1  
$EndComp
$Comp
L GND #PWR015
U 1 1 59288A5A
P 5500 3450
F 0 "#PWR015" H 5500 3200 60  0001 C CNN
F 1 "GND" H 5500 3300 60  0000 C CNN
F 2 "" H 5500 3450 60  0000 C CNN
F 3 "" H 5500 3450 60  0000 C CNN
	1    5500 3450
	1    0    0    -1  
$EndComp
Text GLabel 8100 3400 0    30   Input ~ 0
SS0/INT0
Text GLabel 4000 7100 0    30   Input ~ 0
SS1/INT1
Text GLabel 8100 3350 0    30   Input ~ 0
SDI
Text GLabel 8100 3250 0    30   Input ~ 0
SDA
Text GLabel 8100 3300 0    30   Input ~ 0
SCL
Text GLabel 4000 7050 0    30   Input ~ 0
SDI
Text GLabel 4000 7000 0    30   Input ~ 0
SCL
Text GLabel 4000 6950 0    30   Input ~ 0
SDA
Text GLabel 5300 3100 0    30   Input ~ 0
SDA
Text GLabel 5300 3150 0    30   Input ~ 0
SCL
Text GLabel 5300 3200 0    30   Input ~ 0
SDI
Text GLabel 5300 3250 0    30   Input ~ 0
SS2/INT2
$Comp
L WM1386x06 C10
U 1 1 5928A1A0
P 8250 5150
F 0 "C10" H 8375 4900 39  0000 C CNN
F 1 "WM1386x06" H 8075 5350 39  0000 C CNN
F 2 "_Fab_Footprint:WM1387x06-REC" H 8250 5100 60  0001 C CNN
F 3 "" H 8250 5100 60  0001 C CNN
	1    8250 5150
	1    0    0    -1  
$EndComp
$Comp
L +3V3 #PWR016
U 1 1 5928A1A6
P 8050 5000
F 0 "#PWR016" H 8050 4850 60  0001 C CNN
F 1 "+3V3" H 8050 5140 60  0000 C CNN
F 2 "" H 8050 5000 60  0000 C CNN
F 3 "" H 8050 5000 60  0000 C CNN
	1    8050 5000
	1    0    0    -1  
$EndComp
$Comp
L GND #PWR017
U 1 1 5928A1AE
P 8250 5450
F 0 "#PWR017" H 8250 5200 60  0001 C CNN
F 1 "GND" H 8250 5300 60  0000 C CNN
F 2 "" H 8250 5450 60  0000 C CNN
F 3 "" H 8250 5450 60  0000 C CNN
	1    8250 5450
	1    0    0    -1  
$EndComp
Text GLabel 8050 5250 0    30   Input ~ 0
SS3/INT3
$Comp
L JUMPER JP1
U 1 1 5928A8E9
P 4500 1700
F 0 "JP1" H 4500 1850 60  0000 C CNN
F 1 "JUMPER" H 4500 1620 40  0000 C CNN
F 2 "_Fab_Footprint:SolderJumper" H 4500 1700 60  0001 C CNN
F 3 "" H 4500 1700 60  0000 C CNN
	1    4500 1700
	0    -1   -1   0   
$EndComp
$Comp
L JUMPER JP2
U 1 1 5928AA26
P 4650 1700
F 0 "JP2" H 4650 1850 60  0000 C CNN
F 1 "JUMPER" H 4650 1620 40  0000 C CNN
F 2 "_Fab_Footprint:SolderJumper" H 4650 1700 60  0001 C CNN
F 3 "" H 4650 1700 60  0000 C CNN
	1    4650 1700
	0    1    1    0   
$EndComp
Text GLabel 8050 5100 0    30   Input ~ 0
SDA
Text GLabel 8050 5150 0    30   Input ~ 0
SCL
Text GLabel 8050 5200 0    30   Input ~ 0
SDI
Text GLabel 3350 2650 2    30   Input ~ 0
RX0
Text GLabel 3350 2600 2    30   Input ~ 0
TX0
Text GLabel 3350 2700 2    30   Input ~ 0
RTS0
Text GLabel 3350 2750 2    30   Input ~ 0
CTS0
Text GLabel 3350 2900 2    30   Input ~ 0
TX1
Text GLabel 3350 2950 2    30   Input ~ 0
RX1
Text GLabel 3350 3000 2    30   Input ~ 0
RTS1
Text GLabel 3350 3050 2    30   Input ~ 0
CTS1
Text GLabel 3350 3650 2    30   Input ~ 0
RTS3
Text GLabel 3350 3700 2    30   Input ~ 0
CTS3
Text GLabel 3350 3550 2    30   Input ~ 0
TX3
Text GLabel 3350 3600 2    30   Input ~ 0
RX3
Text GLabel 3400 3400 2    30   Input ~ 0
RTS2
Text GLabel 3400 3450 2    30   Input ~ 0
CTS2
Text GLabel 3400 3350 2    30   Input ~ 0
RX2
Text GLabel 3400 3300 2    30   Input ~ 0
TX2
$Comp
L +3V3 #PWR018
U 1 1 592946D5
P 2600 5700
F 0 "#PWR018" H 2600 5550 60  0001 C CNN
F 1 "+3V3" H 2600 5840 60  0000 C CNN
F 2 "" H 2600 5700 60  0000 C CNN
F 3 "" H 2600 5700 60  0000 C CNN
	1    2600 5700
	0    -1   -1   0   
$EndComp
$Comp
L GND #PWR019
U 1 1 5929480F
P 2600 5300
F 0 "#PWR019" H 2600 5050 60  0001 C CNN
F 1 "GND" H 2600 5150 60  0000 C CNN
F 2 "" H 2600 5300 60  0000 C CNN
F 3 "" H 2600 5300 60  0000 C CNN
	1    2600 5300
	0    1    1    0   
$EndComp
Text GLabel 2600 5900 0    30   Input ~ 0
SWDCLK
Text GLabel 2600 6000 0    30   Input ~ 0
SWDIO
Text GLabel 2600 5800 0    30   Input ~ 0
RESET
Text GLabel 2600 6200 0    30   Input ~ 0
VRAW
Text GLabel 2600 5500 0    30   Input ~ 0
USBD-
Text GLabel 2600 5600 0    30   Input ~ 0
USBD+
Text GLabel 8750 1750 3    30   Input ~ 0
AGND
$Comp
L ADP7102 U3
U 1 1 59296B32
P 2600 1400
F 0 "U3" H 2800 1150 60  0000 C CNN
F 1 "ADP7102" H 2550 1650 60  0000 C CNN
F 2 "Housings_DFN_QFN:DFN-8-1EP_3x3mm_Pitch0.5mm" H 2500 1450 60  0001 C CNN
F 3 "" H 2500 1450 60  0001 C CNN
	1    2600 1400
	1    0    0    -1  
$EndComp
Text GLabel 2250 1200 1    30   Input ~ 0
VRAW
$Comp
L GND #PWR020
U 1 1 59296FFC
P 2250 1600
F 0 "#PWR020" H 2250 1350 60  0001 C CNN
F 1 "GND" H 2250 1450 60  0000 C CNN
F 2 "" H 2250 1600 60  0000 C CNN
F 3 "" H 2250 1600 60  0000 C CNN
	1    2250 1600
	1    0    0    -1  
$EndComp
$Comp
L CAP C13
U 1 1 592973EE
P 2100 1400
F 0 "C13" H 2150 1325 20  0000 C CNN
F 1 "1uF" H 2100 1400 20  0000 C CNN
F 2 "Capacitors_SMD:C_0402_NoSilk" H 2100 1400 60  0001 C CNN
F 3 "" H 2100 1400 60  0001 C CNN
	1    2100 1400
	1    0    0    1   
$EndComp
$Comp
L +3V3 #PWR021
U 1 1 592978B2
P 3100 1200
F 0 "#PWR021" H 3100 1050 60  0001 C CNN
F 1 "+3V3" H 3100 1340 60  0000 C CNN
F 2 "" H 3100 1200 60  0000 C CNN
F 3 "" H 3100 1200 60  0000 C CNN
	1    3100 1200
	1    0    0    -1  
$EndComp
Text GLabel 2950 1000 1    30   Input ~ 0
VRAW
Text GLabel 1750 2100 0    30   Input ~ 0
RESET
$Comp
L CRYSTAL X1
U 1 1 592C71FF
P 3700 1950
F 0 "X1" H 3700 2100 60  0000 C CNN
F 1 "32.7kHz" H 3700 1800 60  0000 C CNN
F 2 "_Fab_Footprint:ABS06" H 3700 1950 60  0001 C CNN
F 3 "" H 3700 1950 60  0000 C CNN
	1    3700 1950
	1    0    0    -1  
$EndComp
$Comp
L CAP C14
U 1 1 592C72E9
P 3400 1800
F 0 "C14" H 3450 1725 20  0000 C CNN
F 1 "22pF" H 3400 1800 20  0000 C CNN
F 2 "Capacitors_SMD:C_0402_NoSilk" H 3400 1800 60  0001 C CNN
F 3 "" H 3400 1800 60  0001 C CNN
	1    3400 1800
	1    0    0    1   
$EndComp
$Comp
L CAP C15
U 1 1 592C73A5
P 4000 1800
F 0 "C15" H 4050 1725 20  0000 C CNN
F 1 "22pF" H 4000 1800 20  0000 C CNN
F 2 "Capacitors_SMD:C_0402_NoSilk" H 4000 1800 60  0001 C CNN
F 3 "" H 4000 1800 60  0001 C CNN
	1    4000 1800
	1    0    0    1   
$EndComp
$Comp
L GND #PWR022
U 1 1 592C745F
P 3700 1550
F 0 "#PWR022" H 3700 1300 60  0001 C CNN
F 1 "GND" H 3700 1400 60  0000 C CNN
F 2 "" H 3700 1550 60  0000 C CNN
F 3 "" H 3700 1550 60  0000 C CNN
	1    3700 1550
	1    0    0    -1  
$EndComp
Text GLabel 3350 2250 2    30   Input ~ 0
SS3/INT3
Text GLabel 3350 3200 2    30   Input ~ 0
SS2/INT2
Text GLabel 10100 1400 0    30   Input ~ 0
ASWDCLK
Text GLabel 10100 1500 0    30   Input ~ 0
ASWDIO
Text GLabel 10100 1300 0    30   Input ~ 0
ARESET
Text GLabel 10100 1600 0    30   Input ~ 0
AVRAW
Text GLabel 10100 1000 0    30   Input ~ 0
AUSBD-
Text GLabel 10100 1100 0    30   Input ~ 0
AUSBD+
Text GLabel 10100 800  0    30   Input ~ 0
AGND
Text GLabel 10100 1200 0    30   Input ~ 0
A3.3V
$Comp
L WM1386x06 C16
U 1 1 592CBA9B
P 8650 3350
F 0 "C16" H 8775 3100 39  0000 C CNN
F 1 "WM1386x06" H 8475 3550 39  0000 C CNN
F 2 "_Fab_Footprint:WM1387x06-REC" H 8650 3300 60  0001 C CNN
F 3 "" H 8650 3300 60  0001 C CNN
	1    8650 3350
	-1   0    0    1   
$EndComp
$Comp
L DPS310 U4
U 1 1 592CC5A4
P 9850 3350
F 0 "U4" H 10050 3100 60  0000 C CNN
F 1 "DPS310" H 9775 3600 60  0000 C CNN
F 2 "_CSL:8-LGA" H 9850 3350 60  0001 C CNN
F 3 "" H 9850 3350 60  0001 C CNN
	1    9850 3350
	1    0    0    -1  
$EndComp
$Comp
L CAP C17
U 1 1 592CD469
P 10600 3450
F 0 "C17" H 10650 3375 20  0000 C CNN
F 1 "0.1uF" H 10600 3450 20  0000 C CNN
F 2 "Capacitors_SMD:C_0402_NoSilk" H 10600 3450 60  0001 C CNN
F 3 "" H 10600 3450 60  0001 C CNN
	1    10600 3450
	1    0    0    1   
$EndComp
$Comp
L CAP C18
U 1 1 592CD66D
P 10700 3150
F 0 "C18" H 10750 3075 20  0000 C CNN
F 1 "0.1uF" H 10700 3150 20  0000 C CNN
F 2 "Capacitors_SMD:C_0402_NoSilk" H 10700 3150 60  0001 C CNN
F 3 "" H 10700 3150 60  0001 C CNN
	1    10700 3150
	1    0    0    1   
$EndComp
Text GLabel 8850 3400 2    30   Input ~ 0
SS0/INT0
Text GLabel 8850 3350 2    30   Input ~ 0
SDI
Text GLabel 8850 3300 2    30   Input ~ 0
SCL
Text GLabel 8850 3250 2    30   Input ~ 0
SDA
$Comp
L +3V3 #PWR023
U 1 1 592CECA1
P 8850 3150
F 0 "#PWR023" H 8850 3000 60  0001 C CNN
F 1 "+3V3" H 8850 3290 60  0000 C CNN
F 2 "" H 8850 3150 60  0000 C CNN
F 3 "" H 8850 3150 60  0000 C CNN
	1    8850 3150
	1    0    0    -1  
$EndComp
$Comp
L GND #PWR024
U 1 1 592CED09
P 8650 3600
F 0 "#PWR024" H 8650 3350 60  0001 C CNN
F 1 "GND" H 8650 3450 60  0000 C CNN
F 2 "" H 8650 3600 60  0000 C CNN
F 3 "" H 8650 3600 60  0000 C CNN
	1    8650 3600
	1    0    0    -1  
$EndComp
$Comp
L GND #PWR025
U 1 1 592CEE88
P 9450 3200
F 0 "#PWR025" H 9450 2950 60  0001 C CNN
F 1 "GND" H 9450 3050 60  0000 C CNN
F 2 "" H 9450 3200 60  0000 C CNN
F 3 "" H 9450 3200 60  0000 C CNN
	1    9450 3200
	0    1    1    0   
$EndComp
Text GLabel 9450 3300 0    30   Input ~ 0
SS0/INT0
Text GLabel 9450 3400 0    30   Input ~ 0
SDA
Text GLabel 9450 3500 0    30   Input ~ 0
SCL
Text GLabel 10450 3700 2    30   Input ~ 0
SDI
$Comp
L GND #PWR026
U 1 1 592CF127
P 10750 3300
F 0 "#PWR026" H 10750 3050 60  0001 C CNN
F 1 "GND" H 10750 3150 60  0000 C CNN
F 2 "" H 10750 3300 60  0000 C CNN
F 3 "" H 10750 3300 60  0000 C CNN
	1    10750 3300
	0    -1   -1   0   
$EndComp
$Comp
L +3V3 #PWR027
U 1 1 592CF6D1
P 10500 3000
F 0 "#PWR027" H 10500 2850 60  0001 C CNN
F 1 "+3V3" H 10500 3140 60  0000 C CNN
F 2 "" H 10500 3000 60  0000 C CNN
F 3 "" H 10500 3000 60  0000 C CNN
	1    10500 3000
	1    0    0    -1  
$EndComp
$Comp
L +3V3 #PWR028
U 1 1 592CF739
P 10600 3600
F 0 "#PWR028" H 10600 3450 60  0001 C CNN
F 1 "+3V3" H 10600 3740 60  0000 C CNN
F 2 "" H 10600 3600 60  0000 C CNN
F 3 "" H 10600 3600 60  0000 C CNN
	1    10600 3600
	0    1    1    0   
$EndComp
$Comp
L WM1386x06 C19
U 1 1 592DB816
P 8600 5200
F 0 "C19" H 8725 4950 39  0000 C CNN
F 1 "WM1386x06" H 8425 5400 39  0000 C CNN
F 2 "_Fab_Footprint:WM1387x06-REC" H 8600 5150 60  0001 C CNN
F 3 "" H 8600 5150 60  0001 C CNN
	1    8600 5200
	-1   0    0    1   
$EndComp
$Comp
L DPS310 U5
U 1 1 592DB82A
P 9800 5200
F 0 "U5" H 10000 4950 60  0000 C CNN
F 1 "DPS310" H 9725 5450 60  0000 C CNN
F 2 "_CSL:8-LGA" H 9800 5200 60  0001 C CNN
F 3 "" H 9800 5200 60  0001 C CNN
	1    9800 5200
	1    0    0    -1  
$EndComp
$Comp
L CAP C20
U 1 1 592DB836
P 10550 5300
F 0 "C20" H 10600 5225 20  0000 C CNN
F 1 "0.1uF" H 10550 5300 20  0000 C CNN
F 2 "Capacitors_SMD:C_0402_NoSilk" H 10550 5300 60  0001 C CNN
F 3 "" H 10550 5300 60  0001 C CNN
	1    10550 5300
	1    0    0    1   
$EndComp
$Comp
L CAP C21
U 1 1 592DB83C
P 10650 5000
F 0 "C21" H 10700 4925 20  0000 C CNN
F 1 "0.1uF" H 10650 5000 20  0000 C CNN
F 2 "Capacitors_SMD:C_0402_NoSilk" H 10650 5000 60  0001 C CNN
F 3 "" H 10650 5000 60  0001 C CNN
	1    10650 5000
	1    0    0    1   
$EndComp
Text GLabel 8800 5200 2    30   Input ~ 0
SDI
Text GLabel 8800 5150 2    30   Input ~ 0
SCL
Text GLabel 8800 5100 2    30   Input ~ 0
SDA
$Comp
L +3V3 #PWR029
U 1 1 592DB852
P 8800 5000
F 0 "#PWR029" H 8800 4850 60  0001 C CNN
F 1 "+3V3" H 8800 5140 60  0000 C CNN
F 2 "" H 8800 5000 60  0000 C CNN
F 3 "" H 8800 5000 60  0000 C CNN
	1    8800 5000
	1    0    0    -1  
$EndComp
$Comp
L GND #PWR030
U 1 1 592DB858
P 8600 5450
F 0 "#PWR030" H 8600 5200 60  0001 C CNN
F 1 "GND" H 8600 5300 60  0000 C CNN
F 2 "" H 8600 5450 60  0000 C CNN
F 3 "" H 8600 5450 60  0000 C CNN
	1    8600 5450
	1    0    0    -1  
$EndComp
$Comp
L GND #PWR031
U 1 1 592DB85E
P 9400 5050
F 0 "#PWR031" H 9400 4800 60  0001 C CNN
F 1 "GND" H 9400 4900 60  0000 C CNN
F 2 "" H 9400 5050 60  0000 C CNN
F 3 "" H 9400 5050 60  0000 C CNN
	1    9400 5050
	0    1    1    0   
$EndComp
Text GLabel 9400 5250 0    30   Input ~ 0
SDA
Text GLabel 9400 5350 0    30   Input ~ 0
SCL
Text GLabel 10400 5550 2    30   Input ~ 0
SDI
$Comp
L GND #PWR032
U 1 1 592DB868
P 10700 5150
F 0 "#PWR032" H 10700 4900 60  0001 C CNN
F 1 "GND" H 10700 5000 60  0000 C CNN
F 2 "" H 10700 5150 60  0000 C CNN
F 3 "" H 10700 5150 60  0000 C CNN
	1    10700 5150
	0    -1   -1   0   
$EndComp
$Comp
L +3V3 #PWR033
U 1 1 592DB86E
P 10450 4850
F 0 "#PWR033" H 10450 4700 60  0001 C CNN
F 1 "+3V3" H 10450 4990 60  0000 C CNN
F 2 "" H 10450 4850 60  0000 C CNN
F 3 "" H 10450 4850 60  0000 C CNN
	1    10450 4850
	1    0    0    -1  
$EndComp
$Comp
L +3V3 #PWR034
U 1 1 592DB874
P 10550 5450
F 0 "#PWR034" H 10550 5300 60  0001 C CNN
F 1 "+3V3" H 10550 5590 60  0000 C CNN
F 2 "" H 10550 5450 60  0000 C CNN
F 3 "" H 10550 5450 60  0000 C CNN
	1    10550 5450
	0    1    1    0   
$EndComp
Text GLabel 8800 5250 2    30   Input ~ 0
SS3/INT3
Text GLabel 9400 5150 0    30   Input ~ 0
SS3/INT3
$Comp
L JUMPER JP3
U 1 1 592DD287
P 8750 800
F 0 "JP3" H 8750 950 60  0000 C CNN
F 1 "JUMPER" H 8750 720 40  0000 C CNN
F 2 "_Fab_Footprint:SolderJumper" H 8750 800 60  0001 C CNN
F 3 "" H 8750 800 60  0000 C CNN
	1    8750 800 
	0    -1   -1   0   
$EndComp
$Comp
L CONN_01X10 P3
U 1 1 592DDD51
P 9550 1350
F 0 "P3" H 9550 1900 50  0000 C CNN
F 1 "CONN_01X10" V 9650 1350 50  0000 C CNN
F 2 "_Fab_Footprint:JTAGICE3-10p" H 9550 1350 60  0001 C CNN
F 3 "" H 9550 1350 60  0000 C CNN
	1    9550 1350
	1    0    0    -1  
$EndComp
Text GLabel 9300 900  0    30   Input ~ 0
ASWDCLK
Text GLabel 9300 1000 0    30   Input ~ 0
AGND
Text GLabel 9300 1200 0    30   Input ~ 0
A3.3V
Text GLabel 9300 1300 0    30   Input ~ 0
ASWDIO
Text GLabel 9300 1400 0    30   Input ~ 0
ARESET
$Comp
L RES R3
U 1 1 592DE9C7
P 1800 1950
F 0 "R3" H 1850 1875 20  0000 C CNN
F 1 "10k" V 1800 1950 20  0000 C CNN
F 2 "Resistors_SMD:R_0402_NoSilk" H 1800 1950 60  0001 C CNN
F 3 "" H 1800 1950 60  0001 C CNN
	1    1800 1950
	1    0    0    -1  
$EndComp
$Comp
L +3V3 #PWR035
U 1 1 592DED09
P 1800 1800
F 0 "#PWR035" H 1800 1650 60  0001 C CNN
F 1 "+3V3" H 1800 1940 60  0000 C CNN
F 2 "" H 1800 1800 60  0000 C CNN
F 3 "" H 1800 1800 60  0000 C CNN
	1    1800 1800
	1    0    0    -1  
$EndComp
$Comp
L SW_PUSH SW1
U 1 1 592DF691
P 10800 1300
F 0 "SW1" H 10950 1410 50  0000 C CNN
F 1 "SW_PUSH" H 10800 1220 50  0000 C CNN
F 2 "_Fab_Footprint:SPST-NO-TL3700" H 10800 1300 60  0001 C CNN
F 3 "" H 10800 1300 60  0000 C CNN
	1    10800 1300
	0    -1   -1   0   
$EndComp
$Comp
L CAP C22
U 1 1 592DFB04
P 11150 1300
F 0 "C22" H 11200 1225 20  0000 C CNN
F 1 "0.1uF" H 11150 1300 20  0000 C CNN
F 2 "Capacitors_SMD:C_0402_NoSilk" H 11150 1300 60  0001 C CNN
F 3 "" H 11150 1300 60  0001 C CNN
	1    11150 1300
	1    0    0    1   
$EndComp
$Comp
L RES R4
U 1 1 592DFD79
P 11000 950
F 0 "R4" H 11050 875 20  0000 C CNN
F 1 "330" V 11000 950 20  0000 C CNN
F 2 "Resistors_SMD:R_0402_NoSilk" H 11000 950 60  0001 C CNN
F 3 "" H 11000 950 60  0001 C CNN
	1    11000 950 
	0    1    1    0   
$EndComp
Text GLabel 11200 1650 2    30   Input ~ 0
AGND
Text GLabel 11200 950  2    30   Input ~ 0
ARESET
$Comp
L GND #PWR036
U 1 1 592E391D
P 10050 4000
F 0 "#PWR036" H 10050 3750 60  0001 C CNN
F 1 "GND" H 10050 3850 60  0000 C CNN
F 2 "" H 10050 4000 60  0000 C CNN
F 3 "" H 10050 4000 60  0000 C CNN
	1    10050 4000
	1    0    0    -1  
$EndComp
$Comp
L RES R6
U 1 1 592E3CB9
P 10050 3850
F 0 "R6" H 10100 3775 20  0000 C CNN
F 1 "10k" V 10050 3850 20  0000 C CNN
F 2 "Resistors_SMD:R_0402_NoSilk" H 10050 3850 60  0001 C CNN
F 3 "" H 10050 3850 60  0001 C CNN
	1    10050 3850
	1    0    0    -1  
$EndComp
$Comp
L RES R5
U 1 1 592E5C7C
P 10000 5700
F 0 "R5" H 10050 5625 20  0000 C CNN
F 1 "10k" V 10000 5700 20  0000 C CNN
F 2 "Resistors_SMD:R_0402_NoSilk" H 10000 5700 60  0001 C CNN
F 3 "" H 10000 5700 60  0001 C CNN
	1    10000 5700
	1    0    0    -1  
$EndComp
$Comp
L GND #PWR037
U 1 1 592E5E59
P 10000 5850
F 0 "#PWR037" H 10000 5600 60  0001 C CNN
F 1 "GND" H 10000 5700 60  0000 C CNN
F 2 "" H 10000 5850 60  0000 C CNN
F 3 "" H 10000 5850 60  0000 C CNN
	1    10000 5850
	1    0    0    -1  
$EndComp
$Comp
L solder_jumper_2_1_no_conn C23
U 1 1 592E6C4B
P 10200 5550
F 0 "C23" H 10300 5375 59  0000 C CNN
F 1 "solder_jumper_2_1_no_conn" H 10500 5775 59  0000 C CNN
F 2 "_Fab_Footprint:SJ-2-1-no" H 10200 5550 59  0001 C CNN
F 3 "" H 10200 5550 59  0001 C CNN
	1    10200 5550
	0    1    1    0   
$EndComp
$Comp
L solder_jumper_2_1_no_conn C24
U 1 1 592E7F50
P 10250 3700
F 0 "C24" H 10350 3525 59  0000 C CNN
F 1 "solder_jumper_2_1_no_conn" H 10550 3925 59  0000 C CNN
F 2 "_Fab_Footprint:SJ-2-1-no" H 10250 3700 59  0001 C CNN
F 3 "" H 10250 3700 59  0001 C CNN
	1    10250 3700
	0    1    1    0   
$EndComp
$Comp
L GND #PWR038
U 1 1 592EB534
P 2600 5400
F 0 "#PWR038" H 2600 5150 60  0001 C CNN
F 1 "GND" H 2600 5250 60  0000 C CNN
F 2 "" H 2600 5400 60  0000 C CNN
F 3 "" H 2600 5400 60  0000 C CNN
	1    2600 5400
	0    1    1    0   
$EndComp
Text GLabel 2600 6100 0    30   Input ~ 0
VRAW
$Comp
L CONN_01X11 P1
U 1 1 592EC02D
P 2850 5800
F 0 "P1" H 2850 6400 50  0000 C CNN
F 1 "CONN_01X11" V 2950 5800 50  0000 C CNN
F 2 "_CSL:SLIMSTACK_504618x10_RECEP" H 2850 5800 60  0001 C CNN
F 3 "" H 2850 5800 60  0000 C CNN
	1    2850 5800
	1    0    0    -1  
$EndComp
$Comp
L GND #PWR039
U 1 1 592ED462
P 2600 6300
F 0 "#PWR039" H 2600 6050 60  0001 C CNN
F 1 "GND" H 2600 6150 60  0000 C CNN
F 2 "" H 2600 6300 60  0000 C CNN
F 3 "" H 2600 6300 60  0000 C CNN
	1    2600 6300
	0    1    1    0   
$EndComp
$Comp
L CONN_01X11 P2
U 1 1 592ED67D
P 10350 1300
F 0 "P2" H 10350 1900 50  0000 C CNN
F 1 "CONN_01X11" V 10450 1300 50  0000 C CNN
F 2 "_CSL:SLIMSTACK_504618x10_PLUG" H 10350 1300 60  0001 C CNN
F 3 "" H 10350 1300 60  0000 C CNN
	1    10350 1300
	1    0    0    -1  
$EndComp
Text GLabel 10100 900  0    30   Input ~ 0
AGND
Text GLabel 10100 1700 0    30   Input ~ 0
AVRAW
Text GLabel 10100 1800 0    30   Input ~ 0
AGND
$Comp
L TXS0102 T1
U 1 1 592F3F26
P 6950 3200
F 0 "T1" H 7125 3025 30  0000 C CNN
F 1 "TXS0102" H 6850 3425 30  0000 C CNN
F 2 "_CSL:XF-DFN-8" H 6950 3250 60  0001 C CNN
F 3 "" H 6950 3250 60  0001 C CNN
	1    6950 3200
	1    0    0    -1  
$EndComp
$Comp
L WM1386x06 C26
U 1 1 592F42A1
P 5900 3200
F 0 "C26" H 6025 2950 39  0000 C CNN
F 1 "WM1386x06" H 5725 3400 39  0000 C CNN
F 2 "_Fab_Footprint:WM1387x06-REC" H 5900 3150 60  0001 C CNN
F 3 "" H 5900 3150 60  0001 C CNN
	1    5900 3200
	-1   0    0    1   
$EndComp
$Comp
L +3V3 #PWR040
U 1 1 592F42AB
P 6100 3000
F 0 "#PWR040" H 6100 2850 60  0001 C CNN
F 1 "+3V3" H 6100 3140 60  0000 C CNN
F 2 "" H 6100 3000 60  0000 C CNN
F 3 "" H 6100 3000 60  0000 C CNN
	1    6100 3000
	1    0    0    -1  
$EndComp
$Comp
L GND #PWR041
U 1 1 592F42B1
P 5900 3450
F 0 "#PWR041" H 5900 3200 60  0001 C CNN
F 1 "GND" H 5900 3300 60  0000 C CNN
F 2 "" H 5900 3450 60  0000 C CNN
F 3 "" H 5900 3450 60  0000 C CNN
	1    5900 3450
	1    0    0    -1  
$EndComp
$Comp
L GND #PWR042
U 1 1 592F46D8
P 6650 3350
F 0 "#PWR042" H 6650 3100 60  0001 C CNN
F 1 "GND" H 6650 3200 60  0000 C CNN
F 2 "" H 6650 3350 60  0000 C CNN
F 3 "" H 6650 3350 60  0000 C CNN
	1    6650 3350
	1    0    0    -1  
$EndComp
$Comp
L +3V3 #PWR043
U 1 1 592F47C9
P 6650 3000
F 0 "#PWR043" H 6650 2850 60  0001 C CNN
F 1 "+3V3" H 6650 3140 60  0000 C CNN
F 2 "" H 6650 3000 60  0000 C CNN
F 3 "" H 6650 3000 60  0000 C CNN
	1    6650 3000
	1    0    0    -1  
$EndComp
Text GLabel 6100 3100 2    30   Input ~ 0
SDA
Text GLabel 6100 3150 2    30   Input ~ 0
SCL
Text GLabel 6650 3200 0    30   Input ~ 0
SCL
Text GLabel 6650 3150 0    30   Input ~ 0
SDA
Text GLabel 7250 3200 2    30   Input ~ 0
SCL_HV
Text GLabel 7250 3150 2    30   Input ~ 0
SDA_HV
$Comp
L APA102-2020 A1
U 1 1 592F692C
P 5500 4100
F 0 "A1" H 5625 3925 30  0000 C CNN
F 1 "APA102-2020" H 5500 4275 30  0000 C CNN
F 2 "_CSL:APA102-2020" H 5500 4100 60  0001 C CNN
F 3 "" H 5500 4100 60  0001 C CNN
	1    5500 4100
	1    0    0    -1  
$EndComp
Text GLabel 5250 4200 0    30   Input ~ 0
SDA_HV
Text GLabel 5250 4150 0    30   Input ~ 0
SCL_HV
$Comp
L +5V #PWR044
U 1 1 592F6E6B
P 7250 3000
F 0 "#PWR044" H 7250 2850 60  0001 C CNN
F 1 "+5V" H 7250 3140 60  0000 C CNN
F 2 "" H 7250 3000 60  0000 C CNN
F 3 "" H 7250 3000 60  0000 C CNN
	1    7250 3000
	1    0    0    -1  
$EndComp
$Comp
L +5V #PWR045
U 1 1 592F7203
P 5250 3950
F 0 "#PWR045" H 5250 3800 60  0001 C CNN
F 1 "+5V" H 5250 4090 60  0000 C CNN
F 2 "" H 5250 3950 60  0000 C CNN
F 3 "" H 5250 3950 60  0000 C CNN
	1    5250 3950
	1    0    0    -1  
$EndComp
$Comp
L APA102-2020 A2
U 1 1 592F82C8
P 6100 4100
F 0 "A2" H 6225 3925 30  0000 C CNN
F 1 "APA102-2020" H 6100 4275 30  0000 C CNN
F 2 "_CSL:APA102-2020" H 6100 4100 60  0001 C CNN
F 3 "" H 6100 4100 60  0001 C CNN
	1    6100 4100
	1    0    0    -1  
$EndComp
$Comp
L GND #PWR046
U 1 1 592F848E
P 5750 3950
F 0 "#PWR046" H 5750 3700 60  0001 C CNN
F 1 "GND" H 5750 3800 60  0000 C CNN
F 2 "" H 5750 3950 60  0000 C CNN
F 3 "" H 5750 3950 60  0000 C CNN
	1    5750 3950
	-1   0    0    1   
$EndComp
$Comp
L +5V #PWR047
U 1 1 592F8DA4
P 5850 3950
F 0 "#PWR047" H 5850 3800 60  0001 C CNN
F 1 "+5V" H 5850 4090 60  0000 C CNN
F 2 "" H 5850 3950 60  0000 C CNN
F 3 "" H 5850 3950 60  0000 C CNN
	1    5850 3950
	1    0    0    -1  
$EndComp
$Comp
L GND #PWR048
U 1 1 592F9AA6
P 6350 3900
F 0 "#PWR048" H 6350 3650 60  0001 C CNN
F 1 "GND" H 6350 3750 60  0000 C CNN
F 2 "" H 6350 3900 60  0000 C CNN
F 3 "" H 6350 3900 60  0000 C CNN
	1    6350 3900
	-1   0    0    1   
$EndComp
$Comp
L APA102-2020 A3
U 1 1 592FA062
P 6700 4100
F 0 "A3" H 6825 3925 30  0000 C CNN
F 1 "APA102-2020" H 6700 4275 30  0000 C CNN
F 2 "_CSL:APA102-2020" H 6700 4100 60  0001 C CNN
F 3 "" H 6700 4100 60  0001 C CNN
	1    6700 4100
	1    0    0    -1  
$EndComp
$Comp
L +5V #PWR049
U 1 1 592FA06A
P 6450 3950
F 0 "#PWR049" H 6450 3800 60  0001 C CNN
F 1 "+5V" H 6450 4090 60  0000 C CNN
F 2 "" H 6450 3950 60  0000 C CNN
F 3 "" H 6450 3950 60  0000 C CNN
	1    6450 3950
	1    0    0    -1  
$EndComp
$Comp
L GND #PWR050
U 1 1 592FA074
P 6950 3900
F 0 "#PWR050" H 6950 3650 60  0001 C CNN
F 1 "GND" H 6950 3750 60  0000 C CNN
F 2 "" H 6950 3900 60  0000 C CNN
F 3 "" H 6950 3900 60  0000 C CNN
	1    6950 3900
	-1   0    0    1   
$EndComp
$Comp
L APA102-2020 A4
U 1 1 592FA127
P 7300 4100
F 0 "A4" H 7425 3925 30  0000 C CNN
F 1 "APA102-2020" H 7300 4275 30  0000 C CNN
F 2 "_CSL:APA102-2020" H 7300 4100 60  0001 C CNN
F 3 "" H 7300 4100 60  0001 C CNN
	1    7300 4100
	1    0    0    -1  
$EndComp
$Comp
L +5V #PWR051
U 1 1 592FA12F
P 7050 3950
F 0 "#PWR051" H 7050 3800 60  0001 C CNN
F 1 "+5V" H 7050 4090 60  0000 C CNN
F 2 "" H 7050 3950 60  0000 C CNN
F 3 "" H 7050 3950 60  0000 C CNN
	1    7050 3950
	1    0    0    -1  
$EndComp
$Comp
L GND #PWR052
U 1 1 592FA139
P 7550 3900
F 0 "#PWR052" H 7550 3650 60  0001 C CNN
F 1 "GND" H 7550 3750 60  0000 C CNN
F 2 "" H 7550 3900 60  0000 C CNN
F 3 "" H 7550 3900 60  0000 C CNN
	1    7550 3900
	-1   0    0    1   
$EndComp
$Comp
L LM2775-RESCUE-Skin-Sensor-V2-RESCUE-Skin-Sensor-V2 U6
U 1 1 592FB886
P 6350 4700
F 0 "U6" H 6525 4525 30  0000 C CNN
F 1 "LM2775" H 6250 4925 30  0000 C CNN
F 2 "Housings_DFN_QFN:DFN-8-1EP_2x2mm_Pitch0.5mm" H 6350 4700 60  0001 C CNN
F 3 "" H 6350 4700 60  0001 C CNN
	1    6350 4700
	1    0    0    -1  
$EndComp
$Comp
L +5V #PWR053
U 1 1 592FBBFB
P 6900 4500
F 0 "#PWR053" H 6900 4350 60  0001 C CNN
F 1 "+5V" H 6900 4640 60  0000 C CNN
F 2 "" H 6900 4500 60  0000 C CNN
F 3 "" H 6900 4500 60  0000 C CNN
	1    6900 4500
	1    0    0    -1  
$EndComp
$Comp
L GND #PWR054
U 1 1 592FBD6B
P 6950 5050
F 0 "#PWR054" H 6950 4800 60  0001 C CNN
F 1 "GND" H 6950 4900 60  0000 C CNN
F 2 "" H 6950 5050 60  0000 C CNN
F 3 "" H 6950 5050 60  0000 C CNN
	1    6950 5050
	1    0    0    -1  
$EndComp
$Comp
L CAP C27
U 1 1 592FC3C7
P 6800 4800
F 0 "C27" H 6850 4725 20  0000 C CNN
F 1 "1uF" H 6800 4800 20  0000 C CNN
F 2 "Capacitors_SMD:C_0402_NoSilk" H 6800 4800 60  0001 C CNN
F 3 "" H 6800 4800 60  0001 C CNN
	1    6800 4800
	1    0    0    1   
$EndComp
$Comp
L CAP C28
U 1 1 592FCB07
P 6950 4650
F 0 "C28" H 7000 4575 20  0000 C CNN
F 1 "10uF" H 6950 4650 20  0000 C CNN
F 2 "Capacitors_SMD:C_0402_NoSilk" H 6950 4650 60  0001 C CNN
F 3 "" H 6950 4650 60  0001 C CNN
	1    6950 4650
	1    0    0    1   
$EndComp
$Comp
L CAP C25
U 1 1 592FD2A7
P 5750 4700
F 0 "C25" H 5800 4625 20  0000 C CNN
F 1 "10uF" H 5750 4700 20  0000 C CNN
F 2 "Capacitors_SMD:C_0402_NoSilk" H 5750 4700 60  0001 C CNN
F 3 "" H 5750 4700 60  0001 C CNN
	1    5750 4700
	1    0    0    1   
$EndComp
$Comp
L GND #PWR055
U 1 1 592FE0C8
P 5750 4850
F 0 "#PWR055" H 5750 4600 60  0001 C CNN
F 1 "GND" H 5750 4700 60  0000 C CNN
F 2 "" H 5750 4850 60  0000 C CNN
F 3 "" H 5750 4850 60  0000 C CNN
	1    5750 4850
	1    0    0    -1  
$EndComp
$Comp
L +3V3 #PWR056
U 1 1 592FE441
P 5750 4500
F 0 "#PWR056" H 5750 4350 60  0001 C CNN
F 1 "+3V3" H 5750 4640 60  0000 C CNN
F 2 "" H 5750 4500 60  0000 C CNN
F 3 "" H 5750 4500 60  0000 C CNN
	1    5750 4500
	1    0    0    -1  
$EndComp
$Comp
L BNO055 B1
U 1 1 59302C4A
P 6050 6450
F 0 "B1" H 6300 5800 30  0000 C CNN
F 1 "BNO055" H 5800 7000 30  0000 C CNN
F 2 "_CSL:LGA28R50P4X10_380X520X100" H 6100 6550 60  0001 C CNN
F 3 "" H 6100 6550 60  0001 C CNN
	1    6050 6450
	1    0    0    -1  
$EndComp
$Comp
L CRYSTAL X2
U 1 1 59303463
P 6800 5850
F 0 "X2" H 6800 6000 60  0000 C CNN
F 1 "32.7kHz" H 6800 5700 60  0000 C CNN
F 2 "_Fab_Footprint:ABS06" H 6800 5850 60  0001 C CNN
F 3 "" H 6800 5850 60  0000 C CNN
	1    6800 5850
	1    0    0    -1  
$EndComp
$Comp
L CAP C33
U 1 1 59303469
P 6500 5700
F 0 "C33" H 6550 5625 20  0000 C CNN
F 1 "22pF" H 6500 5700 20  0000 C CNN
F 2 "Capacitors_SMD:C_0402_NoSilk" H 6500 5700 60  0001 C CNN
F 3 "" H 6500 5700 60  0001 C CNN
	1    6500 5700
	1    0    0    1   
$EndComp
$Comp
L CAP C35
U 1 1 5930346F
P 7100 5700
F 0 "C35" H 7150 5625 20  0000 C CNN
F 1 "22pF" H 7100 5700 20  0000 C CNN
F 2 "Capacitors_SMD:C_0402_NoSilk" H 7100 5700 60  0001 C CNN
F 3 "" H 7100 5700 60  0001 C CNN
	1    7100 5700
	1    0    0    1   
$EndComp
$Comp
L GND #PWR057
U 1 1 59303475
P 6800 5450
F 0 "#PWR057" H 6800 5200 60  0001 C CNN
F 1 "GND" H 6800 5300 60  0000 C CNN
F 2 "" H 6800 5450 60  0000 C CNN
F 3 "" H 6800 5450 60  0000 C CNN
	1    6800 5450
	1    0    0    -1  
$EndComp
$Comp
L GND #PWR058
U 1 1 593036A4
P 5600 7050
F 0 "#PWR058" H 5600 6800 60  0001 C CNN
F 1 "GND" H 5600 6900 60  0000 C CNN
F 2 "" H 5600 7050 60  0000 C CNN
F 3 "" H 5600 7050 60  0000 C CNN
	1    5600 7050
	1    0    0    -1  
$EndComp
$Comp
L CAP C32
U 1 1 5930411A
P 5500 6550
F 0 "C32" H 5550 6475 20  0000 C CNN
F 1 "0.1uF" H 5500 6550 20  0000 C CNN
F 2 "Capacitors_SMD:C_0402_NoSilk" H 5500 6550 60  0001 C CNN
F 3 "" H 5500 6550 60  0001 C CNN
	1    5500 6550
	1    0    0    -1  
$EndComp
$Comp
L CAP C31
U 1 1 5930554F
P 5350 6550
F 0 "C31" H 5400 6475 20  0000 C CNN
F 1 "120nF" H 5350 6550 20  0000 C CNN
F 2 "Capacitors_SMD:C_0402_NoSilk" H 5350 6550 60  0001 C CNN
F 3 "" H 5350 6550 60  0001 C CNN
	1    5350 6550
	-1   0    0    1   
$EndComp
$Comp
L CAP C30
U 1 1 59305614
P 5200 6550
F 0 "C30" H 5250 6475 20  0000 C CNN
F 1 "6.8nF" H 5200 6550 20  0000 C CNN
F 2 "Capacitors_SMD:C_0402_NoSilk" H 5200 6550 60  0001 C CNN
F 3 "" H 5200 6550 60  0001 C CNN
	1    5200 6550
	1    0    0    -1  
$EndComp
$Comp
L CAP C29
U 1 1 593056DA
P 5050 6550
F 0 "C29" H 5100 6475 20  0000 C CNN
F 1 "0.1uF" H 5050 6550 20  0000 C CNN
F 2 "Capacitors_SMD:C_0402_NoSilk" H 5050 6550 60  0001 C CNN
F 3 "" H 5050 6550 60  0001 C CNN
	1    5050 6550
	1    0    0    -1  
$EndComp
Wire Wire Line
	5350 1300 5250 1300
Wire Wire Line
	5350 1350 5250 1350
Wire Wire Line
	5350 1400 5250 1400
Wire Wire Line
	5350 1450 5250 1450
Wire Wire Line
	5350 1250 5050 1250
Wire Wire Line
	5050 1100 5050 1500
Wire Wire Line
	5050 1500 5350 1500
Wire Wire Line
	5300 1100 5700 1100
Wire Wire Line
	5500 1100 5500 1150
Wire Wire Line
	5700 1100 5700 1650
Wire Wire Line
	5700 1650 5300 1650
Wire Wire Line
	5500 1600 5500 1700
Connection ~ 5500 1100
Wire Wire Line
	5300 1650 5300 1550
Wire Wire Line
	5300 1550 5350 1550
Connection ~ 5500 1650
Wire Wire Line
	5300 1100 5300 1200
Wire Wire Line
	5300 1200 5350 1200
Connection ~ 5050 1250
Wire Wire Line
	1800 4700 1850 4700
Wire Wire Line
	1800 4500 1800 4750
Wire Wire Line
	1850 4650 1800 4650
Connection ~ 1800 4700
Wire Wire Line
	1850 4600 1800 4600
Connection ~ 1800 4650
Wire Wire Line
	1850 4550 1800 4550
Connection ~ 1800 4600
Wire Wire Line
	1850 4500 1800 4500
Connection ~ 1800 4550
Wire Wire Line
	3350 4550 3300 4550
Wire Wire Line
	3350 4500 3300 4500
Wire Wire Line
	8700 1200 8750 1200
Wire Wire Line
	8750 1200 8750 1100
Wire Wire Line
	5350 2150 5250 2150
Wire Wire Line
	5350 2200 5250 2200
Wire Wire Line
	5350 2250 5250 2250
Wire Wire Line
	5350 2300 5250 2300
Wire Wire Line
	5350 2100 5050 2100
Wire Wire Line
	5050 1950 5050 2350
Wire Wire Line
	5050 2350 5350 2350
Wire Wire Line
	5300 1950 5700 1950
Wire Wire Line
	5500 1950 5500 2000
Wire Wire Line
	5700 1950 5700 2500
Wire Wire Line
	5700 2500 5300 2500
Wire Wire Line
	5500 2450 5500 2550
Connection ~ 5500 1950
Wire Wire Line
	5300 2500 5300 2400
Wire Wire Line
	5300 2400 5350 2400
Connection ~ 5500 2500
Wire Wire Line
	5300 1950 5300 2050
Wire Wire Line
	5300 2050 5350 2050
Connection ~ 5050 2100
Wire Wire Line
	6200 1300 6100 1300
Wire Wire Line
	6200 1350 6100 1350
Wire Wire Line
	6200 1400 6100 1400
Wire Wire Line
	6200 1450 6100 1450
Wire Wire Line
	6200 1250 5900 1250
Wire Wire Line
	5900 1100 5900 1500
Wire Wire Line
	5900 1500 6200 1500
Wire Wire Line
	6150 1100 6550 1100
Wire Wire Line
	6350 1100 6350 1150
Wire Wire Line
	6550 1100 6550 1650
Wire Wire Line
	6550 1650 6150 1650
Wire Wire Line
	6350 1600 6350 1700
Connection ~ 6350 1100
Wire Wire Line
	6150 1650 6150 1550
Wire Wire Line
	6150 1550 6200 1550
Connection ~ 6350 1650
Wire Wire Line
	6150 1100 6150 1200
Wire Wire Line
	6150 1200 6200 1200
Connection ~ 5900 1250
Wire Wire Line
	6200 2150 6100 2150
Wire Wire Line
	6200 2200 6100 2200
Wire Wire Line
	6200 2250 6100 2250
Wire Wire Line
	6200 2300 6100 2300
Wire Wire Line
	6200 2100 5900 2100
Wire Wire Line
	5900 1950 5900 2350
Wire Wire Line
	5900 2350 6200 2350
Wire Wire Line
	6150 1950 6550 1950
Wire Wire Line
	6350 1950 6350 2000
Wire Wire Line
	6550 1950 6550 2500
Wire Wire Line
	6550 2500 6150 2500
Wire Wire Line
	6350 2450 6350 2550
Connection ~ 6350 1950
Wire Wire Line
	6150 2500 6150 2400
Wire Wire Line
	6150 2400 6200 2400
Connection ~ 6350 2500
Wire Wire Line
	6150 1950 6150 2050
Wire Wire Line
	6150 2050 6200 2050
Connection ~ 5900 2100
Wire Wire Line
	8750 1600 8750 1750
Wire Wire Line
	8750 1600 8700 1600
Wire Wire Line
	8750 1700 8200 1700
Wire Wire Line
	8200 1700 8200 1400
Wire Wire Line
	8200 1400 8250 1400
Connection ~ 8750 1700
Wire Wire Line
	3350 4050 3300 4050
Wire Wire Line
	3350 4100 3300 4100
Wire Wire Line
	8700 1400 8750 1400
Wire Wire Line
	8750 1300 8700 1300
Wire Wire Line
	1850 2400 1800 2400
Wire Wire Line
	1800 2400 1800 2350
Wire Wire Line
	1500 2350 1850 2350
Wire Wire Line
	1500 2050 1500 2650
Connection ~ 1800 2350
Wire Wire Line
	1850 2500 1650 2500
Wire Wire Line
	1650 2350 1650 2650
Wire Wire Line
	1850 2600 1800 2600
Wire Wire Line
	1800 2600 1800 2650
Wire Wire Line
	1850 2250 1350 2250
Wire Wire Line
	1350 2200 1350 2650
Wire Wire Line
	1800 2850 1800 2950
Wire Wire Line
	1350 2900 1800 2900
Wire Wire Line
	1650 2900 1650 2850
Connection ~ 1800 2900
Wire Wire Line
	1500 2900 1500 2850
Connection ~ 1650 2900
Wire Wire Line
	1350 2900 1350 2850
Connection ~ 1500 2900
Connection ~ 1350 2250
Wire Wire Line
	1350 1850 1350 1900
Connection ~ 1500 2350
Connection ~ 1650 2350
Connection ~ 1650 2500
Wire Wire Line
	3300 4000 3350 4000
Wire Wire Line
	3300 3950 3350 3950
Wire Wire Line
	4500 1050 4500 1150
Wire Wire Line
	4500 1100 4650 1100
Wire Wire Line
	4650 1100 4650 1150
Connection ~ 4500 1100
Wire Wire Line
	3300 3800 3350 3800
Wire Wire Line
	8100 3150 8100 3200
Wire Wire Line
	8100 3200 8150 3200
Wire Wire Line
	4000 6850 4000 6900
Wire Wire Line
	4000 6900 4050 6900
Wire Wire Line
	5300 3000 5300 3050
Wire Wire Line
	5300 3050 5350 3050
Wire Wire Line
	8300 3500 8300 3600
Wire Wire Line
	8100 3550 8450 3550
Wire Wire Line
	8100 3550 8100 3450
Wire Wire Line
	8100 3450 8150 3450
Connection ~ 8300 3550
Wire Wire Line
	8450 3550 8450 3100
Wire Wire Line
	8450 3100 8300 3100
Wire Wire Line
	8300 3100 8300 3150
Wire Wire Line
	4200 7200 4200 7300
Wire Wire Line
	4000 7250 4350 7250
Wire Wire Line
	4000 7250 4000 7150
Wire Wire Line
	4000 7150 4050 7150
Connection ~ 4200 7250
Wire Wire Line
	4200 6850 4200 6800
Wire Wire Line
	4200 6800 4350 6800
Wire Wire Line
	4350 6800 4350 7250
Wire Wire Line
	5500 3350 5500 3450
Wire Wire Line
	5350 3300 5300 3300
Wire Wire Line
	5300 3300 5300 3400
Wire Wire Line
	5300 3400 5650 3400
Connection ~ 5500 3400
Wire Wire Line
	5650 3400 5650 2950
Wire Wire Line
	5650 2950 5500 2950
Wire Wire Line
	5500 2950 5500 3000
Wire Wire Line
	8100 3250 8150 3250
Wire Wire Line
	8100 3300 8150 3300
Wire Wire Line
	8100 3350 8150 3350
Wire Wire Line
	8100 3400 8150 3400
Wire Wire Line
	4000 7100 4050 7100
Wire Wire Line
	4000 6950 4050 6950
Wire Wire Line
	4000 7000 4050 7000
Wire Wire Line
	4000 7050 4050 7050
Wire Wire Line
	5350 3100 5300 3100
Wire Wire Line
	5350 3150 5300 3150
Wire Wire Line
	5350 3200 5300 3200
Wire Wire Line
	5350 3250 5300 3250
Wire Wire Line
	8050 5000 8050 5050
Wire Wire Line
	8050 5050 8100 5050
Wire Wire Line
	8250 5350 8250 5450
Wire Wire Line
	8100 5300 8050 5300
Wire Wire Line
	8050 5300 8050 5400
Wire Wire Line
	8050 5400 8400 5400
Connection ~ 8250 5400
Wire Wire Line
	8400 5400 8400 4950
Wire Wire Line
	8400 4950 8250 4950
Wire Wire Line
	8250 4950 8250 5000
Wire Wire Line
	8100 5100 8050 5100
Wire Wire Line
	8100 5150 8050 5150
Wire Wire Line
	8100 5200 8050 5200
Wire Wire Line
	8100 5250 8050 5250
Wire Wire Line
	4650 1350 4650 1400
Wire Wire Line
	4500 1350 4500 1400
Wire Wire Line
	4500 2000 4500 2050
Wire Wire Line
	4650 2000 4650 2050
Wire Wire Line
	3300 2600 3350 2600
Wire Wire Line
	3300 2650 3350 2650
Wire Wire Line
	3300 2700 3350 2700
Wire Wire Line
	3300 2750 3350 2750
Wire Wire Line
	3300 2900 3350 2900
Wire Wire Line
	3300 2950 3350 2950
Wire Wire Line
	3300 3000 3350 3000
Wire Wire Line
	3300 3050 3350 3050
Wire Wire Line
	3300 3700 3350 3700
Wire Wire Line
	3300 3650 3350 3650
Wire Wire Line
	3300 3600 3350 3600
Wire Wire Line
	3300 3550 3350 3550
Wire Wire Line
	2600 5300 2650 5300
Wire Wire Line
	2650 5500 2600 5500
Wire Wire Line
	2650 5600 2600 5600
Wire Wire Line
	2650 5400 2600 5400
Wire Wire Line
	2650 6200 2600 6200
Wire Wire Line
	2650 5900 2600 5900
Wire Wire Line
	2650 6000 2600 6000
Wire Wire Line
	2650 6100 2600 6100
Wire Wire Line
	2250 1200 2250 1250
Wire Wire Line
	2100 1250 2300 1250
Wire Wire Line
	2100 1550 2300 1550
Wire Wire Line
	2250 1450 2250 1600
Wire Wire Line
	2300 1500 2250 1500
Connection ~ 2250 1550
Wire Wire Line
	2300 1450 2250 1450
Connection ~ 2250 1500
Wire Wire Line
	2100 1500 2100 1550
Wire Wire Line
	2100 1250 2100 1300
Connection ~ 2250 1250
Wire Wire Line
	2900 1250 3100 1250
Wire Wire Line
	3100 1200 3100 1400
Wire Wire Line
	3100 1400 2900 1400
Connection ~ 3100 1250
Wire Wire Line
	2900 1350 2950 1350
Wire Wire Line
	2950 1350 2950 1000
Wire Wire Line
	1750 2100 1850 2100
Wire Wire Line
	3700 1550 3700 1500
Wire Wire Line
	3400 1500 4000 1500
Wire Wire Line
	4000 1500 4000 1700
Wire Wire Line
	3400 1500 3400 1700
Connection ~ 3700 1500
Wire Wire Line
	3400 1900 3400 2100
Wire Wire Line
	4000 1900 4000 2150
Wire Wire Line
	3400 2100 3300 2100
Connection ~ 3400 1950
Wire Wire Line
	4000 2150 3300 2150
Connection ~ 4000 1950
Wire Wire Line
	3300 2250 3350 2250
Wire Wire Line
	3300 2500 3350 2500
Wire Wire Line
	3300 4350 3350 4350
Wire Wire Line
	3300 3450 3400 3450
Wire Wire Line
	10100 800  10150 800 
Wire Wire Line
	10150 1000 10100 1000
Wire Wire Line
	10150 1100 10100 1100
Wire Wire Line
	10150 900  10100 900 
Wire Wire Line
	10150 1700 10100 1700
Wire Wire Line
	10150 1400 10100 1400
Wire Wire Line
	10150 1500 10100 1500
Wire Wire Line
	10150 1600 10100 1600
Wire Wire Line
	8850 3150 8850 3200
Wire Wire Line
	8850 3200 8800 3200
Wire Wire Line
	8650 3500 8650 3600
Wire Wire Line
	8500 3550 8850 3550
Wire Wire Line
	8850 3550 8850 3450
Wire Wire Line
	8850 3450 8800 3450
Connection ~ 8650 3550
Wire Wire Line
	8650 3150 8650 3100
Wire Wire Line
	8650 3100 8500 3100
Wire Wire Line
	8500 3100 8500 3550
Wire Wire Line
	8850 3400 8800 3400
Wire Wire Line
	8850 3250 8800 3250
Wire Wire Line
	8850 3300 8800 3300
Wire Wire Line
	8850 3350 8800 3350
Wire Wire Line
	9500 3300 9450 3300
Wire Wire Line
	9500 3400 9450 3400
Wire Wire Line
	9500 3500 9450 3500
Wire Wire Line
	9500 3200 9450 3200
Wire Wire Line
	10200 3300 10750 3300
Wire Wire Line
	10200 3400 10500 3400
Wire Wire Line
	10500 3400 10500 3600
Wire Wire Line
	10500 3600 10600 3600
Wire Wire Line
	10600 3600 10600 3550
Wire Wire Line
	10700 3250 10700 3300
Connection ~ 10700 3300
Wire Wire Line
	10600 3350 10600 3300
Connection ~ 10600 3300
Wire Wire Line
	10700 3050 10700 3000
Wire Wire Line
	10700 3000 10500 3000
Wire Wire Line
	10500 3000 10500 3200
Wire Wire Line
	10500 3200 10200 3200
Wire Wire Line
	8800 5000 8800 5050
Wire Wire Line
	8800 5050 8750 5050
Wire Wire Line
	8600 5350 8600 5450
Wire Wire Line
	8450 5400 8800 5400
Wire Wire Line
	8800 5400 8800 5300
Wire Wire Line
	8800 5300 8750 5300
Connection ~ 8600 5400
Wire Wire Line
	8600 5000 8600 4950
Wire Wire Line
	8600 4950 8450 4950
Wire Wire Line
	8450 4950 8450 5400
Wire Wire Line
	8800 5250 8750 5250
Wire Wire Line
	8800 5100 8750 5100
Wire Wire Line
	8800 5150 8750 5150
Wire Wire Line
	8800 5200 8750 5200
Wire Wire Line
	9450 5150 9400 5150
Wire Wire Line
	9450 5250 9400 5250
Wire Wire Line
	9450 5350 9400 5350
Wire Wire Line
	9450 5050 9400 5050
Wire Wire Line
	10150 5150 10700 5150
Wire Wire Line
	10150 5250 10450 5250
Wire Wire Line
	10450 5250 10450 5450
Wire Wire Line
	10450 5450 10550 5450
Wire Wire Line
	10550 5450 10550 5400
Wire Wire Line
	10650 5100 10650 5150
Connection ~ 10650 5150
Wire Wire Line
	10550 5200 10550 5150
Connection ~ 10550 5150
Wire Wire Line
	10650 4900 10650 4850
Wire Wire Line
	10650 4850 10450 4850
Wire Wire Line
	10450 4850 10450 5050
Wire Wire Line
	10450 5050 10150 5050
Wire Wire Line
	8750 450  8750 500 
Wire Wire Line
	9300 900  9350 900 
Wire Wire Line
	9350 1000 9300 1000
Wire Wire Line
	9300 1200 9350 1200
Wire Wire Line
	9350 1300 9300 1300
Wire Wire Line
	9300 1400 9350 1400
Wire Wire Line
	1800 2050 1800 2100
Connection ~ 1800 2100
Wire Wire Line
	1800 1800 1800 1850
Wire Wire Line
	10800 1000 10800 950 
Wire Wire Line
	10800 950  10900 950 
Wire Wire Line
	10850 1000 10850 950 
Connection ~ 10850 950 
Wire Wire Line
	11100 950  11200 950 
Wire Wire Line
	11150 950  11150 1200
Wire Wire Line
	10800 1600 10800 1650
Wire Wire Line
	10800 1650 11200 1650
Wire Wire Line
	11150 1650 11150 1400
Wire Wire Line
	10850 1600 10850 1650
Connection ~ 10850 1650
Connection ~ 11150 1650
Connection ~ 11150 950 
Wire Wire Line
	10050 3700 10050 3750
Wire Wire Line
	10050 3950 10050 4000
Wire Wire Line
	10150 5350 10200 5350
Wire Wire Line
	10200 5350 10200 5400
Wire Wire Line
	10350 5550 10400 5550
Wire Wire Line
	10050 5550 10000 5550
Wire Wire Line
	10000 5550 10000 5600
Wire Wire Line
	10000 5800 10000 5850
Wire Wire Line
	10200 3500 10250 3500
Wire Wire Line
	10250 3500 10250 3550
Wire Wire Line
	10400 3700 10450 3700
Wire Wire Line
	10050 3700 10100 3700
Wire Wire Line
	2650 5800 2600 5800
Wire Wire Line
	2650 5700 2600 5700
Wire Wire Line
	2600 6300 2650 6300
Wire Wire Line
	10150 1800 10100 1800
Wire Wire Line
	10150 1300 10100 1300
Wire Wire Line
	10150 1200 10100 1200
Wire Wire Line
	6100 3000 6100 3050
Wire Wire Line
	6100 3050 6050 3050
Wire Wire Line
	5900 3350 5900 3450
Wire Wire Line
	5750 3400 6100 3400
Wire Wire Line
	6100 3400 6100 3300
Wire Wire Line
	6100 3300 6050 3300
Connection ~ 5900 3400
Wire Wire Line
	5900 3000 5900 2950
Wire Wire Line
	5900 2950 5750 2950
Wire Wire Line
	5750 2950 5750 3400
Wire Wire Line
	6100 3250 6050 3250
Wire Wire Line
	6100 3100 6050 3100
Wire Wire Line
	6100 3150 6050 3150
Wire Wire Line
	6100 3200 6050 3200
Wire Wire Line
	6650 3000 6650 3050
Wire Wire Line
	6650 3050 6700 3050
Wire Wire Line
	6700 3300 6650 3300
Wire Wire Line
	6650 3300 6650 3350
Wire Wire Line
	7200 3300 7250 3300
Wire Wire Line
	6700 3150 6650 3150
Wire Wire Line
	6700 3200 6650 3200
Wire Wire Line
	7200 3150 7250 3150
Wire Wire Line
	7200 3200 7250 3200
Wire Wire Line
	5250 4150 5300 4150
Wire Wire Line
	5250 4200 5300 4200
Wire Wire Line
	7250 3000 7250 3050
Wire Wire Line
	7250 3050 7200 3050
Wire Wire Line
	5250 3950 5250 4050
Wire Wire Line
	5250 4000 5300 4000
Wire Wire Line
	5250 4050 5300 4050
Connection ~ 5250 4000
Wire Wire Line
	5700 4000 5750 4000
Wire Wire Line
	5750 3950 5750 4050
Wire Wire Line
	5750 4050 5700 4050
Connection ~ 5750 4000
Wire Wire Line
	5700 4150 5900 4150
Wire Wire Line
	5700 4200 5900 4200
Wire Wire Line
	5850 3950 5850 4050
Wire Wire Line
	5850 4000 5900 4000
Wire Wire Line
	5850 4050 5900 4050
Connection ~ 5850 4000
Wire Wire Line
	6300 4000 6350 4000
Wire Wire Line
	6350 3900 6350 4050
Wire Wire Line
	6350 4050 6300 4050
Connection ~ 6350 4000
Wire Wire Line
	6300 4150 6500 4150
Wire Wire Line
	6300 4200 6500 4200
Wire Wire Line
	6450 3950 6450 4050
Wire Wire Line
	6450 4000 6500 4000
Wire Wire Line
	6450 4050 6500 4050
Connection ~ 6450 4000
Wire Wire Line
	6900 4000 6950 4000
Wire Wire Line
	6950 3900 6950 4050
Wire Wire Line
	6950 4050 6900 4050
Connection ~ 6950 4000
Wire Wire Line
	6900 4150 7100 4150
Wire Wire Line
	6900 4200 7100 4200
Wire Wire Line
	7050 3950 7050 4050
Wire Wire Line
	7050 4000 7100 4000
Wire Wire Line
	7050 4050 7100 4050
Connection ~ 7050 4000
Wire Wire Line
	7500 4000 7550 4000
Wire Wire Line
	7550 3900 7550 4050
Wire Wire Line
	7550 4050 7500 4050
Connection ~ 7550 4000
Wire Wire Line
	6600 4550 6950 4550
Wire Wire Line
	6900 4550 6900 4500
Wire Wire Line
	6600 4700 6700 4700
Wire Wire Line
	6700 4700 6700 4950
Wire Wire Line
	6700 4950 6800 4950
Wire Wire Line
	6800 4950 6800 4900
Wire Wire Line
	6600 4650 6800 4650
Wire Wire Line
	6800 4650 6800 4700
Connection ~ 6900 4550
Wire Wire Line
	6950 4750 6950 5050
Wire Wire Line
	6100 4800 6050 4800
Wire Wire Line
	5750 4550 6100 4550
Wire Wire Line
	5750 4500 5750 4600
Wire Wire Line
	6100 4650 6050 4650
Wire Wire Line
	6050 4550 6050 4700
Connection ~ 6050 4550
Wire Wire Line
	6050 4700 6100 4700
Connection ~ 6050 4650
Wire Wire Line
	5750 4800 5750 4850
Connection ~ 5750 4550
Wire Wire Line
	6600 4800 6650 4800
Wire Wire Line
	6650 4800 6650 5000
Wire Wire Line
	6650 5000 6950 5000
Connection ~ 6950 5000
Wire Wire Line
	6800 5450 6800 5400
Wire Wire Line
	6500 5400 7100 5400
Wire Wire Line
	7100 5400 7100 5600
Wire Wire Line
	6500 5400 6500 5600
Connection ~ 6800 5400
Wire Wire Line
	6500 5800 6500 6000
Wire Wire Line
	7100 5800 7100 6050
Wire Wire Line
	6500 6000 6400 6000
Connection ~ 6500 5850
Wire Wire Line
	7100 6050 6400 6050
Connection ~ 7100 5850
Wire Wire Line
	5650 7000 5600 7000
Wire Wire Line
	5600 6400 5600 7050
Wire Wire Line
	5050 6950 5650 6950
Connection ~ 5600 7000
Wire Wire Line
	5650 6450 5600 6450
Connection ~ 5600 6950
Connection ~ 5600 6450
Wire Wire Line
	5500 6300 5500 6450
Wire Wire Line
	5500 6650 5500 6700
Wire Wire Line
	5500 6700 5600 6700
Connection ~ 5600 6700
Wire Wire Line
	5500 6300 5650 6300
Wire Wire Line
	5600 6400 5650 6400
Wire Wire Line
	5200 6200 5650 6200
Wire Wire Line
	5350 6150 5350 6450
Wire Wire Line
	5200 6200 5200 6450
Connection ~ 5350 6200
Wire Wire Line
	5650 6150 5050 6150
Wire Wire Line
	5050 6150 5050 6450
Wire Wire Line
	5350 6650 5350 6950
Wire Wire Line
	5200 6650 5200 6950
Connection ~ 5350 6950
Wire Wire Line
	5050 6650 5050 6950
Connection ~ 5200 6950
$Comp
L RES R8
U 1 1 59307160
P 5600 5850
F 0 "R8" H 5650 5775 20  0000 C CNN
F 1 "10k" V 5600 5850 20  0000 C CNN
F 2 "Resistors_SMD:R_0402_NoSilk" H 5600 5850 60  0001 C CNN
F 3 "" H 5600 5850 60  0001 C CNN
	1    5600 5850
	1    0    0    -1  
$EndComp
$Comp
L RES R7
U 1 1 59307368
P 5500 5850
F 0 "R7" H 5550 5775 20  0000 C CNN
F 1 "10k" V 5500 5850 20  0000 C CNN
F 2 "Resistors_SMD:R_0402_NoSilk" H 5500 5850 60  0001 C CNN
F 3 "" H 5500 5850 60  0001 C CNN
	1    5500 5850
	1    0    0    -1  
$EndComp
Wire Wire Line
	5600 5950 5600 6000
Wire Wire Line
	5600 6000 5650 6000
Wire Wire Line
	5500 5950 5500 6050
Wire Wire Line
	5500 6050 5650 6050
$Comp
L +3V3 #PWR059
U 1 1 593079C4
P 5300 5650
F 0 "#PWR059" H 5300 5500 60  0001 C CNN
F 1 "+3V3" H 5300 5790 60  0000 C CNN
F 2 "" H 5300 5650 60  0000 C CNN
F 3 "" H 5300 5650 60  0000 C CNN
	1    5300 5650
	1    0    0    -1  
$EndComp
Wire Wire Line
	5600 5750 5600 5700
Wire Wire Line
	5600 5700 5300 5700
Wire Wire Line
	5300 5650 5300 6150
Connection ~ 5300 6150
Connection ~ 5300 5700
Connection ~ 5350 6150
Wire Wire Line
	6400 6900 6900 6900
Wire Wire Line
	6900 6300 6900 7100
Wire Wire Line
	6900 6500 6400 6500
$Comp
L GND #PWR060
U 1 1 59308DC3
P 6900 7100
F 0 "#PWR060" H 6900 6850 60  0001 C CNN
F 1 "GND" H 6900 6950 60  0000 C CNN
F 2 "" H 6900 7100 60  0000 C CNN
F 3 "" H 6900 7100 60  0000 C CNN
	1    6900 7100
	1    0    0    -1  
$EndComp
Connection ~ 6900 6900
Wire Wire Line
	6400 6450 6900 6450
Connection ~ 6900 6500
Wire Wire Line
	6400 6300 6900 6300
Connection ~ 6900 6450
Wire Wire Line
	5500 5750 5500 5700
Connection ~ 5500 5700
Text GLabel 6450 6850 2    30   Input ~ 0
SCL
Text GLabel 6450 6800 2    30   Input ~ 0
SDA
Wire Wire Line
	6400 6800 6450 6800
Wire Wire Line
	6400 6850 6450 6850
Wire Wire Line
	6400 7000 6450 7000
$Comp
L solder_jumper_2_1_no_conn C34
U 1 1 5930AFF4
P 6650 7300
F 0 "C34" H 6750 7125 59  0000 C CNN
F 1 "solder_jumper_2_1_no_conn" H 6950 7525 59  0000 C CNN
F 2 "_Fab_Footprint:SJ-2-1-no" H 6650 7300 59  0001 C CNN
F 3 "" H 6650 7300 59  0001 C CNN
	1    6650 7300
	0    1    1    0   
$EndComp
Wire Wire Line
	6400 6950 6750 6950
Wire Wire Line
	6750 6950 6750 7100
Wire Wire Line
	6750 7100 6650 7100
Wire Wire Line
	6650 7100 6650 7150
$Comp
L RES R9
U 1 1 5930B521
P 6450 7450
F 0 "R9" H 6500 7375 20  0000 C CNN
F 1 "10k" V 6450 7450 20  0000 C CNN
F 2 "Resistors_SMD:R_0402_NoSilk" H 6450 7450 60  0001 C CNN
F 3 "" H 6450 7450 60  0001 C CNN
	1    6450 7450
	1    0    0    -1  
$EndComp
$Comp
L RES R10
U 1 1 5930B608
P 6850 7450
F 0 "R10" H 6900 7375 20  0000 C CNN
F 1 "10k" V 6850 7450 20  0000 C CNN
F 2 "Resistors_SMD:R_0402_NoSilk" H 6850 7450 60  0001 C CNN
F 3 "" H 6850 7450 60  0001 C CNN
	1    6850 7450
	1    0    0    -1  
$EndComp
$Comp
L GND #PWR061
U 1 1 5930B7BA
P 6450 7600
F 0 "#PWR061" H 6450 7350 60  0001 C CNN
F 1 "GND" H 6450 7450 60  0000 C CNN
F 2 "" H 6450 7600 60  0000 C CNN
F 3 "" H 6450 7600 60  0000 C CNN
	1    6450 7600
	1    0    0    -1  
$EndComp
$Comp
L +3V3 #PWR062
U 1 1 5930B88E
P 6850 7600
F 0 "#PWR062" H 6850 7450 60  0001 C CNN
F 1 "+3V3" H 6850 7740 60  0000 C CNN
F 2 "" H 6850 7600 60  0000 C CNN
F 3 "" H 6850 7600 60  0000 C CNN
	1    6850 7600
	-1   0    0    1   
$EndComp
Wire Wire Line
	6850 7550 6850 7600
Wire Wire Line
	6450 7550 6450 7600
Wire Wire Line
	6500 7300 6450 7300
Wire Wire Line
	6450 7300 6450 7350
Wire Wire Line
	6800 7300 6850 7300
Wire Wire Line
	6850 7300 6850 7350
$Comp
L WM1386x06 C36
U 1 1 5930D623
P 4450 5950
F 0 "C36" H 4575 5700 39  0000 C CNN
F 1 "WM1386x06" H 4275 6150 39  0000 C CNN
F 2 "_Fab_Footprint:WM1387x06-REC" H 4450 5900 60  0001 C CNN
F 3 "" H 4450 5900 60  0001 C CNN
	1    4450 5950
	-1   0    0    1   
$EndComp
Text GLabel 4650 5950 2    30   Input ~ 0
SDI
Text GLabel 4650 5900 2    30   Input ~ 0
SCL
Text GLabel 4650 5850 2    30   Input ~ 0
SDA
$Comp
L +3V3 #PWR063
U 1 1 5930D62C
P 4650 5750
F 0 "#PWR063" H 4650 5600 60  0001 C CNN
F 1 "+3V3" H 4650 5890 60  0000 C CNN
F 2 "" H 4650 5750 60  0000 C CNN
F 3 "" H 4650 5750 60  0000 C CNN
	1    4650 5750
	1    0    0    -1  
$EndComp
$Comp
L GND #PWR064
U 1 1 5930D632
P 4450 6200
F 0 "#PWR064" H 4450 5950 60  0001 C CNN
F 1 "GND" H 4450 6050 60  0000 C CNN
F 2 "" H 4450 6200 60  0000 C CNN
F 3 "" H 4450 6200 60  0000 C CNN
	1    4450 6200
	1    0    0    -1  
$EndComp
Wire Wire Line
	4650 5750 4650 5800
Wire Wire Line
	4650 5800 4600 5800
Wire Wire Line
	4450 6100 4450 6200
Wire Wire Line
	4300 6150 4650 6150
Wire Wire Line
	4650 6150 4650 6050
Wire Wire Line
	4650 6050 4600 6050
Connection ~ 4450 6150
Wire Wire Line
	4450 5750 4450 5700
Wire Wire Line
	4450 5700 4300 5700
Wire Wire Line
	4300 5700 4300 6150
Wire Wire Line
	4650 6000 4600 6000
Wire Wire Line
	4650 5850 4600 5850
Wire Wire Line
	4650 5900 4600 5900
Wire Wire Line
	4650 5950 4600 5950
Text GLabel 6100 3250 2    30   Input ~ 0
SS2/INT2
Text GLabel 7250 3300 2    30   Input ~ 0
SS2/INT2
Text GLabel 6050 4800 0    30   Input ~ 0
SS2/INT2
Text GLabel 4650 6000 2    30   Input ~ 0
SS1/INT1
Text GLabel 6450 7000 2    30   Input ~ 0
SS1/INT1
Wire Wire Line
	6600 4850 6650 4850
Connection ~ 6650 4850
Wire Wire Line
	3300 3300 3400 3300
Wire Wire Line
	3300 3350 3400 3350
Wire Wire Line
	3300 3400 3400 3400
Wire Wire Line
	3300 3200 3350 3200
$EndSCHEMATC
