EESchema Schematic File Version 2
LIBS:power
LIBS:device
LIBS:transistors
LIBS:conn
LIBS:linear
LIBS:regul
LIBS:74xx
LIBS:cmos4000
LIBS:adc-dac
LIBS:memory
LIBS:xilinx
LIBS:microcontrollers
LIBS:dsp
LIBS:microchip
LIBS:analog_switches
LIBS:motorola
LIBS:texas
LIBS:intel
LIBS:audio
LIBS:interface
LIBS:digital-audio
LIBS:philips
LIBS:display
LIBS:cypress
LIBS:siliconi
LIBS:opto
LIBS:atmel
LIBS:contrib
LIBS:valves
LIBS:CSL_Sensors
LIBS:CSL_Power
LIBS:CSL_Opto
LIBS:CSL_uP
LIBS:Fab
LIBS:CSL_Conn
EELAYER 25 0
EELAYER END
$Descr A4 11693 8268
encoding utf-8
Sheet 1 1
Title ""
Date ""
Rev ""
Comp ""
Comment1 ""
Comment2 ""
Comment3 ""
Comment4 ""
$EndDescr
$Comp
L WM1386x06 C1
U 1 1 59417EBD
P 1650 1650
F 0 "C1" H 1775 1400 39  0000 C CNN
F 1 "WM1386x06" H 1475 1850 39  0000 C CNN
F 2 "_Fab_Footprint:WM1387x06-REC" H 1650 1600 60  0001 C CNN
F 3 "" H 1650 1600 60  0001 C CNN
	1    1650 1650
	-1   0    0    1   
$EndComp
$Comp
L +3V3 #PWR01
U 1 1 59417F0D
P 1850 1450
F 0 "#PWR01" H 1850 1300 60  0001 C CNN
F 1 "+3V3" H 1850 1590 60  0000 C CNN
F 2 "" H 1850 1450 60  0000 C CNN
F 3 "" H 1850 1450 60  0000 C CNN
	1    1850 1450
	1    0    0    -1  
$EndComp
$Comp
L GND #PWR02
U 1 1 59417F26
P 1650 1900
F 0 "#PWR02" H 1650 1650 60  0001 C CNN
F 1 "GND" H 1650 1750 60  0000 C CNN
F 2 "" H 1650 1900 60  0000 C CNN
F 3 "" H 1650 1900 60  0000 C CNN
	1    1650 1900
	1    0    0    -1  
$EndComp
Wire Wire Line
	1650 1800 1650 1900
Wire Wire Line
	1550 1850 1850 1850
Wire Wire Line
	1850 1850 1850 1750
Wire Wire Line
	1850 1750 1800 1750
Connection ~ 1650 1850
Wire Wire Line
	1550 1850 1550 1400
Wire Wire Line
	1550 1400 1650 1400
Wire Wire Line
	1650 1400 1650 1450
Wire Wire Line
	1800 1500 1850 1500
Wire Wire Line
	1850 1500 1850 1450
Text GLabel 1850 1550 2    30   Input ~ 0
SDA
Wire Wire Line
	1800 1550 1850 1550
Text GLabel 1850 1600 2    30   Input ~ 0
SCL
Text GLabel 1850 1650 2    30   Input ~ 0
SDI
Text GLabel 1850 1700 2    30   Input ~ 0
SS/INT
Wire Wire Line
	1800 1700 1850 1700
Wire Wire Line
	1800 1650 1850 1650
Wire Wire Line
	1800 1600 1850 1600
$Comp
L DPS310 U1
U 1 1 59417FF2
P 2850 1550
F 0 "U1" H 3050 1300 60  0000 C CNN
F 1 "DPS310" H 2775 1800 60  0000 C CNN
F 2 "_CSL:8-LGA" H 2850 1550 60  0001 C CNN
F 3 "" H 2850 1550 60  0001 C CNN
	1    2850 1550
	1    0    0    -1  
$EndComp
$Comp
L GND #PWR03
U 1 1 59418030
P 2450 1400
F 0 "#PWR03" H 2450 1150 60  0001 C CNN
F 1 "GND" H 2450 1250 60  0000 C CNN
F 2 "" H 2450 1400 60  0000 C CNN
F 3 "" H 2450 1400 60  0000 C CNN
	1    2450 1400
	0    1    1    0   
$EndComp
Wire Wire Line
	2500 1400 2450 1400
Text GLabel 2450 1500 0    30   Input ~ 0
SS/INT
Wire Wire Line
	2500 1500 2450 1500
Text GLabel 2450 1600 0    30   Input ~ 0
SDA
Text GLabel 2450 1700 0    30   Input ~ 0
SCL
Wire Wire Line
	2500 1600 2450 1600
Wire Wire Line
	2500 1700 2450 1700
$Comp
L CAP C4
U 1 1 594180AC
P 3500 1650
F 0 "C4" H 3550 1575 20  0000 C CNN
F 1 "CAP" H 3500 1650 20  0000 C CNN
F 2 "Capacitors_SMD:C_0402_NoSilk" H 3500 1650 60  0001 C CNN
F 3 "" H 3500 1650 60  0001 C CNN
	1    3500 1650
	1    0    0    -1  
$EndComp
$Comp
L CAP C3
U 1 1 594180E0
P 3500 1350
F 0 "C3" H 3550 1275 20  0000 C CNN
F 1 "CAP" H 3500 1350 20  0000 C CNN
F 2 "Capacitors_SMD:C_0402_NoSilk" H 3500 1350 60  0001 C CNN
F 3 "" H 3500 1350 60  0001 C CNN
	1    3500 1350
	1    0    0    -1  
$EndComp
Wire Wire Line
	3200 1500 3550 1500
Wire Wire Line
	3500 1450 3500 1550
Connection ~ 3500 1500
Wire Wire Line
	3200 1600 3400 1600
Wire Wire Line
	3400 1600 3400 1800
Wire Wire Line
	3400 1800 3700 1800
Wire Wire Line
	3500 1800 3500 1750
$Comp
L GND #PWR04
U 1 1 59418161
P 3550 1500
F 0 "#PWR04" H 3550 1250 60  0001 C CNN
F 1 "GND" H 3550 1350 60  0000 C CNN
F 2 "" H 3550 1500 60  0000 C CNN
F 3 "" H 3550 1500 60  0000 C CNN
	1    3550 1500
	0    -1   -1   0   
$EndComp
$Comp
L +3V3 #PWR05
U 1 1 594181C1
P 3500 1150
F 0 "#PWR05" H 3500 1000 60  0001 C CNN
F 1 "+3V3" H 3500 1290 60  0000 C CNN
F 2 "" H 3500 1150 60  0000 C CNN
F 3 "" H 3500 1150 60  0000 C CNN
	1    3500 1150
	1    0    0    -1  
$EndComp
Wire Wire Line
	3200 1400 3400 1400
Wire Wire Line
	3400 1400 3400 1200
Wire Wire Line
	3400 1200 3700 1200
Wire Wire Line
	3500 1150 3500 1250
Connection ~ 3500 1200
Wire Wire Line
	3700 1200 3700 1800
Connection ~ 3500 1800
$Comp
L solder_jumper_2_1_no_conn C2
U 1 1 59418256
P 3250 1950
F 0 "C2" H 3350 1775 59  0000 C CNN
F 1 "solder_jumper_2_1_no_conn" H 3550 2175 59  0000 C CNN
F 2 "_Fab_Footprint:SJ-2-1-no" H 3250 1950 59  0001 C CNN
F 3 "" H 3250 1950 59  0001 C CNN
	1    3250 1950
	0    1    1    0   
$EndComp
Wire Wire Line
	3200 1700 3250 1700
Wire Wire Line
	3250 1700 3250 1800
Text GLabel 3450 1950 2    30   Input ~ 0
SDI
Wire Wire Line
	3400 1950 3450 1950
$Comp
L RES R1
U 1 1 59418332
P 3050 2100
F 0 "R1" H 3100 2025 20  0000 C CNN
F 1 "RES" V 3050 2100 20  0000 C CNN
F 2 "Resistors_SMD:R_0402_NoSilk" H 3050 2100 60  0001 C CNN
F 3 "" H 3050 2100 60  0001 C CNN
	1    3050 2100
	1    0    0    -1  
$EndComp
Wire Wire Line
	3100 1950 3050 1950
Wire Wire Line
	3050 1950 3050 2000
$Comp
L GND #PWR06
U 1 1 59418391
P 3050 2250
F 0 "#PWR06" H 3050 2000 60  0001 C CNN
F 1 "GND" H 3050 2100 60  0000 C CNN
F 2 "" H 3050 2250 60  0000 C CNN
F 3 "" H 3050 2250 60  0000 C CNN
	1    3050 2250
	1    0    0    -1  
$EndComp
Wire Wire Line
	3050 2200 3050 2250
$EndSCHEMATC
